<?xml version="1.0" encoding="utf-8"?>
<!-- Generator: Adobe Illustrator 22.1.0, SVG Export Plug-In . SVG Version: 6.00 Build 0)  -->
<svg version="1.1" id="Capa_1" xmlns="http://www.w3.org/2000/svg" xmlns:xlink="http://www.w3.org/1999/xlink" x="0px" y="0px"
	 viewBox="0 0 250 250" style="enable-background:new 0 0 250 250;" xml:space="preserve">
<style type="text/css">
	.st0{fill:#F2F2F2;}
	.st1{fill:#2F6FB2;}
	.st2{fill:#3170B2;}
	.st3{fill:#F3F2F2;}
	.st4{fill:#2F6FB2;stroke:#FFFFFF;stroke-width:0.5;}
	.st5{fill:#F2F2F2;stroke:#FFFFFF;stroke-width:0.5;}
	.st6{fill:#F3F2F2;stroke:#FFFFFF;stroke-width:0.5;}
	.st7{fill:#F2F2F2;stroke:#FDFDFC;stroke-miterlimit:10;}
	.st8{fill:#2F6FB2;stroke:#FDFDFC;stroke-miterlimit:10;}
	.st9{fill:#F3F2F2;fill-opacity:0;stroke:#FFFFFF;}
	.st10{fill:#F3F2F2;fill-opacity:0;stroke:#FFFFFF;stroke-linecap:round;}
	.st11{fill:#F3F2F2;stroke:#FFFFFF;}
	.st12{fill:#F2F2F2;stroke:#FFFFFF;}
	.st13{fill:#2F6FB2;stroke:#FFFFFF;}
	.st14{fill:#F2F2F2;stroke:#F2F2F2;}
	.st15{fill:#2F6FB2;fill-opacity:0;stroke:#FFFFFF;}
	.st16{fill:#2F6FB2;stroke:#FFFFFF;stroke-width:0.25;stroke-miterlimit:10;}
	.st17{fill:#F3F2F2;stroke:#FFFFFF;stroke-width:0.25;stroke-miterlimit:10;}
	.st18{fill:#F3F2F2;stroke:#FFFFFF;stroke-miterlimit:10;}
	.st19{fill:#2F6FB2;stroke:#FFFFFF;stroke-miterlimit:10;}
	.st20{fill:#F3F2F2;stroke:#FFFEFE;stroke-width:0.5;stroke-miterlimit:10;}
	.st21{fill:#2F6FB2;stroke:#FFFEFE;stroke-width:0.5;stroke-miterlimit:10;}
	.st22{fill:#F2F2F2;stroke:#FFFEFE;stroke-width:0.5;stroke-miterlimit:10;}
	.st23{fill:#F3F2F2;stroke:#FFFFFF;stroke-width:0.732;}
</style>
<path id="FR-A_4_" class="st21" d="M202.5,89.8l1.4-0.7l-0.4-1.1l0.6-0.5l-0.3-0.2l0.6-2.1l1-0.6l1.3-2.3l-0.3-0.9l2.4-4.3l-0.3-0.8
	l-1.1,0.2l-0.7-0.5l0.6-0.7l-0.4-0.5l0.6-2l-0.5-0.8l0.8,0.2l-1.2-0.7l1.7-0.1l0.9-0.6l1.5-2.8L210,68l-0.4-0.8l1.3-2l-1.1-1.1
	l0.2-0.4l-1.9-0.6l-0.5,1.1l-0.8,0.5l0.2-0.7l-0.6-0.1l0-0.7l0.8-0.5l-0.8,0.1l0-0.4l-1.6-0.5l-0.2-1l0.6,0l0.2-0.7l0.7,0.1l0.6-2.9
	l0.5-0.3l0.5,1.9l2.9,0.8l-0.1,0.5l0.6,0.3l2.2-0.7l1.5,0.9l0.7-0.6l1-2.5l0,0l1.7-0.1l0.1,0.3l1-0.6l1.3,0.9l1.2-0.6l2.8,1.8
	l2.4,0.6l-1.4,1.6l-1,2.7l-2,1.2l-0.1,0.9l-2.2,2.1l-0.7,1.5l0.1,1.8l-0.7,0.6l-0.6,2.5l0.2,1.7l-0.9,0.7l-0.5,2.1l-1.6,2.6
	l-0.1,2.2l0.9,1.6l-1.1,2.4l-0.5,2.6l0.3,1.2l-0.6,0.9l1.4,2.4l-0.1,0.7l-1.5,0.9l0.5,0.3l-0.6,0.2l0.2,0.6l-0.4,0.4l-1-0.3
	l-0.2,0.4l0.6,0.2l-1.2,1l-1-0.2l-1.5,0.5l-0.2-0.5l-1.1-0.1l0.6-1.3l-1.2-0.2l0,0l0.2-0.6l-1-1.7l-1.4-0.2l0.7-1.8l-0.2-1.3
	l-1.7-1.2l-1.3-0.3L202.5,89.8L202.5,89.8z"/>
<path id="FR-B_4_" class="st20" d="M94.9,143.1l0.4,0.5l1.2-0.2l0.9,0.7l-0.4,1.2l1,1.1l1-1.2l0.5,0.5l2.1-0.2l1.2,2l0.5-0.4
	l0.9,0.5l-0.8,1.2l3,1l-0.6,0.8l1.2,0.6l-1,1.4l-0.5,0l-0.2,1.2l0.9,0.4l-0.9,1.2l1.1,0.4l-0.5,0.6l0,0l-0.1,0l0,0l0.9,0.8l1.8,0.2
	l-0.6,0.5l1.2,2.1l0,0l-0.7,0.4l0,0l0.1,0.3l0,0l0.5,1.9l-0.5,0.1l0.5,0.8l-1.4,0.9l0.1,0.8l-1.2,0.4l0.3,1.4l-1.6,1.4l-1.3,0.3
	l0.1,0.8l-1,1.1l0.2,0.5l-1.5,0.9l-0.6-0.2l0.6,0.9l0,1.5l0.7,0.4l0.1,1.5l-1.9,0.1l-0.2,0.4l-0.4-0.9l-0.4,0.1l-0.5,1.7l1.4,0.9
	l-0.8,2l-0.9,0.2l0.6,0.2l0.2,0.9l-0.6,0.3l-1.3-0.4l0.2,0.8l-0.7,0.1l-0.3,1.1l-1.3,0.9l-1.2-1.3l-0.6,0.6l-1.6,0l-0.3,0.7
	l-2.2,0.5l-0.2,0.5l-1.2-0.8l-0.7,0.2l-0.6,1l-0.5-0.7l-1.2,1l0.4,1.1l-0.3,0.5l-1.4-0.8l0.5-0.6l-0.7-0.7l-1,1.3l-1.4-0.3l-1,1
	l0.9,0.7l-0.4,0.3l0.3,1.1l-0.6,0l0.6,1.7l-1,0.7l0.1,1.3l-0.7,0.3l0,0.6l0.6,0.1l0.2,0.8l1.1-0.3l1.4,0.3l0.1,0.9l0.5-0.1l0.8,1.8
	l-0.8,0.2l0,1.2l1.2-0.8l-0.1,1.7l0.6,0.6l-1.3,1.1l0.5,0.7l-0.6,1.2l-0.4-0.1l0.1,1.1l-0.9-0.1l-0.5,1.2l-0.8,0.3l0.2,1.5l-1.4,0.3
	l-0.5,0.8l0.1,1.7l-0.8,0.4l0.2,1.6l0,0l-1.4,1.2l-0.8,0.1l-1.1-0.8l-0.8,1.2l-2.2-2.5l-0.9-0.3l-0.4-1.7l-3.3,0.3l-3-1.7l-0.5,0.4
	l-0.4-0.6l-1.1-0.5l-0.6,0.3l-0.8-0.6l0.7-1.2l-1.3,0.6l-0.2,1.6l-1.5-0.4l-0.6-1l1-0.9l0.6-1.5l-0.1-1.6l-2.5-0.9l-0.5,0.1
	l-0.2,0.9l-0.6-0.1l-0.3-1.3l-1.8,0.3l-0.1-0.8l-0.9-0.5l0-0.6l2.1-0.4l1.2-1.1l2.7-5.1l2.6-13.5l0.7-8l1.1-2.8l3.3,0.6l-0.2-1
	l-0.9-0.4l0.6,0l-2.3-1.9l-1.1,2l-0.2,1.9l-0.3-0.4l1.8-20.6l1.1-2l0.6-0.4l0.4,0.9l-0.7,0.1l0.4,0l-0.2,0.5l4.5,4.1l2,6.6l1.6,1.6
	l-1.3-3l-0.8-4.8l0,0l2.1,0.2l0.1-0.6l0.4,1.2l2.4,0.4L77,156l0,0l0,0.1l0,0l0.3,0.9l0.4-0.6l0.4,0.1l0.4,0.7l0.6-0.1l0.4,0.7
	l1.2,0.5l0.8,0.1l1-0.8l0.8,0.6l0.1-1l0.7-0.3l-0.4-0.3l0.5-0.9L85,155l1.4,0.5l0.7-1.3l1.6-0.9l-0.3-1.8l0.5-1.4l0.7-0.2l-0.3-0.6
	l0.5,0.4l0.9-1.1l0.9,0l0.3-0.9l1-0.7l0.1-2l0.9,0L94.9,143.1L94.9,143.1z M82.7,201.4L82.7,201.4l-0.1-1.5l0,0l-0.2-0.1l0,0
	l0.1,0.9l-0.5,0.2l0.4,0.4L82.7,201.4L82.7,201.4z M82,201.3L82,201.3l-0.1,0.1l0,0l-0.3,0.8l0.3,0.7l0.7-0.5l-0.4-1.1l0,0L82,201.3
	L82,201.3z"/>
<path id="FR-C_4_" class="st20" d="M123.5,125.5l0.3-1.3l0.4,0l0.7-1.2l2.2-0.4l0.9,0.3l1.4-0.9l-0.2-1l-0.6-0.4l0.5-0.8l-0.4-0.5
	l0.6-0.3l0.4,0.3l-0.1-0.8l1.3-0.7l0.2-0.7l0.8,0.7l0.7-0.5l0.8,0.2l1.3-1.7l1.9-0.1l0,0l0.5,1.1l2.5,1.9l1.2-1l1.3,0.8l0.6-0.7
	l0.7,0l0.6,1.6l1.8-0.9l-0.2-0.9l0.9,0l-0.1-0.9l0.6,0.2l0.2,1.2l1.7,2.6l0.1,1.6l1.1,0.5l0.6-0.3l0.5,1.1l1.4-0.1l0.9,0.8l-0.4,1.6
	l0.2,1.7l0.3,0l-1,0.1l-0.8,1.1l0,0l-0.1,0l0,0l-0.2,0l0,0l-2,0.9l0.7,1.9l-0.3,1.3l0.5,0.6l-0.3,0.9l0.4,1.3l-0.8,0.6l-1.5,0.1
	l-0.1,1l1.1,1.1l-0.7,0.4l0.1,1.4l-0.6,0.6l1.6,1.6l-0.1,0.8l0.8,1.5l1.9,1.3l0.9,2l-0.4,1.5l-1.3,1l0.3,1.5l0.8-1l0.7,0.1l0.6,1.1
	l0-0.5l0.9,0.3l0.2-0.6l1.3-0.2l-0.2-0.5l0.6-0.2l0.9,0.1l0.7,0.8l1.1-0.3l0.6,0.8l-0.6,0.5l0.7,0.4l-0.4,0.7l0.6,0.5l0.9-0.5
	l0.9,1.3l-0.7,1.5l0.2,1l-0.4,0.2l-0.2-0.6l-0.9-0.2l0.4,0.7l0,0v0.2l0,0l-0.5,0l-0.4,0.7l0.6,1l-1.4,0.4l0.3,1.1l-1.5,0.2l-1.2,2.2
	l-2.1,0l-0.1,0.9l-0.5,0.3l-0.3-0.3l0.1,0.5l-0.7-0.4l-0.4,1.4l-1.1,0.6l0,0l-0.4-0.1l0.1-0.6l-0.6,0.2l-0.8-0.9l-0.3-0.9l-1.3,0.2
	l0.1-0.7l-0.8-0.6l-0.6,0.1l-0.1,1.2l-1.9,0.4l-1.1-2.2l0-1.1l-0.8-0.8l-1.5,1.2l-0.8-0.2l-0.1,1.2l-0.8,0.6l-1-1l-0.4,0.9l0,0h-0.1
	l0,0l-0.1,0.8l-0.5-0.1l-0.5,0.9l-0.1,2.1l-1,1.7l0,0l-0.8-0.9l-0.4-2l0.4-0.3l-0.3-0.5l-0.6,0.1l-0.5-2.1l-1.5,0.5l0-1.4l-0.6-0.7
	l-2.3,2.3l-0.1,1.3l-0.9,0.9l0.2,0.8l-1.1,0.8l-0.3,0.9l-2.3,0.2l-0.4-0.7l-0.5,0.1l-1.4,0.4l-0.2,0.8l-0.6-0.5l-0.2-1.4l-0.5,0
	l0.7-2.2l-1.4-2.1l0.2-1.1l-0.7-1.3l0,0l0.7-0.2l0,0l0.1,0l0,0l0.6-0.5l-0.8-1.4l1.3-0.5l0.1-1.3l0.9-0.7l-0.5-0.4l-0.1-1l2.9-2.8
	l-0.2-1.9l2.3,1l0.8-0.5l-0.7-0.7l0.5-3.3l-1-1l0.4-1.1l0.6,0l0-1.7l-2.3-2.9l1.2-1l0,0l0.1,0l0,0l0.6,0.1l1.1-1.2l0.1-1.1l0.8-0.4
	l-0.2-1.6l-0.9-1.3l0.3-1.7L127,129l-0.9-0.4l-0.2,0.3l-0.6-1.2l-0.4,0.5l-1.1-0.8l0.5-0.7l-0.8-0.2L123.5,125.5L123.5,125.5z"/>
<path id="FR-D_4_" class="st20" d="M169.7,88.7L169.7,88.7l-0.6-1.4l-0.6,0.1l-0.2,0.6l-0.5-0.3l0.6-0.8l-0.3-0.5l-1.1,0l0.4-0.7
	l-0.3-0.4l-1.6-0.5l-2.1-0.1l-0.7,0.6l0.3,1l-4.2,0.2l-0.4,0.9l-0.8-0.1l-0.3-1.1l-0.5,0.1l0.1,0.7l-0.6-0.5l0,0l-0.2,0.1l0,0
	l-0.8,0.8l-0.9-0.5l-0.3,0.5l-0.7-0.4l-1.9,0.3l0.3-1.3l-0.3-0.6l-0.3,0.6l-0.5-0.1l-0.2-0.5l0.6-0.3l-0.9-0.8l-0.5-1.9l-0.9-0.4
	L149,81l-0.6-0.2l0.1,0.5l-1,0.4l-0.6-1.3l-0.9,0.1l0.7-1.1l-0.4-0.2l0.3-0.9l-0.7-0.4l0.2-0.4l-1.4-1.7l-0.6-0.3l-0.7,0.5l-0.2-0.8
	l0,0l-0.7-0.3l-0.2,0.7l-0.5,0.1l-3.4-0.1l-0.6,0.6l-1-0.3l-0.6,1.4l0.6,1.4l-0.7,1.1l-1.2,0.6l0,0.5l0,0l1.6,0.8l-0.2,0.4l0.3,0
	l0.2,1.1l1.3,1.1l-0.4,0.3l0.5,1.2l-0.6,0.7l0,0l-0.1,0.1l0,0l-1.4,1l-0.2,1l0.6,0.5l-0.1,1.6l-3,0.8l-0.1,1l0.5-0.1l0.8,1l0.5,0.9
	l-0.3,1.2l0.7,0.8l-2,0.6l0,0v-0.1l0,0l-0.2,0.3l1.4,2.6l-1.1,2.5l2,2l0.8,3.6l-0.2,1.4l1,1l0,1.7l-0.5,1.2l0.3,1.4l-0.7,1.4l0,0
	l0.5,1.1l2.5,1.9l1.2-1l1.3,0.8l0.6-0.7l0.7,0l0.6,1.6l1.8-0.9l-0.2-0.9l0.9,0l-0.1-0.9l0.6,0.2l0.2,1.2l1.7,2.6l0.1,1.6l1.1,0.5
	l0.6-0.3l0.5,1.1l1.4-0.1l0.9,0.8l-0.4,1.6l0.2,1.7l0.3,0l-1,0.1l-0.8,1.1l0,0l-0.2,1.5l1.4,0.3l0.3,0.8l2-0.7l1.3,0.6l0.5-0.5
	l0.3,0.4l0.5-0.2l-0.1,0.7l0.4,0.1l1.7-0.7l0.6-2.7l0.9,0l0.8,0.7l1.1-0.7l0.9,0.7l0.3-0.9l0.7-0.1l0.5,0.7l-0.5,0.5l1,0.6l-0.3,1
	l0.7,0.6l0.4-0.1l2.8-8.6l0.2,0.4l0.6-0.4l1.3,0.8l1.9-0.5l0-0.4l0.7,0.3l0.5,1.2l1.4,0.3l0,0l0.2-0.4l1.6-0.3l0.1-0.6l-1.1-0.4
	l0-1.1l0.8-0.5l-0.1-0.7l0.8-0.7l-0.8-1.2l0-1.1l-0.6,0l0.5-1l-1.1-1.1l2.4-0.6l-1.1-0.7l-0.1-0.6l-1.2,0.1l-0.6-1.3l-0.5,0.3
	l-0.2-1.3l1.1-0.9l-0.7-0.4l0.1-0.6l1.8-0.8l0.9-1.6l0,0l0-0.1l0,0l0.9-3.5l0.5-0.4l-0.8-0.3l0,0h-0.1l0,0l0.5-0.6l-0.2-1.3l0,0
	l-0.1,0l0,0l-0.7,0.1l0,0h-0.1l0,0l0.1-1.5l-1.2-0.4l0.7-0.3l-0.4-0.1l0.2-0.5l0.9,0l0.8-1.5l-1-1.9l-0.8,0.9l-0.4-0.3l0,0l-0.3,0.4
	l-0.8-0.5l-1,0.8l0.1-1.2l-1.5-0.8l0.1-0.7l-1.1,0.9l-1.1-0.6l0.1-0.7l-0.6,0.1l0-0.5l-1,0.6l-0.2-2l-0.8-0.1l1.3-1.1l-0.7-1.5
	L169.7,88.7L169.7,88.7z"/>
<path id="FR-E_4_" class="st20" d="M27.7,101l0.5,0.6l1.1,0l0.3,0.9l1.4,0.4l-0.2,0.7l-2.8-0.4l-0.4-1.3L27.7,101z M28.1,62.6
	l0.1,0.9l2.3-0.9v1.3l1.3-0.1l0.1,0.6l-0.7,0.5l2,0.6l-0.3,0.9l2.2,1.9l-0.1,1.4l1.9,1l-0.5,0.8l0.5-0.2l0.7,1.2l-0.2-1.2l1,0.3
	l1.3-2l1.4-0.6l-0.3-0.6l0.9-0.2l0.3,0.6l1.8-1.6l0.6,0.5l-0.9,1.3l0.4,0.3l1.2-0.9l0.6,1.5l-0.2,1l0.5-1.6l0.3,0.9l0.5-1.1l0.5,0.5
	l-0.5-0.9l1.8-0.1l0.2,1l0.7,0.5l-0.3,0.3l0.7,0.7l-0.2,1.3l0.4-0.8l0.5,0.2l-0.8-1.7l0.7,0.4L50,69.9l-0.9-0.2l0.3-0.4l-0.6-0.5
	l0.7-1.3l2.6-0.8l0.1,0.9l-0.6,1.1l1.6,0.9l3.6-0.8l0,0l1.4,3.8l1.2,0.7l1.2-0.2l1.7-2l3.2,0.9l0,0l-0.2,2.4l0.6,2.2l-1,1.6l0.4,1.6
	l0,0l0.1,0.1l0,0l1,5.1l-2.4,1L62.4,91l-2-0.6l-0.4-0.7l-1.6-0.2l0.1,0.8l-2.6,1l-0.7,1.4l-3.5,0l-1.6,1l-0.3-0.6l-1.9,1.1l-0.3,3
	l-1,0.3l-0.1,0.8l-0.4-0.6l-1,0.5l-0.9-0.6l-0.3,1.4l-1.5,0.1L42,98.7l-0.6,0.7l0,0l-0.7-0.1l-0.1-1.1l1.1-0.2l-1.2-0.7l-5.3,1
	l-1.7-1.7l-0.9,0l-0.5-0.7l-0.3,0.3l-0.4-0.7l0.1,0.6l-1.8-0.1l-0.1,1.4l0.8,1.2l-0.9-0.1l-0.5-1.4l0.5-0.4l-0.3-1.3L27,93.4l-1.3,0
	l-0.1-0.6l-1.5,0.4l-1.3-1.7L20.2,91l-0.8-0.7l-2.2,0.4l-0.8-1.1l0.4-0.6l-0.5,0.2l-0.6-1.3l-0.7,0.5l0.3,0.7l-1.2,0.3l-1.1-0.7
	L12.1,89l-0.8,1.6l-3.1,0l0.2-2.4l-1.1-1.9l-1.6-1.1l-1,0.1l-1.1-0.7l-1.8-0.3l0.5-0.1l-0.1-0.5l5.2-1.1L9.4,83l0.7-1.1L9.2,80
	l-2.6-0.9L6,79.3l-1,1.6l-0.2-1.7l0.5-0.4l-1.4-0.1L3.8,78l1-0.1l0-1.3l0.7-0.3l-0.4,1l0.4,0.5L6,77.2L6,78l0.9-0.4l0.9,0.6l1.6-0.6
	l0.8,0.5l0.7-0.9l-0.5,0.4l-1.6-0.4l0.6-0.4l-0.5-0.2l0.2-0.6l-1,0.9l-0.8,0l0.3-0.5l-1.1,0.4l1-1.5L7.3,75l-3.2,1.5L2.9,76
	l-0.5,0.6l-1.1,0.1L1,75.9l0.5-0.5l-0.6-0.8l0.6-1.4l-0.3-1.3L2,70.8l2.1-0.5l0.1-0.7l0.7,0.2l0.4-1L6,69.1l1.7-0.4l-0.6-0.5
	l1.6-0.6L9.5,68l0,0.8l1.7-0.5l-0.5-0.2l0.6-0.7l1.5-0.2l0.7,0.5l0.1-0.8l0.8-0.6l0.1,0.4l0.5-0.4l0,1.4l0.7,0.3l0.1-0.9l0,0.6
	l1.3,0.4l-0.2-0.8l0.4-0.7l0.2,0.4l-0.1-0.5l2.5,0.9l0.6-0.3l-0.3,1l0.6-0.7l0.7,0.4l0-1.4l0.6-0.5l-0.6-0.3l0.3-1l-0.3-0.3l0.6,0.4
	l0.9-1.3l0.2,0.5l0.2-0.5L24,64l0.5-0.1l-0.2,0.6l0.7-0.1l1.4-1l1,0.1L28.1,62.6L28.1,62.6z"/>
<path id="FR-F_4_" class="st20" d="M110,60.7l1.1,1.3l-0.3,0.5l0.9,0.8l-0.3,2.1l0.8,0.4l-0.9,1.2l0.6,0.4l-0.2,0.6l1.1,1.3l0.8,0
	l-0.1,1l1.4,0.6l-0.2,1.1l0.4,1.2l1.2,0.7l1-0.4l0,1.3l0.9,0.1l0.2,1l-0.5,1.4l0.3,0.6l3.3-0.3l-0.2-0.5l0.5,0.1l0.4-0.9l0.7,0.3
	l0,0.9l0.9-0.4l0,0l0.1-0.2l0,0l0.4-0.4l0.5,0.7l0.8-0.2l0.3,1.5l1.6,0.9l0,1.5l-0.6,0.1l-0.7,1.1l2-0.4l2.5,0.5l0.8-0.6l-0.3-0.6
	l0.5,0.3l0.6-0.4l0.4,1l0.8-0.7l1.2-0.2l0,0l1.6,0.8l-0.2,0.4l0.3,0l0.2,1.1l1.3,1.1l-0.4,0.3l0.5,1.2l-0.6,0.7l0,0l-0.1,0.1l0,0
	l-1.4,1l-0.2,1l0.6,0.5l-0.1,1.6l-3,0.8l-0.1,1l0.5-0.1l0.8,1l0.5,0.9l-0.3,1.2l0.7,0.8l-2,0.6l0,0v-0.1l0,0l-0.2,0.3l1.4,2.6
	l-1.1,2.5l2,2l0.8,3.6l-0.2,1.4l1,1l0,1.7l-0.5,1.2l0.3,1.4l-0.7,1.4l0,0l-1.9,0.1l-1.3,1.7l-0.8-0.2l-0.7,0.5l-0.8-0.7l-0.2,0.7
	l-1.3,0.7l0.1,0.8l-0.4-0.3l-0.6,0.3l0.4,0.5l-0.5,0.8l0.6,0.4l0.2,1L128,123l-0.9-0.3l-2.2,0.4l-0.7,1.2l-0.4,0l-0.3,1.3l0,0
	l-1.5-0.2l-1.9,0.5l-1.9-0.8l-2.4,0.4l-1-0.8l-0.6,0.2l0.2,0.6l-0.5,0.9l-0.8-0.7l-1,0.8l-0.3-0.8l-1.1,0.7l-0.3-0.9l-1.9,2
	l-1.1-1.3l-0.7,0.1l-0.2,0.6l-1.5,0.1l-0.2-0.6l-0.5,0.1l0,0l0,0l0,0l0.3-0.4l0,0l0.3-0.8l-1.1-0.4l-0.1-1.5l-0.9-0.7l-1.3,0
	l-0.1-0.8l-1.8-0.9l-0.3-0.7l0.6-1.6l-0.3-0.8l-1.7-1.6l-0.3-1.5l-1.6-1.4l-0.2-1.8l-1.3-0.9l-0.9,0l0.5,1.2l-1.6,0l-1.2,0.7
	l-1.3-0.5l-0.7,0.5l-0.6-1.5l0.4-0.2l-0.2-1.3l-0.6,0.2l-0.4-0.7l-1.2,0.3l0.4-0.8l-0.3-0.6l-0.3,0.4l-0.5-0.2l0.1-0.5l-1,0.2
	l-0.5-1.1l0,0l0.4-3l1.8-2.6l-0.5-0.5l1.2-2.6l0.1-0.7l-0.6-0.3l0.7-1.5l0,0l0-0.2l0,0l2.6,0.9l0.3-0.2L90.3,95l0.3-0.6l1.1,0.6
	l0.3-0.7l2.3-0.7l0.4-0.5l-0.4,0.1l-0.2-0.8l0.7-0.9l1.3-0.4L96,90.8l1.3-1.3l-0.1-1.8l0.5-0.3l0.4,0.6l0.1-1.1l0.6-0.2l-0.5-1.2
	l0.4-1.1l-0.8-0.2l-0.1-0.9l0.9-0.1l0-0.6l-0.6-0.1l0.5-0.1l0.2-0.8l1.1-0.1l-2-1.4l0,0l0.6-0.5l-0.7-1.2l0.3-0.7l-0.9-0.3l0.3-0.6
	l2.5-1.3l1.1-1.8l-0.7-0.9l0.5-1.2l-2.6-2.3l-0.1-1.5l0,0l0.8-0.5l0.2-0.7l2-0.3l0,0h0.4l0,0l0.9-0.9l0.9,0.3l0.1-1.1l1.7,0.8
	l1.9-0.1l0.7-0.5l-0.2-1.4l1.7-1l-0.2-1.4L110,60.7L110,60.7z"/>
<path id="FR-G_4_" class="st20" d="M167.8,28.4l1.1,0.5l-0.5,0.5l0.1,0.9l-0.4-0.4l-0.5,1l0.4,0.7l-0.9,1.9l1.7,1.6l-0.7,1.1
	l0.5,1.3l-0.4,0.7l2.5-0.2l1.7,1l1.2,1.9l1.8-0.1l1.1,1.1l-0.3,1.1l0.6-0.5l0.8,0.4l0,0l-2.3,2l-0.5-0.7l-1.2,0.2l-0.4-0.7l-0.5,0
	l-0.4,1.3l0,0l0,0.2l0,0l-0.5,1l0.9,1.1l0.1,1l-0.7,0.4l0.4,0.6l-0.8,0.3l-0.5,1.5l0.5,0.4l-0.1,0.5l-1.7,1l0.7,0.7l-0.9,0.6
	l1.1,3.1l-0.7,1.2l0.8-0.4l0.5,0.3l0,0.8l-0.7,0.2l0.8,0.3l-0.4,0.9l-1.4,0.6l0,0l-0.1,0.1l0,0l-0.4,1.2l0.4,0.7l-0.8,1.2l2.1,1.5
	l-0.2,3.3l1-0.4l0.2,1l0.8,0l1.6,1.8l2,0.5l2.4,2.3l-1.3,0.8l0.8,0.3l-0.3,1.2L179,76l0.8,0.2l1.1,1.9l0.4-0.5l0.7,0.6l-0.2,0.7
	l0.8,0.2l0.7,0.9l-0.9,0.5l-0.2,1.8l-0.7,0.6l1.2,0.2l0.4,0.8l0.9,0.3l0.2,2.1l1-0.6l0.7,1.3l0,0l0,0.7l-0.6-0.2l-0.5,0.9l0.1,0.5
	l-1.2-0.2l-0.3,1l-0.9,0l-0.3,1.1l0.6,0.8l-0.3,1.6l-1.6,0.3l-0.5-0.9l-0.7,0.9l-2,0l-0.7,1.8l0,0l-0.3,0.4l-0.8-0.5l-1,0.8l0.1-1.2
	l-1.5-0.8l0.1-0.7l-1.1,0.9l-1.1-0.6l0.1-0.7l-0.6,0.1l0-0.5l-1,0.6l-0.2-2l-0.8-0.1l1.3-1.1l-0.7-1.5l0,0h-0.2l0,0l-0.6-1.4
	l-0.6,0.1l-0.2,0.6l-0.5-0.3l0.6-0.8l-0.3-0.5l-1.1,0l0.4-0.7l-0.3-0.4l-1.6-0.5l-2.1-0.1l-0.7,0.6l0.3,1l-4.2,0.2l-0.4,0.9
	l-0.8-0.1l-0.3-1.1l-0.5,0.1l0.1,0.7l-0.6-0.5l0,0l-0.2,0.1l0,0l-0.8,0.8l-0.9-0.5l-0.3,0.5l-0.7-0.4l-1.9,0.3l0.3-1.3l-0.3-0.6
	l-0.3,0.6l-0.5-0.1l-0.2-0.5l0.6-0.3l-0.9-0.8l-0.5-1.9l-0.9-0.4L149,81l-0.6-0.2l0.1,0.5l-1,0.4l-0.6-1.3l-0.9,0.1l0.7-1.1
	l-0.4-0.2l0.3-0.9l-0.7-0.4l0.2-0.4l-1.4-1.7l-0.6-0.3l-0.7,0.5l-0.2-0.8l0,0l-0.5-2.3l0.9-0.3l-0.5-1l1.3-0.4l-0.3-0.8l0.9-0.5
	l-0.2-0.4l1-0.3l-0.7-0.4l0.2-0.4l-1.4,0.3l0.3-2.7l-1.3-0.5l0.8-0.8l-0.7-0.5l1.5-0.1l0-1l0,0l0.7-1.6l0.7-0.1l0.1-0.7l0.5-0.1
	l-0.2-0.5l1.5-1.4l-0.5-0.8l-1.1,0.2l0-0.6l0.9-0.4l-0.6-1.1l0.4-0.8l1.4,0.2L149,55l0-0.6l-0.6,0.1l-0.3-0.8l-0.3,0.3l-0.5-0.4
	l0.4-0.6l-0.6-2.1l2.3-1.1l1.3,0.3l0.1-0.9l1.2-0.7l0.6,0.8l1.3,0.5l0-2.1l0.5-0.2l-0.5-1.6l0.7-0.5l-0.5-0.5l0.5-0.7l-0.9-1.4
	l0.3-0.4l1.3,0.1l0.2-1.2l1-0.6l1.1-1.6l-0.8-0.6l0.8-2.4l0-1l-0.7-0.3l0.3-1.2l0,0l1.3-0.3l2.4,0.9l2.6-1.3l1.6-0.2l-0.2-1.9
	l0.4-0.8l2.1-2L167.8,28.4L167.8,28.4z"/>
<path id="FR-H_9_" class="st20" d="M236.1,241.5l0.5-1.1l1.2-0.1l0.7-0.9l-1.8-0.6l-0.5,0.3l-0.1-1l-1.2,0.5l0-0.4l-0.8,0l1.2-0.8
	l-0.3-0.6l1-0.2l0.2-0.5l-0.6-0.3l0.7-0.1l-0.2-0.8l0.4-0.3l-1-0.9l-0.5,0.6l-1.9,0.3l0.3-1l-0.5-0.7l1-0.1l0.2-1l1.5-0.9l-0.8-1.5
	l-0.7,0.3l-0.8-0.8l-0.5,0.2l0.1-0.5l-0.5,0.1l0.6-0.5l-0.6-0.1l0.3-0.8l-0.7-0.7l2.7-0.7l-0.6-0.8l-1-0.1l0.2-1l-1.1,0.4l-0.1-1
	l1.1-0.3l-0.1-0.7l0.9,0l-0.1-0.6l0.5-0.6l-0.5-0.2l0.3-0.9l0.9-0.2l-0.2-1l0.3-0.4l0,0.5l0.5-0.2l0.6,0.4l0.2-1.1l1.1-0.1l1.1-0.9
	l1.4,0.1l0.8-0.5l0-0.8l1.2-0.8l1.7-0.1l1.3,1.4l0.8-1.4l0-1.4l-0.6-0.9l0.5-0.8l-0.3-0.8l0.7-0.6l-0.4-1.6l1.4-0.4l0.7,0.6l0.5,4.2
	l-0.8,3.1l1.5,3l0.5,8.2l-0.2,2.1l-2.4,3.5l-0.4,7.1l-0.8,0.3l0.2,0.4l-0.8-0.3l-0.5,0.7l0.2,0.5l0.5-0.7l0.9,0.2l-0.4,0.8l-1.2,0.7
	l0.1,1.5l-1,0.5l-0.2,0.7l1-0.3l-0.1,0.3l-0.7,1.1l-0.7,0.1l-0.4-0.6l-1.1,0l0.5-1l-0.9-0.2l0.2-0.8l-0.7,0.6l-0.7-0.8l-0.3,0.4
	l-1.1-0.4l-0.8-0.8l-0.6,0.2l0.2-0.7l-1.2-0.2l0.3-0.4L236.1,241.5L236.1,241.5z"/>
<path id="FR-I_4_" class="st20" d="M186,87.2l0.8-1.3l0.5,0.2l-0.6,0.8l0.4,0.1l0.9-0.5l0.6-1.2l1.7-0.4l0,0l0,0l0,0l0.2,1.3l1,0.8
	l0,0V87l0,0l3.2-0.7l0.8,0.5l0.7,1.4l2.2-1.6l0.7,1.1l3.3,2.1l0,0l0.5,1l1.3,0.3l1.7,1.2l0.2,1.3l-0.7,1.8l1.4,0.2l1,1.7l-0.2,0.6
	l0,0l-2.6,0.2l0.3,1l-1.1,0.5l-1.1,2l2.4-0.5l0.6,0.3l0.1,0.7l-0.8,0.2l-0.2,0.8l-0.9,0.2l0.2,1.1l-2,1.8l0.3,0.2l-0.3,0.4l-2.4,1.7
	l0.3,0.8l-1.7,1.5l-2.2,0.5l-1.1,1.2l0.6,1l-0.6,1.9l0.4,0.9l-5.9,5l0.8,0.8l-1.5,2.1l-0.1,1.2l0,0l-3.4,3.8l-2.5,0.1l-0.2-1.2
	l-1.2-0.4l-0.1-0.5l-1.8,1.9l-1.1,0.1l0-1.3l-0.7,0l-0.2-0.8l-0.4,0.9l-0.7-1.5l0.3-0.3l-1.3-0.8l0.3-0.8l0,0l0.2-0.4l1.6-0.3
	l0.1-0.6l-1.1-0.4l0-1.1l0.8-0.5l-0.1-0.7l0.8-0.7l-0.8-1.2l0-1.1l-0.6,0l0.5-1l-1.1-1.1l2.4-0.6l-1.1-0.7l-0.1-0.6l-1.2,0.1
	l-0.6-1.3l-0.5,0.3l-0.2-1.3l1.1-0.9l-0.7-0.4l0.1-0.6l1.8-0.8l0.9-1.6l0,0l0-0.1l0,0l0.9-3.5l0.5-0.4l-0.8-0.3l0,0h-0.1l0,0
	l0.5-0.6l-0.2-1.3l0,0l-0.1,0l0,0l-0.7,0.1l0,0h-0.1l0,0l0.1-1.5l-1.2-0.4l0.7-0.3l-0.4-0.1l0.2-0.5l0.9,0l0.8-1.5l-1-1.9l-0.8,0.9
	l-0.4-0.3l0,0l0.7-1.8l2,0l0.7-0.9l0.5,0.9l1.6-0.3l0.3-1.6l-0.6-0.8l0.3-1.1l0.9,0l0.3-1l1.2,0.2l-0.1-0.5l0.5-0.9l0.6,0.2
	L186,87.2L186,87.2z"/>
<path id="FR-J_4_" class="st20" d="M113.5,53.1l0.6,0.2L114,54l0,0l0.2,0l0,0l0.3,0.5l0.8-0.3l1.4,0.6l2.1-0.3l1.4-0.9l1.6,1.2
	l0.8-0.4l0.3,0.7l0.9-0.2l0.5-0.7l0.8,1l0.3-0.3l1.1,0.3l-0.1,0.3l0.4-0.2l0.8,0.6l-0.2,0.3l0.7,0.2l0.4-0.7l0.5,1.2l0.9-0.8
	l1.8,1.3l1.3-0.9l0.8,0.7l2-0.6l0.3,0.5l0.4-0.5l1,0.2l0.1-0.8l1.2,0.3l0.9,1.5l-0.4,1l1.5,1l0.2,0.9l0.7-0.3l0.4,1.1l0.7-0.5
	l0.3,1.5l1.1,0.3l0.3,0.6l0.4-0.4l0,0l0,1l-1.5,0.1l0.7,0.5l-0.8,0.8l1.3,0.5l-0.3,2.7l1.4-0.3l-0.2,0.4l0.7,0.4l-1,0.3l0.2,0.4
	l-0.9,0.5l0.3,0.8l-1.3,0.4l0.5,1l-0.9,0.3l0.5,2.3l0,0l-0.7-0.3l-0.2,0.7l-0.5,0.1l-3.4-0.1l-0.6,0.6l-1-0.3l-0.6,1.4l0.6,1.4
	l-0.7,1.1l-1.2,0.6l0,0.5l0,0l-1.2,0.2l-0.8,0.7l-0.4-1l-0.6,0.4l-0.5-0.3l0.3,0.6l-0.8,0.6l-2.5-0.5l-2,0.4l0.7-1.1l0.6-0.1l0-1.5
	l-1.6-0.9l-0.3-1.5l-0.8,0.2l-0.5-0.7l-0.4,0.4l0,0l-0.1,0.2l0,0l-0.9,0.4l0-0.9l-0.7-0.3l-0.4,0.9l-0.5-0.1l0.2,0.5l-3.3,0.3
	l-0.3-0.6l0.5-1.4l-0.2-1l-0.9-0.1l0-1.3l-1,0.4l-1.2-0.7l-0.4-1.2l0.2-1.1l-1.4-0.6l0.1-1l-0.8,0l-1.1-1.3l0.2-0.6l-0.6-0.4
	l0.9-1.2l-0.8-0.4l0.3-2.1l-0.9-0.8l0.3-0.5l-1.1-1.3l0,0l-0.2-0.7l0.5-0.3l-0.8,0.1l0.1-1l-0.5-1l0.7,0.1l0.4-0.9l0.2,0.4l0,0h0.1
	l0,0l1.7-0.4L113.5,53.1L113.5,53.1z"/>
<path id="FR-K_4_" class="st20" d="M135.7,169.3l1-1.7l0.1-2.1l0.5-0.9l0.5,0.1l0.1-0.8l0,0h0.1l0,0l0.4-0.9l1,1l0.8-0.6l0.1-1.2
	l0.8,0.2l1.5-1.2l0.8,0.8l0,1.1l1.1,2.2l1.9-0.4l0.1-1.2l0.6-0.1l0.8,0.6l-0.1,0.7l1.3-0.2l0.3,0.9l0.8,0.9l0.6-0.2l-0.1,0.6
	l0.4,0.1l0,0l0.7,3.6l0.9,0.6l0.6,2.4l1.4,1.6l-0.5,0.3l0.1,1.7l1.4-0.4l2.2,1.7l1.2-1.8l1.1-0.2l0.1,1.4l0.7,0.2l0.3-1.3l0.9-0.1
	l2.5,1.8l0,0l0.4,1.3l0.6,0l0.2,0.6l0,2.5l1.1,0.4l1,1.8l-0.5,0l0,0.6l-3,2.3l0.4,0.5l-0.9,2.9l0.3,1l-1.5-0.5l-0.9,0.2l-1,1.7
	l0.8,0.3l-0.2,0.6l-2.2,1.3l-0.3-0.5l0.2,0.6l-1.4,0.7l-0.2,0.9l0,0l-1.7-0.6l-0.3-0.6l0.3-0.5l-0.6-0.5l-2.3,0.2l-4.3,3.5l-1.4,0.4
	l-2.4,2.8l0.1-0.4l-0.1,0.4l-3-0.5l0.2,0.5l-2.8,2.3l-1.7,2.8l-0.7,2.2l0.3,1.1l-0.6,5l0.3,3.8l1.6,0.6l-0.2,0.8l0.8,1.1l-1.5,0.2
	l-0.8-1.1l-1.3,0.2l-0.3-0.4l-0.5,0.6l-1.4-0.1l-1.1,1.1l-0.8-0.3l-1,0.5l-0.4,0.4l0.3,1.1l-1.6-0.4l-0.8,0.6l-0.8-0.2l-0.9-1.2
	l-3.1-1l-1,0.5l-0.8-0.2l-1.2,1.4L119,224l-0.9-0.8l-0.5-1.7l-0.9,0.1l-1-0.9l-1.6-0.2l0.2-1.4l0.8-0.4l0,0l1.4-0.1l0.5-0.8l1.3,0
	l0.4-1l2.9,0l0.2-0.4l-1.6-1.7l-1.4,0.4l-1.6-0.6l0.2-0.4l-1.2-1.1l0.3-0.7l1.9-0.4l-0.1-1.4l-0.8-0.3l0.4-0.5l0.8,0l-0.6-1.1
	l0.3-0.6l-0.8-0.4l0.4-0.4l-0.2-1l-0.6-0.5l-0.4,0.4l-0.7-1l0,0.3l-1.2-0.1l-1.3-0.9l0.3-0.8l-0.6-1.2l0.8-1l-0.2-0.7l1.6,0
	l-0.2-1.2l0.9-1.2l0.7,1.1l0.4-0.6l0,0l0.1,0l0,0l1.1,0.3l0.8-0.6l0.6,0.9l1.7-0.5l0.8,0.8l0.1-1.1l0.6-0.7l2.4,1l0.6-0.5l3,0.1
	l1-0.9l0.1-1.1l-1-1.2l0.5-2.2l1.3,0.4l0.6,0.7l2.6-1l0.3-0.8l1.1-0.5l1.3,0.4l0.1-3.4l2.6,0.5l0.6-0.4l-0.2-0.8l0.5-0.8l1.4,0
	l0.3-1.3l1.4-1.2l0.1-0.6l-1-0.8l-0.6,0.2l-0.4-0.7l-0.6,0.2l-0.5-0.6l1-0.4l0.2-1.2l0.7-0.3l-0.2-0.8l-2.7,0.2l0.5-1l-1.2-0.3
	l-0.2-0.7l-0.5,0.3l0.6-1.1l-0.6-1.3l0.4-1.8l-1.4-1.6l0.3-1.4L135.7,169.3L135.7,169.3z M117.8,221.4l0.9,0.2l-0.4-0.9L117.8,221.4
	L117.8,221.4z"/>
<path id="FR-L_4_" class="st20" d="M104.4,126.3l0.5-0.1l0.2,0.6l1.5-0.1l0.2-0.6l0.7-0.1l1.1,1.3l1.9-2l0.3,0.9l1.1-0.7l0.3,0.8
	l1-0.8l0.8,0.7l0.5-0.9l-0.2-0.6l0.6-0.2l1,0.8l2.4-0.4l1.9,0.8l1.9-0.5l1.5,0.2l0,0l0.1,1l0.8,0.2l-0.5,0.7l1.1,0.8l0.4-0.5
	l0.6,1.2l0.2-0.3l0.9,0.4l1.4,3.1l-0.3,1.7l0.9,1.3l0.2,1.6l-0.8,0.4l-0.1,1.1l-1.1,1.2l-0.6-0.1l0,0l-0.1,0l0,0l-1.2,1l2.3,2.9
	l0,1.7l-0.6,0l-0.4,1.1l1,1l-0.5,3.3l0.7,0.7l-0.8,0.5l-2.3-1l0.2,1.9l-2.9,2.8l0.1,1l0.5,0.4l-0.9,0.7l-0.1,1.3l-1.3,0.5l0.8,1.4
	l-0.6,0.5l0,0l-0.1,0l0,0l-0.7,0.2l0,0l-1.3,0l-0.7,0.5l-0.7-0.6l-1.8,1.3l-0.9-0.4l-1.8-2.2l-1.7,0l-0.1-0.4l-1.6,0.7l0,0l-1.2-2.1
	l0.6-0.5l-1.8-0.2l-0.9-0.8l0,0l0.1,0l0,0l0.5-0.6l-1.1-0.4l0.9-1.2l-0.9-0.5l0.2-1.2l0.5,0l1-1.4l-1.2-0.6l0.6-0.8l-3-1l0.8-1.2
	l-0.9-0.5l-0.5,0.4l-1.2-2l-2.1,0.2l-0.5-0.5l-1,1.2l-1.1-1.1l0.4-1.2l-0.9-0.7l-1.2,0.2l-0.4-0.5l0,0l1.5-1.3l-0.1-1l1.2,0.3
	l0.8-2.3l-0.3-1.2l1.2,0.2l1.1-1.2l-0.4-1l-0.7-0.6l-0.5,0.3l-0.8-0.8l0.4-1.1l-0.4-0.7l0.6-0.4l-0.9-1.9l1-0.5l0.9-1.4l1.8,0.2
	l0.7-2.1l1.4,0.4l0.5-1.1L104.4,126.3L104.4,126.3z"/>
<path id="FR-M_4_" class="st21" d="M178,43.2l0.6,0.9l0.3,1.9l1.5-0.9l1,0.6l0.5-1.1l1.8,0.3l0.5-0.6l1.1,0.5l0.5,1.2l1.7,0.1
	l0.3,1.1l1,0.1l0.5-0.5l0.5,0.4l0.5-1.1l1.9-0.6l2.2,1.4l1.1-0.4l2.2,1.5l-0.3,0.5l1.1,1l-0.6,0.5l1.8,1.8l-0.2,0.6l0.5,0.2l0.1,0.9
	l0.5-0.1l-0.2,0.8l0.5,0.6l1.7,0.3l0.5-0.7l-0.4-0.8l1.7-0.3l1.6,0.9l0.3,2l0.8-1.1l1,0.9l1.5-0.3l0.8,0.4l0.6-0.8l0.6,0l0-0.7
	l1.4-0.3l-0.2,0.5l1-0.1l0.6,1.9l1.8,0.6l0.1,0.5l0,0l-1,2.5l-0.7,0.6l-1.5-0.9l-2.2,0.7l-0.6-0.3l0.1-0.5l-2.9-0.8l-0.5-1.9
	l-0.5,0.3l-0.6,2.9l-0.7-0.1l-0.2,0.7l-0.6,0l0.2,1l1.6,0.5l0,0.4l0.8-0.1l-0.8,0.5l0,0.7l0.6,0.1l-0.2,0.7l0.8-0.5l0.5-1.1l1.9,0.6
	l-0.2,0.4l1.1,1.1l-1.3,2L210,68l0.7,0.1l-1.5,2.8l-0.9,0.6l-1.7,0.1l1.2,0.7l-0.8-0.2l0.5,0.8l-0.6,2l0.4,0.5l-0.6,0.7l0.7,0.5
	l1.1-0.2l0.3,0.8l-2.4,4.3l0.3,0.9l-1.3,2.3l-1,0.6l-0.6,2.1l0.3,0.2l-0.6,0.5l0.4,1.1l-1.4,0.7l0,0l-3.3-2.1l-0.7-1.1l-2.2,1.6
	l-0.7-1.4l-0.8-0.5l-3.2,0.7l0,0v-0.1l0,0l-1-0.8l-0.2-1.3l0,0l0,0l0,0l-1.7,0.4l-0.6,1.2l-0.9,0.5l-0.4-0.1l0.6-0.8l-0.5-0.2
	l-0.8,1.3l0,0l-0.7-1.3l-1,0.6l-0.2-2.1l-0.9-0.3l-0.4-0.8l-1.2-0.2l0.7-0.6l0.2-1.8l0.9-0.5l-0.7-0.9l-0.8-0.2l0.2-0.7l-0.7-0.6
	l-0.4,0.5l-1.1-1.9L179,76l-0.9,0.6l0.3-1.2l-0.8-0.3l1.3-0.8l-2.4-2.3l-2-0.5l-1.6-1.8l-0.8,0l-0.2-1l-1,0.4l0.2-3.3l-2.1-1.5
	l0.8-1.2l-0.4-0.7l0.4-1.2l0,0l0.1-0.1l0,0l1.4-0.6l0.4-0.9l-0.8-0.3l0.7-0.2l0-0.8l-0.5-0.3l-0.8,0.4l0.7-1.2l-1.1-3.1l0.9-0.6
	l-0.7-0.7l1.7-1l0.1-0.5l-0.5-0.4l0.5-1.5l0.8-0.3l-0.4-0.6l0.7-0.4l-0.1-1l-0.9-1.1l0.5-1l0,0l0-0.2l0,0l0.4-1.3l0.5,0l0.4,0.7
	l1.2-0.2l0.5,0.7l2.3-2l0,0L178,43.2L178,43.2z"/>
<path id="FR-N_4_" class="st20" d="M82.1,201.3l0.1,0.1l0,0l0.4,1.1l-0.7,0.5l-0.3-0.7l0.3-0.8l0,0L82.1,201.3L82.1,201.3
	L82.1,201.3z M82.6,199.9l0.1,1.5l0,0l-0.3-0.1l0,0l-0.4-0.4l0.5-0.2l-0.1-0.9l0,0L82.6,199.9L82.6,199.9z M109.1,160.1l1.6-0.7
	l0.1,0.4l1.7,0l1.8,2.2l0.9,0.4l1.8-1.3l0.7,0.6l0.7-0.5l1.3,0l0,0l0.7,1.3l-0.2,1.1l1.4,2.1l-0.7,2.2l0.5,0l0.2,1.4l0.6,0.5
	l0.2-0.8l1.4-0.4l0.6-0.1l0.4,0.7l2.3-0.2l0.3-0.9l1.1-0.8l-0.2-0.8l0.9-0.9l0.1-1.3l2.3-2.3l0.6,0.7l0,1.4l1.5-0.5l0.5,2.1l0.6-0.1
	l0.3,0.5l-0.4,0.3l0.4,2l0.8,0.9l0,0l1.8,2.1l-0.3,1.4l1.4,1.6l-0.4,1.8l0.6,1.3l-0.6,1.1l0.5-0.3l0.2,0.7l1.2,0.3l-0.5,1l2.7-0.2
	l0.2,0.8l-0.7,0.3l-0.2,1.2l-1,0.4l0.5,0.6l0.6-0.2l0.4,0.7l0.6-0.2l1,0.8l-0.1,0.6l-1.4,1.2l-0.3,1.3l-1.4,0l-0.5,0.8l0.2,0.8
	l-0.6,0.4l-2.6-0.5l-0.1,3.4l-1.3-0.4l-1.1,0.5l-0.3,0.8l-2.6,1l-0.6-0.7l-1.3-0.4l-0.5,2.2l1,1.2l-0.1,1.1l-1,0.9l-3-0.1l-0.6,0.5
	l-2.4-1l-0.6,0.7l-0.1,1.1l-0.8-0.8l-1.7,0.5l-0.6-0.9l-0.8,0.6l-1.1-0.3l0,0l-0.1,0l0,0l-0.4,0.6l-0.7-1.1l-0.9,1.2l0.2,1.2l-1.6,0
	l0.2,0.7l-0.8,1l0.6,1.2l-0.3,0.8l1.3,0.9l1.2,0.1l0-0.3l0.7,1l0.4-0.4l0.6,0.5l0.2,1l-0.4,0.4l0.8,0.4l-0.3,0.6l0.6,1.1l-0.8,0
	l-0.4,0.5l0.8,0.3l0.1,1.4l-1.9,0.4l-0.3,0.7l1.2,1.1l-0.2,0.4l1.6,0.6l1.4-0.4l1.6,1.7l-0.2,0.4l-2.9,0l-0.4,1l-1.3,0l-0.5,0.8
	l-1.4,0.1l0,0l0.1-0.3l-1.2-0.1l0.2-0.6l-2.4-0.2l-0.8-0.7l-1.2,0.1l0,0.9l-0.7,0.3l-1.4-2.7l-2.2-0.2l-1.1,0.5l-1.6-1.9l-1.7,0
	l-0.4-0.5l-0.6,0.4l-3.8-1.7l-0.9,0.5l0.2,0.8l-0.4,0.5l0.4,0.2l-0.4,0.5l0.6,0.7l0,0.8l-1.4-0.3l-3,0.4l-1.1-0.8l-1.1,1.2l-0.6-1
	l-1.4-0.5l-3.1,1.2l-0.9-0.2l-0.2-0.6l-0.8-0.2l-0.8-1.7l-0.5,0.3l-2.2-1.5l0,0l-0.2-1.6l0.8-0.4l-0.1-1.7l0.5-0.8l1.4-0.3l-0.2-1.5
	l0.8-0.3l0.5-1.2l0.9,0.1l-0.1-1.1l0.4,0.1l0.6-1.2l-0.5-0.7l1.3-1.1l-0.6-0.6l0.1-1.7l-1.2,0.8l0-1.2l0.8-0.2l-0.8-1.8l-0.5,0.1
	l-0.1-0.9l-1.4-0.3l-1.1,0.3l-0.2-0.8l-0.6-0.1l0-0.6l0.7-0.3l-0.1-1.3l1-0.7l-0.6-1.7l0.6,0l-0.3-1.1l0.4-0.3l-0.9-0.7l1-1l1.4,0.3
	l1-1.3l0.7,0.7l-0.5,0.6l1.4,0.8l0.3-0.5l-0.4-1.1l1.2-1l0.5,0.7l0.6-1l0.7-0.2l1.2,0.8l0.2-0.5l2.2-0.5l0.3-0.7l1.6,0l0.6-0.6
	l1.2,1.3l1.3-0.9l0.3-1.1l0.7-0.1l-0.2-0.8l1.3,0.4l0.6-0.3l-0.2-0.9l-0.6-0.2l0.9-0.2l0.8-2l-1.4-0.9l0.5-1.7l0.4-0.1l0.4,0.9
	l0.2-0.4l1.9-0.1l-0.1-1.5l-0.7-0.4l0-1.5l-0.6-0.9l0.6,0.2l1.5-0.9l-0.2-0.5l1-1.1l-0.1-0.8l1.3-0.3l1.6-1.4l-0.3-1.4l1.2-0.4
	l-0.1-0.8l1.4-0.9l-0.5-0.8l0.5-0.1l-0.5-1.9l0,0l-0.1-0.3l0,0L109.1,160.1L109.1,160.1z"/>
<path id="FR-O_4_" class="st20" d="M128.4,3.9l0.2,1.4l1,1.5l-0.7,0.8l0.2,1.9l0.6,1l1.5,0.1l1.2,2.4l0.9,0l1,0.8l0.8-1.6l3.4-1
	l0.7,1.8l1.2,0.6l-0.4,1.2l0.9,3.6l1.5,0.9l1.2-0.4l0.5-0.7l0.8,0.3l-0.3,1l1.9-0.2l0.9,1.1l0,2.4l0.9,1.7l0.7-1.2l1.8,0l0.9,0.7
	l2.1-0.9l0.9,1.3l0.7,0.2l0.4,1.2l0.5,0l-0.1-0.8l0.8,0.5l0.2,0.5l-1.2,1.1l0.1,1.3l-0.5,0.8l1.2,0l0.5,1.7l-1.2,0.6l-0.3,1.8l0,0
	l-1,0.3l-1.9-0.7l0-1.4l-1.6,0.9l-0.3-0.8l-2.7-0.9l-0.9,0.4l-0.1,0.6l-0.8,0.1l-1.2-0.8l-0.9,1l-2.2-0.5l-0.6,0.6l-0.9,0l-0.3-0.5
	l-1.5,0.6l-1.4-1.1l-1.4-0.2l-0.8,0.5l-0.9-0.2l-1,0.8l-0.1-1.5l-1.9,0.9l0.6-1.8l-0.9-0.4l-0.4,0l-0.1,1.2l-2.2-0.9l0-0.7l-0.4-0.1
	l-0.3,0.8l-0.3-0.7l-0.6,0.1l-1.1,1.4l-0.7-0.6l0.2-1.2l1.9-1.1l-0.8-1l-0.8-0.1l-0.8,0.8l-0.5-0.9l-0.1,0.7l-1-0.4l-2.1,1l-0.3-0.5
	l-0.8,0.2l-0.2-1.4l-2.3-1l-0.3-0.3l0.6-0.6l-0.3-0.3l-0.7,0.5l-1.8-1.3l-2.4,0.8l-0.4-0.6l0,0l-1.5-1.3l0.6-3.7l0.8,0.7l-1-1.5
	l-0.2-4.3l0.1-0.4l0.2,0.7l0.3-0.4l0.3-2l-0.6-1.8l1.4-0.4l1.4-1.6l2.2-0.7l-0.5-0.1l4.4-1.1l0.2,0.3l0.9-0.9l-0.2,0.5l0.5,0.5
	l0.3-1l0.1,0.3l2.6-0.9l0.5,0.3l2.8-1.2L128.4,3.9L128.4,3.9z"/>
<path id="FR-P_4_" class="st20" d="M50.5,39.9l0.8,0.6l0.6-0.3l0.5,0.7l3.6,0.8l-0.1,0.6l0.2-0.6l2.1-0.3l0.2-0.8l3.6,0l0.6,2.4
	l-0.5-0.2L61.9,44l0-0.4l-0.4,0.1l-0.2,0.9l2.5,3.7l-0.6,1.9l0.8-0.7l0.7,0.5l0.7-1.2l1.9-0.2l3.6,1.3l6.3,0.4l2,1.1l0.6-0.2
	l0.4,0.5l3.8-1.2l2.2-2l1.7-0.7l-2-0.1l3,0l0,0l0.7,2.5l-0.5,0.6l0.5,0.5l-0.2,0.3l0.9-0.4l0.4,0.3v0.6l-1.1,0.4l1.3,1l-0.2,1.5
	l0.8,0.3L91,56.4l0.3,0.8l-0.9,0.6l1.4,1l-1.1,2.7l1.2,0.9l1.7,0.1l0.5-0.5l0.2,0.6l0.5-0.2L94.6,63l0.5,0l-0.5,0.6l2.6,1.7l0.3,0.8
	l-0.8,0.8l0.7,0.3l0,0.7l0.8,0l0,0l0.1,1.5l2.6,2.3l-0.5,1.2l0.7,0.9l-1.1,1.8l-2.5,1.3l-0.3,0.6l0.9,0.3l-0.3,0.7l0.7,1.2l-0.6,0.5
	l0,0l-1,0.2l-1.5-2l-0.3,0.8l-1.8-0.4l-0.8-1.6l-0.2,0.3l-1.5-0.6l-0.2-2.7l-1.4-1.5l-2.7,0.6l0.2,0.4l-1.5,0.9L85,75.5l-1-0.5
	l-0.9,0.6l0-2l-1.7-0.2L81,72l0.5-0.5l-1.1-0.9l-0.7,0l0.1,0.7l-0.5,0.8l-0.9-0.4l-0.6,1L77.1,72l-2,0L74.5,73l-1.7,0.8l-0.2-1.1
	l-0.4,0.4L71.3,73l0.3,0.6l-0.8,0.4l-0.3-0.8l-0.6,0.3l-0.5-1.1l-1.1,0.1l-0.8-0.5l-0.8,0.7l-1.1-0.5l0,0l-3.2-0.9l-1.7,2l-1.2,0.2
	l-1.2-0.7l-1.4-3.8l0,0l1,0.4l0-0.5l0.4,0.4l1.1-0.5l1.2,0.3l-1-0.7l0.4-0.4l-1.1,0.5l-2.1-2.4l-0.1-2L56,63.5l1.3-2.5l-0.4-0.2
	l0.1-2.2l0.9,0.2l-1-0.5l-0.3,1l-0.4-1L56,53.4l0.8-0.1L56,53l-0.2,0.7l-1.4-3.2l-1.8-1.2L52,45.8L51.3,45l0.8-1L52,42.4l-0.5-0.7
	l-1.2-0.4L50.5,39.9L50.5,39.9z"/>
<path id="FR-Q_4_" class="st20" d="M107.9,30.8l1.2-0.2l0.1,0.8l4.5,4.1l0.4,1.9l0.9,1.4l-0.6,0l-1,1.8l0.3,0.4l0.8-0.4l-0.9,1.4
	l0.4,0.6l-0.4,1.1l0,0h-0.1l0,0l0.9,1.2l-0.5,0.9l0.5,0.4l0.3-0.6l0.5,0.2l-0.3,0.9l0,0l-0.2,0.1l0,0l-0.8,1.6l0.4,0l-0.3,0.3
	l0.7,0.7l0.2,2l0.5,0.5l-0.3,0.8l-0.5-0.7l-0.8,0.2l-0.1,0.9l0,0l-1.4,3.9l-1.7,0.4l0,0l-0.1,0l0,0l-0.2-0.4l-0.4,0.9l-0.7-0.1
	l0.5,1l-0.1,1l0.8-0.1l-0.5,0.3l0.2,0.7l0,0l-0.9,0.4l0.2,1.4l-1.7,1l0.2,1.4l-0.7,0.5l-1.9,0.1l-1.8-0.8l-0.1,1.1l-0.9-0.3
	l-0.9,0.9l0,0h-0.4l0,0l-2,0.3L99,67.4l-0.8,0.5l0,0l-0.8,0l0-0.7l-0.7-0.3l0.8-0.8l-0.3-0.8l-2.6-1.7l0.5-0.6l-0.5,0l0.1-0.6
	l-0.5,0.2L94.1,62l-0.5,0.5l-1.7-0.1l-1.2-0.9l1.1-2.7l-1.4-1l0.9-0.6L91,56.4l0.6-0.9l-0.8-0.3l0.2-1.5l-1.3-1l1.1-0.4v-0.6
	l-0.4-0.3l-0.9,0.4l0.2-0.3l-0.5-0.5l0.5-0.6L89,47.7l0,0l0.2-0.5l-0.4,0.3L86,46.7l-0.8-1.1l1.5-3.6l-0.5-0.7l0.5,0.3l0.9-1.4
	l2.3-0.9l4.3-2.9l3.2-0.5l3.2-1.4l1,0.3l1.1-0.5l0.2,0.5l-0.1-0.5l1.9-0.9L107.9,30.8L107.9,30.8z"/>
<path id="FR-R_4_" class="st20" d="M44.9,110.1l0.7,0.5l-0.2,0.9l1.3,0.7l0.1,1.4l-1-1.6l-0.9,0l-0.7-0.8l-0.1-0.8
	C44,110.2,44.9,110.1,44.9,110.1z M65.5,72.1l1.1,0.5l0.8-0.7l0.8,0.5l1.1-0.1l0.5,1.1l0.6-0.3l0.3,0.8l0.8-0.4L71.3,73l0.7,0.1
	l0.4-0.4l0.2,1.1l1.7-0.8l0.7-0.9l2,0l0.8,0.7l0.6-1l0.9,0.4l0.5-0.8l-0.1-0.7l0.7,0l1.1,0.9L81,72l0.5,1.4l1.7,0.2l0,2l0.9-0.6
	l1,0.5l0.2-0.8l1.5-0.9l-0.2-0.4l2.7-0.6l1.4,1.5l0.2,2.7l1.5,0.6l0.2-0.3l0.8,1.6l1.8,0.4l0.3-0.8l1.5,2l1-0.2l0,0l2,1.4l-1.1,0.1
	l-0.2,0.8l-0.5,0.1l0.6,0.1l0,0.6l-0.9,0.1l0.1,0.9l0.8,0.2l-0.4,1.1l0.5,1.2L98.1,87l-0.1,1.1l-0.4-0.6l-0.5,0.3l0.1,1.8L96,90.9
	l0.2,0.4l-1.3,0.4l-0.7,0.9l0.2,0.8l0.4-0.1l-0.4,0.5l-2.3,0.7l-0.3,0.7l-1.1-0.6L90.3,95l0.7,1.1l-0.3,0.2L88,95.4l0,0l0,0.2l0,0
	l-0.7,1.5l0.6,0.3l-0.1,0.7l-1.2,2.6l0.5,0.5l-1.8,2.6l-0.4,3l0,0l-0.6-0.3l-0.5,0.4l-0.5,1.9l-0.9-0.4l-0.7,1.2l-0.9-0.4l0.6-0.8
	l-0.7-0.1l-0.4,0.4l-1.1-0.3l-2.3,0.4l-0.2,0.6l-1.3,0.3l0.4-0.7l-0.6-0.1l-1.1,0.5l0.2,0.8l-1,0.9l-1.2-0.2l-0.8,0.5l-1.3-0.5
	l-1.1,0.9l-0.8-0.1l0.6,0.3l-0.3,0.4l0.5,0l-0.2,0.3l0.9,0.3l-0.4,0.9l1,1.1l0,0h0.1l0,0l0.7,0.5l0,0h0.1l0,0l0.5,0.3l-0.3,0.3l0,0
	l0,0.1l0,0l0,0.9l1.1,1.4l-0.4,0.4l0.7,0.6l-0.4,0.7l0.7,0.4l-0.2,1.2l0.4,1.1l-0.8,0.3l0.7,1.6l-0.6,1.4l0.4,0.2l0.3-0.6l1.2,0.7
	l-1.9,1.7l-0.9-0.2l-0.4,0.6l-1.8-0.9l0,0l-0.1-0.1l0,0l-0.3,0.6l-0.6-0.2l-0.8,0.4l-0.5-0.3l0.5-1.2l-2.1,0.5l-0.4,0.8l-0.7,0l0,0
	l-1.5,0l-0.1,1.1l-1.9-1.6l0.4,1.1l-0.8-1.3l-2.2,0l-0.8-1.5l-2.3-0.4l-2.9-1.9l-0.8-2.9l-1.6-2.2l-3.4-3.1l-0.2-1.7l0.7-0.1
	l-0.2-0.4l1.5-1.5l0.1-1l0.9-0.5l-2.1-2.2l-2.6-0.5l1.4-0.9l-0.1-2.4l-0.7-0.2l-1.5,1l-1.3-1.2l-1,0.5l-2-0.8l0.6-0.5l0.1-0.8
	l-0.9-0.9l1.7-1.3l0-0.6l0,0l0.6-0.7l0.4,0.5l1.5-0.1l0.3-1.4l0.9,0.6l1-0.5l0.4,0.6l0.1-0.8l1-0.3l0.3-3l1.9-1.1l0.3,0.6l1.6-1
	l3.5,0l0.7-1.4l2.6-1l-0.1-0.8l1.6,0.2l0.4,0.7l2,0.6l1.6-4.9l2.4-1l-1-5.1l0,0L65.3,80l0,0l-0.4-1.6l1-1.6l-0.6-2.2L65.5,72.1
	L65.5,72.1z"/>
<path id="FR-S_4_" class="st20" d="M112.2,22.8l0.2,0.2l0,0l0.4,0.6l2.4-0.8l1.8,1.3l0.7-0.5l0.3,0.3l-0.6,0.6l0.3,0.3l2.3,1
	l0.2,1.4l0.8-0.2l0.3,0.5l2.1-1l1,0.4l0.1-0.7l0.5,0.9l0.8-0.8l0.8,0.1l0.8,1l-1.9,1.1l-0.2,1.2l0.7,0.6l1.1-1.4l0.6-0.1l0.3,0.7
	l0.3-0.8l0.4,0.1l0,0.7l2.2,0.9l0.1-1.2l0.4,0l0.9,0.4l-0.6,1.8l1.9-0.9l0.1,1.5l1-0.8l0.9,0.2l0.8-0.5l1.4,0.2l1.4,1.1l1.5-0.6
	l0.3,0.5l0.9,0l0.6-0.6l2.2,0.5l0.9-1l1.2,0.8l0.8-0.1l0.1-0.6l0.9-0.4l2.7,0.9l0.3,0.8l1.6-0.9l0,1.4l1.9,0.7l1-0.3l0,0l1.5,0.6
	l0,0l-0.3,1.2l0.7,0.3l0,1l-0.8,2.4l0.8,0.6l-1.1,1.5l-1,0.6l-0.2,1.2l-1.3-0.1l-0.3,0.4l0.9,1.4l-0.5,0.7l0.5,0.5l-0.7,0.5l0.5,1.6
	l-0.5,0.2l0,2.1l-1.3-0.5l-0.6-0.8l-1.2,0.7l-0.1,0.9l-1.3-0.3l-2.3,1.1l0.6,2.1l-0.4,0.6l0.5,0.4l0.3-0.3l0.3,0.8l0.6-0.1l0,0.6
	l-0.8,0.4l-1.4-0.2l-0.4,0.8l0.6,1.1l-0.9,0.4l0,0.6l1.1-0.2l0.5,0.8l-1.5,1.4l0.2,0.5l-0.5,0.1l-0.1,0.7l-0.7,0.1l-0.7,1.6l0,0
	l-0.4,0.4l-0.3-0.6l-1.1-0.3l-0.3-1.5l-0.7,0.5l-0.4-1.1l-0.7,0.3l-0.2-0.9l-1.5-1l0.4-1l-0.9-1.5l-1.2-0.3l-0.1,0.8l-1-0.2
	l-0.4,0.5l-0.3-0.5l-2,0.6l-0.8-0.7l-1.3,0.9l-1.7-1.3l-0.9,0.8l-0.5-1.2l-0.4,0.7l-0.7-0.2l0.2-0.3l-0.8-0.6l-0.5,0.2l0.1-0.3
	l-1.1-0.3l-0.3,0.3l-0.8-1l-0.5,0.7l-0.9,0.2l-0.3-0.7l-0.8,0.4l-1.6-1.2l-1.4,0.9l-2.1,0.3l-1.4-0.6l-0.8,0.3l-0.3-0.5l0,0l-0.2,0
	l0,0l0.2-0.8l-0.6-0.2l0,0l0.1-0.9l0.8-0.2l0.5,0.7l0.3-0.8l-0.5-0.5l-0.2-2l-0.7-0.7l0.3-0.3l-0.4,0l0.8-1.6l0,0l0.2-0.1l0,0
	l0.3-0.9l-0.5-0.2l-0.3,0.6l-0.5-0.4l0.5-0.9l-0.9-1.2l0,0h0.1l0,0l0.4-1.1l-0.4-0.6l0.9-1.4l-0.8,0.4l-0.3-0.4l1-1.8l0.6,0
	l-0.9-1.4l-0.4-1.9l-4.5-4.1l-0.1-0.8l-1.2,0.2l0,0l1.3-1.2l1.2-2.7l0.8-0.3l0.3,0.8l1.2,0.3l0.5-0.4l-2.6-2.3l0.3-2.4L112.2,22.8
	L112.2,22.8z"/>
<path id="FR-T_4_" class="st20" d="M59.6,134.8l1.6,1.3l1.3,0.3l0,1.4l0.9,1.7l-0.8,1.5l-0.7-2l-2-1.8L59.6,134.8L59.6,134.8z
	 M57.8,129.5l0.6,0.6l-0.8,0.1l0.3,0.6l1.5-0.7l-0.5,0.4l0.2,0.3l1-0.2l2,1.2l-1,0.5l-2.6-1.5l-1.2,0l-0.5-1L57.8,129.5L57.8,129.5z
	 M64.7,128l0.7,0l0.4-0.8l2.1-0.5l-0.5,1.2l0.5,0.3l0.8-0.4l0.6,0.2l0.3-0.6l0,0l0.1,0.1l0,0l1.8,0.9l0.4-0.6l0.9,0.2l1.9-1.7
	l-1.2-0.7l-0.3,0.6l-0.4-0.2l0.6-1.4l-0.7-1.6l0.8-0.3l-0.4-1.1l0.2-1.2l-0.7-0.4l0.4-0.7l-0.7-0.6l0.4-0.4l-1.1-1.4l0-0.9l0,0
	l0-0.1l0,0l0.3-0.3l-0.5-0.3l0,0h-0.1l0,0l-0.7-0.5l0,0h-0.1l0,0l-1-1.1l0.4-0.9l-0.9-0.3l0.2-0.3l-0.5,0l0.3-0.4l-0.6-0.3l0.8,0.1
	l1.1-0.9l1.3,0.5l0.8-0.5l1.2,0.2l1-0.9l-0.2-0.8l1.1-0.5l0.6,0.1l-0.4,0.7l1.3-0.3l0.2-0.6l2.3-0.4l1.1,0.3l0.4-0.4l0.7,0.1
	l-0.6,0.8l0.9,0.4l0.7-1.2l0.9,0.4l0.5-1.9l0.5-0.4l0.6,0.3l0,0l0.5,1.1l1-0.2l-0.1,0.5l0.5,0.2l0.3-0.4l0.3,0.6l-0.4,0.8l1.2-0.3
	l0.4,0.7l0.6-0.2l0.2,1.3l-0.4,0.2l0.6,1.5l0.7-0.5l1.3,0.5l1.2-0.7l1.6,0l-0.5-1.2l0.9,0l1.3,0.9l0.2,1.8l1.6,1.4l0.3,1.5l1.7,1.6
	l0.3,0.8l-0.6,1.6l0.3,0.7l1.8,0.9l0.1,0.8l1.3,0l0.9,0.7l0.1,1.5l1.1,0.4l-0.3,0.8l0,0l-0.3,0.4l0,0l0,0l0,0l-0.4-0.1l-0.5,1.1
	l-1.4-0.4l-0.7,2.1l-1.8-0.2l-0.9,1.4l-1,0.5l0.9,1.9l-0.6,0.4l0.4,0.7l-0.4,1.1l0.8,0.8l0.5-0.3l0.7,0.6l0.4,1l-1.1,1.2l-1.2-0.2
	l0.3,1.2l-0.8,2.3l-1.2-0.3l0.1,1l-1.5,1.3l0,0l-1.1,1.9l-0.9,0l-0.1,2l-1,0.7l-0.3,0.9l-0.9,0l-0.9,1.1l-0.5-0.4l0.3,0.6l-0.7,0.2
	l-0.5,1.4l0.3,1.8l-1.6,0.9l-0.7,1.3L85,155l-0.8,0.6l-0.5,0.9l0.4,0.3l-0.7,0.3l-0.1,1l-0.8-0.6l-1,0.8l-0.8-0.1l-1.2-0.5l-0.4-0.7
	l-0.6,0.1l-0.4-0.7l-0.4-0.1l-0.4,0.6l-0.3-0.9l0,0l0-0.1l0,0l-0.4-2.3l-2.4-0.4l-0.4-1.2l-0.1,0.6l-2.1-0.2l0,0l-0.7-2.4l-1.1-1.6
	l-2.6-1.7l-0.9-1.5l-3.2-1.8l-0.5,0.1l0.2,0.5l-0.3-0.5l0-2.3l1.8-0.4l-0.8-1.2l1.1-0.1l0.7-1.2l-0.4-0.9l0.4-0.1l-0.1-0.7l-0.6-0.6
	l1.2,0l-0.8-2.3l-0.7-0.3l0.2-0.5l-0.8-0.3l0.4-0.5l-1,0.3l-0.5-0.5l0.6-1.2l1.6-1.2l-0.4-1.1L64.7,128L64.7,128z"/>
<path id="FR-U_4_" class="st20" d="M170.5,174.7l0.2,0.2l0,0l1.2,0.7l0,0l0,0.1l0,0l-0.8,0.4l-0.6,1.6l-1.7-0.3l-0.3-1.1l0.6-1.1
	l0,0l0.2-0.3l0,0l0.1-0.1l0,0l0.3-0.1l0,0l0.5-0.4l0,0l0.1,0.2l0,0L170.5,174.7L170.5,174.7L170.5,174.7L170.5,174.7z M176.6,203.6
	l0.6-1l-0.5-0.6l0.5-0.3l-1.1-1.6l-1.4,0.8l-3.1,0.1l-1.4-2.4l-0.9-0.2l-0.5,0.6l0.2-0.6l-0.4,0.2l-0.4-0.8l0.3,1.1l-0.9-0.5
	l0.6,0.7l-1,0.4l0.8-0.1l-0.3,0.3l0.7,0.5l0.7-0.6l-1.4,1.3l-4.4-0.8l-0.4-0.5l0.6-1l-1-0.7l-5.3-0.2l0,0l0.2-0.9l1.4-0.7l-0.2-0.6
	l0.3,0.5l2.2-1.3l0.2-0.6l-0.8-0.3l1-1.7l0.9-0.2l1.5,0.5l-0.3-1l0.9-2.9l-0.4-0.5l3-2.3l0-0.6l0.5,0l-1-1.8l-1.1-0.4l0-2.5
	l-0.2-0.6l-0.6,0l-0.4-1.3l0,0l0-1.4l2.4,0.4l0.5,2.1l4.2-1.9l0.8,0.7l0.7-0.8l0,0l0.3-0.1l0,0l-0.3,2l1.3,0.5l0.3-0.5l0.8,0.6
	l1-0.2l0.5,0.3l0,1.1l0.9,0.1l0.3,0.8l1.5-0.3l1-1.4l0.7,0.6l-0.1,0.4l0.8,0.1l0.1-0.4l-0.7-0.2l0.7-0.6l0-1.7h-0.7l-0.2-0.8
	l-0.5-0.1l0.4-0.7l-1.4,0.1l-0.5-0.5l-0.5,0.3l-1.1-0.9l-0.2-1.2l1,0.1l0.4-0.4l-0.6-0.3l-0.1-1.2l2.7,0.7l0.3-0.7l0.6-0.1l-1.2-1
	l0.9-1.6l-0.1-1l1.5,0.3l0.4-0.6l0.7,0.2l0.7-0.9l-0.5-0.4l0.5-1.3l1,0.3l1.2-0.3l0.5-0.5l-0.5-0.6l1.2-0.8l0.7,0.5l1.3-1.2l2,0.3
	l0.8-0.5l1.1,0.5l0-2.1l-0.6-0.4l0-1.1l-2.1-0.4l0.7-2.6l0.8,0.3l0.7-0.4l0.5,1.3l1.5,0.4l0.6-0.1l-0.1-0.9l0.5-0.4l0.5,0.2l0.6-0.6
	l0.9,0.4l0,0l0.7,2.2l1.2,0.1l0.1,2.7l2,1.3l0.8,0.2l0.4-0.4l1.5,0.9l-0.4,0.8l1.3,2.6l-2,0.1l0.1,1.4l-1.9,2.2l0.4,1.2l1.2,1.2
	l-1,0.2l-0.1,1.4l1.9,2l0.2,1.1l3.1,0.8l1.6,1.5l1.1-0.1l0.3,0.7l1.2,0.1l0.1-0.4l3.3-0.5l0.3-0.7l0.8,0.1l-0.3,1l0.8,1.1l-0.2,1
	l-0.7,0.3l-0.2,1.3l-1.5,0.8l-0.2,1.1l-1.1,0.6l0.6,2.2l-2.2,1.5l-1.2,0.2l-0.1,0.9l-0.3-0.7l-0.2,0.5l-1.1-0.1l-0.6,0.9l-0.9-0.1
	l-0.6,1.6l0.4,0.8l-0.4,0.2l-0.4-0.7l-1,0.9l-0.4-0.4l-0.9,0.2l-0.4,0.7l0.3,0.4l-1.1,1.6l-1.8,0.5l-0.8-0.3l-0.5,1.8l-2.5,1.8
	l2.1,0.1l-0.6,0.6l0.3,1l-0.7,0.3l0.1,0.5l-0.5,0.2l-1-0.7l-1.1,0.9l-1.9,0.2l-0.4,1.4l-1.6-0.8l-1.5,0.1l-0.6,1.2l0.1,0.9l-1-0.1
	l0.6-0.4l-0.1-0.8l-1.8,0l-0.3-0.7l-1.3,0.1l-0.1-0.5l-0.7,0.5l1.2,0.8l-1-0.3l-0.6,0.8l-0.5-0.1l-0.6-0.4l0.3-1.1l-0.7,0l0.1-0.5
	l-1.3-0.1l-0.2-0.9l-1.1-0.2l-0.3,0.6l-1.2-1.3l-0.6,0.4L176.6,203.6L176.6,203.6z"/>
<path id="FR-V_4_" class="st20" d="M151.6,129.1l-0.2,1.5l1.4,0.3l0.3,0.8l2-0.7l1.3,0.6l0.5-0.5l0.3,0.4l0.5-0.2l-0.1,0.7l0.4,0.1
	l1.7-0.7l0.6-2.7l0.9,0l0.8,0.7l1.1-0.7l0.9,0.7l0.3-0.9l0.7-0.1l0.5,0.7l-0.5,0.5l1,0.6l-0.3,1l0.7,0.6l0.4-0.1l2.8-8.6l0.2,0.4
	l0.6-0.4l1.3,0.8l1.9-0.5l0-0.4l0.7,0.3l0.5,1.2l1.4,0.3l0,0l-0.3,0.8l1.3,0.8l-0.3,0.3l0.7,1.5l0.4-0.9l0.2,0.8l0.7,0l0,1.3
	l1.1-0.1l1.8-1.9l0.1,0.5l1.2,0.4l0.2,1.2l2.5-0.1l3.4-3.8l0,0l1.8,1.2l-1.2,2.1l0.4,0.9l-2.5,0.9l-0.3,0.5l0.5,0.4l-0.6,1.3
	l1.6-0.6l1.3,0.3l2.9-2.1l0.2-0.8l-0.8,0.1l-0.2-1.3l-0.5-0.2l0.6-1.2l4.6-2.4l2.8,0.1l2.4,0.7l-0.9,1.8l1.6,1.9l-1.1,1.9l-0.1,1.6
	l1.8,0.3l-0.4,1.9l1-0.4l1.8,2.7l0.1,0.8l-0.8,1.3l-1.4,0.8l-1.6,0.1l-0.2,2.8l1.9,1.8l1.5,0.3l-0.4,1.3l0.4,2l0.9,0.3l-0.1,0.6
	l0.9,0.1l0.3,0.9l1.3,0.7l-1.3,1.9l0.4,1.8l-1.1,1.1l-1.2-0.2l-1,1.2l-0.9,0l0,0.8l-0.8,0.2l-1.4-0.8l-2.4,1.2l0,0l-0.9-0.4
	l-0.6,0.6l-0.5-0.2l-0.5,0.4l0.1,0.9l-0.6,0.1l-1.5-0.4l-0.5-1.3l-0.7,0.4l-0.8-0.3l-0.7,2.6l2.1,0.4l0,1.1l0.6,0.4l0,2.1l-1.1-0.5
	l-0.8,0.5l-2-0.3l-1.3,1.2l-0.7-0.5l-1.2,0.8l0.5,0.6l-0.5,0.5l-1.2,0.3l-1-0.3l-0.5,1.3l0.5,0.4l-0.7,0.9l-0.7-0.2l-0.4,0.6
	l-1.5-0.3l0.1,1l-0.9,1.6l1.2,1l-0.6,0.1l-0.3,0.7l-2.7-0.7l0.1,1.2l0.6,0.3l-0.4,0.4l-1-0.1l0.2,1.2l1.1,0.9l0.5-0.3l0.5,0.5
	l1.4-0.1l-0.4,0.7l0.5,0.1l0.2,0.8h0.7l0,1.7l-0.7,0.6l0.7,0.2l-0.1,0.4l-0.8-0.1l0.1-0.4l-0.7-0.6l-1,1.4l-1.5,0.3l-0.3-0.8
	l-0.9-0.1l0-1.1l-0.5-0.3l-1,0.2l-0.8-0.6l-0.3,0.5l-1.3-0.5l0.3-2l0,0l-0.3,0.1l0,0l-0.7,0.8l-0.8-0.7l-4.2,1.9l-0.5-2.1l-2.4-0.4
	l0,1.4l0,0l-2.5-1.8l-0.9,0.1l-0.3,1.3l-0.7-0.2l-0.1-1.4l-1.1,0.2l-1.2,1.8l-2.2-1.7l-1.4,0.4l-0.1-1.7l0.5-0.3l-1.4-1.6l-0.6-2.4
	l-0.9-0.6l-0.7-3.6l0,0l1.1-0.6l0.4-1.4l0.7,0.4l-0.1-0.5l0.3,0.3l0.5-0.3l0.1-0.9l2.1,0l1.2-2.2l1.5-0.2l-0.3-1.1l1.4-0.4l-0.6-1
	l0.4-0.7l0.5,0l0,0v-0.2l0,0l-0.4-0.7l0.8,0.2l0.2,0.6l0.4-0.2l-0.2-1l0.7-1.5l-0.9-1.3l-0.8,0.5l-0.7-0.5l0.4-0.7l-0.7-0.4l0.6-0.5
	l-0.6-0.8l-1.1,0.3l-0.7-0.8l-0.9-0.1l-0.6,0.2l0.2,0.5l-1.3,0.2l-0.2,0.6l-0.9-0.3l0,0.5l-0.6-1.1l-0.7-0.1l-0.8,1l-0.3-1.5l1.3-1
	l0.4-1.5l-0.9-2l-1.9-1.3l-0.8-1.5l0.1-0.8l-1.6-1.6l0.6-0.6l-0.1-1.4l0.7-0.4l-1.1-1.1l0.1-1l1.5-0.1l0.8-0.6l-0.4-1.3l0.3-0.9
	l-0.5-0.6l0.3-1.3l-0.7-1.9l2-0.9l0,0l0.2,0l0,0L151.6,129.1L151.6,129.1z M169.4,174.9L169.4,174.9l-0.1,0.1l0,0l-0.2,0.3l0,0
	l-0.6,1.1l0.3,1.1l1.7,0.3l0.6-1.6l0.8-0.4l0,0l0-0.1l0,0l-1.2-0.7l0,0l-0.2-0.2l0,0l-0.2,0l0,0l-0.1-0.2l0,0l-0.5,0.4L169.4,174.9
	L169.4,174.9z"/>
</svg>
