<?xml version="1.0" encoding="utf-8"?>
<!-- Generator: Adobe Illustrator 22.1.0, SVG Export Plug-In . SVG Version: 6.00 Build 0)  -->
<svg version="1.1" id="Capa_1" xmlns="http://www.w3.org/2000/svg" xmlns:xlink="http://www.w3.org/1999/xlink" x="0px" y="0px"
	 viewBox="0 0 250 250" style="enable-background:new 0 0 250 250;" xml:space="preserve">
<style type="text/css">
	.st0{fill:#F2F2F2;}
	.st1{fill:#2F6FB2;}
	.st2{fill:#3170B2;}
	.st3{fill:#F3F2F2;}
	.st4{fill:#2F6FB2;stroke:#FFFFFF;stroke-width:0.5;}
	.st5{fill:#F2F2F2;stroke:#FFFFFF;stroke-width:0.5;}
	.st6{fill:#F3F2F2;stroke:#FFFFFF;stroke-width:0.5;}
</style>
<path id="ES-AN_3_" class="st5" d="M161.2,180.9v0.3l-0.6,0.3l-0.2,0.5l-0.9,0.2l-1.1-1.4l-0.7-0.6l-0.6-0.1l-0.8,0.5l-0.6-0.4
	l0.1,0.2l-0.2-0.1l-1.1,0.4l-0.9,1.6l-0.4,0.4l-0.7,0.3h-0.9l-0.6-0.4l-0.5,0.1l-1-1l-0.7,0.2l-3.8-0.3l-1.1,0.3l-0.4,0.4l-0.8,0.4
	l-0.9-0.1l-0.6-0.5l0.1,0.1l-0.4,0.1l-0.6-0.5l-0.8-0.1l-0.3,0.3l-0.5-0.1l-0.2,0.2l-0.3-0.3l-0.2,0.1l-0.9-0.4l-1.6,0.5l-1.5-0.4
	l-0.5,0.4l-1.1,0.1l-2,0.1l-0.9-0.2l-0.3,0.3v-0.2l-1.4,2l-0.3,0.3l-0.9,0.4l-0.4,0.9l-1.4,0.4l-1.5-0.4h-0.8l-1.3,0.8l-1,0.1
	l-1,0.6h-0.3l-0.6,0.6l-0.4,1.1l-0.9,1.4l-0.3,1.3h-0.4l-0.3-0.4l-0.6,0.1l-0.3,0.6l0.2,1.2l-0.4,0.4l-0.3-0.1l-1.6,0.8l-0.5-0.7
	l-0.6-0.3l-0.5,0.1l-0.8-0.5l-0.3,0.1l-0.9-1.1l-0.8-0.6l-1.6,0.1l-0.9-1.7l-0.5-0.2l-0.5-1.2l-0.7-0.4l-1-2.2l-0.4-0.1l0.5-0.3
	l-0.1,0.1l0.1,0.1v-0.1l-0.1,0.2l0.3,0.5l0.1-0.2l0.1,0.1l0.4-0.6l0.1-0.4l-0.1-0.2h-0.5l-0.4-0.6l-0.3,0.1l0.1-0.1l-0.3-0.1
	l0.1,0.2l-0.3-0.3l-0.2,0.2l-0.5-0.3l-0.6-1.8l1.1-0.9l-0.6-0.4l-0.6-1.6l-1.1-1.3l-3.2-2.1l-1.4-0.6l-0.9-0.7l0.3,0.5l1.1,0.9
	l-1.5-1.3l-0.4-0.1l0.2,0.2h-0.1l-1.4-0.6l-3.7,0.3l-0.5,0.4l-0.5-0.2l-0.1-0.9l-0.3-0.4l0.1-0.4l-0.3-0.6v-1.4l-0.3-0.4l0.3-0.1
	l-0.4-0.9l0.1-0.3l-0.3-0.2l-0.1-0.4h-0.3l-0.1-0.5l0.2-0.1l0.1-0.8l0.7-0.7l0.4-1.9l0.4-0.1l1.3-1.3l0.3-0.9l0.4-0.5l-0.1-0.9
	l0.8-0.4h1l0.1-0.4l0.4-0.2l0.6,0.4l0.7-0.1l0.3-1.4l0.5-0.9l-0.2-0.1v-0.3l0.4-0.6l0,0l1.1,0.5h0.7l-0.2,1.1h0.5v0.2l0.3,0.1
	l0.4-0.1l1,0.1l0.3-0.1L99,159l0,0l0.2,0.3l0,0l0.1,0.6l0.4-0.1l0,0h0.1l0,0l1,0.4l0.1-0.1l-0.1-0.3l0.4-0.3l-0.1-0.1l0.5-0.1
	l0.6,0.1l0.1,0.6l0.4,0.3l0,0h0.1l0,0l0.3,0.3l0.7,0.1l0.2,0.2l0.5-0.1l0.3,0.4l0.9-0.8l0.9-0.2l1.4,0.1l0.2-0.9l0.4-0.4l-0.3-0.4
	l0.1-0.3l0.6-0.5l0.1-0.4l0.4-0.3l0.7-0.1l0.2-0.2l0.4,0.1l0.4-0.3l0.6,0.3v0.4l-0.1-0.2l-0.1,0.1l0.1,0.3l-0.6,0.4l0.1,0.7l0.4,0.1
	l1-1l0.7,0.1l0.1-0.3l0.5-0.2l-0.1-0.4l0.1-0.4l0,0h0.1l0,0v-1l-0.6-1.1l0.2-0.6l-0.4-0.4v-0.3l0.5-0.9l0.4-0.2h0.5l0.1-0.4l0.9-0.6
	l0,0l-0.1-0.1l0,0l0.2-0.4l0.2,0.1l-0.1-0.3l0.3-0.5l0.9,0.1l-0.1-0.3l0.3-0.3l0.5-0.3l0.4-0.6l0.1,0.1l0.1-0.3l0.1,0.2l0.1-0.1
	l0.1,0.1v-0.3h0.2l0,0v-0.1l0,0l-0.2-0.6l1.2,0.2l0.7-0.4l0,0l0.5,0.2l0.1,0.4l0.8,0.2l0.9-0.1l0.3,1.2l2.1,0.7l0.1,0.4l0.5,0.1
	l0.6,0.4l0.4,0.6l0.1-0.1l0.3,0.1l0.1,0.3l0.2-0.1l1.2,1.4l2.3,1l0.2-0.1l-0.1-0.6l0.2-0.4l1.9,0.4l2.9,0.2l0.8-0.1l0.4-0.3l0.1-0.4
	l0.4-0.1l0,0l0.3-0.1l0,0l0.6,0.2l0.1-0.1l1.6,0.5l0.4-0.2l0.1-0.8h0.2l0.4,0.1l0.1,0.6l0.9,0.2l0.6-0.1l0.6-0.6v-0.4l0,0l0.1-0.1
	l0,0l0.6-0.2l0,0h0.1l0,0l0.6,0.4l1.9,0.3l1-0.6l0.9,1.2l0.1-0.7l0.4-0.3h0.9l0.3,0.3l0.3-0.4l0.3-0.1l0.1,0.1V152l0.5-0.3l0.1-0.2
	l0.1,0.1l0.1-0.4l1.3,0.6l0.9-0.3l0,0h0.1l0,0l0.4,0.4l-0.1,1.4l1.2,0.3v1.6l0.6,0.3l0.1,0.4l-0.3,0.9l0.1,0.6l-1.4,1.8l0.4,0.2l0,0
	h0.1l0,0l1.3,0.6l1.1,0.1l0,0l0.6,0.4l0.6,1.1l1.1,0.9l0.6-0.2l0.6,0.5l0.3-0.1l0.6,0.3l0.2-0.2l0.2,0.1l0,0h0.1l0,0l0.1,0.1
	l-0.3,0.4l-0.2,1.1l0.2,0.9l-0.2,0.4l0.1,0.9l0,0l0.1,0.1l0,0l2.1,3.3l0.5,0.4v-0.3l1,0.2l1.5,1.1l0,0l-0.6,0.4l-0.4,0.9l-1.3,1.4
	l-0.6,2.6l-0.7,1.4l0.1,0.7l-0.1,0.2h-0.4l-0.4,0.6l-0.3,0.1l-0.1,0.2l0.1,0.7l-0.6,0.3L161.2,180.9L161.2,180.9z"/>
<path id="ES-AR_3_" class="st5" d="M164.1,88.9l0.1,0.3h0.9l0.7,0.7l0.9-0.1l1.3,0.9l0,0l0.4,0.1l0,0l0.3-0.1l0,0l0.1-0.1l0,0
	l1.3,0.1l0.4-0.4l-0.1-0.2l0.6-1.1l0.5-0.5l-0.1-0.6l0,0h-0.1l0,0h-0.4l-0.2-0.6l-0.4-0.4l0.1-1l-0.4-0.7l0.4-1l-0.1-0.4l0.9-1.1
	l-0.1-0.3l-0.4-0.1l0.2-0.9l0.9-0.9l-0.1-0.9l0.3-0.6l0.5,0.3l0.3-0.1l0,0h0.1l0,0v-0.6l0.6-0.4l-0.3-0.2h0.3l0.1-0.7h1.6v-0.8
	l0.2-0.1L176,76l0.6-0.7h0.3V75l0.5-0.1l0.2-0.4l-0.1-0.2l0.1-0.9l0.5-0.4l0.1-0.6l0.5-0.4h0.8l0,0l-0.1,0.4l0.5,0.4l0.3-0.1
	l0.3,0.4l0.7,0.6v0.5h0.4v0.4l0.2,0.1l0.1-0.3h0.2V74l0.3-0.3l0.9,0.6l0.4-0.2l0.4,0.1l0.5-0.6l0.3,0.1l0.1-0.3l0.7,0.5l0.2-0.1
	l0.1,0.3l0.7,0.4l0.4-0.2l0.7,1.4l0.5,0.1l0.1,0.4l0.6,0.2l0.4-0.1l0.1-0.2l0.5,0.1l0.4-0.4l0.5,0.1l0.6-0.2l0.2-0.3l1.1,0.4
	l0.1,0.4l0.4,0.4l0.4-0.2l0.1-0.4l0.5-0.4l0.9,0.6l0.9-0.2l0.5,0.1l0.2-0.1l0.8,0.1l0.1-0.2l0.9,0.3l0,0l0.1,0.1l0,0l0.1,0.1l0,0
	l0.3,0.4l0.1,0.6l0.9,0.2l-0.4,1.2l0.1,0.2l-0.2-0.1l-0.2,0.2v0.3l0.3,0.1l-0.4,0.4L199,80l-0.1,0.1l0.7,1.9l-0.3,0.4l0.6,0.3
	l-0.4,0.3l0.4,0.3l-0.9,2.4l-0.1,0.3l0.2,0.1l-0.3,0.2l0.1,0.6l-0.4,1.3l-0.2,0.1v0.8l-0.1,0.3l-0.1-0.2l-0.3,0.1l-0.1,0.5l-0.2-0.1
	l-0.4,0.5l0.6,0.4h-0.1l-0.1,0.6l0.2,0.3l-0.4,0.1v0.2h-0.4l-0.1,0.6h-0.4l-0.4,0.4l-0.2,0.6l-0.9,0.1l-0.1,0.5l-0.1-0.1L194,95v0.4
	l0.4,0.5l-0.1,0.6l0.7,0.1l0.4-0.1l0.3,1.1l-0.7,0.9l-0.8,0.1l0.1,0.6l-0.5,1l0.7,0.8l-0.4,0.4l0.3,0.2l-0.1,0.3l0.3,0.5l-0.1,0.8
	h-0.2v0.2h-0.6l-0.4,1.2l-0.6,0.1l-0.1,0.4l-0.4-0.1l-0.1,0.2v0.7l0.3,0.1l0.1,0.5l-0.1,0.2l0.2-0.1v0.2l0.2-0.1l0.4,0.4l-0.2,0.1
	l0.3,0.6l0,0v0.1l0,0l0.1,0.1L193,109l0,0v0.1l0,0l-0.2,0.6l0.5,1.1l-0.6,0.6l-0.1,0.4l-0.7,0.2v0.2l-0.2-0.1l0.1,0.3l0,0l-0.3,0.3
	l-0.5-0.1l-0.9,0.6l0,0l-0.1-0.1l0,0l-0.1-0.5l0,0v-0.1l0,0l-0.3-0.1l0,0h-0.3l0,0l-0.6,0.1l-0.6-0.3l-0.5-0.4v-0.3h-0.7l-0.5,0.8
	l-0.1,0.9l-1,0.6l-0.3-0.4l-0.6,0.3l0.1,0.9l0.6,0.2l0.4-0.1l-0.1,1.7l0.4,0.3l0.1,0.4l-0.9,0.4l-0.1,0.3l0.8,1l0.1,0.4l-0.8,0.4
	l-0.4,0.6h-0.3l-0.1,0.2l0.2,0.6l-0.6,0.4l-0.9,0.3l-0.7-0.4l-0.5,2l-0.4,0.2l-0.3,0.4l0.2,0.6l-0.2-0.1l-0.7,0.5h-1l-0.4,0.9
	l-0.7,0.3v0.9l0.6,0.8l-1,0.6l-0.6-0.4l0.1-0.3l-0.1-0.5l0.1-0.4l-0.2-0.4l-0.1,0.1l-0.8-0.4l-1.1,0.1l-0.3,0.2l-0.4-0.1l-0.1,0.2
	l-0.2-0.1l0,0l-0.3-0.7l0,0l1.1-0.4l0.1-0.2l-0.1-0.4l-0.9-0.8l-1.4-0.1v-1.3l-0.4-0.3l-0.2-0.5l0,0l-0.1-0.2l0,0v-0.1l-0.3,0.2v0.9
	l-0.2,0.1l0,0l-0.2,0.2l0,0l-0.3-0.1l-0.2,0.1l0,0l-0.1-0.1l0,0l-0.6-0.1l0,0l0.1-0.9l-0.5,0.2l-0.5-0.3l-0.4,0.2l-2-2.1l-0.4,0.6
	l-0.1-0.4l0.1-0.3h0.3l-0.4-0.4l0,0l-0.1-0.1l0,0l-0.6-0.9l-0.4-0.1v-0.2l0.1-0.1l0.1,0.1l0.6-0.9l0.7-0.4l-0.1-0.9l0.1-0.7l0.3-0.3
	l1,0.5l0.7-0.6l-0.2-0.3l0.4-1.3l-0.4-0.9l0.3-0.4v-0.6l-0.2-0.6l-0.2-0.1l-0.6-0.9l0.1-0.9l0,0l-0.6-0.4l0,0l-0.4-0.4l0,0l-0.1-0.2
	l0,0l-1.9-2l-0.7-0.2l-0.6-0.6l0,0l-0.1,0.1l0,0l-0.6-0.7l-1.3,0.4l0,0l-0.4-0.4l-0.9-0.2l-0.4-1.9l0.3-0.8l-0.1-0.4l0.5-0.3
	l0.3-1.4l0.9,0.4l-0.1,0.6l0.2,0.2l1.2-0.4v-0.2l-0.2-0.1V99l-0.4-0.4l0.2-1.1l-0.4-0.6v-0.4h0.9l0.4-0.6l0,0l0.1-0.1l0,0h0.2
	l0.2-0.4l0.7-0.1l-0.1-0.4l0.5-0.7l-0.4-0.2l0.1-0.3l-0.7-0.6l0.4-0.7v-0.5l-0.5-0.9v-1.1l0,0L164.1,88.9L164.1,88.9z"/>
<path id="ES-AS_3_" class="st4" d="M109.5,58.2l0.1,0.3l0.6,0.2l-0.1,0.3l0.3,0.2l0.1,0.4l1.1,0.2l-0.1,0.2l-0.1-0.1l0.1,0.3
	l0.1-0.1l-0.1,0.3l0.3,0.1l0.1-0.1l0.2,0.1l0.4-0.3l0.4,0.2l1-0.1l0.3,0.1l1.2-0.2l0.3,0.5l0.2-0.1l1.1,0.1l1.1,1.1l1.3-0.2l1.5,0.5
	L122,62l0.7,0.4l0.5-0.1l0.1,0.2l0.3-0.1l1.6,0.6l1.1,0.2h1.4l0,0v0.2l-0.4,0.4l0.3,0.8l-0.1,0.6l-0.4,0.2l-0.1-0.4l-0.7-0.3
	l-0.4,0.6l-1.3,0.2l0.1,0.4l-0.2,0.9l-0.6-0.1l-0.4,0.2l0,0h-0.1l0,0l-0.3,0.1l0,0l-0.4-0.9l-0.6-0.2l-0.7,0.5l-0.4,0.7l-0.4-0.2
	l-0.7,0.1l-0.4,1.5h-0.5l-0.1-0.2l-0.8,0.4l0,0l-0.1,0.1l0,0l-1.6,0.2l-0.3-0.3h-0.4l-0.2,0.1l-0.1,0.7l-1.2-0.1l-0.2,0.6l-1.9-0.2
	l-0.8-0.4l-0.5,0.3l-0.6,1l0.1,0.3l-0.6,0.1h-0.5l-0.3-0.4h-0.4l0.1-0.3h-0.4l-0.6-0.5l-0.2-0.9l-0.6,0.2l-0.9-0.4l-0.2,0.8
	l-0.6,0.2l-0.6-0.5h-0.5l-0.1,0.7l-0.5-0.1l-0.3-0.4l-0.1,0.1l-0.4-0.1l-0.1-0.3l-0.4-0.3l-0.2,0.4l-0.3,0.1l0.1,0.4l-0.3,0.1
	l-0.1,0.6l-0.2-0.1l-0.1,0.2l-0.4-0.2l0,0h-0.1l0,0l0.1,0.5l0.5,0.1v0.4l-0.7,0.1l-0.1,0.3l-0.3-0.1l-0.4,0.3L99,72l-1.1,0.1
	l-0.5,0.1l-0.5,0.6h-0.2v-0.3L96,72.2l0,0L95.7,72l0.1-0.6l-0.5-0.6h-0.5L94.2,70v0.7H94l-0.4-0.5l0.2-0.4L94,70v-0.5l0.4-0.5
	l0.4,0.2l0.3-0.3h0.3l0.6-0.6L96,68l-0.4-0.5l-0.4,0.1v0.1l-0.7,0.4l-0.3-0.1l-0.3-0.6l0.2-0.4L94,66.8l-0.4-0.1l-0.1-0.3l-0.1,0.1
	L92.7,66l-0.1-0.4l0.1-0.6h-0.6l-0.4-0.5v-0.8l-0.1-0.3l-0.3,0.1L91,63.3l0.1-0.4l0,0v-0.1l0,0v-0.5l0.9,0.1l0.2-0.5l0.5-0.4l0,0
	l0.3-0.5l0-0.1l0.1-0.4h0.4l-0.4-0.3v-0.3l0.7,0.1l0.3-0.3l0.1,0.1v-0.2l0.7,0.1l0.1,0.2l0.4-0.2l0.6,0.3l0.9-0.2l0.3,0.4l0.2-0.3
	l0.5,0.1l0.6-0.2l0.1,0.2l0.2-0.1l0.1,0.2h0.8l0.1,0.2l0.9-0.1l0.1-0.4l0.6,0.4l0.4-0.1l0.6,0.1l1.4-0.5l0.1-0.3l0.3,0.3l0.1-0.1
	l0.1,0.2l0.2-0.1v0.3l0.4-0.1l0.6,0.3l1.3-0.6l0.3,0.3l0.5-0.1l0.3-0.3l-0.1-0.1l0.4-0.1v-0.3h0.5l0.3-0.2v-0.4
	C109.3,58.3,109.5,58.2,109.5,58.2z"/>
<path id="ES-CB_3_" class="st4" d="M144.5,66.8l-0.3-1l0.6-0.3l0.2,0.1l-0.3,0.5v0.5l0,0L144.5,66.8L144.5,66.8z M140.3,60.9v0.2
	l0.5-0.1l0.1,0.3l0.3-0.1l0.2,0.4l0.9,0.1l0.1,0.4l-0.4,0.1l0.4,0.5l0.2-0.1l0.6,0.1l0.6-0.1v0.4l0.3-0.1l1,0.2l0.5,0.6l0.6,0.2l0,0
	l-0.1,1l-0.4,0.1l-0.3,0.3l-0.2-0.5l-0.7,0.4l-0.2-0.2l-0.4,0.1l-0.1-0.1l-0.1,0.4l-0.6,0.1l-0.2,0.4l-0.7,0.2l0.1,0.4l0,0l0.1,0.1
	l0,0l0.2,1.4l0,0h-1l-1.1-0.4l-0.4,0.1l-0.1-0.4l-0.5-0.2l-0.4,0.7l0,0v0.1l0,0l-0.3,0.4l-0.6,0.3l-0.1,0.4h-0.9l-0.4-0.1l0.1,0.9
	h-0.6l-0.4,0.5l-0.5,0.3l-0.5,1.3l0.2,0.4l0.6-0.1v0.3l0.9-1l0.5,0.5l-0.5,0.6l-0.6-0.2l0.2,0.4h-0.4l0.4,0.1l-0.2,0.3l0,0v0.1l0,0
	l0.6,0.1l0.1-0.6l0.4,0.2l0.3,0.9l-0.1,0.6l-0.6,0.2l-0.4-0.4l-0.2,0.6l-0.3-0.1l-0.6,0.3l-0.1-0.2h-0.2l-0.1-1.1l-0.1,0.1l0.1,0.2
	l-0.2,0.1l0.1,0.2l-0.3,0.1l0.1,0.3l-0.5,0.1l-0.2-0.6h-0.7l-0.4-0.4v-0.2l0.4-0.3l0.3,0.1l0.1-0.4l-0.3-0.3l-0.7,0.5l-0.4-0.2v-1
	l-0.2-0.1v-0.7l-1.5-0.4l-0.7-1.1l-0.9-0.5l-0.2,0.4l-0.6-0.1l-0.5,0.5l-0.6-0.3l-0.4,0.4l-0.6-0.1l-0.7,0.1l-0.1-0.6h-0.3v-0.4
	l-0.9-0.5l-0.3-0.4l0.2-0.6l-0.2-0.3l0.1-0.1l0,0l0.3-0.1l0,0h0.1l0,0l0.4-0.2l0.6,0.1l0.2-0.9l-0.1-0.4l1.3-0.2l0.4-0.6l0.7,0.3
	l0.1,0.4l0.4-0.2l0.1-0.6l-0.3-0.8l0.4-0.4v-0.2l0,0l0.6,0.1l0.7-0.1l0.5,0.1l0.6-0.3l0.2,0.3h0.6l1.4-0.2l0.9-0.4l0.4-0.4l0.4,0.1
	l0.1-0.2l0.1,0.2l0.2-0.3l0.7,0.2l-0.2-0.1l0.5-0.6l1.4-0.1l0.4-0.3l0.4,0.1v0.3l0.3,0.2l-0.5,0.1l-0.4,0.4v0.2l0.4,0.1l-0.1,0.4
	l0.1-0.3l0.1,0.1l0.3-0.2l-0.1-0.2h0.2l0.1-0.3h0.4l-0.4-0.1h0.5l0.1-0.3h0.4l0.6-0.4h0.4L140.3,60.9L140.3,60.9z M133.2,73.8
	L133.2,73.8L133.2,73.8L133.2,73.8L133.2,73.8l0.2,0.1l0,0l0.1,0.4l-0.1,0.1l-0.1-0.4l0,0L133.2,73.8L133.2,73.8z M132.4,73.9
	L132.4,73.9L132.4,73.9l0.1,0.1l0,0l-0.1,0.1l0,0l-0.1-0.1l0,0v-0.1l0,0v-0.1l0,0L132.4,73.9L132.4,73.9L132.4,73.9z"/>
<path id="ES-CL_3_" class="st5" d="M149.2,77.8l0.1,0.2l-0.3-0.1l0,0L149.2,77.8L149.2,77.8z M148.5,77.9L148.5,77.9L148.5,77.9
	L148.5,77.9L148.5,77.9L148.5,77.9L148.5,77.9l-0.1-0.1l0,0l0,0l0,0h0.1l0,0L148.5,77.9L148.5,77.9L148.5,77.9z M150.7,74.6
	L150.7,74.6L150.7,74.6l1.3-0.1l1.2,0.5l0.6-0.1l0.2,0.4l0.4-0.2l-0.2,0.7l-0.2,0.2l-0.1-0.1l-0.1,0.4l0.4,0.5l0.7-0.3l0.1,0.7
	l-0.4,0.1l-0.1-0.2h-1.1l-0.3-0.4h-0.6l-0.2,0.2l-0.6-0.1l-0.2-0.6l-0.6-0.2l-0.6-0.6l0.4-0.8l0,0l0.1-0.2l0,0L150.7,74.6
	L150.7,74.6C150.7,74.5,150.7,74.6,150.7,74.6z M132.3,73.9L132.3,73.9L132.3,73.9h0.1l0,0l0,0l0,0v0.1l0,0V74l0,0l-0.1,0.1l0,0
	L132.3,73.9L132.3,73.9L132.3,73.9L132.3,73.9L132.3,73.9L132.3,73.9L132.3,73.9L132.3,73.9L132.3,73.9L132.3,73.9z M133.3,73.8
	L133.3,73.8L133.3,73.8l0.1,0.4l-0.1,0.1l-0.1-0.4l0,0L133.3,73.8L133.3,73.8L133.3,73.8L133.3,73.8L133.3,73.8z M96,72.1l0.7,0.3
	v0.3H97l0.5-0.6L98,72l1.1-0.1l0.9,0.2l0.4-0.3l0.3,0.1l0.1-0.2l0.6-0.1v-0.4l-0.5-0.1l-0.1-0.5l0,0h0.1l0,0l0.4,0.2l0.1-0.2
	l0.2,0.1l0.1-0.6l0.3-0.1l-0.1-0.4l0.3-0.1l0.2-0.4l0.4,0.3l0.1,0.3l0.4,0.1l0.1-0.1l0.3,0.4l0.5,0.1l0.1-0.7h0.5l0.6,0.5l0.6-0.2
	l0.2-0.8l0.9,0.4l0.6-0.2l0.2,0.9l0.6,0.5h0.4l-0.1,0.3h0.4l0.3,0.4h0.5l0.6-0.1l-0.1-0.3l0.6-1l0.5-0.3l0.8,0.4l1.9,0.2l0.2-0.6
	l1.2,0.1l0.1-0.7l0.2-0.1h0.4l0.3,0.3l1.6-0.2l0,0l0.1-0.1l0,0l0.8-0.4l0.1,0.2h0.5l0.4-1.5l0.7-0.1l0.4,0.2l0.4-0.7l0.7-0.5
	l0.6,0.2l0.4,0.9l0,0l-0.1,0.1l0.2,0.3L123,68l0.3,0.4l0.9,0.5v0.4h0.3l0.1,0.6l0.7-0.1l0.6,0.1l0.4-0.4l0.6,0.3l0.5-0.5l0.6,0.1
	l0.2-0.4l0.9,0.5l0.7,1.1l1.5,0.4v0.7l0.2,0.1v1l0.4,0.2l0.7-0.5l0.3,0.3l-0.1,0.4l-0.3-0.1l-0.4,0.3v0.2l0.4,0.4h0.7l0.2,0.6
	l0.5-0.1l-0.1-0.3l0.3-0.1l-0.1-0.2l0.2-0.1l-0.1-0.2l0.2-0.2l0.1,1.1h0.2l0.1,0.2l0.6-0.3l0.3,0.1L136,74l0.4,0.4l0.6-0.2l0.1-0.6
	l-0.3-0.9l-0.4-0.2l-0.1,0.6l-0.6-0.1l0,0v-0.1l0,0l0.2-0.3l-0.4-0.1h0.4l-0.2-0.4l0.6,0.2l0.5-0.6l-0.5-0.5l-0.9,1v-0.3l-0.6,0.1
	l-0.2-0.4l0.5-1.3l0.5-0.3l0.4-0.5h0.6l-0.1-0.9l0.4,0.1h0.9l0.1-0.4l0.6-0.3l0.3-0.4l0,0v-0.1l0,0l0.4-0.7l0.5,0.2l0.1,0.4l0.4-0.1
	l1.1,0.4h1l0,0l2.2-1.2l0.4,0.5l0.7-0.1l0.4,0.2l-0.5,0.9l0.4,0.3l0.1-0.1l0.1,0.2l-0.3,0.4l0.2,0.1v0.7l-0.5,0.1l0.4,0.3l1.1,0.1
	l0.4,0.4l-0.1,0.2l0.9,0.6l-0.6,0.6l-1,0.1l-0.8-0.4v-0.3l-1.1-0.3l-0.9,1.3l0.9,1h0.1l-0.2-0.2l0.4-0.6l0.5,0.2l0.5-0.6l0.1,0.4
	l-0.7,1.3l0.4,0.3l-0.3,0.6l1.4-0.1l0.1,0.5h0.4l0,0v0.1l0,0l0.5,0.6l0.7-0.1l0.4,0.3l0.1,0.4l0,0l0,0l0,0l0.1,0.4l0.4,0.2l0,0
	l-0.4,0.3l-0.2-0.1l-0.2,0.1l-0.5-0.4l-0.5,0.1l-0.3-0.1l-0.2,0.2l-0.9-0.1l0.3,0.9l0,0l0.1,0.4l0,0l-0.4,0.6l-0.4,0.2l0.1,0.1
	l0.5-0.1l0.2,0.1l-0.1,0.5L147,80l0.6,0.8l-0.2,0.4l0.1,1l-0.4-0.5l0.1-0.4h-0.3l-0.1,0.6h0.3l0.3,0.4l-0.6,0.1l0.1,0.4l0,0L147,83
	l0,0l-0.1,0.2l0.2,1.2l-0.2,0.6l-0.3,0.4l1.3,2l1.3-0.1l0.3,0.9l0,0v0.1l0,0l0.4,0.4l0.4-0.4l0.6-0.1l0.2-1.2l0,0v-0.1l0,0l0.2-0.3
	l0.3,0.1l0.2-0.1l0.4,0.4v0.4l-0.6,0.9l0.1,0.4l0.6-0.1l0.4,0.4l0.6-0.1l0.6,0.2l0.4-1l0.4-0.3v-0.8l0.4,0.1l0.4-0.1l0.2-0.4
	l1.6-0.1l0.5,0.3l0.2,0.8l0.4-0.3l1.5,0.1v0.4l-0.4,0.3l0.7,1.1l-0.2,0.1l0.1,0.6l1.4,0.4l0,0l0.1,0.1l0,0l0.4,0.4h0.3l1.4-0.9l0,0
	V91l0.5,0.9v0.5l-0.4,0.7l0.7,0.6l-0.1,0.3l0.4,0.2l-0.5,0.7l0.1,0.4l-0.7,0.1l-0.2,0.4h-0.2l0,0l-0.1,0.1l0,0l-0.4,0.6h-0.9V97
	l0.4,0.6l-0.2,1.1l0.4,0.4v0.6l0.2,0.1v0.3l-1.2,0.4l-0.2-0.2l0.1-0.6l-0.9-0.4l-0.3,1.4l-0.5,0.3l0.1,0.4l-0.3,0.8l0.4,1.9l0.9,0.2
	l0.4,0.4l0,0l-0.1,0.6l0.2,0.6l-0.1,0.1l-1.1-0.9l-0.6,0.6l-0.7-0.2l-0.4,0.5l-0.4-0.1l-0.4,0.3l-0.4-0.5l-0.9,0.5l-0.2-0.3
	l-0.5-0.1l-0.2-0.6l-0.4-0.1l-0.1-0.5l-0.3-0.2l-0.5,0.4l-0.3-0.2l0.2-0.5l-0.6-0.1l0.4-0.2l0.1-0.4l-0.6,0.1l-0.2-0.4l-0.9-0.2
	l-0.1-0.4h-0.6l-0.2,0.4l-0.1-0.4l-0.6-0.3l-0.1-0.8l-0.5-0.2l-0.4,0.2l-0.1,0.4l-0.9,0.1l-0.6,0.3l-1.7-0.6l-0.7,0.2l-0.3,0.6
	l-0.2-0.3l-0.2,0.4l-0.4-0.1l-0.1,0.1l-0.8-0.1l-0.3-0.3l0.2,0.5l-0.1,0.6h-0.6l-0.3,0.6l-0.6,0.2l0,0l-0.1,0.1l0,0l0,0l0,0
	l-0.1-0.1l0,0H141l0,0l0,0l0,0l-0.7,0.1l-0.6,0.4l-0.6,0.9l-0.9,0.5l-0.6,0.9l-1.6,0.6l-0.4,0.7l-0.2,0.1l-0.6,2.5l-0.6,0.1
	l-0.6-0.2l-0.4,0.8l-0.9,1.1l0,0l-0.3-0.1l0,0l-0.2,0.1l0,0l-0.7,0.1l-0.3,0.2l0,0l0,0l0,0l-0.2-0.1l-0.4,0.3v0.3l0,0l-0.2,0.2
	l0.6,0.1l0,0l0.1,0.4l-0.1,0.7l-0.4,0.3l-0.1,0.3l0.1,1.2l-0.4,0.5l0.3,0.5l-1.4,0.1l-0.3,0.4l0.1,0.6l-0.3,0.1l0.1,0.4l-0.6,0.1
	l-0.4-0.5l-0.3,0.1l0.2,0.9l-0.6,0.6l0.1,0.6l-0.3,0.1l0,0l-0.9,0.4l-0.5-0.2l-0.1-0.7l-0.2-0.2l0.1-0.4l-0.6,0.1l0,0l-0.3,0.2l0,0
	l-0.6-0.3l-0.2,0.4l0.1,0.4l-0.9,0.6l0,0l-0.1,0.1l0,0l-0.6,0.4l-0.1,0.6l-0.9,0.4l0,0h-0.1l0,0l-0.1-0.9l-0.6,0.1l-0.3,0.5
	l-0.1-0.1l-0.6,0.6l-0.4,0.1l-0.4,0.1l-0.1-0.4l-0.7-0.1l0,0h-0.1l0,0l-0.5,0.1l0,0l-0.3-0.1l0,0l-0.1-0.1l0,0l-0.4-0.9v-0.9
	l0.4-0.9l-1.1,0.2l-0.6,0.8l-0.4,0.1h-0.7l0,0h-0.1l0,0l-0.1-0.1l0,0l-0.2-0.1l0,0l-0.4-0.1l-0.1-0.5l-0.4-0.1l-0.1-0.4l-0.4-0.4
	H111l-0.4,0.2l-0.4-0.1l-0.1-0.2l0.2-0.4L110,119l-1.1,0.7l-0.4,0.7l-0.8-0.3l0,0l-0.1-0.1l0,0l-0.4-0.3l0,0l-0.1-0.1l0,0v-0.4
	l-1.2-0.3l0.3-0.1l-0.1-0.2l0.1-0.1l-0.1-0.1l0.2-0.1l-0.3-0.2l0,0H106l0,0l-0.5-0.2l0.1-0.4l-0.4,0.1l-0.2-0.4l-1-0.5l-1.6,0.9l0,0
	l-0.2,0.2l0,0l-0.1,0.4l-0.6,0.1l-0.3,0.5h-0.4l-1.1,0.6l-0.2,0.4l0.1,0.5l-0.4,0.4l-1.1,0.1l-0.4,0.4l-0.4-0.5l-0.5,0.5l-0.4-0.1
	l0,0h-0.2l0,0l-0.1,0.1l-0.4-0.1l-0.4-0.4l0,0l0.1-0.6l0.9-0.6l0.1-0.6l-0.7-0.8l-0.1-0.7l0.7-1.1l-0.1-0.7l-0.6-0.4l0.6-1.6
	l-0.5-1.6l0.2-0.9l-0.1-0.6l0.4-0.1v-0.5l-0.1-0.4l-0.5-0.4l-0.1-0.9l-0.9-0.9l-0.1-0.5l0.2-0.1l0.7,0.2l0.7-0.1l0.7-1.1l-0.2-0.6
	l0.9-0.9l0.1-0.5l0.6-0.7l0.6,0.1l0.1-0.2l0.2,0.3l0.7-0.6l0.1,0.2l0.3-0.1l0.2-0.1l-0.1-0.3l0.6-0.1l0.4-0.9l0.5-0.2l-0.2-0.2
	l0.1-0.3l0.3-0.1l0.2,0.3l0.5-0.1l-0.2-0.4l0.5-0.4L103,99l1.6-2.3l-0.2-0.4l-0.4-0.1l-0.9-0.9l-2-0.5l-0.2,0.3l-0.6,0.2l-0.6-0.5
	V94l-0.3-0.4l0.7-2.3l-0.8-0.3l0.4-0.9l-0.6-0.6l-0.4,0.5l-1.1,0.1l-0.7-0.1l-0.3-0.8l-0.4-0.1l-0.4,0.9h-1.6L94,89.7l-0.4-0.1l0,0
	l-0.1-0.4l0.4-0.6l-0.2-0.5l-0.4,0.1L93,87.8l0.4-0.2l0.2-0.7l0.5-0.1l0.1-0.8l0.6-0.3l0.2-0.4l0.6-0.2l0.6,0.4v-0.3l0,0l-0.1-0.1
	l0,0l0.8-1.2l0.1-1.1l-0.4-0.1l-0.2-0.3l-0.6-0.1l-0.3-0.4l0,0v-0.1l0,0l0.4-0.4l-0.1-0.4l0.2-0.3l-0.2-0.5l-0.4,0.1l-1-0.6L94,79.7
	l-0.2,0.4l-0.9-0.2l0,0h-0.3l0,0h-0.3l0.2-0.4L92.5,79l0.4-0.6l-0.2-0.2v-0.6l0.6-0.3l-0.5-0.9l0.4-0.5h0.5l0.1-0.6l0.4,0.2l0.9-0.9
	v-0.3l0.4-0.4L95,73l0.5-0.1l-0.1-0.4L96,72.1L96,72.1z"/>
<path id="ES-CM_3_" class="st5" d="M130.9,113.1l0.3-0.2l0.7-0.1l0,0l0.2-0.1l0,0l0.3,0.1l0,0l-0.2,0.4l0.2,0.8l-0.9,0.4l0,0h-0.2
	l0,0l-0.2-0.1l-0.1-0.4h-0.3l0,0l-0.6-0.1l0.2-0.2l0,0l0.9-0.1L130.9,113.1z M141,104.3h0.1l0,0l0.1,0.1l0,0l0,0l0,0l0.1-0.1l0,0
	l0.6-0.2l0.3-0.6h0.6l0.1-0.6l-0.2-0.5l0.3,0.3l0.8,0.1l0.1-0.1l0.4,0.1l0.2-0.4l0.2,0.3l0.3-0.6l0.6-0.2l1.7,0.6l0.6-0.3l0.9-0.1
	l0.1-0.4l0.4-0.2l0.5,0.2l0.1,0.8l0.8,0.2l0.6,0.1l0.2-0.4h0.6l0.1,0.4l0.9,0.2l0.2,0.4l0.6-0.1l-0.1,0.4l-0.4,0.2l0.6,0.1l-0.2,0.5
	l0.3,0.2l0.5-0.4l0.3,0.2l0.1,0.5l0.4,0.1l0.2,0.6l0.5,0.1l0.2,0.3l0.9-0.5l0.4,0.5l0.4-0.3l0.4,0.1l0.4-0.5l0.7,0.2l0.6-0.6
	l1.1,0.9l0.1-0.1l-0.2-0.6l0.1-0.6l0,0l1.3-0.4l0.6,0.7l0,0l0.1-0.1l0,0l0.6,0.6l0.7,0.2l1.9,2l0,0l0.1,0.2l0,0l0.4,0.5l0,0l0.1,0.3
	l0,0l-0.1,0.9l0.6,0.9l0.2,0.1l0.2,0.6v0.6l-0.3,0.4l0.4,0.9l-0.4,1.3l0.2,0.3l-0.7,0.6l-1-0.5l-0.3,0.3l-0.1,0.7l0.1,0.9l-0.7,0.4
	l-0.6,0.9l-0.1-0.1l-0.1,0.1v0.2l0.4,0.1l0.6,0.9l0,0l0.1,0.1l0,0l0.4,0.4h-0.3l-0.1,0.3l0.1,0.4l0.4-0.6l2,2.1l0.4-0.2l0.5,0.3
	l0.5-0.2l-0.1,0.9l0,0v0.4l0.6,0.4l-0.1,0.1l0.6,1.4l1.4,0.1l0,0v0.1l0,0l0.4,0.1l1.1-0.3l0,0l0.3,0.7l0,0l-0.9,0.4l-0.1,0.3
	l0.2,0.4l0,0l-0.1,0.2l0,0l-0.2,1.7l-0.8,1.2l0.1,0.7l-0.2,0.4l-0.5,0.1l0,0l-0.4-0.1l0,0l-0.4-0.1l-0.5,0.4l-0.8,1.6l-0.8,0.5
	l0.2,0.1l0.1,0.9l-0.1,0.1l0.1,0.3l-0.2,0.2l-0.2,0.1l0.1,0.4l0.3,0.1l0,0l-0.1,0.1l0,0h0.3l-0.1,0.4h0.3l-0.1,0.1l0.2-0.1l0,0l0,0
	l0,0l0.1,0.3h-0.2l0.3,0.1v0.2l0,0h-0.1l0,0l0.4-0.2l0,0v0.1l0,0v0.1v-0.4l0.4,0.1l-0.1,0.1h0.4v0.2h0.2l0.4,0.4l0.1-0.1l0,0h0.1
	l0,0l0.5,0.1l0,0h0.1l0,0h0.3l0,0l0.1,0.1l0,0l0.4,0.1l0.1-0.1l0.6,0.4l-0.3,1.7l-1,1.8l-0.1,1.1l0.5,0.4l1.1,1.6l1.5-0.1l0.4-0.3
	l0.6,0.1l0.1,0.6l0.4,0.3l-0.1,0.6l0.1,0.6l-0.1,0.7l-0.4,0.2l0.6,1.4l-0.6,0.7h-0.9l0,0l-1.2-0.9l-0.1-0.5l-0.9-0.3l-0.7,0.2l0,0
	l-0.1,0.1l0,0l-1.3,1.1l-0.4-0.4l-0.3,0.1l-0.9,0.9l-0.1,1.1l-0.5,0.4l-0.1,0.5l0.2,0.9v1.9l-1.5,1.1h-1.1l-0.3-0.5l0,0v-0.1l0,0
	l0.1-0.3l-0.3-0.3l-0.2,0.2l-0.4-0.3h-0.4v0.2l-0.4-0.1l0.1,0.2l-1.7,1l-1,0.3l-0.9-0.4L161,155l0,0l-0.2,0.4l0,0l-0.5,0.6l-1.4,0.6
	l-0.7,1.6l-0.9,0.7l-0.1,0.7l0,0l-1.1-0.1l-1.3-0.6l0,0h-0.1l0,0l-0.4-0.2l1.4-1.8l-0.1-0.6l0.3-0.9l-0.1-0.4l-0.6-0.3v-1.6
	l-1.2-0.3l0.1-1.4l-0.4-0.4l0,0l0,0l0,0l-0.9,0.3l-1.3-0.6l-0.1,0.4l-0.1-0.1l-0.1,0.2l-0.5,0.3v0.1l-0.1-0.1l-0.3,0.1l-0.3,0.4
	l-0.3-0.3h-0.9l-0.4,0.3l-0.1,0.7l-0.9-1.2l-1,0.6l-1.9-0.3l-0.6-0.4l0,0h-0.1l0,0l-0.6,0.2l0,0l-0.1,0.1l0,0v0.4l-0.6,0.6l-0.6,0.1
	l-0.9-0.2l-0.1-0.6l-0.4-0.1h-0.2l-0.1,0.8l-0.4,0.2l-1.6-0.5l-0.1,0.1l-0.6-0.2l0,0l-0.3,0.1l0,0l-0.4,0.1l-0.1,0.4l-0.4,0.3
	l-0.8,0.1l-2.9-0.2L131,153l-0.2,0.4l0.1,0.6l-0.2,0.1l-2.3-1l-1.2-1.4l-0.2,0.1l-0.1-0.2l-0.3-0.1l-0.1,0.1l-0.4-0.6l-0.6-0.4
	l-0.5-0.1l-0.1-0.4l-2.1-0.7l-0.3-1.2l-0.9,0.1l-0.8-0.2l-0.1-0.4l-0.5-0.2l0,0l0.8-0.2l0.7-2.1l0.3-0.4l0.9,0.1l0.2-0.9l-1-0.4
	l-0.2,0.1l-0.6-1.7l1.1,0.4l0.6-0.2l0,0h0.1l0,0l0.1-0.3l-0.2-0.1l0,0l-0.1-0.1l0,0l-0.3-0.5l0.5-1.1l0,0h0.1l0,0l0.4-0.6l0.9,0.1
	l1.2,0.5l-0.8-0.8l-0.1-0.6l-0.3-0.1l-0.4-1.2l0.7-0.1v-0.6l0.5-1.1l-0.3-0.4l-0.6,0.5l0,0l-0.1,0.1l0,0l-0.4,0.4l-0.8,0.1l0,0l0,0
	l0,0l-0.5,0.4l-1.1-0.4l-1.5-1.6l-0.4-0.1l-1-1.2l0,0l-0.2-0.2l0,0l-0.4-0.5l0.6-0.8l0,0v-0.1l0,0l0.3-1.1l-0.5-0.7l0.2-0.1
	l-0.1-0.7l-0.6,0.1l-0.6,0.8l-0.7-0.1l-0.1-1.2l0.4-0.6l-0.6-0.5l-1.1,0.3l0.6-1.9l-0.1-2.1l0.4-0.3l0,0l0.1,0.1l0,0l0.3,0.1l0,0
	l0.5-0.1l0,0h0.1l0,0l0.7,0.1l0.1,0.4l0.4-0.1l0.4-0.1l0.6-0.6l0.1,0.1l0.3-0.5l0.6-0.1l0.1,0.9l0,0h0.1l0,0l0.9-0.4l0.1-0.6
	l0.6-0.4l0,0l0.1-0.1l0,0l0.9-0.6l-0.1-0.4l0.2-0.4l0.6,0.3l0,0l0.3-0.2l0,0l0.6-0.1l-0.1,0.4l0.2,0.2l0.1,0.7l0.5,0.2l0.9-0.4l0,0
	l0.6,0.3l0.2-0.3l1.1-0.4v-0.4l0.7-0.5l0.1-0.5l0.3,0.2l0.1,1.3h0.2l0.1,0.2l0.2-0.1l0.1,0.3l0.4-0.3l0.3-0.7l0.8-0.4l0.6,0.6v0.4
	l0.6,0.1l0.6-0.4l0.6,0.3v0.2l0.5,0.5l0.5-0.1l0.1,0.4l0.3-0.3l0.2,0.2h0.5l0.6,0.5l0.4-0.3l0.5,0.7l0.4,0.1l0.3-0.3l0.4,0.3
	l0.3-0.2l0.1,0.2l0.7,0.4l-0.2,0.9l-0.9,0.7l-0.2-0.1l-0.2,0.6l-0.3,0.1l0.1,0.1l0,0h0.1l0,0l-0.1,0.1l-0.3-0.1l0.1,0.3l-0.1,0.1
	v-0.4l-0.4,0.4l-0.3-0.1l-0.4,0.4l-0.1-0.2l-0.3,0.1l-0.3,0.2l0.1,0.1l0,0v0.1l0,0l0.1,0.2l0.9,0.3l0.6-0.6l0,0l0.1-0.1l0,0l0.1-0.4
	l0.5-0.3l0.1,0.1l0.9-0.4l-0.1-0.4l0,0l0.2-0.1l0,0l0.4-0.4l0.9-0.1l0.2-0.5l0.5,0.1l0.3-0.1v0.2l0.3-0.1l0.4,0.2l0.3-0.4v-0.4
	l0.6-0.1l0.4,0.5l0.4,0.1l0.1-0.1l0.9-0.1l0.2-0.4l0,0l0,0l0,0l0.3-0.1l0.1,0.5l0.6,0.1l0.5-0.2l0.4-0.6l-0.6-0.6l0.1-0.4l0.3,0.1
	l-0.2-0.6l0.1-0.6l-0.3-0.9l-0.2-0.2l-0.5,0.4l-0.3,0.5l-0.3-0.2l0.2-1.1l0.6-0.7l-0.1-0.3l0.3-0.6l-0.4-0.6l-0.6-0.1v-1.3l-0.4-0.4
	l-0.4,0.1l0,0h-0.1l0,0h-0.4l0.1-0.6l-0.6-0.4l0.1-0.3l-0.1,0l0.2-0.1l0,0v-0.2l0,0l0.1-0.2l-0.3,0.3l-0.4-0.1l-0.1-0.6l-0.3-0.2
	l-0.1,0.4l-0.2-0.2l-0.3,0.1l0,0v-0.1l0,0l-0.3-0.2l0.4-0.7l-0.2-0.1l0.1-0.5l0,0v-0.1l0,0l-0.2-0.4l-0.6-0.1l0.6-1l-0.1-0.4
	l0.4-0.3l-0.3-0.4h0.2l0.4-1.4l0.3-0.2l-0.6-0.7l0.2-0.7l-0.9-0.2l-0.3-0.7l-0.4-0.2L141,104.3L141,104.3z"/>
<path id="ES-CN_3_" class="st0" d="M4.6,191l0.3,0.1l0.3,0.6l-0.4,0.5l-0.1,0.6L4.2,193l-0.3,1.2l-0.4-0.1l-0.6-0.7l-1.3-0.1
	l-0.2-0.1l0.1-0.6l0.3-0.2l0.7,0.3l0.6-0.1l0.6-0.6l-0.1-0.4L4.6,191z M39,185.9l0.3,0.2l-0.1,0.5v-0.4l-0.1,0.5v-0.3l-0.1,0.1
	l0.3,0.6l-0.1,0.6l0.6,0.8l0.1,0.3l-0.2,0.4l0.4,0.5l-0.4,0.1l-0.1,0.6l0.1,0.5l-0.4,0.2l-0.2,0.6l-1.6,0.6l-0.3,0.4l-0.4,0.1
	l-0.8-0.4l-0.2,0.1l-1.6-1.3l-0.6-1.1l0.1-1.6l0.5-0.1l0.9-0.7l0.3-1.2l-0.1-0.2l0.4-0.1l0.2,0.2l0.4-0.2l0.5,0.4l1-0.1l0.9,0.4
	l0.4-0.1l-0.1-0.4L39,185.9L39,185.9z M13.6,185.4l0.2-0.1l0.2,0.3h0.6l0.1,0.3l0.9,0.4l0.2,0.4v0.6l-0.9,0.9l-0.4,0.1h-1l-0.6-0.5
	v-0.3l-0.4-0.4l0.1-0.9l0.4-0.7L13.6,185.4L13.6,185.4z M20.6,182.9h0.5l0.7-0.4l0.9,0.1l0.7-0.4H24l1.1-1.1l0.3-0.6l0.4-0.3
	l0.6-0.1l0.2-0.4l1.4,0.2l0.9-0.4l0.4,0.1l0.1,0.4l-0.1,0.4l-1.5,0.7l-0.2,0.5l-1.5,1.1v1.1l-0.9,1.6v0.9l-1.6,1.9l-0.6-0.1
	l-0.6,0.4h-0.8l-0.1-0.6l-0.4-0.1v-0.4l-0.6-0.5l-0.8-1.4l-0.1-0.9l-0.8-1.1l-0.4-0.1l0.1-0.3l1.1-0.5l0.4,0.3L20.6,182.9
	L20.6,182.9z M59.8,176.9l0.8,0.7l0.2,1.9l-0.3,1.4l-0.4,0.4l0.2,1.4l-0.6,1.1v0.6l-0.3,0.6l-0.4,0.4h-0.6l-0.4,0.3l-2.9,0.6
	l-1.6,1.9l-1.9-0.5l-0.4,0.2l0.2-0.7l0.1,0.1h0.6l1-0.3l2-1.4l0.3-1.8l0.6-0.6l0.2-1.1l0.7-0.7l0.8-1.6l-0.1-0.4l0.4-0.9l-0.1-0.6
	L59.8,176.9L59.8,176.9z M60.9,176.8l-0.1,0.4h-0.2l-0.1-0.2L60.9,176.8z M4.8,175.4l0.7,0.4l0.6-0.2l0.4,0.1l0.4,1.1l0.4,0.4
	l-0.6,1l0.3,0.8l-0.1,0.9l-1.1,1.9l-0.4-0.3l-0.1-1.1l-0.6-0.9l-0.7-2l-0.3-0.5v-0.4l0.5-0.6L4.8,175.4L4.8,175.4z M65.6,169.6
	l0.6,0.3l0.1,0.4l-0.1,0.5l-0.5,0.4l0.2,0.6l-0.3,0.5v0.6l-0.3,0.4l-0.7,0.4l-0.1,0.3l-0.6,0.1l-0.6,0.4l-1.3,0.2l-0.7,1.1l-0.2-0.3
	l-1,0.1l-0.1-0.5l0.7-0.6l-0.1-0.9l0.3-0.7l0.9-0.7h0.6l0.8-0.6l0.2,0.1l0.4-0.3l0.7,0.3l0.3-0.4L65,170l0.4-0.3L65.6,169.6
	L65.6,169.6z M65.1,168.6l0.5,0.4l-0.4,0.6l-0.6,0.1L65.1,168.6z M65.1,166.7l0.2,0.2l-0.3,0.3h-0.3l0.1-0.4L65.1,166.7z"/>
<path id="ES-CT_3_" class="st5" d="M216.8,80.7l-0.8-0.1l0.4-0.6l0.1,0.5C216.6,80.4,216.8,80.7,216.8,80.7z M232.1,86.5l0.2,0.4
	l0.5,0.1l-0.1,0.1l0.6,0.6l-0.2,0.4v0.7h-0.1l0.3,0.6l0.3,0.1l0.1,0.4l-0.2,0.1l-0.1,0.7l-0.4,0.3l-0.1,0.4l-0.4,0.1l-0.3,0.4
	l-0.4-0.1l-0.8,1.2l-0.9,0.4l-0.6,0.8l-1.6,0.5l-0.4,0.3l-0.2,0.5l-3.4,1.4l-2,1.4l-1.5,0.6l-1,1.4l-0.4,0.9l0.2-0.8l-0.3,0.6h-0.2
	v0.1l0.2-0.1l-0.4,0.6l-0.4,0.4l-1.3,0.4l-1.2,0.1l-0.9,0.4h-0.7l-1,0.3l-0.2,0.2l0.1-0.2l-3.1,0.6l-1.6,0.9l-1.4,0.1l-0.7,0.4
	l-0.1,0.1l0.1-0.2l-0.5,0.2l-0.5,0.8l-0.6-0.4l-1.1,0.2l-0.9,0.4l-1.7,1.7l-0.9,1.4l-0.6,0.4l-0.1,0.4l-0.6,0.4l0.4,0.6h0.7
	l-0.6-0.4h0.4l0.9,1.1l0.9,0.2l-0.7,0.7l-1.2,0.6l-1.1,1.4l-0.6,0.1l-0.4-0.4l0.2,0.1v-0.3l0.6,0.4l0.1-0.1l-0.3-0.1l0.9-0.1
	l0.4-0.8l-0.7-0.1l-0.4,0.3l-0.9,0.1l0.1,0.2l-0.1-0.1l-0.7,0.9l-0.4,0.8l0,0l-1-0.4l0.1-0.6l-0.6-0.4l-0.9-0.1L193,114l-0.2-0.3
	l0.3-0.8l0,0l-0.1-0.1l0,0l-0.1-0.1l0,0l-0.1-0.1l0,0l-0.3,0.1l0,0h-0.1l0,0l-0.1-0.6l-0.4,0.1l-0.4-0.1l0,0l-0.1-0.3l0.2,0.1v-0.2
	l0.7-0.2l0.1-0.4l0.6-0.6l-0.5-1.1l0.2-0.6l0,0v-0.1l0,0l0.6-0.9l-0.1-0.1l0,0v-0.1l0,0l-0.3-0.6l0.3-0.1l-0.4-0.4l-0.2,0.1v-0.2
	l-0.2,0.1l0.1-0.2l-0.1-0.5l-0.3-0.1v-0.7l0.1-0.2l0.4,0.1l0.1-0.4l0.6-0.1l0.6-1.1h0.6V103h0.2l0.1-0.8l-0.3-0.5l0.1-0.3l-0.3-0.2
	l0.4-0.4l-0.7-0.8l0.5-1l-0.1-0.6l0.8-0.1l0.7-0.9l-0.3-1.1l-0.4,0.1l-0.7-0.1l0.1-0.6l-0.4-0.5v-0.4l0.8-1.1l0.1,0.1l0.1-0.5
	l0.9-0.1l0.2-0.6l0.4-0.4h0.4l0.1-0.6h0.4v-0.2l0.4-0.1l-0.2-0.3l0.1-0.6h0.1l-0.6-0.4l0.4-0.5l0.2,0.1l0.1-0.5l0.3-0.1l0.1,0.2
	l0.1-0.3v-0.8l0.2-0.1l0.4-1.3l-0.1-0.6l0.3-0.2l-0.2-0.1l0.1-0.3l0.9-2.4l-0.3-0.3l0.4-0.3l-0.6-0.3l0.3-0.4l-0.7-1.9l0.1-0.1
	l0.1,0.1l0.4-0.4l-0.3-0.1v-0.3l0.2-0.2l0.2,0.1l-0.1-0.2l0.4-1.2l-0.9-0.2l-0.1-0.6l-0.3-0.4l0,0l-0.1-0.1l0,0l-0.1-0.1l0,0h0.2
	l0.1-0.3l-0.3-0.8l-0.3-0.1l0.4-0.4l-0.3-0.1l0.4-0.4l-0.1-0.6l0.7-0.4l0.9,0.4l0.4-0.1l0.7,0.2l0.9,0.7l0.5-0.3l0.3,0.4l0.9,0.1
	l0.4-0.1l0.6,0.6l0.1,0.5l0.5,0.4l0.9-0.4l0.3,0.2l1.4-0.1l-0.1,0.3l0.5,0.3v0.4l0.4,0.3l0,0.7l0.4,0.4l-0.2,0.4l0.2,0.3l-0.4,0.6
	l0.5-0.1l0.2,0.6l-0.6,0.5l0.3,0.1l0.1,0.7l1.4,0.1l0.1-0.4l0.2,0.1l0.3-0.4h0.8l0.2-0.7l0.4,0.3l0.3-0.2l0.5,0.3l0.5-0.1l0.5,0.1
	l0.6,0.6l0.7-0.1l0.2,0.4l0.2,0.1l0.1,0.7l0.7,0.6l0.9-0.3l0.1-0.3l0.3-0.1l0.1-0.5l0.4-0.3l0.6,0.1l0.8-0.4l0.5,0.3L221,81l0.5,0.4
	l1.1,0.2v0.4l0.6,0.6l0.8,0.1l0.1-0.4l0.3-0.1l1.3,0.4v-0.4l-0.3-0.5h0.2v-0.3l0.6-0.3l0.5-0.1l0.3,0.3l0.6-0.5l0.1-0.4l0.3,0.1
	l0.1-0.2l0.6,0.2l0.4-0.5l0.3,0.3l1-0.1l0.6,0.9l0.5-0.2l0.7,0.1l-0.2,0.1l0.1,0.2l-0.2,0.4l0.2,0.1l-0.1,0.1l0.1,0.4l0.4,0.1
	l0.1,0.3l0.4-0.3l0.3,0.4l0.2-0.2l0.3,0.3l0.5,0.1l-0.5,0.3l0.1,0.4h-0.3l0.1,0.4l-0.1,0.2h-0.4l0.1,0.3l-0.5-0.2l-0.1,0.4l-0.5-0.3
	l-0.1-0.4l-0.4,0.3l-0.3,0.8L232.1,86.5L232.1,86.5z"/>
<path id="ES-EX_3_" class="st5" d="M95.5,120.4l0.4,0.4l0.4,0.1l0.1-0.1l0,0h0.2l0,0l0.4,0.1l0.5-0.5l0.4,0.5l0.4-0.4l1.1-0.1
	l0.4-0.4l-0.1-0.5l0.2-0.4l1.1-0.6h0.4l0.3-0.5l0.6-0.1l0.1-0.4l0,0l0.2-0.2l0,0l1.6-0.9l1,0.5l0.2,0.4l0.4-0.1l-0.1,0.4l0.5,0.2
	l0,0h0.1l0,0l0.3,0.2l-0.3,0.1l0.1,0.1l-0.2,0.1l0.1,0.2l-0.3,0.1l1.2,0.3v0.4l0,0l0.1,0.1l0,0l0.4,0.3l0,0l0.1,0.1l0,0l0.8,0.3
	l0.4-0.7l1.1-0.7l0.4,0.6l-0.2,0.4l0.1,0.2l0.4,0.1l0.4-0.2h0.6l0.4,0.4l0.1,0.4l0.4,0.1l0.1,0.5l0.4,0.1l0,0l0.2,0.1l0,0l0.1,0.1
	l0,0h0.1l0,0h0.7l0.4-0.1l0.6-0.8l1.1-0.2l-0.4,0.9v0.9l0.4,0.9l0,0l-0.4,0.3l0.1,2.1l-0.6,1.9l1.1-0.3l0.6,0.5l-0.4,0.6l0.1,1.2
	l0.7,0.1l0.6-0.8l0.6-0.1l0.1,0.7l-0.2,0.1l0.5,0.7l-0.3,1.1l0,0v0.1l0,0l-0.6,0.8l0.4,0.5l0,0l0.2,0.2l0,0l1,1.2l0.4,0.1l1.5,1.6
	l1.1,0.4l0.5-0.4l0,0l0,0l0,0l0.8-0.1l0.4-0.4l0,0l0.1-0.1l0,0l0.6-0.5l0.3,0.4l-0.5,1.1v0.6l-0.7,0.1l0.4,1.2l0.3,0.1l0.1,0.6
	l0.8,0.8l-1.2-0.5l-0.9-0.1l-0.4,0.6l0,0h-0.1l0,0l-0.5,1.1l0.3,0.5l0,0l0.1,0.1l0,0l0.2,0.1l-0.1,0.3l0,0h-0.1l0,0l-0.6,0.2
	l-1.1-0.4l0.6,1.7l0.2-0.1l1,0.4l-0.2,0.9l-0.9-0.1l-0.3,0.4l-0.7,2.1l-0.8,0.2l0,0l-0.7,0.4l-1.2-0.2l0.2,0.6l0,0v0.1l0,0h-0.2v0.3
	l-0.1-0.1l-0.1,0.1l-0.1-0.2l-0.1,0.3l-0.1-0.1l-0.4,0.6l-0.5,0.2l-0.3,0.3l0.1,0.3l-0.9-0.1l-0.3,0.5l0.1,0.3l-0.2-0.1l-0.2,0.4
	l0,0l0.1,0.1l0,0l-0.9,0.6l-0.1,0.4h-0.5l-0.4,0.2l-0.5,0.9v0.3l0.4,0.4l-0.2,0.6l0.6,1.1v1l0,0h-0.1l0,0l-0.1,0.4l0.1,0.4l-0.5,0.2
	l-0.1,0.3l-0.7-0.1l-1,1l-0.4-0.1l-0.1-0.7l0.6-0.4l-0.1-0.3l0.1-0.1l0.1,0.2v-0.4l-0.6-0.3l-0.4,0.3l-0.4-0.1l-0.2,0.2l-0.7,0.1
	L109,157l-0.1,0.4l-0.6,0.5l-0.1,0.3l0.3,0.4l-0.4,0.4l-0.2,0.9l-1.4-0.1l-0.9,0.2l-0.9,0.8l-0.3-0.4l-0.5,0.1l-0.2-0.2l-0.7-0.1
	l-0.3-0.3l0,0h-0.1l0,0l-0.4-0.3l-0.1-0.6l-0.6-0.1L101,159l0.1,0.1l-0.4,0.3l0.1,0.3l-0.1,0.1l-1-0.4l0,0h-0.1l0,0l-0.4,0.1
	l-0.1-0.6l0,0l-0.2-0.3l0,0l-0.4-0.4l-0.3,0.1l-1-0.1l-0.4,0.1l-0.3-0.1V158h-0.5l0.2-1.1h-0.7l-1.1-0.5l0,0l-0.1-0.2h-0.3l-0.2,0.2
	l-0.1-0.1l-0.4,0.1l-0.2,0.4l-0.5-0.1l-0.2,0.3l-0.7-1l-0.2-0.9l-0.2-0.1l-1.4-1.9l-0.1-0.5l-0.5-0.4l-0.3,0.1l0.5-0.6l-0.4-0.1
	l0.3-1.1l0.8-1.4l-0.4-0.3l0.1-1.5l0.7-0.4l1.1-1.2l0.4-0.1l0.4-0.6l0.4-0.2l0.1-0.3l-0.2-0.5l1.3-2.1l-0.1-0.5l-0.4-0.7l-0.6-0.4
	l-1,0.3l-0.4-0.1l-0.1-0.2l0.1-0.9l-1.1-0.4l-0.4-0.4l-0.1-0.7l0.2-0.5l-1-1l-0.2-0.8l0.3-0.6l0.1-0.8l-0.7-0.5l-0.2,0.1l-0.2-0.1
	l-0.1-0.7l-0.5-0.1l-0.5-0.8l-0.4-0.2l-0.4-1.2l-0.2-0.1l1.1,0.1l1.6,0.4l1.1-0.4l1.4,0.2l0.3-0.2l0.8,0.1l0.7-0.2l0.6-1.8l-0.1-0.7
	l0.4-0.2l0.6-0.7l0.1-1.1l0.2-0.2l0.1-0.8l0.3-0.6l-1.1-1.7l-0.9-0.1l-0.4-1.2l0.3-0.7l0.6-0.2l0.1-0.4l0.6,0.1L95.5,120.4
	L95.5,120.4z"/>
<path id="ES-GA_3_" class="st4" d="M67.5,85.2l0.3,0.3l-0.4-0.1L67.5,85.2z M67.4,84.4l0.3,0.4l-0.2,0.3l0.1-0.2L67.4,84.4
	L67.4,84.4z M67.3,81.8L67,82.5V82l0.2-0.3C67.2,81.7,67.3,81.8,67.3,81.8z M66.1,80.2l0.2,0.3l-0.1,0.1L66.1,80.2z M68,78.5
	l0.1,0.1l0.2-0.1l0.1,0.4L68.1,79l0.1,0.4h-0.1l-0.2-0.1H68l-0.1-0.1l0.1-0.3l-0.3-0.2L68,78.5L68,78.5z M80.9,56.6l0.3-0.6l0.1,0.1
	l0.3-0.2l0.1,0.2l-0.1,0.6l0.3,0.5L81.7,57v0.6h-0.2l0.3,0.2h-0.4l0.4,0.2l0.4-0.3l-0.2-0.4l0.4-0.1l0.1,0.3l0.2-0.1l-0.3-0.3
	l0.3-0.1V57l1.2-0.4l0.5-0.5v-0.3l0.4,0.3l-0.5,0.7l0.3,0.1l0.1-0.3l0.5-0.1l0.1,0.6l0.3,0.1l-0.1,0.7l0.1,0.4l0.1-0.5l0.3-0.1
	l-0.1-0.4h0.4v-0.4l0.4-0.1l0.1,0.3h0.6l-0.1,0.3L89,58l0.3,0.7l0.6,0.6l-0.2,0.1l0.2-0.1l0.6,0.4l-0.1,0.3H90l0.3,0.1l-0.1,0.1
	l0.3-0.4l1,0.3l0.7-0.1l0.9,0.1l0.1,0.4l-0.3,0.1v0.9l0,0l-0.5,0.4l-0.2,0.5l-0.9-0.1V63l0,0v0.1l0,0l-0.1,0.4l0.2,0.1l0.3-0.1
	l0.1,0.2v0.8l0.4,0.5h0.6l-0.1,0.6l0.1,0.4l0.6,0.6l0.1-0.1l0.1,0.3l0.4,0.1l0.1,0.3L94,67.5l0.3,0.6l0.3,0.1l0.7-0.4v-0.1l0.4-0.1
	l0.4,0.5L96,68.3l-0.6,0.6H95l-0.3,0.3L94.4,69L94,69.5V70l-0.2-0.1l-0.2,0.4l0.4,0.5h0.2V70l0.6,0.9h0.5l0.5,0.6L95.7,72l0.2,0.2
	l0,0l-0.2,0.1l0.1,0.4l-0.5,0.1l0.4,0.9l-0.4,0.4v0.3l-0.9,0.9l-0.4-0.2L94,75.8h-0.5L93,76.3l0.5,0.9L93,77.5v0.6l0.2,0.2l-0.4,0.6
	l0.1,0.4l-0.2,0.4h0.3l0,0h0.3l0,0L94,80l0.2-0.4l0.4-0.1l1,0.6l0.4-0.1l0.2,0.5l-0.2,0.3l0.1,0.4l-0.4,0.4l0,0v0.1l0,0l0.3,0.4
	l0.6,0.1l0.2,0.3l0.4,0.1l-0.1,1.1l-0.8,1.2l0,0l0.1,0.1l0,0v0.3l-0.6-0.4l-0.6,0.2l-0.2,0.4l-0.6,0.3l-0.1,0.8l-0.5,0.1l-0.2,0.7
	l-0.4,0.2l0.4,0.4l0.4-0.1l0.2,0.5l-0.4,0.6l0.1,0.4l0,0L93.6,90h-0.9l-0.3-0.4L92,89.3l-0.8,0.1l-0.1,0.7l0.1,0.4L91,91.3L89.4,92
	L88.8,92l-0.1-0.2l-0.8,0.8l-0.4-0.9l-0.6-0.1l-0.5,0.6l-1.1,0.2l0.1-0.7l0.2-0.2l-1-0.1l-0.6-0.4l-0.5,0.3L83.3,91l-0.4,0.3
	l-0.6,0.1l-0.6,0.5l-0.1-0.2l0.1-1.1l-0.2-0.1l-0.3,0.9l-0.8,0.1l-0.5,0.8l-0.6,0.3l-1,0.1l-0.5-0.1l-0.1-1l-0.4,0.1L77,90.9
	l0.7-1.3l0.4-0.4l0.6-0.2l0.1-0.6l-0.4-0.6L77.4,88l-0.2-1.6l-0.4,0.4l-0.3-0.1l-0.1,0.3l-0.9,0.4l-0.2,0.4l-0.4-0.1l-0.3,0.3
	l-0.6,0.1l-0.3-0.2l-1.1,0.1l-0.1,0.3l-0.3,0.1l-1.2,0.1l-0.4,0.4l-0.1,0.5l-1.1,0.7l-0.1,0.6l-0.9,0.4l-0.6,0.9l-0.1-0.5l-0.1-1.8
	l0.1-0.5l-0.4-2h0.3l0.4-0.3l0.2,0.3l0.1-0.1l0.1-0.4l-0.3-0.4h0.4l0.1-0.6l0.5-0.4l0.2-0.5h0.3l-0.2,0.1l0.1,0.1l1.1-1.1l0.6-0.1
	l-0.2-0.4l0.2-0.6l-0.3-0.2L71,82.9l-0.4,0.2v0.4l-0.7,0.3l-0.1-0.2h-0.2l-0.1,0.3l-0.4,0.2L69,84l-0.1,0.3l-0.3-0.2l0,0.3l-0.4-0.2
	l-0.1,0.3L68,84.4l0.2-1.1l0.4,0.6h0.2l-0.1-0.6l-0.3-0.4h0.5l0.2,0.2l0.4-0.2l0.4-0.9l1-0.8l-0.4,0.1l-0.1-0.4l-1.1,0.9l-0.6-0.2
	l-0.4,0.3l-0.5-0.6L68,81l-0.1-0.4l-0.4-0.1l-0.2,0.2l-0.2-0.2l0.1-0.3h0.6V80l0.3-0.1l0.2,0.5l-0.2,0.2l0.1,0.3l0.4-0.3l0.4,0.2
	l-0.3-0.6l0.3-0.2l-0.1-0.2l0.1-0.4l-0.2,0.2l-0.1-0.6l0.3-0.1l-0.2-0.1l0.1-0.3l0.5-0.1l0.4-0.4l-0.3-0.1l0.3-0.6L69.4,77l-0.5,0.3
	l-0.2-0.1l0.1-0.4l-0.4-0.4v0.5l-0.1-0.1l-0.1,0.4l0.3,0.3l-0.2,0.1v0.4l-0.4-0.1l0.2-0.4l-0.4-0.1l-0.5,0.6l0.2,0.4h-0.4l-0.1,0.3
	l-0.4,0.1v0.6l-0.7,0.4l0.1-0.7l-0.3-0.4l-0.2,0.2L65,78.4l0.6-1.1l0.3-1.4h0.2l0.4-0.6l0.4-0.1l0.4-0.7l0.2-0.1l0.4,0.4l-0.2-0.4
	l0.1-0.4l0.5-0.3h-0.2L67.8,74l-0.2-0.4l-0.1,0.6l-0.2,0.1l-0.1-0.1l-0.4,0.5l-0.3-0.3v0.3h-0.4l-0.1-0.4l-0.3,0.3h-0.3l0.2,0.4
	l-0.6,0.6L65,75.2h-0.2l-0.2-0.7l-0.2-0.1l0.6-0.4l-0.1-0.4l-0.3-0.1l-0.3-0.6l0.3-0.6l-0.4-0.1l-0.6-0.9l0.1,0.8h-0.4l-0.1-0.4H63
	V72l-0.4,0.2l-0.1,0.6l-0.1-0.2l0.1-0.4L62.1,72l0.1-0.4l0.4-0.6v-0.6l0.2,0.1l0.1-0.1l-0.4-0.1l-0.4-0.7l0.3,0.2l0.2-0.1v-0.8
	l0.5,0.1v-0.5l0.5,0.5l0.3-0.6l0.5-0.2l-0.6,0.1v-0.4l-0.1,0.5l-0.3-0.1l-0.1-0.6l0.2,0.1l0.3-0.2l0.1-0.5l0.3,0.1l0.1-0.2l0.2,0.1
	l0.1-0.1l0.6,0.3l0.5-0.2l0.4-0.7l0.2,0.3l0.2-0.2h0.5v0.2l0.3-0.1l0.1-0.4h0.2l-0.2-0.1l-0.4,0.4l0.1-0.2L67,65.5h-0.4l-0.2-0.1
	l0.5-0.4l0.4,0.2l0.1-0.2h0.2l-0.1-0.6l0.5,0.1l0.1-0.2l0.4,0.1l0.1-0.5l0.7,0.8l1.1,0.2l1.4-0.6l0.7,0.2l0.3-0.1l0.4-0.2l0.2-0.6
	l0.3,0.1l0.3-0.1l0.3-0.4l0.4,0.3l0.1-0.4l0.2,0.4l-0.3,0.1l0.3,0.1v0.4l-0.1-0.2l0.5-0.1l0.1-0.6l-0.2-0.1l0.1-0.3l0.6-0.1l0.1,0.4
	l0.4,0.1l0.2,0.4L76.4,64l0.6,0.4l-0.1-0.3l0.1,0.1l-0.3-0.3l0.1-0.2l-0.1-0.6l0.2-0.3h0.4v-0.1l-0.4-0.1l-0.3,0.1l-0.2-0.2
	l-0.4,0.2l-0.3-0.4l-0.5-0.1h0.2l-0.1-0.1L76,62l0.1,0.1l0.4-0.4l0.4,0.2l0.4-0.1l0.3-0.2l-0.1-0.2l0.2,0.1l0.1-0.4l-0.9,0.5v-0.2
	l-0.2,0.1v-0.3l-0.3,0.5l-0.4,0.1l-0.3-0.2l-0.3,0.2l-0.1-0.1l0.4-0.6l-0.1-0.4l0.4-0.3l-0.4-0.5l0.1-0.1l0.2,0.3h0.5l0.9-0.9
	l0.1-0.4l0.6,0.1v0.4l0.2-0.7l0.4-0.1l0.2-0.5l0.1,0.6l0.2-0.1l0.3,0.2L79,58.3h0.3v-0.2H79l0.2-0.9l0.4-0.1l0.4,0.1l0.6-0.4v-0.2
	H80.9L80.9,56.6z"/>
<path id="ES-RI_3_" class="st4" d="M164,89.6l-1.4,0.9h-0.3l-0.4-0.4l0,0l-0.1-0.1l0,0l-1.4-0.4l-0.1-0.6l0.2-0.1l-0.7-1.1l0.4-0.3
	v-0.4l-1.5-0.1l-0.4,0.3l-0.2-0.8l-0.5-0.3l-1.6,0.1l-0.2,0.4l-0.4,0.1l-0.4-0.1v0.8l-0.4,0.3l-0.4,1l-0.6-0.2l-0.6,0.1l-0.4-0.4
	l-0.6,0.1l-0.1-0.4l0.6-0.9v-0.4l-0.4-0.4l-0.2,0.1l-0.3-0.1l-0.2,0.3l0,0v0.1l0,0l-0.2,1.1l-0.6,0.1l-0.4,0.4l-0.4-0.4l0,0v-0.1
	l0,0l-0.3-0.9l-1.3,0.1l-1.6-1.7l0.4-0.3l0.2-0.6l-0.2-1.2l0.1-0.2l0,0L147,83l0,0l-0.1-0.4l0.6-0.1l-0.3-0.4h-0.3l0.1-0.6h0.3
	l-0.1,0.4l0.4,0.5l-0.1-1l0.2-0.4l-0.6-0.8l0.3-0.3l0.1-0.5l-0.2-0.1l-0.5,0.1l-0.1-0.1l0.4-0.2l0.4-0.6l0,0l0.2-0.1l0,0l-0.3-0.9
	l0.9,0.1l0.2-0.2l0.3,0.1l0.5-0.1l0.5,0.4l0.2-0.1l0.2,0.1l0.4-0.3l0,0l0.2,0.1v0.4l0.3-0.1v0.4l-0.3,0.1l0,0l0.1,0.2l0,0l0.3,0.3
	l0.1-0.2l0.1,0.1l0.3-0.3l0.2-0.8h0.4l0.8,0.5l-0.1,1l0,0l-0.2,0.4l0,0l0.4-0.1v0.3l0.3,0.1l0.1,0.4l0.6-0.4l0.1,0.6l0.4-0.4
	l0.5,0.2l-0.1-0.2l0.4-0.4l-0.1,0.6l0.5,0.1l0.4-0.2l0.4,0.1l0,0l0.3,0.3l0.6,0.1l0.1,0.2l0.2-0.1l-0.1-0.2l0,0l0.1-0.1l0,0l0.4,0.2
	v-0.2l0.1,0.1l0,0l0.1,0.2l0,0l0.1,0.2l0.5,0.1v0.2l0.4,0.1v0.1l0.4-0.1l0.2,0.2l0.2-0.2h0.6l-0.1,0.4l0.5,0.6l-0.1,0.4l0.3,0.1
	l0.7-0.5l0.3,0.1l0.4,0.2l0.1,0.4h0.3l0.1,0.2l0.1-0.1l0.1,0.5l0.6,0.2v0.6l0.2,0.1l0.1-0.1l0.4,0.2l0.1,0.4l1.4,0.3l0.2,0.4h0.3
	l-0.3,0.4l0.3,0.4l-0.3,0.2l-0.2,0.1l-0.6-0.4l-0.4,0.2l-0.6-0.3l-0.9,1.2l-0.2,0.5l0.1,0.5l0.6,0.5l0.1-0.1l0,0L164,89.6L164,89.6z
	 M148.3,77.9L148.3,77.9L148.3,77.9l0.1-0.1l0,0v-0.1l0,0l0,0l0,0h0.1l0,0v0.1l0,0l-0.1,0.1l0,0L148.3,77.9L148.3,77.9L148.3,77.9z
	 M149.1,77.9L149.1,77.9L149.1,77.9l0.2,0.1L149.1,77.9L149.1,77.9L149.1,77.9L149.1,77.9z"/>
<path id="ES-MD_3_" class="st5" d="M130.9,113.1l0.2,0.4l-0.9,0.1l0,0v-0.3l0.4-0.3L130.9,113.1z M141,104.3v0.3l0.4,0.2l0.3,0.7
	l0.9,0.2l-0.2,0.7l0.6,0.7l-0.3,0.2l-0.4,1.4H142l0.3,0.4l-0.4,0.3l0.1,0.4l-0.6,1l0.6,0.1l0.2,0.4l0,0v0.1l0,0l-0.1,0.5l0.2,0.1
	l-0.4,0.7l0.3,0.2l0,0v0.1l0,0l0.3-0.1l0.2,0.2l0.1-0.4l0.3,0.2l0.1,0.6l0.4,0.1l0.3-0.3l-0.1,0.2l0,0v0.2l0,0l-0.1,0.1l0.2,0.2
	l-0.1,0.3l0.6,0.4l-0.1,0.6h0.4l0,0h0.1l0,0l0.4-0.1l0.4,0.4v1.3l0.6,0.1l0.4,0.6l-0.3,0.6l0.1,0.3l-0.6,0.7l-0.2,1.1l0.3,0.2
	l0.3-0.5l0.5-0.4l0.2,0.2l0.4,0.9l-0.1,0.6l0.2,0.6l-0.3-0.1l-0.1,0.4l0.6,0.6l-0.4,0.6l-0.5,0.2l-0.6-0.1l-0.1-0.5l-0.3,0.1l0,0
	l0,0l0,0l-0.2,0.4l-0.9,0.1l-0.1,0.1l-0.4-0.1l-0.4-0.5l-0.6,0.1v0.4l-0.3,0.4l-0.4-0.2l-0.3,0.1v-0.2l-0.3,0.1l-0.5-0.1l-0.2,0.5
	l-0.9,0.1l-0.4,0.4l0,0l-0.2,0.1l0,0l0.1,0.4l-0.9,0.4l-0.1-0.1l-0.5,0.3l-0.1,0.4l0,0l-0.1,0.1l0,0l-0.6,0.6l-0.9-0.3l-0.1-0.2l0,0
	v-0.1l0,0l-0.1-0.1l0.3-0.2l0.3-0.1l0.1,0.2l0.4-0.4l0.3,0.1l0.4-0.4v0.4l0.1-0.1l-0.1-0.3l0.3,0.1l0.1-0.1l0,0h-0.1l0,0l-0.1-0.1
	l0.3-0.1l0.2-0.6l0.2,0.1l0.9-0.7l0.2-0.9l-0.7-0.4l-0.1-0.2l-0.3,0.2l-0.4-0.3l-0.3,0.3l-0.4-0.1l-0.5-0.7l-0.4,0.3l-0.6-0.5h-0.8
	l-0.2-0.2l-0.3,0.3l-0.1-0.4l-0.5,0.1l-0.5-0.5v-0.2l-0.6-0.5l-0.4,0.4l-0.6-0.1v-0.4l-0.6-0.6l-0.8,0.4l-0.3,0.7l-0.4,0.3l-0.1-0.3
	l-0.2,0.1l-0.1-0.2h-0.2l-0.1-1.3l-0.3-0.2l-0.1,0.5l-0.7,0.5v0.4l-1.1,0.4l-0.2,0.3l-0.6-0.3l0,0l0.3-0.1l-0.1-0.6l0.6-0.6
	l-0.2-0.9l0.3-0.1l0.4,0.5l0.6-0.1l-0.1-0.4l0.3-0.1l-0.1-0.6l0.3-0.4l1.4-0.1l-0.3-0.5l0.4-0.5l-0.1-1.2l0.1-0.3l0.4-0.3l0.1-0.7
	l-0.1-0.4l0,0h0.3l0.1,0.4l0.2,0.1l0,0h0.2l0,0l0.9-0.4l-0.2-0.8l0.2-0.4l0,0l0.9-1.1l0.4-0.8l0.6,0.2l0.6-0.1l0.6-2.5l0.2-0.1
	l0.4-0.7l1.6-0.6l0.6-0.9l0.9-0.5l0.6-0.9l0.6-0.4H141L141,104.3z"/>
<path id="ES-MC_3_" class="st5" d="M179.3,164.6l-0.1,0.6l0.3,1l-0.4-1L179.3,164.6L179.3,164.6z M179.2,164.1v0.3l0.3,0.2l-0.3-0.2
	V164.1L179.2,164.1z M157.3,159.8l0.1-0.7l0.9-0.7l0.7-1.6l1.4-0.6l0.5-0.6l0,0l0.2-0.4l0,0l0.3-0.2l0.9,0.4l1-0.3l1.7-1l-0.1-0.2
	l0.4,0.1v-0.2h0.4l0.4,0.3l0.2-0.2l0.3,0.3l-0.1,0.3l0,0v0.1l0,0l0.3,0.5h1.1l1.5-1.1v-1.9l-0.2-0.9l0.1-0.5l0.5-0.4l0.1-1.1
	l0.9-0.9l0.3-0.1l0.4,0.4l1.3-1.1l0,0l0.1-0.1l0,0l0.7-0.2l0.9,0.3l0.1,0.5l1.2,0.9l0,0l0.4,1.4l-0.4,0.9l0.1,0.4l-1.2,1.1l0.2,0.1
	l-0.1,1.5l1.4,0.1l0.3,0.8l-0.3,1.4l-0.6,1.1l0.1,0.8l1.6,3.1l1,1.1l0.6,0.4l0.3-0.1l0,0l0.2,1l-0.5-0.5l-0.3,0.7l-0.6,0.5l-0.2,0.5
	l0.9,1.1l0.9,0.4l0.3-0.4l0.2,0.4h0.2l-0.4,0.6l-0.9,0.2l-0.5,0.4l-0.4-0.1l-0.4,0.1l-0.6,0.4l-0.6-0.1l-0.1-0.1l0.3-0.1l-0.4-0.1
	l-0.1-0.2l0.1-0.1l-0.3-0.1l0.1,0.4l-0.3-0.1l-0.2,0.2l-0.7-0.2l-0.5,0.3l-0.2,0.3l0.2,0.3l-0.8-0.1l-0.1-0.3l-0.4-0.4l-0.6-0.1
	l-0.1,0.4l-0.9-0.1l-1,0.9l-0.8,0.4l-0.4,1.1l-0.4-0.1l-0.6,0.5l-0.4,0.1l-0.4,0.4l0,0l-1.5-1.1l-1-0.2v0.3l-0.5-0.4l-2.1-3.3l0,0
	l-0.1-0.1l0,0l-0.1-0.9l0.2-0.4l-0.2-0.9l0.2-1.1l0.3-0.4l-0.1-0.1l0,0h-0.1l0,0l-0.2-0.1l-0.2,0.2l-0.6-0.3l-0.3,0.1l-0.6-0.5
	l-0.6,0.2l-1.1-0.9L158,160L157.3,159.8L157.3,159.8z"/>
<path id="ES-NC_3_" class="st4" d="M166.8,64.7l0.4,0.1l-0.1,0.4l0.3,0.6l0.4,0.1l0.3-0.6l-0.1-0.1l0.6-0.1l0.7,0.4h0.7l0.4,0.4V67
	l-0.3,0.2l-0.1,0.9l-0.8,0.7l0.4,0.8L171,70l0.1-1.2l0.4-0.4l0.6-0.1l-0.5,0.9l0.6,0.5l0.6-0.1l0.9,0.5v0.3l0.4-0.3l0.4,0.4l0.9,0.1
	l0.2,0.4l0.7,0.4l0.5-0.2l0.1,0.1l1.2,0.1l0.7-0.3l0.4,0.4l-0.1,0.2l0.1,0.3l0,0h-0.8l-0.5,0.4l-0.1,0.6l-0.5,0.4l-0.1,0.9l0.1,0.2
	l-0.2,0.4l-0.5,0.1v0.3h-0.3l-0.6,0.7l-0.8,0.1l-0.2,0.1v0.8h-1.6l-0.1,0.7h-0.3l0.3,0.2l-0.6,0.4v0.6l0,0h-0.1l0,0l-0.3,0.1
	l-0.5-0.3l-0.3,0.6l0.1,0.9l-0.9,0.9l-0.2,0.9l0.4,0.1l0.1,0.3l-0.9,1.1l0.1,0.4l-0.4,1l0.4,0.7l-0.1,1l0.4,0.4l0.2,0.6h0.4l0,0h0.1
	l0,0l0.1,0.6l-0.5,0.5l-0.6,1.1l0.1,0.2l-0.4,0.4l-1.3-0.1l0,0l-0.1,0.1l0,0l-0.3,0.1l0,0l-0.4-0.1l0,0l-1.3-0.9L166,90l-0.7-0.7
	h-0.9l-0.1-0.3l0,0l-0.1,0.1l-0.6-0.5l-0.1-0.5l0.2-0.5l0.9-1.2l0.6,0.3l0.4-0.2l0.6,0.4l0.2-0.1l0.3-0.2l-0.3-0.4l0.3-0.4h-0.3
	l-0.2-0.4l-1.4-0.3l-0.1-0.4l-0.4-0.2l-0.1,0.1l-0.2-0.1v-0.6l-0.6-0.2l-0.1-0.5l-0.1,0.1l-0.1-0.2h-0.3l-0.1-0.4l-0.4-0.2l-0.3-0.1
	l-0.7,0.5l-0.3-0.1l0.1-0.4l-0.5-0.6l0.1-0.4H160l-0.2,0.2l-0.2-0.2l-0.4,0.1v-0.1l-0.4-0.3v-0.2l-0.5-0.1l-0.1-0.2l0,0l-0.1-0.2
	l0,0l-0.1-0.1v0.2l-0.4-0.2l0,0l-0.1,0.1l0,0l0.1,0.2l-0.2,0.1l-0.1-0.2l-0.6-0.1l-0.3-0.3l0,0v-0.4l0.4-0.1l-0.1-1.5l-0.4-0.1
	l-0.4,0.7l-0.1-0.4h-0.4l-0.1-0.6l0.2,0.1l0.4-0.6l0.5-0.3l0.4,0.1l0.1,0.2l-0.1,0.1l1.2-0.4l0.1-0.3l-0.1-0.2l-0.2,0.1l-0.1-0.9
	l0.1-0.3l0.7-0.1l-0.2-0.7l0.6-1l-0.1-0.9l0,0l-0.1-0.1l0,0h0.1v-0.6l0.4-0.5l0.4,0.3l0.7-0.1l0.3-0.1l0.1-0.5l0.7-0.1l0.1-0.4
	l-0.2-0.6l0.3-0.3l0,0v-0.1l0,0l0.1-0.3l0.9-0.4l0.6-0.7l-0.2-0.4l0.1-1.4l0.4,0.3l0.1-0.4l0.2,0.4l0.1-0.2l0,0h0.1l0,0l0.6-0.4
	v-0.6l0,0l0.1-0.1l0,0l0,0l0,0h0.2l0,0l0.4-0.3l0,0l0.5-0.3L166.8,64.7L166.8,64.7z"/>
<path id="ES-IB_3_" class="st5" d="M209,147.2l0.2,0.4l0.2-0.1l0.1,0.4l0.5,0.4l0.2,0.1l0.5-0.4l0.2,0.4l-0.1,0.3h-0.6l-0.5-0.4
	l-0.6-0.1l-0.9,0.8l-0.1-1.4l0.2-0.3l0.1,0.1l0.3-0.1l0.1-0.6L209,147.2L209,147.2z M208.8,146.3l0.1,0.4l-0.2-0.1L208.8,146.3
	L208.8,146.3z M210.4,140.7l0.3,0.4l0.6,0.1l-0.1,0.1l0.1,0.1l-0.3,0.1l-0.1,0.2l0.4,0.6l-0.5,0.2l-0.1,0.4l-0.6,0.1l-0.1,0.5
	l-0.1,0.1l0.1,0.1h-0.3l-0.4,0.6l-0.3-0.1v0.2l-0.2-0.2v0.2h-0.2l-0.2,0.5l0.1,0.8l-0.3-0.2l-0.2,0.2l-0.4-0.7l-0.4,0.3v-0.2
	l-0.3,0.1V145l-0.4-0.1l-0.4,0.4l-0.4-0.3l-0.1-0.6l0.3-0.6l-0.3-0.4l0.2-0.3l0.2,0.1l0.9-0.1l-0.3-0.4l0.2-0.3l-0.1-0.4l0.6-0.4
	l0.2-0.4l0.2,0.2l0.1-0.3h0.4l0.1-0.3l0.2,0.2l0.6-0.5l0.1,0.2l0.1-0.3L210.4,140.7L210.4,140.7z M229.8,139.9l0.3,0.1l-0.3,0.2v0.4
	h-0.5l-0.1-0.6l0.2,0.3V140l0.3,0.1L229.8,139.9L229.8,139.9z M221.3,132.4l-0.4,0.3l0.5-0.5L221.3,132.4z M233.3,125.9l-0.1,0.3
	l-0.6,0.4l-0.3-0.1l-0.3,0.5l-0.3-0.2l-0.1,0.2l0.1,0.4l0.3,0.4l1.4-0.6l-0.2,0.1l0.1,0.4l-0.3,0.4l-0.8,0.1v0.6l0.3,0.5l0.4,0.4
	l1.1,0.5l1-0.6l0.3-0.5l1.1,0.8h0.4l-0.1,0.4l0.4,0.1l-0.3,0.1v0.9h-0.2l-0.1,0.4l-0.4-0.1l-0.2,0.3l-0.1,0.6l0.2,0.2l-0.4,0.1
	l-0.1,0.4l-0.5,0.2l0.1,0.1l-0.7,0.9l-0.1,1.3l-0.1-0.1l0.1,0.1l-0.4,0.8h-0.1l0.1,0.1l-0.6,0.2l-0.2,0.4l-0.4-0.1l-1,1.1l-0.3,0.1
	l-0.5-0.8l-0.4-0.1l0.1-0.4l-0.4-0.4h-0.4l-0.2,0.2l-0.4-0.2h-0.6l-0.1,0.2l-0.3-0.2l-0.3,0.1l-0.6-0.8l0.1-0.6l-0.4-0.6l0.4-0.6
	l-1.1-0.9h-0.5l0.1-0.1h-0.1l-0.1,0.4l0.2-0.1l-0.1,0.1l-0.4-0.1l-0.2,0.4l-0.7,0.1l0.1,0.2l-0.2,0.1l-0.1,0.9l-0.4-0.3l-0.2,0.1
	l0.1-0.4l-0.3-0.3l0.3-0.2l-0.4-0.4l-0.4,0.2l0.1-0.3h-0.2l-0.2,0.3v-0.2h-0.4l0.4-0.3l-0.2,0.1l-0.4-0.4l0.1-0.7l1.4-0.9l0.9-0.9
	h0.4l0.4-0.3l0.4-0.7l0.6-0.3l0.1-0.4l0.1-0.1l0.1,0.1l0.1-0.4l1-0.5l0.1-0.3l0.9-0.1l0.1-0.2l1.1-0.5l0.2-0.3l0.4,0.2l0.8-0.5
	l-0.1,0.1l0.3-0.1v0.2l0.4-0.3l0.4,0.1l0.6-0.5h0.2l-0.1,0.1L233.3,125.9z M246.4,127.8l-1.8-1.2l-1-0.4l-0.8,0.3h-1l0.1-1.4
	l-0.5,0.1l-0.1-0.4l0.4-0.6l0.6-0.1h0.4l0.3,0.2l0.1-0.3l0.6,0.2l0.7-0.3l0.3,0.2l0.5-0.3l-0.1-0.4l0.2,0.1l-0.1,0.5l0.1,0.3
	l0.3-0.3l-0.1,0.6l0.2-0.1l-0.1-0.6l0.5,0.1l-0.1,0.4l0.3,0.2l0.2-0.2l0.1,0.7v-0.4l0.1,0.3h0.7l-0.2,0.1l0.1,0.2l-0.1,0.3l0.2,0.1
	l-0.1,0.2l0.2-0.1l0.1,0.7l0.3,0.2v0.3l0.2,0.1l-0.2,0.1l-0.2-0.4l-0.5-0.1l0.5,0.3l0.1,0.3l-0.1,0.6l-0.4,0.4l-0.9-0.3L246.4,127.8
	L246.4,127.8z"/>
<path id="ES-PV_3_" class="st4" d="M151.3,62.2l0.4-0.2l0.1,0.5l0.6,0.4l0.6-0.2l0.4,0.4l0.2-0.1l0.2,0.2l0.3-0.1l0.1,0.3l0.6-0.1
	l0.6,0.8l1.4,0.7l1,0.1l0.7-0.3l0.3,0.1l0.1-0.1l0.1,0.4l0.4,0.1l1.7-0.6l0.6,0.1v-0.2l0.4-0.2h0.6l0.9-0.8l0.8-0.3l0.1,0.6
	l-0.4,0.2l0.6,0.1l0.3,0.3l0.1,0.6l0,0l-0.4,0.3l0,0h-0.2l0,0l0,0l0,0l-0.1,0.1l0,0v0.6l-0.6,0.4l0,0H164l0,0l-0.1,0.2l-0.2-0.4
	l-0.1,0.4l-0.4-0.3l-0.1,1.4l0.2,0.4l-0.6,0.7l-0.9,0.4l-0.1,0.3l0,0v0.1l0,0l-0.3,0.3l0.2,0.6l-0.1,0.4l-0.7,0.1l-0.1,0.5l-0.3,0.1
	l-0.7,0.1l-0.4-0.3l-0.4,0.5v0.6h-0.1l0,0l0.1,0.1l0,0l0.1,0.9l-0.6,1l0.2,0.7l-0.7,0.1l-0.1,0.3l0.1,0.9l0.2-0.1l0.1,0.2l-0.1,0.3
	l-1.2,0.4l0.1-0.1l-0.1-0.2l-0.4-0.1l-0.5,0.3l-0.4,0.6l-0.2-0.1l0.1,0.6h0.4l0.1,0.4l0.4-0.7l0.4,0.1l0.1,1.5l-0.4,0.1v0.4l0,0
	l-0.4-0.1l-0.4,0.2l-0.5-0.1l0.1-0.6l-0.4,0.4l0.1,0.2l-0.5-0.2l-0.4,0.4l-0.1-0.6l-0.6,0.4l-0.1-0.4l-0.3-0.1v-0.3l-0.4,0.1l0,0
	l0.2-0.4l0,0l0.1-1l-0.8-0.5h-0.4l-0.2,0.8l-0.3,0.3l-0.1-0.1l-0.1,0.2l-0.3-0.3l0,0l-0.1-0.2l0,0l0.3-0.1v-0.4l-0.3,0.1v-0.4
	l-0.2-0.1l0,0l-0.4-0.2l-0.1-0.4l0,0l0,0l0,0l-0.1-0.4l-0.4-0.3l-0.7,0.1l-0.5-0.6l0,0v-0.1l0,0H148l-0.1-0.5l-1.4,0.1l0.3-0.6
	l-0.4-0.3l0.7-1.3l-0.1-0.4l-0.5,0.6l-0.5-0.2l-0.4,0.6l0.2,0.2h-0.1l-0.9-1l0.9-1.3l1.1,0.3V72l0.8,0.4l1-0.1l0.6-0.6l-0.9-0.6
	l0.1-0.2l-0.4-0.4l-1.1-0.1l-0.4-0.3l0.5-0.1v-0.7l-0.2-0.1l0.3-0.4l-0.1-0.2l-0.1,0.1l-0.4-0.3l0.5-0.9l-0.4-0.2l-0.7,0.1l-0.4-0.5
	l-2.2,1.2l0,0l-0.2-1.4l0,0l-0.1-0.1l0,0l-0.5-0.3l0.7-0.2l0.2-0.4l0.6-0.1l0.1-0.4L144,65l0.4-0.1l0.2,0.2l0.7-0.4l0.2,0.5l0.3-0.3
	l0.4-0.1l0.1-1l0,0h0.4l0.1,0.2l0.1-0.4h0.1l0.7,0.4l0.2-0.1l-0.1,0.1l0.3,0.3l0.1-0.4l-0.3-0.5l0.4-0.1l0.5-0.6h0.3v-0.4l1.9,0.1
	L151.3,62.2L151.3,62.2z M144.5,66.8l-0.3-1l0.6-0.3l0.2,0.1l-0.3,0.5v0.5l0,0L144.5,66.8L144.5,66.8z M150.6,74.4L150.6,74.4
	L150.6,74.4L150.6,74.4L150.6,74.4l0.1,0.1l0,0l1.3-0.1l1.2,0.5l0.6-0.1l0.2,0.4l0.4-0.2l-0.2,0.7l-0.2,0.2l-0.1-0.1l-0.1,0.4
	l0.4,0.5l0.7-0.3l0.1,0.7l-0.4,0.1l-0.1-0.2h-1.1l-0.3-0.4h-0.6l-0.2,0.2l-0.6-0.1l-0.2-0.6l-0.6-0.2l-0.6-0.6l0.4-0.8l0,0
	C150.5,74.6,150.6,74.4,150.6,74.4z"/>
<path id="ES-VC_3_" class="st5" d="M169.5,122.6l0.6,0.1l0,0l0.1,0.1l0,0l0.2-0.1l0.3,0.1l0,0l0.2-0.2l0,0l0.2-0.1v-0.9l0.3-0.2v0.1
	l0,0l0.1,0.2l0,0l0.2,0.5l0.4,0.3v0.5l1.4,0.1l0.9,0.8l0.1,0.4l-0.1,0.2l-1.1,0.4l0,0l-1.1,0.3l-0.4-0.1l0,0v-0.1l0,0l-1.4-0.1
	l-0.6-1.4l0.1-0.1l-0.6-0.4L169.5,122.6L169.5,122.6z M173.8,125.6l0.2,0.1l0.1-0.2l0.4,0.1l0.3-0.2h1.1l0.8,0.4l0.1-0.1l0.2,0.4
	l-0.1,0.4l0.1,0.5l-0.1,0.3l0.6,0.4l1-0.6l-0.6-0.8v-0.9l0.7-0.3l0.4-0.9h1l0.7-0.5l0.2,0.1l-0.2-0.6l0.3-0.4l0.4-0.2l0.5-2.1
	l0.7,0.4l0.9-0.3l0.6-0.4l-0.2-0.6l0.1-0.2h0.3l0.4-0.6l0.8-0.4l-0.1-0.4l-0.8-1l0.1-0.3l0.9-0.4l-0.1-0.4l-0.4-0.3l0.1-1.7
	l-0.4,0.1l-0.6-0.2l-0.1-0.9l0.6-0.3l0.3,0.4l1-0.6l0.1-0.9l0.5-0.8h0.7v0.3l0.5,0.4l0.6,0.3l0.6-0.1l0,0h0.3l0,0l0.3,0.1l0,0v0.1
	l0,0l0.1,0.5l0,0l0.1,0.1l0,0l0.9-0.6l0.5,0.1l0.3-0.3l0,0l0.4,0.1l0.4-0.1l0.1,0.6l0,0h0.1l0,0l0.6,0.4l0,0l0.1,0.1l0,0l0.1,0.1
	l0,0l0.1,0.1l0,0l-0.3,0.8l0.2,0.3l0.8,0.4l0.9,0.1l0.6,0.4l-0.1,0.6l1,0.4l0,0l-0.5,1.1v-0.1l-0.8,1.2l-0.1,0.8l-1.1,1.4l-0.5,0.4
	l-0.3,0.8l-1,0.6l-0.6,1.6l-1.4,0.9l-0.7,2.1l-0.8,1h-0.2l-1.4,2.2l-0.4,1.4l-0.7,0.8l-0.8,1.7v1.1l-0.2-0.1l0.1,0.3l-0.2,0.1
	l0.4,1.9l1.2,2.6l-0.3,0.2v0.6l1.1,2.6l1.9,2.1l2,0.4l-0.2,0.1l0.1,0.1l0.1-0.1v0.2l1.1,0.5l-0.2,0.2l0.1,0.4l0.3,0.2l0.2-0.1
	l0.1,0.5l-0.7,0.3l-0.4,0.7l-0.3-0.1l-0.4,0.2l-0.4,0.5l0.1,0.3l-0.5-0.2l-0.3,0.3l-0.4-0.1l-0.4,0.2l-0.5,0.7l0.1,0.3l-0.6,0.6
	l-0.7-0.2l-0.3,0.4l-1.6,0.5l-1.2,0.8l-0.4,0.6v0.9l-0.6-0.1l-0.6,0.6l0.1-0.3l-0.3,0.1l-0.2,0.9l0.1,1.4l-0.2,0.2h-0.9l-0.3,0.3
	l-0.4,1.2l-0.1,1.7l-0.3,0.4l-0.4,0.1l-0.3,0.9l-0.4,0.2l-0.1,0.9l0,0l-0.3,0.1l-0.6-0.4l-1-1.1l-1.6-3.1l-0.1-0.8l0.6-1.1l0.3-1.4
	l-0.3-0.8l-1.4-0.1l0.1-1.5l-0.3-0.1l1.1-1l-0.1-0.4l0.4-0.9l-0.4-1.4l0,0h0.9l0.6-0.7l-0.6-1.4l0.4-0.2l0.1-0.7l-0.1-0.6l0.1-0.6
	l-0.4-0.3l-0.1-0.6l-0.6-0.1l-0.4,0.3l-1.5,0.1l-1.1-1.6l-0.5-0.4l0.1-1.1l1-1.8l0.3-1.7l-0.6-0.4l-0.1,0.1l-0.4-0.1l0,0l-0.1-0.1
	l0,0h-0.3l0,0h-0.1l0,0l-0.5-0.1l0,0h-0.1l0,0l-0.1,0.1l-0.4-0.4h-0.2v-0.2h-0.4l0.1-0.1l-0.4-0.1v0.4v-0.1l0,0v-0.1l0,0l-0.4,0.2
	l0,0h0.1l0,0v-0.2l-0.3-0.1h0.2l-0.1-0.3l0,0l0,0l0,0l-0.2,0.1l0.1-0.1h-0.3l0.1-0.4h-0.3l0,0l0.1-0.1l0,0l-0.3-0.1l-0.1-0.4
	l0.2-0.1l0.1-0.4l-0.1-0.3l0.1-0.1l-0.1-0.9l-0.2-0.1l0.8-0.5l0.8-1.6l0.5-0.4l0.4,0.1l0,0l0.4,0.1l0,0l0.5-0.1l0.2-0.4l-0.1-0.7
	l0.8-1.2l0.2-1.7l0,0l0.1-0.2l0,0l-0.2-0.4l0.1-0.3L173.8,125.6L173.8,125.6z"/>
</svg>
