<?xml version="1.0" encoding="utf-8"?>
<!-- Generator: Adobe Illustrator 22.1.0, SVG Export Plug-In . SVG Version: 6.00 Build 0)  -->
<svg version="1.1" id="Capa_1" xmlns="http://www.w3.org/2000/svg" xmlns:xlink="http://www.w3.org/1999/xlink" x="0px" y="0px"
	 viewBox="0 0 250 250" style="enable-background:new 0 0 250 250;" xml:space="preserve">
<style type="text/css">
	.st0{fill:#F2F2F2;}
	.st1{fill:#2F6FB2;}
	.st2{fill:#3170B2;}
	.st3{fill:#F3F2F2;}
	.st4{fill:#2F6FB2;stroke:#FFFFFF;stroke-width:0.5;}
	.st5{fill:#F2F2F2;stroke:#FFFFFF;stroke-width:0.5;}
	.st6{fill:#F3F2F2;stroke:#FFFFFF;stroke-width:0.5;}
	.st7{fill:#F2F2F2;stroke:#FDFDFC;stroke-miterlimit:10;}
	.st8{fill:#2F6FB2;stroke:#FDFDFC;stroke-miterlimit:10;}
	.st9{fill:#F3F2F2;fill-opacity:0;stroke:#FFFFFF;}
	.st10{fill:#F3F2F2;fill-opacity:0;stroke:#FFFFFF;stroke-linecap:round;}
	.st11{fill:#F3F2F2;stroke:#FFFFFF;}
	.st12{fill:#F2F2F2;stroke:#FFFFFF;}
	.st13{fill:#2F6FB2;stroke:#FFFFFF;}
	.st14{fill:#F2F2F2;stroke:#F2F2F2;}
	.st15{fill:#2F6FB2;fill-opacity:0;stroke:#FFFFFF;}
	.st16{fill:#2F6FB2;stroke:#FFFFFF;stroke-width:0.25;stroke-miterlimit:10;}
	.st17{fill:#F3F2F2;stroke:#FFFFFF;stroke-width:0.25;stroke-miterlimit:10;}
	.st18{fill:#F3F2F2;stroke:#FFFFFF;stroke-miterlimit:10;}
	.st19{fill:#2F6FB2;stroke:#FFFFFF;stroke-miterlimit:10;}
	.st20{fill:#F3F2F2;stroke:#FFFEFE;stroke-width:0.5;stroke-miterlimit:10;}
	.st21{fill:#2F6FB2;stroke:#FFFEFE;stroke-width:0.5;stroke-miterlimit:10;}
	.st22{fill:#F2F2F2;stroke:#FFFEFE;stroke-width:0.5;stroke-miterlimit:10;}
	.st23{fill:#F3F2F2;stroke:#FFFFFF;stroke-width:0.732;}
</style>
<g>
	<path id="AK_1_" class="st2" d="M42.6,167.1l-0.1,23l0.4,0.3l0.9,0.1l0.4-0.3H45L45,191l1.9,1.8l0.2,0.7l1-0.5l0.2-0.1l0.1-0.9
		l0.4-0.4l0.3-0.1l0.5-0.4l0.9,0.6l0.2,0.8l0.5,0.3l0.3,0.6l1,0.5l1,1.6l0.7,1l0.6,0.7l0.4,1l1.3,0.5l1.3,0.6l0.3,1.2l0.2,0.9
		l-0.3,1l-0.5,0.6l-0.4-0.2l-0.4-0.9l-0.7-0.4l-0.5-0.3l-0.2,0.2l0.4,0.7l0.1,1l-0.3,0.2l-0.5-0.5l-0.6-0.4l0.2,0.4l0.4,0.5
		l-0.2,0.2c0,0-0.2-0.1-0.4-0.3c-0.2-0.2-0.6-1-0.6-1l-0.3-0.6c0,0-0.1,0.4-0.3,0.3c-0.2-0.1-0.4-0.4-0.4-0.4l0.5-0.5l-0.4-0.4v-1.3
		h-0.2l-0.2,1l-0.3,0.2l-0.3-1l-0.2-1l-0.2-0.2l0.1,1.5v0.3l-0.4-0.4l-1-1.6l-0.6-0.2l-0.2-1l-0.4-0.8l-0.4-0.3v-0.6l0.6-0.4
		l-0.2-0.1l-0.7,0.2l-1-0.6l-0.7-0.8l-1.3-0.7l-1.1-0.7l0.4-0.9v-0.4l-0.5,0.4l-0.8,0.3l-1-0.3l-1.5-0.6h-1.4l-0.2,0.2l-1.7-1
		l-0.6-0.1l-0.7-1.6l-1,0.1l-1,0.4l0.2,1.3l0.3-0.8l0.3,0.1l-0.4,1.2l0.9-0.7l0.2,0.4l-1,1.2l-0.4-0.1l-0.2-0.5l-0.4-0.2l-0.4,0.3
		l-0.7-0.5l-0.9,0.6l-0.5,0.6l-1,0.6l-1.3-0.1l-0.2-0.6l1-0.2v-0.4l-0.6-0.2l0.3-0.6l0.6-1v-0.5l0.1-0.2l1.2-0.6l0.3,0.4h0.6
		l-0.4-0.7l-1-0.1l-1.3,0.7l-0.6,1l-0.5,0.7l-0.3,0.6l-1.2,0.4l-0.9,0.7l-0.1,0.4l0.6,0.3l0.2,0.6l-0.7,0.9l-1.7,1.2l-2.1,1.2
		l-0.6,0.3l-1.4,0.3l-1.4,0.6l0.5,0.4l-0.4,0.4l-0.2,0.3l-0.7-0.3l-0.9,0.1l-0.2,0.6h-0.3l0.1-0.6l-1,0.4l-0.8,0.3l-1-0.4l-0.8,0.5
		h-0.6l-0.6,0.4l-0.4,0.2l-0.6-0.1l-0.7-0.3l-0.6,0.2l-0.3,0.3l-0.4-0.3v-0.5l0.9-0.4l1.7,0.2l1.2-0.4l0.6-0.6l0.8-0.2l0.5-0.2
		l0.7,0.1l0.4,0.4l0.3-0.1l0.6-0.7l0.9-0.3l1-0.2l0.4-0.1l0.2,0.2h0.2l0.4-1l1.1-0.4l0.5-1l0.6-1.3l0.4-0.4l0.1-0.7l-0.4,0.4l-1,0.2
		l-0.2-0.6l-0.4-0.1l-0.3,0.3l-0.1,0.8l-0.4-0.1l-0.4-1.6l-0.4,0.4l-0.3-0.2l-0.1-0.5l-1.2-0.3l-0.6,0.3l-0.7-0.1l0.4-0.4l0.2-0.7
		l-0.2-0.5l0.4-0.3l0.4-0.1l-0.2-0.5v-1.2l-0.3-0.3l-0.2,0.4h-1.6l-0.4-0.4l-0.2-1l-0.6-1v-0.3l0.6-0.2l0.1-0.6l0.3-0.3l-0.2-0.2
		L14,183l-0.3-0.7l0.3-1.3l1.3-0.9l0.7-0.4l0.5-1l0.7-0.4l0.7,0.3l0.1,0.6l0.6-0.1l0.9-0.6l0.4,0.2l0.3,0.2h0.4l0.6-0.4l0.2-1.2
		c0,0,0.1-0.8,0.3-1l0.3-0.3l-0.3-0.5l-0.7,0.2l-0.9,0.2l-0.5-0.2l-1-0.5l-1.3-0.1l-1-1l0.2-1l0.2-0.6l-0.6-0.5l-0.5-1l0.2-0.2
		l1.8-0.2h0.6l0.3,0.3h0.2l-0.1-0.4l1-0.2l0.7,0.1l0.4,0.3l-0.4,0.6l-0.2,0.4l0.7,0.4l1.3,0.5l0.5-0.3l-0.6-1.2l-0.3-0.9l0.3-0.2
		l-1-0.5l-0.2-0.3l0.2-0.4l-0.2-1l-0.8-1.3l-0.6-1.2l0.8-0.5h0.9l0.5,0.2l1.2-0.1l1-1l0.3-0.9l1-0.6l0.4,0.3l0.7-0.2l1-0.6l0.3-0.1
		l0.3,0.2l1.3-0.1l0.7-0.9h0.3l1,0.6l0.5,0.6l-0.2,0.3l0.2,0.3l0.4-0.4l1,0.1l0.1,1l0.5,0.4l1.9,0.2l1.7,1.2l0.4-0.3l1.3,0.7
		l0.6-0.2l0.5-0.2l1.3,0.5L42.6,167.1L42.6,167.1z M10.3,174.1l0.6,1.4v0.3l-0.8-0.1l-0.5-1.1l-0.5-0.4H8.4l-0.1-0.7l0.5-0.6
		l0.3,0.6l0.4,0.4C9.5,174,10.3,174.1,10.3,174.1L10.3,174.1z M9.5,183.2l1,0.2l1,0.3l0.2,0.3l-0.4,1l-0.9-0.1l-1-1
		C9.6,184,9.5,183.2,9.5,183.2z M4,179.4l0.3,0.7l0.3,0.4l-0.3,0.2l-0.6-0.9v-0.5L4,179.4L4,179.4z M0.3,199.1l1-0.6l1-0.3l0.7,0.1
		l0.2,0.4l0.5,0.2l0.5-0.5L4,197.9l0.7-0.2l0.8,0.7L5.2,199L4,199.3l-0.7-0.2l-1-0.3L1,199.2H0.5L0.3,199.1L0.3,199.1z M13.5,197.9
		l0.4,0.5l0.6-0.4l-0.4-0.4L13.5,197.9L13.5,197.9z M14.3,198.7l0.3-0.6l0.6,0.1l-0.2,0.5L14.3,198.7L14.3,198.7z M20.7,198.2
		l0.4,0.5l0.3-0.3l-0.2-0.5L20.7,198.2z M23,194.8l0.3,1.6l0.8,0.2l1.3-0.8l1.2-0.7l-0.4-0.6l0.2-0.6l-0.6,0.4l-0.8-0.2l0.4-0.3
		L26,194l1-0.5l0.2-0.4l-0.6-0.2l0.2-0.5l-0.7,0.5l-1.3,1l-1.3,0.8L23,194.8L23,194.8z M34.4,189.5l0.6-0.4l-0.3-0.5l-0.5,0.3
		L34.4,189.5L34.4,189.5z"/>
	<path id="HI_1_" class="st3" d="M61.9,184.8l0.5-1l0.6-0.1l0.1,0.2l-0.6,0.9L61.9,184.8L61.9,184.8z M65.4,183.8l1.7,0.7l0.6-0.1
		l0.4-1l-0.2-1l-1.2-0.2l-1.1,0.5C65.7,182.9,65.4,183.8,65.4,183.8z M73.7,186.5l1,1.4l0.6-0.1l0.3-0.2l0.4,0.4l1-0.1l0.3-0.4
		l-0.8-0.5l-0.5-1l-0.6-1l-1.6,0.8C73.9,185.9,73.7,186.5,73.7,186.5z M79.1,188.9l0.4-0.5l1.3,0.3l0.2-0.2l1.7,0.2l-0.1,0.4
		l-0.7,0.4l-1.2-0.1L79.1,188.9z M80.6,190.3l0.5,1L82,191l0.1-0.4l-0.4-0.6l-1-0.1V190.3L80.6,190.3z M82.4,190l0.6-0.8l1.3,0.6
		l1.2,0.3l1.2,0.7v0.5l-1,0.5l-1.3,0.3l-0.6-0.4L82.4,190L82.4,190z M86.9,194.2l0.4-0.4l1,0.4l2.1,1l1,0.6l0.4,0.6l0.5,1.2l1.1,0.7
		l-0.1,0.4l-1,0.9l-1.2,0.4l-0.4-0.2l-0.9,0.5l-0.6,0.9l-0.6,0.8l-0.5-0.1l-1-0.7l-0.1-1.3l0.2-0.6l-0.4-1.5l-0.6-0.5l-0.1-0.7
		l0.6-0.3l0.6-0.9l0.2-0.3l-0.4-0.5L86.9,194.2L86.9,194.2z"/>
	<path id="AL_1_" class="st3" d="M168.8,170.5l0.2,0.1l0.4-0.7l0.4-1.2l0.6,0.2l0.9,1.6v0.3l-0.7,0.5l0.7,0.1l1.3-0.6l-0.1-2.1
		l-0.6-0.5l-0.5-0.5l0.1-1.1l2.9-0.4l6.9-0.8l1.8-0.2h1.5l-0.2-0.6l-0.4-0.2l-0.2-0.3l0.3-0.7L184,162l-0.4-1.3l0.2-1.3l0.4-1.3
		l-0.1-0.4l-0.5-0.2l-0.2-1l-0.7-1l-0.5-1.7l-0.4-1.8l-0.5-1.3l-1-4.3l-1-2.1l-0.2-1.5v-0.6l-2.4,0.2l-6.4,0.6l-3.3,0.2l-0.1,1.7
		l0.1,4.5l-0.2,8.3l-0.1,3.8l0.7,5.1l0.4,4h0.7V170.5z"/>
	<path id="AR_1_" class="st3" d="M157.6,138l-1.7-0.2l0.2-0.9l0.9-0.7l0.2-0.6l-0.5-0.8l-8.6,0.3l-6.4,0.2l-6.4,0.1l0.4,1.9v2.3
		l0.4,2.9l0.1,10.3l0.6,0.4l0.8-0.3l0.8,0.3l0.1,2.8l6.8-0.1l7.3-0.2l0.2-0.5l-0.1-1l-0.4-0.9l0.4-0.4l-0.4-0.6l0.2-0.6l0.3-1.6
		l0.7-0.6l-0.2-0.6l1.1-1.5l0.6-0.3v-0.4l-0.2-0.4l0.8-1.6l0.6-0.3l0.1-0.9l0.6-0.4l0.2-1.1l-0.4-1.1l1.2-0.6l0.1-0.6l0.3-1.2
		l0.2-0.9L157.6,138L157.6,138z"/>
	<path id="AZ_1_" class="st3" d="M35.5,149.8l-0.1,0.4l0.2,0.3l5.1,2.9l3.3,2.1l4,2.3l4.5,2.7l3.3,0.6l6.8,0.7l1.6-10.7l1.9-14.3
		l1.2-8.3l-6.6-1l-16.4-3l-0.1,0.3l-0.7,4.4l-0.5,1l-0.7-0.1l-0.3-0.7l-0.7-0.1l-0.3-0.3h-0.3l-0.6,0.4l-0.1,1.8l-0.1,0.4l-0.2,3.3
		l-0.4,0.6l-0.1,0.9l0.7,1.3l0.3,1.4l0.2,0.3l0.3,0.2l-0.1,0.6l-0.4,0.3l-1,0.4l-0.4,0.5l-0.4,1l-0.2,1.3l-0.8,0.8l-0.5,0.2v1.6
		l-0.2,0.4l0.2,0.2l1,0.1l-0.2,0.8l-0.4,0.6l-1,0.1L35.5,149.8L35.5,149.8z"/>
	<path id="CA_1_" class="st2" d="M32.2,148.8l-5.3-0.7l-2.7-0.4l-0.2-0.5v-2.5l-0.1-0.9l-0.7-1.2L23,142l-1-1.2l-0.8-1.3l-0.7-0.1
		l-0.9-0.2l-0.1-0.3l0.4-0.2l-0.2-0.9l-0.4-0.6L18,137l-1-0.6l-0.3-0.6l-0.7-1.3l-0.8-0.9h-0.8l-1-0.6l-1.3-0.5l-1.2-0.2l-0.6-0.7
		l0.2-0.5l0.5-1.9l0.2-0.5v-0.6l-0.4-0.3l-0.2-0.8l-0.4-0.7l-1-1.6L8.8,124l-0.4-1.3L8,121.3l-0.9-1.2L7,119.3l0.2-1h0.3l0.6-0.4
		l0.3-1l-0.3-0.7l-0.7-0.2l-0.6-0.9l-0.6-1L6.2,112l0.2-0.5l0.2-0.6l0.2-0.6l-1.5-1.7V108l0.1-0.2l0.1-0.9l-0.2-0.6l-0.7-1.4
		l-0.7-1.3l-0.5-1l0.3-1l0.2-1.6l0.5-0.9l0.1-1.7l-0.3-1l-0.4-1.2l-0.7-1.2l0.2-0.9L3.5,92L4,91.8l0.1-0.3l0.9-0.7l1.3-3.2l0.1-2
		l0.4-1.3l10.5,3.2l6.9,1.8L22,97.7l-2.3,9l3.4,5.2l11.4,16.8l4.6,7.1l-0.1,0.9l0.7,1.3l0.3,1.4l0.3,0.4l0.2,0.2l-0.1,0.4l-0.4,0.3
		l-1,0.4l-0.5,0.6l-0.4,1l-0.2,1.3l-0.7,0.6l-0.6,0.3v1.7l-0.2,0.5l0.3,0.4l0.8,0.1l-0.1,0.4l-0.4,0.5l-1,0.2L32.2,148.8L32.2,148.8
		z M16.1,135.8l0.4,0.4l-0.1,0.4h-0.9l-0.2-0.3l-0.2-0.4L16.1,135.8z M16.6,135.8l0.3-0.2l1,0.6l0.9,0.3l-0.2,0.2l-1.3-0.1l-0.4-0.4
		C16.8,136.2,16.6,135.8,16.6,135.8z M22.2,141.2l0.5,0.6l0.2,0.3l0.4,0.2l0.2-0.4l-0.3-0.5l-0.7-0.5l-0.3,0.1L22.2,141.2
		L22.2,141.2z M21.8,143.5l0.5,0.9l0.3,0.5l-0.4,0.1l-0.4-0.3c0,0-0.2-0.4-0.2-0.5v-0.6L21.8,143.5L21.8,143.5z"/>
	<path id="CO_1_" class="st3" d="M101.7,108.2l-9.8-1l-21.4-2.3l-0.6,6l-1.9,13.6l-0.5,3.7l9.1,1l10.1,1.2l9.4,0.8l3.9,0.2
		L101.7,108.2L101.7,108.2z"/>
	<path id="CT_1_" class="st3" d="M229,96.1l1-0.9l0.5-0.6l0.2,0.2l0.7-0.4l1.3-0.3l1.9-1l-0.2-1.2l-0.2-1.2l-0.4-1.6l-1.2,0.3
		l-5.9,1.3l0.2,0.9l0.4,2v2.2l-0.2,0.6l0.4,0.6C227.7,97,229,96.1,229,96.1z"/>
	<path id="IA_1_" class="st3" d="M149.4,94.1l0.6,0.6l0.1,0.2l-0.5,0.8l0.1,1.1l0.7,1.1l0.9,0.4l0.6,0.1l0.2,0.5l0.1,0.6l0.6,0.3
		l0.2,0.3l0.2,0.4l1,0.9l0.2,0.5l-0.2,0.8l-0.4,1l-0.2,0.6l-0.6,0.4l-0.4,0.2l-1.5,0.4l-0.4,1.3l0.2,0.5l0.4,0.4l-0.1,1l-0.5,0.4
		l-0.2,0.5v0.6l-0.4,0.1l-0.4,0.4l-0.2,0.4l0.1,0.4l-0.4,0.3l-0.6-0.7l-0.4-0.7l-2.2,0.2l-2.7,0.2l-13.3,0.3l-0.4-1.2l-0.1-1.8
		l-0.4-1.2l-0.2-1.3l-0.6-1L128,103l-0.7-2.1l-0.3-1.5l-0.4-0.5l-0.4-0.8l0.4-1l0.3-1.7l-0.7-0.6l-0.1-0.6l0.2-0.6l0.5-0.1l16.5-0.2
		l5.7-0.2L149.4,94.1L149.4,94.1z"/>
	<path id="ID_1_" class="st3" d="M46.4,52.1l-1.3,4.8l-1.3,5.6l-1,4.4l-0.1,2.6l0.3,1.2l1,0.7L44,72.4l-1,1.2l-1.2,1.7l-0.2,0.8
		l-0.3,0.3l-0.5,0.2l-1.2,1.4L39.5,79l-0.1,0.2l0.2,0.3h0.7l0.3,0.6L40,81.8L39.6,83l-2.4,9.4l5.6,1.3l10.6,2.1l9.4,1.7l1.3-7.9
		l1-6.4l-0.7-0.6l-0.1-0.7l-0.2-0.3l-0.6,0.2l-0.2,0.7l-0.9,0.2l-1-0.4h-1l-0.6,0.1l-1-0.4l-0.6,0.1l-0.6,0.5L57.1,82l-0.2-1.1
		l0.2-0.8l-0.6-0.8l-0.9-0.7L54.9,75v-1.3h-0.1l-0.1,0.1l-1.4,1l-0.4-0.1l-0.8-1L52,72.9l1.9-4.7l-0.2-0.4l-1-0.3l-0.2-0.3l-0.7-1
		l-1.3-2.8l-0.8-0.4l-0.5-1.3l0.4-1.3l-0.9-2.1l1-5.7L46.4,52.1L46.4,52.1z"/>
	<path id="IL_1_" class="st3" d="M166.1,102.5l-0.2-0.7l-0.4-1l-0.4-0.5l-0.4-0.7l-0.1-1.4l-4.3,0.5l-4.8,0.3h-3.3l0.1,0.6l0.6,0.2
		l0.3,0.4l0.1,0.4l1,1l0.2,0.6l-0.2,0.9l-0.4,1l-0.2,0.7l-0.6,0.5l-0.5,0.2l-1.3,0.4l-0.4,1.1l0.2,0.3l0.5,0.5l-0.1,1.2l-0.6,0.4
		l-0.2,0.4v0.7l-0.5,0.2l-0.4,0.3l-0.1,0.3l0.1,0.5l-0.4,0.4l-0.2,0.7l0.1,1l0.6,1.9l1.9,2.1l1.5,1v1.2l0.2,0.3l1.8,0.2l0.7,0.4
		l-0.2,1l-0.6,1.7l-0.2,0.8l0.5,1l1.7,1.4l1.3,0.2l0.6,1.3l0.5,1l-0.2,0.7l0.4,1l0.4,0.6l0.4-0.1l0.3-0.6l0.6-0.4l0.7-0.3l1.7,0.6
		l0.2-0.1v-0.3l-0.3-0.7l0.1-0.7l0.6-0.4l1-0.3l-0.2-0.4l-0.2-0.5l0.3-0.4l0.3-0.7v-1.1l0.1-1.3l0.6-0.8l0.5-1l0.6-1.1l-0.2-1.4
		l-0.5-0.9l-0.1-0.9l0.2-1.4l-0.2-2l-0.3-4.3l-0.4-4.1L166.1,102.5L166.1,102.5L166.1,102.5z"/>
	<path id="IN_1_" class="st3" d="M167.2,103l0.4,0.3l0.3-0.1l0.6-0.5l0.6-0.5l3.9-0.3l4.9-0.5l0.4,4.2l1.3,11.5l-0.2,0.8l0.4,0.4
		l0.1,0.4l-0.6,0.4l-1,0.4l-0.9,0.1l-0.2,1.3l-1.3,1l-0.9,1.1l0.1,0.6l-0.2,0.4h-1l-0.4-0.4l-1.3,0.8l0.1,0.9l-0.2,0.1l-0.2-0.2
		l-0.6-0.4l-1,0.4l-0.4,0.8l-0.3-0.2l-0.4-0.5l-1.2,0.2l-1.5,0.3l-0.6,0.4v-0.7l0.1-1.3l0.6-0.8l0.5-1l0.7-1.2l-0.2-1.6l-0.5-0.9
		l-0.1-0.9l0.2-1.4l-0.4-2.1l-0.2-3.4l-0.4-8.3L167.2,103L167.2,103z"/>
	<path id="KS_1_" class="st3" d="M130.2,114.7l-11.8-0.2l-11-0.3l-5.9-0.2l-1.2,17.5l6.5,0.3l12.1,0.6l12.5,0.2l3.4-0.1l0.2-9.4
		l-0.3-3l-0.6-0.5l-0.6-0.8l-0.6-1l0.2-0.8l0.4-0.4v-0.6l-0.2-0.2l-0.7-0.1l-1-1L130.2,114.7L130.2,114.7z"/>
	<path id="KY_1_" class="st3" d="M163,134.2l3.4-0.2v-1.1h1.2l8.2-0.9l12.1-1.2l1.5-1l1-0.6v-0.5l1.6-2.1l1.1-1l0.6-0.6l-0.9-0.5
		l-0.6-0.7l-0.8-1l-0.2-0.6l-0.7-0.4l-0.2-0.5l-0.1-1.7l-0.7-0.5l-0.5-0.3l-0.2-0.6l-0.4,0.1l-0.5,0.3l-0.6,0.7l-0.5-0.4l-0.6-0.2
		l-0.6,0.4H185l-0.5-0.5H183l-0.5-1.3l-0.8-0.4l-0.4,0.2l-1.2,0.1L180,118l0.3,0.4l0.1,0.6l-0.7,0.5l-1,0.5l-0.7,0.1l-0.2,1.3
		l-1.3,1l-0.7,1l0.1,0.6l-0.2,0.6h-1.3l-0.4-0.4l-1,0.6l0.1,0.9l-0.6,0.2l-0.2-0.4l-0.4-0.3l-0.7,0.3l-0.5,1l-0.6-0.3l-0.4-0.4
		l-1,0.1l-1.5,0.3l-0.7,0.4l-0.3,1l-0.3,0.3l0.4,1l-1.2,0.4l-0.5,0.4l-0.1,0.6l0.3,0.6v0.6l-0.4,0.1l-1.7-0.6l-0.9,0.1l-0.5,0.4
		l-0.2,0.5l0.4,0.6l-0.2,0.5v0.9l-0.6,0.4l-0.6,0.4L163,134.2L163,134.2z"/>
	<path id="LA_1_" class="st3" d="M141.3,175.8l2.1-0.1l2.8,1l1.7,0.3l1-0.4l0.9,0.3l0.9,0.3l0.2-0.6l-0.9-0.3l-0.7,0.2l-0.7-0.4
		l0.2-0.4l0.9-0.3l0.5,0.4l0.5-0.3l0.9,0.2l0.4,0.6l0.1,0.6l1.3,0.1l0.5,0.5l-0.2,0.4l-0.4,0.2l0.4,0.4l2.2,1l1-0.4l0.3-0.6l0.7-0.2
		l0.5-0.4l0.4,0.3l0.2,0.8l-0.6,0.2l0.2,0.2l1-0.4l0.6-1l0.2-0.2l-0.6-0.1l0.2-0.4l-0.1-0.4l0.6-0.2l0.3-0.4l0.2,0.2l0.2,0.9
		l1.2,0.2l1.1,0.5l0.3,0.4h0.8l0.3,0.3l0.6-0.9v-0.4H165l-1-0.7l-1.6-0.2l-0.9-0.6l0.3-0.7l0.6,0.1l0.1-0.2l-0.5-0.3v-0.2h0.9
		l0.5-0.9l-0.4-0.5l-0.1-0.7l-0.4,0.1l-0.5,0.6L162,174l-0.9-0.2l-0.3-0.5l0.5-0.5l0.5-0.4l-0.6-1.7l-1-1l0.3-2l-0.1-0.2l-0.4,0.1
		l-9,0.4l-0.2-0.6l0.2-2.3l2.3-4l-0.2-0.7l0.4-0.1l0.1-0.5l-0.6-0.5V159l-0.5-1.3l-0.1-1.3v-0.2l-7.1,0.2h-6.8l0.1,2.6l0.2,2.5
		l0.2,1l0.7,1.3l0.2,1.2l1.2,1.6l0.1,0.9l0.2,0.2l-0.2,2.2l-0.7,1.3l0.3,0.6l-0.2,0.7l-0.2,2l-0.4,0.8l0.1,1L141.3,175.8
		L141.3,175.8z"/>
	<path id="MA_1_" class="st3" d="M238.6,91.2l-0.2-0.6l0.2-0.5l0.8-0.4l0.2,0.9l-0.2,0.5l-0.6,0.4v0.3l0.5-0.4l1-1.3l1-0.5l1.2-0.4
		l-0.1-0.6l-0.3-0.8l-0.5-0.6l-0.5-0.2l-0.6,0.1l-0.2,0.2l0.3,0.4l0.4-0.2l0.6,0.4l0.2,0.7l-0.5,0.5l-0.6,0.3l-1-0.2l-1-1.6
		l-0.6-0.7H238l-0.3,0.2l-0.5-0.7l0.1-0.4l0.6-1.3l-0.8-1.2l-1,0.5l-0.5,0.8l-4.9,1.3l-3.7,0.6l-0.2,2.9l0.2,1.3l6-1.3l3-0.7
		l0.5,0.4l1,1.2l0.8,1.3L238.6,91.2L238.6,91.2z M241.5,91.8l0.6-0.2l0.2-0.4h0.3l0.3,0.6l-0.4,0.2h-1
		C241.4,91.9,241.5,91.8,241.5,91.8z M239,92l0.6-0.7h0.4l0.5,0.4l-0.6,0.3l-0.6,0.3L239,92L239,92z"/>
	<path id="ME_1_" class="st3" d="M232.8,69.5l0.4,0.1v-0.7l0.2-1.4l0.7-1.3l0.4-1.1l-0.5-0.6v-1.6l0.2-0.3l0.2-0.7l-0.1-0.4
		l-0.1-1.3l0.5-1.3l0.8-2.4l0.6-1.3h0.4l0.4,0.1v0.3l0.4,0.6l0.7,0.2l0.2-0.2v-0.3l1.1-0.8l0.5-0.5l0.4,0.1l1.6,0.6l0.5,0.3l2.5,8.1
		h1.6l0.2,0.5l0.1,1.3l0.8,0.6h0.2l0.1-0.2l-0.2-0.3l0.7-0.2L249,66l0.6,1v0.5l-0.6,1.3l-0.5,0.2l-1,0.9l-1.3,1.4H246
		c-0.2,0-0.3-0.6-0.3-0.6l-0.5,0.1l-0.3,0.4l-0.6,0.4l-0.3,0.4l0.4,0.4l-0.2,0.2l-0.2,0.7l-0.5-0.1v-0.5l-0.1-0.4l-0.4,0.1l-0.5-0.9
		l-0.6,0.4l0.4,0.4l0.1,0.3l-0.2,0.4l0.1,0.9l0.1,0.4l-0.4,0.7l-0.8,0.2l-0.1,0.8l-1.4,0.9l-0.4,0.2l-0.4-0.4l-0.9,1l0.3,0.9
		l-0.4,0.4l-0.1,1.2l-0.3,1.7l-0.6-0.2l-0.2-0.9l-1.1-0.3l-0.1-0.6l-3.3-10L232.8,69.5L232.8,69.5z M242.3,73.7l0.4-0.4l0.4,0.3
		l0.2,0.6l-0.4,0.2C242.8,74.4,242.3,73.7,242.3,73.7z M244.1,72.1l0.5,0.5c0,0,0.4,0,0.4-0.1c0-0.1,0.1-0.5,0.1-0.5l0.2-0.2
		l-0.2-0.5l-0.5,0.2C244.4,71.5,244.1,72.1,244.1,72.1z"/>
	<path id="MI_1_" class="st3" d="M173,101.6l5.2-0.5l0.1,0.3l2.7-0.4l3.3-0.4v-0.2l0.1-0.4l0.6-1l0.5-0.4l-0.1-1.3l0.4-0.4l0.3-0.1
		l0.1-1l0.4-0.8l0.3,0.2l0.1,0.2l0.2,0.1l0.5-0.3l-0.1-2.5l-0.9-2.1l-0.6-2.5l-0.6-0.9l-0.7-0.5l-0.4,0.3l-1,0.5l-0.5,1.3l-0.7,1
		l-0.3,0.2l-0.4-0.2c0,0-0.7-0.4-0.6-0.6s0.2-1.3,0.2-1.3l1-0.4l0.2-1l0.2-0.7l0.6-0.4l-0.1-2.7l-0.4-0.6l-0.4-0.2l-0.2-0.6l0.2-0.2
		l0.4,0.1l0.1-0.4l-0.7-0.6l-0.4-0.7h-0.7l-1.3-0.4l-1.4-1h-0.7l-0.2,0.2l-0.3-0.2l-0.9-0.6l-0.8,0.5l-0.8,0.6l0.1,1l0.3,0.1
		l0.6,0.2l0.2,0.2l-0.7,0.2l-0.7,0.1l-0.4,0.5l-0.1,0.6l0.1,0.4l0.1,1.4l-1,0.6l-0.2-0.1v-1.2l0.4-0.6l0.2-0.6l-0.2-0.2l-0.5,0.2
		l-0.3,1.2l-0.7,0.3l-0.5,0.5l-0.1,0.3l0.2,0.2l-0.2,0.7l-0.6,0.2v0.3l0.2,0.6l-0.3,1.7l-0.4,1.1l0.2,1.3l0.2,0.3l-0.2,0.6l-0.1,0.2
		l-0.1,0.7l1,1.6l0.8,1.7l0.4,1.3l-0.2,1.3l-0.3,1.6l-0.6,1.3l-0.1,0.7l-0.9,0.9h3.5V101.6z M160.6,82.3l-0.4-0.3l-0.5-2.9l-1-0.4
		l-0.4-0.6l-3.4-0.7l-0.7-0.3l-2.1-0.6l-2.1-0.3l-1-1.4l0.2-0.2l0.7-0.2l1-0.6v-0.3l0.2-0.2l1.6-0.3l0.6-0.5l1.2-0.6l0.1-0.4
		l0.5-0.8l0.5-0.2l0.4-0.5l0.6-0.6l1.2-0.6l1.3-0.2l0.3,0.3l-0.1,0.3l-1,0.3l-0.4,0.9l-0.6,0.2l-0.2,0.6l-0.6,0.9l-0.1,0.7l0.2,0.2
		l0.3-0.3l1-0.8l0.4,0.4h0.6l0.9,0.3l0.4,0.3l0.4,0.9l0.7,0.7l1-0.1l0.4-0.3l0.4,0.4l0.4,0.2l0.4-0.2h0.3l0.4-0.3l1.1-1l1-0.3
		l1.8-0.1l1.3-0.5l0.7-0.4l0.4,0.1v1.5l0.2,0.1l0.8,0.2l0.5-0.2l1.7-0.4l0.3-0.3l0.4,0.2V75l0.9,0.9l0.4,0.2l0.4,0.3l-0.4,0.1
		l-0.2-0.1l-1-0.2l-0.6,0.2l-0.6-0.1l-0.9,0.4h-0.6l-1.6-0.4l-1.3,0.1l-0.5,0.7l-1.9,0.2l-0.6,0.2l-0.3,0.9l-0.4,0.3l-0.2-0.1
		l-0.4-0.4l-1.3,0.6h-0.2l-0.3-0.4l-0.2,0.1l-0.5,1.2l-0.3,1.1l-0.9,1.9L160.6,82.3L160.6,82.3z M152.6,67.1l0.5-0.6l0.6-0.2l1.4-1
		l0.6-0.2l0.2,0.2l-1.3,1.3l-0.9,0.5l-0.6,0.2C153,67.4,152.6,67.1,152.6,67.1z M175.8,75.7l0.2,0.6l0.9,0.1l0.4-0.3
		c0,0,0-0.4-0.1-0.4c-0.1-0.1-0.4-0.5-0.4-0.5l-0.6,0.1l-0.4,0.1V75.7C175.5,75.6,175.8,75.7,175.8,75.7L175.8,75.7z"/>
	<path id="MN_1_" class="st3" d="M124.5,62.6l-0.2,1.1v2.8l0.4,1.3l0.5,0.9l0.2,2.7l0.5,3.7l0.5,2l0.1,1.7v1.4l-0.4,0.5l-0.5,0.4
		v0.4l0.2,0.4l1.1,1l0.2,0.9v9.7l16.3-0.2l5.7-0.2l-0.2-1.6l-0.5-0.6l-2-1.3l-1-1.4l-1-0.2l-0.5-0.7h-0.9l-1-1l-0.2-1.9v-1l0.4-0.8
		l-0.2-0.7l-0.7-0.9l0.6-1.7l1.4-1.1l0.3-0.4l-0.1-2.1l0.1-0.8l0.7-0.8l1-0.8l0.4-0.1l1.3-1.3l0.5-0.2l0.6-1l0.6-1l0.9-0.7l1.3-0.5
		l2.5-1.1l1-0.5l0.2-0.6l-1.2,0.1l-0.2,0.3h-0.2l-0.5-0.9l-2.4,0.1l-0.3,0.2h-0.3l-0.2-0.4l-0.2-0.5l-0.7,0.2l-0.9,0.9l-0.4,0.2
		h-0.9l-0.7-0.3v-0.6l-0.4-0.1l-0.2,0.2l-0.7-0.4l-0.2-0.8l-0.4,0.2l-0.2,0.3l-0.6-0.2l-1.4-0.6l-1-0.7h-0.8l-0.4-0.3l-0.6,0.2
		l-0.3,0.3l-0.1,0.4h-1.3v-0.8l-1.7-0.1l-0.1-0.4h-1.3l-0.4-0.4l-0.4-1.7l-0.2-1.4l-0.5-0.2l-0.6-0.2l-0.2,0.1l-0.1,2.1h-8.2
		C123.7,61,124.5,62.6,124.5,62.6z"/>
	<path id="MO_1_" class="st3" d="M159.1,136.1l0.2-1.6l1.2-1l0.5-0.3v-0.8l0.2-0.4l-0.3-0.4l-0.6,0.1l-0.6-0.6l-0.4-1.3l0.2-0.7
		l-0.5-0.9l-0.5-1.3l-1.3-0.2l-1.8-1.5l-0.6-1.2l0.2-0.9l0.6-1.6l0.2-0.8l-0.5-0.3l-1.9-0.2l-0.3-0.5v-1.1l-1.4-1l-2-2.1l-0.6-2
		l-0.2-1.2l0.2-0.6l-0.7-0.9l-0.3-0.6l-2.1,0.2l-2.7,0.2l-13.2,0.3l0.4,0.7v0.6l0.6,1l0.8,1l0.9,0.8l0.7,0.1l0.4,0.3v0.8l-0.5,0.4
		l-0.2,0.6l0.6,0.9l0.6,0.8l0.7,0.6l0.4,3.1l-0.2,10.8l0.2,1.5l6.4-0.1l6.4-0.2l8.8-0.4l0.6,1l-0.2,0.9l-0.9,0.6l-0.2,0.5l1.3,0.2
		l1.1-0.3L159.1,136.1L159.1,136.1z"/>
	<path id="MS_1_" class="st3" d="M162.2,172.2l0.7-1.2l0.5,0.2l1.8-0.5l0.6,0.1l0.4,0.2h1.3l0.1-0.4l-0.4-4l-0.7-5.2l0.3-12.1
		l-0.1-4.5l0.1-1.7l-1.3,0.1l-5.3,0.4l-3.5,0.1l-0.1,0.9l-0.7,0.4l-0.7,1.3l0.2,0.4v0.6l-0.8,0.3l-1,1.3l0.2,0.6l-0.8,0.6l-0.3,1.5
		l-0.2,0.5l0.4,0.6l-0.4,0.4l0.4,0.7l0.1,1.2l-0.3,0.6l-0.1,0.2l0.1,1.3l0.5,1.3v0.4l0.6,0.5l-0.2,0.9l-0.3,0.2l0.2,0.5l-2.3,4
		l-0.2,2.1l0.2,0.4l6.5-0.2l2.1-0.2l0.5-0.1l0.2,0.4l-0.3,1.9l0.9,0.9l0.6,1.7L162.2,172.2L162.2,172.2z"/>
	<path id="MT_1_" class="st3" d="M96.6,63.7l-1.4,15.4l-0.4,4l-15.9-1.8l-13.3-1.9l-0.4,3l-0.5-0.4l-0.1-0.6L64.3,81l-1,0.4L63.1,82
		l-0.6,0.1l-1-0.4h-1.1l-0.6,0.2l-0.8-0.6l-0.7,0.2L57.6,82l-0.2-0.2l-0.2-1l0.2-0.9l-0.7-0.9l-0.9-0.6l-0.6-3.4v-1.4l-0.5-0.2
		l-0.2,0.3l-1.3,0.8h-0.3l-0.6-0.7l-0.1-0.7l1.9-4.7l-0.2-0.8l-1-0.3l-0.1-0.2l-0.7-1l-1.3-2.9L50,63l-0.6-1.1l0.4-1.3l-1-2l1.2-5.7
		l8.9,1.8l4.9,1l8.7,1.4l7.9,1.1l7.9,1l8.3,0.8L96.6,63.7z"/>
	<path id="ND_1_" class="st3" d="M126.3,78.7l-0.1-1.7l-0.5-2l-0.5-3.7l-0.2-2.6l-0.5-0.9l-0.4-1.4v-2.9l0.2-1l-0.5-1.5l-7.7-0.2
		l-5-0.2l-7.1-0.4l-6.8-0.6L97,63.7l-1.3,13.7l15.3,1L126.3,78.7L126.3,78.7L126.3,78.7z"/>
	<path id="NE_1_" class="st3" d="M126,99.8l-0.3-0.6l-0.2-0.4l-0.8-0.4l-1.3-0.4l-0.5-0.3h-0.7l-1,0.1l-1.2,0.3l-1.6-1.1l-0.6-0.5
		l-2.9,0.2L103.8,96l-9.6-0.8L93,106.9l9,0.9l-0.4,5.6l5.9,0.3l11,0.3l11.8,0.2h1.3l-0.6-0.8l-0.7-1v-0.6l-0.4-0.7l-0.5-1.3
		l-0.1-1.8l-0.4-1.1l-0.2-1.3l-0.6-1l-0.3-1.3l-0.7-2.1l-0.3-1.4L126,99.8L126,99.8z"/>
	<path id="NH_1_" class="st3" d="M237.1,82.8l0.3-0.9l-0.7-0.3l-0.2-0.9l-1.1-0.3l-0.1-0.8l-3.1-10.1H232l-0.2,0.4l-0.2-0.2
		l-0.3-0.3l-0.4,0.5l-0.1,0.6l0.2,2.2l0.5,0.7v1.2l-1,1.3l-0.6,0.2v0.4l0.3,0.5v2.3l-0.2,2.5l-0.1,1.3l0.3,0.4l-0.1,1.3l-0.2,0.4
		l0.3,0.3l1.3-0.3l3.7-1l0.4-0.8l1.1-0.5L237.1,82.8L237.1,82.8z"/>
	<path id="NJ_1_" class="st3" d="M221.4,106.2v-0.4l0.7-0.4l0.4-0.7l0.4-0.6l0.9-0.9v-0.3l-1.7-1.1l-0.3-0.7l-0.7-0.1v-0.2l-0.2-0.6
		l0.6-0.3l0.1-0.8l-0.4-0.4l0.1-0.3l0.5-0.9v-0.9l0.6-0.9l1.5,0.6l1.7,0.5l0.6,0.3v0.5l-0.2,0.7l0.1,1.3l-0.6,0.5l-0.3,0.3l0.2,0.2
		l0.7-0.1l0.3-0.2l0.4,1l0.1,2.5l0.2,0.3l-0.3,1.4l-0.9,1.7l-0.7,1.1l-0.2,1.3l-0.6,0.6h-0.2l-0.1-0.7l0.2-0.3l-0.1-0.4l-1.1-0.2
		l-1.3-0.6l-0.9-0.8l-0.3-0.5L221.4,106.2L221.4,106.2z"/>
	<path id="NM_1_" class="st3" d="M72.2,160.5l-4.5-0.7l-0.3,2.6l-4.3-0.5l1.6-10.7l1.9-14.4l1.2-8.3l9.1,1l10.1,1.2l8.7,0.7
		l-0.1,2.9h-0.4l-2,26.4l-7.6-0.5l-10.2-1l0.2,1.7L72.2,160.5L72.2,160.5z"/>
	<path id="NV_1_" class="st3" d="M32.3,91.4l10.5,2.3l7.1,1.3L47,109.4l-1.4,8.1l-0.9,4.2l-0.6,3l-0.7,4.4L43,130h-0.4l-0.3-0.7
		l-0.7-0.2l-0.4-0.3h-0.5l-0.2,0.2l-0.5,0.4l-0.1,2l-0.1,0.4l-0.2,3.3l-0.3,0.5l-4.5-6.9L23.3,112l-3.3-5.2l2.3-8.8l2.1-8.4
		C24.5,89.6,32.3,91.4,32.3,91.4z"/>
	<path id="NY_1_" class="st3" d="M226.7,98.6l0.2-0.7l-0.1-0.6l-0.8-0.4l-1.7-0.5l-1.6-0.7l-0.2-0.1l-0.7-0.1l-0.5-0.4l-0.6-1.6
		l-0.9-0.2l-0.6-0.6l-10.4,2.1l-8.5,1.6l-0.2-1.7l0.4-0.3l0.4-0.3l0.3-0.4l0.5-0.3l0.5-0.5l0.2-0.4l0.6-0.7l0.3-0.3l-0.1-0.3
		l-0.4-0.9l-0.6,0.1l-0.5-1.7l0.8-0.5l1.2-0.4l1.1-0.4l0.9-0.2l1.7-0.1l0.5,0.4l0.4,0.1l0.6-0.4l0.7-0.3l1.3-0.2l0.6-0.5l0.5-0.9
		l0.4-0.5h0.6l0.5-0.3l0.1-0.6l-0.4-0.6L213,83l0.3-0.6v-0.4h-0.5l-0.5-0.2l-0.2-0.3l-0.1-0.7l1.6-1.4l0.2-0.2l0.4-0.8l0.8-1.3
		l0.7-1l0.6-0.6l0.6-0.5l0.9-0.3l1.4-0.4l0.9,0.1l1.3-0.4l2-0.6l0.2,1.3l0.6,1.7l0.2,1.3l-0.3,1.2l0.7,1.3l0.2,0.5l-0.2,0.9l1,0.4
		l0.7,2.8v1.6l-0.2,2.9l0.2,1.4l0.2,1l0.4,2v2.1l-0.3,0.6l0.6,0.7l0.2,0.2l-0.5,0.5l0.1,0.4l0.4-0.1l0.4-0.4l0.6-0.7l0.3-0.2
		l0.4,0.2l0.6,0.1l2.1-1l0.8-0.7l0.4-0.4l1.2,0.4l-1,1l-1,0.8l-1.9,1.4l-0.7,0.3l-1.6,0.5l-1.1,0.3l-0.3-0.1L226.7,98.6L226.7,98.6z
		"/>
	<path id="OH_1_" class="st3" d="M178.3,101.7l0.4,4.2L180,117l1-0.1l0.6-0.2l1,0.5l0.4,1.2h1.4l0.5,0.5h0.4l0.6-0.4l0.9,0.2
		l0.4,0.4l0.5-0.5l0.6-0.4l0.6-0.1l0.2,0.7l0.4,0.3l0.7,0.5l0.2,0.1h0.5l0.3-0.2v-0.6l0.4-0.4v-1.3l0.3-1.2l0.5-0.4l0.3,0.2l0.3,0.3
		l0.2,0.1l0.1-0.1l0.1-0.7V115l0.3-0.4l0.6-1l0.4-0.4l0.6,0.2l0.6-0.4l0.8-0.9l0.6-1l0.1-1.4l0.2-1.3V107l-0.3-0.9l0.3-0.5l0.4-0.3
		l-0.2-0.7l-1.2-6.9l-1.7,1l-1,0.6l-1,1l-1.1,1l-0.9,0.2l-0.8,0.2l-1.4,0.7l-0.6,0.1l-1-0.9l-1.3,0.2l-0.7-0.4l-0.6-0.4L178.3,101.7
		L178.3,101.7z"/>
	<path id="OK_1_" class="st3" d="M110.2,135l-0.5,6.5l-0.2,4.8l0.1,0.4l1.1,1l0.4,0.2h0.2l0.2-0.6l0.4,0.5h0.4l0.1-0.1l0.1-0.3
		l0.7,0.4l-0.1,1l1,0.2l0.6,0.3l1.2,0.2l0.6,0.4l0.6-0.4l1,0.2l0.6,0.9h0.3v0.6l0.6,0.2l0.6-0.6l0.5,0.2h0.7l0.2,0.6l1.2,0.5
		l0.4-0.1l0.5-1.2h0.4l0.3,0.6l1.2,0.2l1,0.4l0.8,0.2l0.4-0.2l0.2-0.7h1.3l0.5,0.2l0.7-0.5h0.4l0.2,0.4h1l0.5-0.5l0.6,0.2l0.4,0.6
		l0.8,0.4l1,0.2l0.5,0.3l-0.1-10.2l-0.4-2.9v-2.3l-0.4-1.8l-0.2-1.8v-1.2l-3.4,0.1l-12.5-0.2l-12.1-0.6l-11.2-0.5l-0.1,2.9
		L110.2,135L110.2,135z"/>
	<path id="OR_1_" class="st2" d="M17.2,87.5l7.6,2l7.4,1.7l4.6,1l2.4-9.4l0.3-1.2l0.6-1.4L40,79.8h-0.6L39,79.3l0.2-0.4l0.1-0.9
		l1.3-1.5l0.5-0.2l0.2-0.2l0.2-0.7l0.2-0.3l1-1.5l1-1.1l0.1-0.9l-1-0.6l-0.3-1.3l-3.6-1l-4.1-1l-4,0.1l-0.2-0.3l-1.3,0.5L28,67.6
		l-0.6-0.4L27,67.4l-1.3-0.1l-0.5-0.4L24,66.4h-0.3L22.4,66l-0.5,0.5l-1.7-0.1l-1.4-1l0.1-2.5l-0.6-1l-1.2-0.2l-0.2-0.6L16.3,61
		l-1.6,0.6l-0.6,1.7L13.2,66l-0.9,1.7L11,71.6l-1.7,3.6l-2.1,3.4l-0.5,0.8l-0.2,2.3L6,83.3l0.7,1C6.7,84.3,17.2,87.5,17.2,87.5z"/>
	<path id="PA_1_" class="st3" d="M197.9,96.5l0.4-0.2l1.5-1.4l0.2,1.9l9.1-1.7L219,93l0.6,0.6l0.9,0.1l0.5,1.5l0.6,0.5l0.7,0.1
		l-0.7,0.9v0.9l-0.5,0.9l-0.1,0.5l0.4,0.4l-0.1,0.5l-0.6,0.3l0.3,1l0.1,0.3l0.7,0.1l0.2,0.6l1.6,1v0.1l-0.9,0.8l-0.4,0.6l-0.4,0.7
		l-0.7,0.3l-0.4,0.1l-0.6,0.4l-0.4,0.4l-6,1.2l-10.5,2.1l-3,0.4l-1,0.2l-1.3-6l-1.2-7L197.9,96.5z"/>
	<path id="RI_1_" class="st3" d="M234.9,92.1l-0.2-1.2l-0.4-1.6l1.5-0.4l0.4,0.4l1,1.2l0.7,1.2l-0.7,0.4l-0.4-0.1l-0.3,0.5l-0.6,0.5
		l-0.7,0.3L234.9,92.1L234.9,92.1z"/>
	<path id="SD_1_" class="st3" d="M126.3,93.5l-0.2,0.9l0.1,0.8l0.7,0.5l-0.3,1.4l-0.5,1.1l0.4,0.9l0.2,0.3h-0.4L126,99l-0.2-0.5
		L125,98l-1.3-0.4l-0.6-0.4h-0.8l-1,0.1l-1,0.3l-1.4-1l-0.7-0.6l-2.9,0.2L104,95.6l-9.5-0.7l0.4-6.7l0.7-9.1l0.1-1.3l15.3,1
		l15.3,0.4v0.6l-0.4,0.4l-0.5,0.4v0.6l0.3,0.6l1.1,1l0.2,0.7V93L126.3,93.5L126.3,93.5z"/>
	<path id="TN_1_" class="st3" d="M180.2,141.7l-3.6,0.3l-6.4,0.6l-10.2,0.7l-3.2,0.1l0.2-0.2l0.2-1.3l-0.3-1l1-0.6l0.1-0.6l0.3-1.2
		l0.8-2.5l0.2-1.5l0.1-0.1l3.3-0.1l3.7-0.2v-1h1l8.2-0.9l14.6-1.3l2.8-0.4l2.1-0.1l0.6-0.5l0.4,0.1v0.9l-0.1,0.4l-0.6,0.6l-0.4,1
		l-0.5-0.1l-0.6,0.2l-0.6,0.9l-0.4-0.1l-0.2-0.3l-0.3,0.1l-1.4,1.1l-0.2,0.9l-1.2,0.6l-1.2,1l-0.9,0.5l-1.2,0.7l-0.2,1l-0.6,0.2
		l-0.5,0.4l-0.1,1.3L180.2,141.7L180.2,141.7z"/>
	<path id="TX_1_" class="st3" d="M75.4,159.5l9.9,1l7.9,0.5l2.1-26.4l14.7,0.6l-0.4,6.4l-0.4,4.9l0.1,0.5l1.2,1.1l0.5,0.3h0.5
		l0.2-0.3l0.2,0.2l0.6,0.1l0.3-0.2v-0.1l0.3,0.2l-0.1,1l1.3,0.2l0.6,0.2l1.2,0.2l0.7,0.5l0.7-0.5l0.7,0.2l0.6,0.9h0.2v0.6l0.9,0.3
		l0.6-0.6l0.4,0.2h0.6l0.2,0.6l1.3,0.5l0.6-0.2l0.5-1.1l0.3,0.5l1.3,0.2l1,0.4l0.9,0.3l0.6-0.3l0.2-0.6h1l0.6,0.3l0.8-0.5h0.1
		l0.2,0.4h1.3l0.5-0.5l0.4,0.1l0.4,0.6l0.9,0.5l1,0.3l0.6,0.4l0.7,0.5l0.9-0.3l0.6,0.2l0.2,5.4l0.2,2.5l0.2,1.1l0.7,1.2l0.2,1.3
		l1.2,1.6l0.1,0.9l0.2,0.2l-0.2,2.1l-0.8,1.3l0.4,0.7l-0.2,0.6l-0.2,2l-0.4,0.8l0.1,1.2l-1.5,0.4l-2.7,1.3l-0.3,0.5l-0.7,0.5
		l-0.6,0.4l-0.4,0.2l-1.5,1.4l-0.7,0.6l-1.4,0.9l-1.5,0.6l-1.7,1l-0.5,0.4l-1.6,1l-1,0.2l-1,1.4l-1.1,0.1l-0.3,0.5l0.6,0.5l-0.4,1.4
		l-0.4,1.3l-0.3,1l-0.2,1.3l0.2,0.6l0.5,1.9l0.3,1.7l0.5,0.7l-0.3,0.4l-0.9,0.5l-1.5-1l-1.4-0.3l-0.4,0.2l-0.9-0.2l-1.2-0.9
		l-1.3-0.3l-2.1-1l-0.6-1l-0.4-1.7l-0.9-0.5l-0.2-0.6l0.2-0.2l0.1-1l-0.4-0.2l-0.2-0.3l0.4-1.2l-0.4-0.6L109,188l-1-1.2l-1-1.8
		l-1.2-0.7l0.1-0.5l-1.4-3.3l-0.2-1.2l-0.5-0.5l-0.1-0.4l-1.6-1.4l-0.7-0.9v-0.3l-0.7-0.6l-1.8-0.3l-2-0.2l-0.9-0.6l-1.3,0.5l-1,0.4
		l-0.6,0.9l-0.3,1l-1.2,1.7l-0.6,0.6l-0.7-0.3l-0.5-0.3l-0.5-0.2l-1-0.6v-0.2l-0.5-0.5l-1.3-0.6l-2-2.1l-0.6-1.3V171l-0.9-1.7
		l-0.2-0.7l-0.4-0.3l-0.3-0.6l-1.3-0.6l-0.4-0.4l-1.9-2.1l-0.4-0.9l-1.3-0.6l-0.4-1.2l-0.7-0.8l-0.4-0.2L75.4,159.5L75.4,159.5z
		 M122.7,199.2l-0.2-1.9l-0.7-2l-0.2-1.9l0.4-2.1l0.9-1.9l1-1.4l0.9-1l0.2,0.1l-1.3,1.8l-1.2,1.7l-0.5,1.8l-0.1,1.3l0.2,1.7l0.7,2
		l0.2,1.3l0.1,0.4L122.7,199.2L122.7,199.2z"/>
	<path id="UT_1_" class="st3" d="M60.8,127l6.6,1l0.5-3.7l1.9-13.7l0.6-6l-8.7-1l0.6-3.6l0.5-2.9l-9.3-1.6L50,95l-2.9,14.2l-1.4,8
		l-0.9,4.1l-0.4,2.5C44.5,123.9,60.8,127,60.8,127z"/>
	<path id="VT_1_" class="st3" d="M223.9,74.7l0.6,1.7l0.2,1.4l-0.3,1l0.6,1.2l0.2,0.6l-0.2,0.7l0.9,0.4l0.8,2.9v1.4l3.1-0.6
		l-0.3-0.3l0.2-0.5l0.1-1.2l-0.3-0.4l0.1-1.3l0.2-2.5v-2.4l-0.3-0.5v-0.4l0.7-0.3l1-1.2v-1l-0.5-0.7l-0.1-1.5l-7.1,1.8L223.9,74.7
		L223.9,74.7z"/>
	<path id="WA_1_" class="st2" d="M19.1,62.9l-0.6-1.2l-1.1-0.2l-0.1-0.6l-0.6-0.2l-0.8-0.2l-0.5,0.3l-0.6-0.8l0.1-0.8l0.7-0.1
		l0.4-1.1l-0.7-0.3l0.1-1l1.2-0.2L15.7,56L15.3,54l0.2-0.8v-2.1l-0.4-0.9l0.6-2.5l0.6,0.2l0.6,0.8l0.7,0.7l0.9,0.5l1.2,0.6l0.9,0.2
		l0.8,0.4l1,0.3l0.7-0.1v-0.6l0.3-0.3l0.6-0.4l0.1,0.3l0.1,0.5l-0.6,0.2l-0.1,0.6l0.5,0.4l0.3,0.6l0.2,0.5l0.4-0.1l0.1-0.4l-0.3-0.4
		l-0.2-0.6l0.2-0.5l-0.2-0.4v-0.8l0.4-0.8l-0.3-0.7l-0.6-1.3l0.1-0.2l0.4-0.2l1.3,0.4l2.6,0.7l2.3,0.6l5.4,1.5l6.2,1.5l4,1l-1.3,4.8
		l-1.3,5.6l-1,4.4l-0.1,2.5l-3.5-1l-4-0.9l-3.9,0.1l-0.3-0.4l-1.5,0.6l-1-0.1l-0.8-0.5L27,67.1l-1.1-0.1l-0.4-0.4l-1.3-0.5l-0.3-0.1
		l-1.3-0.4l-0.6,0.6l-1.5-0.1l-1.3-0.9V62.9z M21.7,50.2h0.6l0.2,0.4l0.4-0.4h0.7l0.2,0.4L23.4,51l0.1,0.2l-0.2,0.5l-0.4,0.1
		c0,0-0.2,0-0.2-0.1S23,51,23,51l-0.4-0.1l-0.1,0.4l-0.2,0.2l-0.4-0.6C21.8,50.9,21.7,50.2,21.7,50.2z"/>
	<path id="WI_1_" class="st3" d="M145.2,74.3l0.8,0.2l0.8-0.2l2-0.9l0.8-0.5l0.6-0.2l0.5,0.4l-0.3,0.3l-0.5,0.9l-0.2,0.5l0.3,0.2
		l0.5-0.3l0.3-0.1l0.7,0.2l0.2,0.3l0.3,0.1l0.2-0.3l1.1,1.4l2.1,0.3l2.1,0.6l0.7,0.3l3.3,0.7l0.4,0.6l1,0.3l0.4,2.8l0.4,0.4l0.4,0.2
		l-0.3,0.6l-0.5,0.4l-0.6,1.3l-0.4,0.6l0.1,0.5l0.4,0.1l0.3-0.5l0.4-0.2l0.2-0.6l0.5-0.5l0.7-1.1l1.5-1.7l0.2-0.2l0.1,0.3l-0.1,0.6
		l-0.8,1.8l-0.7,1.5l-0.2,0.9l-0.2,0.7l0.2,0.4l-0.1,0.7l-0.5,0.6l-0.2,0.5l0.2,1l0.2,1l-0.4,0.7l-0.2,0.8l-0.3,0.9l0.3,0.6l0.2,1.7
		l0.4,1.3l-0.1,0.8l-4.3,0.5l-4.8,0.3h-3.4l-0.2-0.4l-0.8-0.1l-0.7-0.4l-0.6-1l-0.1-1l0.5-0.8l-0.2-0.4l-0.6-0.6l-0.2-0.9l-0.2-1.8
		l-0.6-0.6l-1.9-1.3l-1-1.4l-1-0.3l-0.6-0.7h-0.6l-0.8-0.9l-0.2-1.7v-1l0.4-0.9l-0.2-0.9l-0.6-0.7l0.5-1.4l1.3-1l0.4-0.5l-0.1-2.1
		l0.1-0.7l0.6-0.7L145.2,74.3L145.2,74.3z"/>
	<path id="WY_1_" class="st3" d="M94.4,88.3L94,95.1l-1.2,11.8l-0.7-0.1l-22.6-2.5l-7.5-0.8l0.5-3.3l1.9-11l1-6.5l0.4-3l13,1.9
		l15.9,1.7L94.4,88.3L94.4,88.3z"/>
	<path id="DE_1_" class="st3" d="M224.3,111.3l-0.3,0.2l-1-0.6l-0.5-1.3l-0.5-1l-0.6-0.3l-0.6-1l0.2-0.5l0.2-0.6V106h-0.2l-0.4,0.3
		l-0.5,0.4l-0.1,0.1l0.4,1.1l0.6,1.5l1,4.4l1.3-0.1l1.6-0.3L224.3,111.3L224.3,111.3z"/>
	<path id="FL_1_" class="st3" d="M201.6,164.7l-1.3-0.2l-0.2,0.2l0.4,1.2l-0.1,1.3l-1.1-0.3l-0.1-0.7H198l-1.4,0.2l-8.7,0.5
		l-2.1-0.1l-0.4-0.4l-0.6-1.2H183l-1.8,0.2l-9.5,1.2l-0.1,0.7l0.4,0.4l0.8,0.5l0.1,2.2l0.9-0.2l1.6-0.6l1.6-0.2l1.2-0.2l2.1,0.5
		l2.1,1l0.4,0.4l0.8,0.3l0.4,0.5l0.1,0.7l0.9-0.4h1l1-0.5l1-1l0.9,0.1l0.2-0.3l-0.2-0.3l0.1-0.5l1.1-0.2h0.7l0.8,0.4l1.2,0.4l0.6,1
		l0.7,0.3l0.3,1l1,0.4l0.4,0.7l0.5,0.2l1.3,0.4l0.4,0.9l0.8,1v2.5l-0.4,1.3l0.1,0.7l0.4,1.3l0.5,1.1l0.2-0.2l0.4-1.3l-0.7-0.3
		l-0.1-0.2l0.4-0.2l1.3,0.3l0.1,0.4l-0.9,1.4l-0.6,0.6l1,1l0.7,0.9l0.8,1.4l0.8,1l0.6,1.3l0.5,0.1l0.4-0.6l0.5,0.3l0.7,1.1l0.2,1
		l0.9,1.2l0.2-0.4l1,0.1l1,0.6l1,1.3l0.2,1l0.1,0.8l0.3,0.3l0.4,0.2l0.6-0.3l0.4-0.4l1-0.1l0.9-0.4l0.7-0.9l-0.2-0.5l-0.1-0.6
		l0.2-0.5l-0.1-0.5l0.6-0.4l0.1-1l-0.2-0.5l-0.2-3.3l-0.4-2.1l-1.3-2.1l-1-1.6l-0.7-1.4l-0.8-0.8l-0.8-2l0.2-0.4l0.3-0.4l-0.4-0.8
		l-1.1-1l-1.3-1.4l-1-1.7l-1.4-2.5l-1-2.6l-0.6-2L201.6,164.7L201.6,164.7z M207.7,200.6l0.6-0.2l0.4-0.1l0.4-0.6l0.6-0.4l0.4,0.2
		l0.4,0.1l0.1,0.3l-1,0.3l-1.2,0.4l-0.6,0.3L207.7,200.6L207.7,200.6z M211.4,199.4l0.3,0.3l0.7-0.6l1.4-1.2l1-1l0.6-1.8l0.3-0.4
		l0.1-1l-0.2,0.2l-0.3,0.7l-0.4,1.3l-0.9,1.4l-1.2,1.2l-1,0.5L211.4,199.4L211.4,199.4z"/>
	<path id="GA_1_" class="st3" d="M201.6,164.6l-1.5-0.2l-0.4,0.4l0.4,1.3l-0.1,1l-0.6-0.2l-0.1-0.8H198l-1.4,0.2l-8.7,0.5l-2.1-0.1
		l-0.4-0.3l-0.6-1.2l-0.2-0.9l-0.4-0.2l-0.2-0.2l0.2-0.6L184,162l-0.4-1.3l0.2-1.3l0.4-1.3l-0.1-0.6l-0.5-0.2l-0.1-0.9l-0.7-1
		l-0.5-1.7l-0.4-1.9l-0.4-1.3l-1-4.3l-1-2.1l-0.2-1.4v-0.6l0.9-0.1l3.7-0.4l5-0.5l1.7-0.3l0.2,0.4l-0.6,0.2L190,142l0.1,0.5l0.4,0.4
		l1.2,0.7h0.9l0.9,1.3l0.2,0.4l0.6,0.7l0.2,0.4l1.3,0.5l0.8,0.6l0.6,0.8l0.6,0.4l0.5,0.5l0.4,0.7l0.6,0.5l1.1,0.5l0.7,1.6l0.4,1.3
		l0.7,0.2l0.6,0.5l0.5,1.5l0.8,0.4l0.4-0.2l0.1,0.3l-0.9,1.7l0.2,0.7l-0.4,1.2l-0.6,2.7l0.2,1.7h-1.3V164.6z"/>
	<path id="MD_1_" class="st3" d="M224.4,115.9l0.4-1l0.2-1.3l-1.7,0.3l-1.6,0.1l-1-4.5l-0.6-1.4l-0.4-1.3l-6,1.2l-10.2,2l0.5,2.9
		l1.3-1.3l0.6-0.2l0.4-0.4l0.5-0.7l0.4,0.2l0.7-0.1l0.7-0.6l0.5-0.4l0.6-0.2l0.4,0.3l0.7,0.4l0.5,0.5l0.4,0.4l1.3,0.4l-0.2,0.8
		l1.6,0.6l0.6-0.7l1,0.6l-0.6,0.9l-0.2,0.9l-0.5,0.7v0.6l0.1,0.2l0.5,0.4l1.3,0.2h1.2l0.9,0.3l0.6,0.1l0.3-0.6l-0.4-0.6v-0.5
		l-0.6-0.6l-0.6-1.4l0.4-1.4l-0.1-0.6l-0.4-0.4c0,0,0.4-0.4,0.4-0.6c0-0.2,0.2-0.6,0.2-0.6l0.5-0.4l0.5-0.4l0.2,0.3l-0.4,0.4l-0.4,1
		l0.1,0.3l0.5,0.1l0.2,1.4l-0.6,0.3l0.1,1l0.2-0.1l0.3-0.5l0.4,0.5l-0.4,0.4l-0.1,1l0.7,1l1,0.2l0.4-0.2l0.9,1.2l0.3,0.1
		L224.4,115.9L224.4,115.9z M218.5,116.7l0.3,0.6l0.1,0.6l0.3,0.5c0,0,0.2-0.2,0.2-0.3c0-0.1-0.2-0.9-0.2-0.9l-0.2-0.6L218.5,116.7z
		"/>
	<path id="NC_1_" class="st3" d="M211.4,141.2L208,139l-0.9-0.2l-4.5,0.6l-0.4-0.8l-0.7-0.6l-4.5,0.2l-2,0.2l-2.5,1.3l-1.8,0.7
		l-1.7,0.3l-3.7,0.4V140l0.4-0.4l0.7-0.2l0.2-1l1-0.6l1-0.4l1.3-1l1.2-0.6l0.2-0.9l1.1-1l0.2,0.3l0.6,0.1l0.6-1l0.4-0.1l0.7,0.1
		l0.5-1.1l0.6-0.6l0.2-0.5v-1h1.2l10.4-1.5l15.6-3.3l0.5,1.3l1,1.7l0.6,0.6l0.2,0.6l-0.6,0.1l0.2,0.2l-0.1,1.2l-0.7,0.4l-0.2,0.6
		l-0.4,0.8l-1,0.4l-0.6-0.1l-0.4-0.1l-0.4-0.4l0.1,0.4v0.3h0.5l0.2,0.4l-0.5,1.7h1.2l0.2,0.4l0.6-0.6l0.4-0.2l-0.5,1l-0.9,1.3h-0.2
		l-0.3-0.2l-0.7,0.2l-1.3,0.6l-1.7,1.4l-1,1.3l-0.5,1.7l-0.2,0.6l-1.3,0.2l-1.3,0.4L211.4,141.2L211.4,141.2z M227.5,136.3l0.7-0.6
		l0.9-0.7l0.4-0.2l0.1-0.5l-0.2-1.7L229,132l-0.2-0.5l0.2-0.1l0.7,1.4l0.1,1.2l-0.1,1l-1,0.4l-0.7,0.6l-0.3,0.3
		C227.8,136.3,227.5,136.3,227.5,136.3z"/>
	<path id="SC_1_" class="st3" d="M203.9,156.2l-0.6-0.3l-0.5-1.5l-0.6-0.6l-0.6-0.2l-0.4-1.3l-0.8-1.7l-1.2-0.5l-0.5-0.5l-0.3-0.7
		l-0.6-0.5l-0.6-0.4l-0.6-0.8l-0.9-0.6l-1.2-0.4l-0.1-0.4l-0.6-0.7l-0.2-0.4l-1-1.4h-1l-1-0.6l-0.3-0.3l-0.1-0.4l0.2-0.4l0.7-0.4
		l-0.2-0.5l1.7-0.7l2.5-1.3l1.9-0.2l4.4-0.2l0.6,0.5l0.5,1l1.3-0.2l3.4-0.4l0.7,0.2l3.3,2l2.8,2.2l-1.4,1.4l-0.7,1.7l-0.2,1.7
		l-0.4,0.2l-0.3,0.7l-0.6,0.2l-0.6,1l-0.7,0.7l-0.6,1l-0.4,0.2l-1,1l-0.8,0.1l0.3,0.9l-1.3,1.4l-0.6,0.4L203.9,156.2L203.9,156.2z"
		/>
	<path id="VA_1_" class="st3" d="M224.3,116.2l-0.1,0.7l-0.8,1l-0.1,1.3l0.2,1l-0.5,1.3l-0.6,0.5l-0.4-1.3l0.1-1.4l0.4-1.2l0.2-0.9
		v-0.4C222.8,116.9,224.3,116.2,224.3,116.2z M206.5,128.9l-10.4,1.5h-1.3l-0.6-0.2l-0.6,0.5h-2l-2.8,0.4l-1.8,0.2l1.1-0.7l1.1-0.6
		v-0.4l1.5-2l1.1-1l0.6-0.6l1,1.2l1,0.2l0.7-0.3l0.5-0.4l0.6,0.3l1.3-0.4l0.4-1.2l0.6,0.2l0.9-0.6l0.4,0.1l0.7-0.9l0.1-0.7l-0.2-0.3
		l1.3-2.9l0.5-1.3l0.2-1.3l0.2-0.1l0.3,0.4l0.4,0.3l1-0.1l0.4-2.1l0.8-0.2l0.2-0.7l0.7-0.6l0.3-0.6l0.5-1.2v-1.3l1,0.4l1.8,0.9
		l0.1-1.3l1,0.3l-0.2,0.8l2.3,0.9l0.4,0.5l-0.2,0.9l-0.4,0.4l-0.2,0.4l0.2,0.6l0.5,0.4l1,0.4l0.8,0.3l1.3,0.2l0.6,0.6l0.9,0.1
		l0.2,0.3l-0.1,1.3l0.4,0.3l-0.2,0.5l0.3,0.2l-0.1,0.4h-0.5v0.4l0.6,0.4v0.4l0.5,0.5l0.2,0.6l-0.7,0.4l0.4,0.4l1.6-0.4l1,1.7
		L206.5,128.9L206.5,128.9z"/>
	<path id="WV_1_" class="st3" d="M203.9,113.3l1.6-1.6l0.7-0.2l0.4-0.4l0.4-0.6l0.3,0.1l0.9-0.1l1.3-1l0.4-0.2l0.4,0.3l0.7,0.3
		l0.8,0.8l-0.1,1.2l-1.4-0.7l-1.3-0.5v1.6l-0.7,1.5l-0.8,0.6l-0.2,0.6l-0.8,0.2l-0.4,2.1l-0.7,0.1l-0.3-0.3l-0.3-0.5l-0.6,0.2
		l-0.2,1.3l-0.5,1.3l-1.3,3l0.2,0.4v0.4l-0.6,0.6l-0.4-0.1l-0.9,0.6l-0.7-0.2l-0.5,1.3l-1,0.3l-0.6-0.4l-0.6,0.5l-0.6,0.2l-0.9-0.2
		l-1-1.3l-1-0.6l-0.6-0.6l-0.8-1l-0.2-0.6l-0.7-0.4l-0.2-0.4l-0.1-1.5h0.1l0.6-0.1l0.5-0.3v-0.6l0.4-0.4v-1.3l0.2-1l0.3-0.2l0.1,0.1
		l0.3,0.3l0.4,0.2l0.3-0.4L194,115v-0.3l0.9-1.3l0.3-0.4l0.5,0.2l0.7-0.5l0.9-1l0.6-1.1l0.1-1.5l0.2-1.3v-1.3l-0.3-0.8l0.2-0.4
		l0.2-0.2l1.2,5.2l1.2-0.2l3-0.4L203.9,113.3L203.9,113.3z"/>
	<path id="DC1_1_" class="st3" d="M215.5,113.1l-0.3-0.4l-0.3-0.2l0.3-0.4l0.6,0.4L215.5,113.1z"/>
</g>
</svg>
