<svg xmlns="http://www.w3.org/2000/svg" viewBox="170.4 2563.6 17.6 13.4">
  <defs>
    <style>
      .cls-1 {
        fill: #007ee5;
      }
    </style>
  </defs>
  <path id="Path_3" data-name="Path 3" class="cls-1" d="M9,16.2,4.8,12,3.4,13.4,9,19,21,7,19.6,5.6Z" transform="translate(167 2558)"/>
</svg>
