('City'),
('A Coruña'),
('Aalborg'),
('Aarhus'),
('Abakan'),
('Aberdeen'),
('Abidjan'),
('Abu Dhabi'),
('Abuja'),
('Acapulco'),
('Accra'),
('Adana'),
('Addis Ababa'),
('Addu City'),
('Adelaide'),
('Aden'),
('Adrar'),
('Agadir'),
('Agatti'),
('Aguadilla'),
('Aguascalientes'),
('Ahmedabad'),
('Aizawl'),
('Ajaccio'),
('Akita'),
('Akron'),
('Akron'),
('Aktau'),
('Akureyri'),
('Al Ain'),
('Al Najaf'),
('Aland'),
('Albany'),
('Albuquerque'),
('Aleppo'),
('Ålesund'),
('Alexandria'),
('Alexandria'),
('Alghero'),
('Algiers'),
('Alicante'),
('Almaty'),
('Almeria'),
('Alofi'),
('Ambon'),
('Amman'),
('Amman'),
('Amritsar'),
('Amsterdam'),
('Anadyr'),
('Anapa'),
('Anchorage'),
('Ancona'),
('Andaman & Nicobar Islands'),
('Angeles, Philippines'),
('Ankara'),
('Annaba'),
('Antalya'),
('Antananarivo'),
('Antigua'),
('Antofagasta'),
('Antsiranana'),
('Antwerp'),
('Aomori'),
('Apia'),
('Appleton'),
('Aqaba'),
('Aracaju'),
('Arequipa'),
('Arkhangelsk'),
('Armenia'),
('Asaba, Delta'),
('Ashgabat'),
('Asmara'),
('Astana'),
('Astrakhan'),
('Asturias'),
('Asunción'),
('Aswan'),
('Asyut'),
('Athens'),
('Atlanta'),
('Atlantic City'),
('Atyrau'),
('Auckland'),
('Austin'),
('Bacolod'),
('Baden-Baden/Karlsruhe'),
('Baghdad'),
('Bahawalpur'),
('Baku'),
('Balikpapan'),
('Baltimore'),
('Bamako'),
('Bandar Abbas'),
('Bandar Seri Begawan'),
('Bandung'),
('Bangalore'),
('Bangkok'),
('Bangkok'),
('Bangor'),
('Bangui'),
('Banja Luka'),
('Banjarmasin'),
('Banjul'),
('Barahona'),
('Barcelona'),
('Bari'),
('Barnaul'),
('Barranquilla'),
('Basel-Mulhouse-Freiburg'),
('Basra'),
('Bastia'),
('Batna'),
('Batumi'),
('Beauvais'),
('Beihai'),
('Beijing'),
('Beijing'),
('Beira'),
('Beirut'),
('Beja'),
('Bejaia'),
('Belém'),
('Belfast'),
('Belfast'),
('Belgorod'),
('Belgrade'),
('Belize City'),
('Belo Horizonte'),
('Benghazi'),
('Bergamo'),
('Bergen'),
('Bergerac'),
('Berlin'),
('Berlin'),
('Berlin'),
('Bern'),
('Béziers'),
('Bhopal'),
('Bhubaneswar'),
('Biarritz'),
('Billund'),
('Birjand'),
('Birmingham'),
('Birmingham'),
('Bishkek'),
('Bissau'),
('Blagoveshchensk'),
('Blantyre'),
('Bluefields'),
('Boa Vista Island'),
('Bobo-Dioulasso'),
('Bocas del Toro'),
('Bodø'),
('Bodrum'),
('Bogotá'),
('Bologna'),
('Bordeaux'),
('Bosaso'),
('Boston'),
('Bournemouth'),
('Brades'),
('Bratislava'),
('Bratsk'),
('Brazzaville'),
('Bremen'),
('Brescia'),
('Brest'),
('Brindisi'),
('Brisbane'),
('Bristol'),
('Brno'),
('Brussels'),
('Brussels/Charleroi'),
('Bryansk'),
('Bubaque'),
('Bucaramanga'),
('Bucharest'),
('Budapest'),
('Buenos Aires'),
('Buenos Aires'),
('Buffalo'),
('Bujumbura'),
('Bulawayo'),
('Burgas'),
('Bursa'),
('Busan'),
('Bydgoszcz'),
('Cagliari'),
('Cairns'),
('Cairo'),
('Calabar'),
('Calgary'),
('Cali'),
('Camagüey'),
('Campinas'),
('Campo Grande'),
('Can Tho'),
('Canberra'),
('Cancún'),
('Canouan'),
('Cap-Haïtien'),
('Cape Town'),
('Caracas'),
('Carcassonne'),
('Cardiff'),
('Cartagena de Indias'),
('Casablanca'),
('Catania'),
('Cayenne'),
('Cayman Brac'),
('Cayo Coco'),
('Cayo Largo del Sur'),
('Châlons-en-Champagne'),
('Chambéry'),
('Chandigarh'),
('Changchun'),
('Changsha'),
('Changzhou'),
('Chania'),
('Charleston (SC)'),
('Charlotte'),
('Cheboksary'),
('Chelyabinsk'),
('Chengdu'),
('Chennai'),
('Chennai'),
('Cheongju'),
('Cherepovets'),
('Chernivtsi'),
('Chiang Mai'),
('Chiang Rai Province'),
('Chicago'),
('Chicago'),
('Chicago'),
('Chihuahua'),
('Chios Island'),
('Chişinău'),
('Chita'),
('Chittagong'),
('Chlef'),
('Chongqing'),
('Christ Church, Barbados'),
('Christchurch'),
('Christmas Island'),
('Chub Cay'),
('Chuuk'),
('Cienfuegos'),
('Cincinnati'),
('Ciudad del Carmen'),
('Ciudad del Este'),
('Cleveland'),
('Cluj-Napoca'),
('Cochin'),
('Cocos (Keeling Islands)'),
('Coimbatore'),
('Cologne/Bonn'),
('Colombo'),
('Columbus (OH)'),
('Columbus (OH)'),
('Conakry'),
('Concepción'),
('Constanța'),
('Constantine'),
('Cook Islands'),
('Copenhagen'),
('Córdoba'),
('Corfu'),
('Cork'),
('Corn Island'),
('Cotonou'),
('Cozumel'),
('Cúcuta'),
('Cuenca'),
('Cuiabá'),
('Culiacán'),
('Cuneo'),
('Curitiba'),
('Cusco'),
('Da Nang'),
('Daegu'),
('Dakar'),
('Dakhla'),
('Dalaman'),
('Dalian'),
('Dallas'),
('Daman'),
('Damascus'),
('Dammam'),
('Dandong'),
('Dar es Salaam'),
('Darwin'),
('Davao City'),
('David, Chiriquí'),
('Dayton (OH)'),
('Debrecen'),
('Dehradun'),
('Delhi'),
('Denpasar'),
('Denver'),
('Dera Ghazi Khan'),
('Derry'),
('Des Moines (IA)'),
('Detroit'),
('Dhaka'),
('Dholera'),
('Dili'),
('Dimapur'),
('Dinard'),
('Dire Dawa'),
('Diyala Governorate'),
('Djerba'),
('Djibouti City'),
('Dnipropetrovsk'),
('Doha'),
('Doncaster/Sheffield'),
('Donetsk'),
('Dortmund'),
('Douala'),
('Dubai'),
('Dubai'),
('Dublin'),
('Dubrovnik'),
('Dunedin'),
('Dunhuang'),
('Durango'),
('Durban'),
('Dushanbe'),
('Dusseldorf'),
('Dzaoudzi'),
('Easter Island'),
('Edinburgh'),
('Edmonton'),
('Eilat'),
('Eindhoven'),
('El Arish'),
('El Dabaa'),
('Eldoret'),
('Elista'),
('Enfidha'),
('Entebbe'),
('Enugu'),
('Erbil'),
('Esmeraldas'),
('Exeter'),
('Exuma'),
('Fairbanks'),
('Faisalabad'),
('Faizabad'),
('Faro'),
('Fes'),
('Figari'),
('Florence'),
('Flores'),
('Florianópolis'),
('Fort Lauderdale'),
('Fort Myers'),
('Fort-de-France'),
('Fortaleza'),
('Franceville'),
('Francistown'),
('Frankfurt'),
('Frankfurt'),
('Freeport'),
('Freetown'),
('Freiburg im Breisgau'),
('Fresno'),
('Friedrichshafen'),
('Fuerteventura'),
('Fukuoka'),
('Funafuti'),
('Funchal'),
('Futuna'),
('Fuzhou'),
('Gaborone'),
('Galkayo'),
('Gander'),
('Gangtok'),
('Ganja'),
('Garowe'),
('Gaya'),
('Gaziantep'),
('Gdańsk'),
('General Santos'),
('Geneva'),
('Genoa'),
('Georgetown'),
('Georgetown'),
('Gibraltar'),
('Girona'),
('Glasgow'),
('Glasgow'),
('Goa'),
('Goa'),
('Goiânia'),
('Gold Coast'),
('Goma'),
('Gomel'),
('Gothenburg'),
('Gothenburg'),
('Gran Canaria'),
('Granada'),
('Graz'),
('Greater Tel Aviv'),
('Grenada'),
('Grenoble'),
('Grodno'),
('Groningen'),
('Grozny'),
('Guadalajara'),
('Guangzhou'),
('Guatemala City'),
('Guayaquil'),
('Guernsey'),
('Guilin'),
('Guiyang'),
('Gurgaon'),
('Guwahati'),
('Gwadar'),
('Győr-Pér'),
('Gyumri'),
('Hagåtña'),
('Hai District'),
('Haifa'),
('Haikou'),
('Haiphong'),
('Hakodate'),
('Halifax'),
('Hambantota'),
('Hamburg'),
('Hamilton'),
('Hanga Roa'),
('Hangzhou'),
('Hanoi'),
('Hanover'),
('Harare'),
('Harbin'),
('Hargeisa'),
('Hartford'),
('Hassi Messaoud'),
('Hat Yai'),
('Haugesund'),
('Havana'),
('Hefei'),
('Helsinki'),
('Heraklion'),
('Herat'),
('Hermosillo'),
('Hévíz'),
('Hilo'),
('Hiroshima'),
('Ho Chi Minh City'),
('Hobart'),
('Holguín'),
('Hong Kong'),
('Honiara'),
('Honolulu'),
('Houston'),
('Houston'),
('Huatulco'),
('Huế'),
('Huesca'),
('Huizhou'),
('Hulhule Island'),
('Huntsville (AL)'),
('Hurghada'),
('Hyderabad'),
('Iași'),
('Ibiza'),
('Ile de Re'),
('Iloilo City'),
('Ilulissat'),
('Imphal'),
('Incheon'),
('Indianapolis'),
('Indore'),
('Inhambane'),
('Innsbruck'),
('Inverness'),
('Ipoh'),
('Iqaluit'),
('Irkutsk'),
('Isfahan'),
('Islamabad'),
('Isle of Man'),
('Istanbul'),
('Istanbul'),
('Ivano-Frankivsk'),
('Ixtapa'),
('İzmir'),
('Jacksonville'),
('Jaipur'),
('Jakarta'),
('Jayapura'),
('Jeddah'),
('Jeju'),
('Jerez de la Frontera'),
('Jersey'),
('Jieyang'),
('Jijel'),
('Jinan'),
('João Pessoa'),
('Johannesburg'),
('Johannesburg'),
('Johor Bahru'),
('Juba'),
('Juneau'),
('Kabul'),
('Kagoshima'),
('Kalamata'),
('Kalibo'),
('Kaliningrad'),
('Kandahar'),
('Kangerlussuaq'),
('Kannur'),
('Kano'),
('Kanpur'),
('Kansas City'),
('Kaohsiung'),
('Karachi'),
('Karaganda'),
('Karlovy Vary'),
('Karpathos Island'),
('Kasane'),
('Kathmandu'),
('Katowice'),
('Kaunas'),
('Kavala'),
('Kayseri'),
('Kazan'),
('Kefalonia Island'),
('Kelowna'),
('Kendari'),
('Kerry'),
('Ketchikan'),
('Key West'),
('Khabarovsk'),
('Khánh Hòa'),
('Kharkiv'),
('Khartoum'),
('Khujand'),
('Kiev'),
('Kiev'),
('Kiev'),
('Kigali'),
('Kingston'),
('Kingstown'),
('Kinshasa'),
('Kiritimati'),
('Kisangani'),
('Kish Island'),
('Kismayo'),
('Kisumu'),
('Kitakyushu'),
('Kittilä'),
('Klagenfurt'),
('Knock'),
('Ko Samui'),
('Kolkata'),
('Komatsu'),
('Komsomolsk-on-Amur'),
('Kona'),
('Konya'),
('Koror'),
('Kos Island'),
('Košice'),
('Kosrae'),
('Kostanay'),
('Kota Bharu'),
('Kota Kinabalu'),
('Kozhikode'),
('Krabi'),
('Kraków'),
('Kralendijk'),
('Krasnodar'),
('Krasnoyarsk'),
('Kristiansand'),
('Kristiansund'),
('Kryvyi Rih'),
('Kuala Lumpur'),
('Kuching'),
('Kullu'),
('Kunming'),
('Kuopio'),
('Kupang'),
('Kursk'),
('Kusinagar'),
('Kütahya'),
('Kutaisi'),
('Kuusamo'),
('Kuwait'),
('Kwajalein'),
('La Ceiba'),
('La Palma'),
('La Paz'),
('La Romana'),
('Laâyoune'),
('Lagos'),
('Lahore'),
('Lamezia'),
('Langkawi'),
('Lankaran'),
('Lansing'),
('Lanzarote'),
('Lanzhou'),
('Laoag'),
('Lappeenranta'),
('Lapu-Lapu, Philippines'),
('Larnaca'),
('Las Vegas'),
('Latakia'),
('Leeds/Bradford'),
('Leipzig'),
('León'),
('Leticia'),
('Lhasa'),
('Liberia'),
('Libreville'),
('Liège'),
('Lille'),
('Lilongwe'),
('Lima'),
('Limoges'),
('Linz'),
('Lisbon'),
('Liuzhou'),
('Liverpool'),
('Livingstone'),
('Ljubljana'),
('Lleida'),
('Łódź'),
('Lomé'),
('London'),
('London'),
('London'),
('London'),
('London'),
('London'),
('Loreto'),
('Los Angeles'),
('Los Cabos'),
('Louisville'),
('Luanda'),
('Luang Prabang'),
('Lubango'),
('Lübeck'),
('Lublin'),
('Lubumbashi'),
('Lucknow'),
('Luganville'),
('Luhansk'),
('Luleå'),
('Luoyang'),
('Luqa'),
('Lusaka'),
('Luxembourg City'),
('Luxor'),
('Lviv'),
('Lyon'),
('Maastricht'),
('Macau'),
('Maceió'),
('Machala'),
('Madrid'),
('Madurai'),
('Magadan'),
('Magnitogorsk'),
('Mahajanga'),
('Majuro'),
('Makassar'),
('Makhachkala'),
('Malabo'),
('Malaga'),
('Malatya'),
('Malmö'),
('Manado'),
('Managua'),
('Manama'),
('Manaus'),
('Manchester'),
('Mandalay'),
('Mangalore'),
('Manila'),
('Manta'),
('Manzanillo'),
('Manzini'),
('Maputo'),
('Maracaibo'),
('Maribor'),
('Marrakech'),
('Marsa Alam'),
('Marseille'),
('Marsh Harbour'),
('Mary'),
('Maseru'),
('Mashhad'),
('Mataram'),
('Maun'),
('Mazar-i-Sharif'),
('Mazatlán'),
('Medan'),
('Medellín'),
('Medina'),
('Mehrabad'),
('Melbourne'),
('Melbourne (FL)'),
('Memmingen'),
('Memphis'),
('Mendoza'),
('Menorca'),
('Mérida'),
('Mersa Matruh'),
('Mexico City'),
('Miami'),
('Mianyang'),
('Middlesbrough'),
('Milan'),
('Milan'),
('Milwaukee'),
('Mineralnye Vody'),
('Minneapolis/St. Paul'),
('Minsk'),
('Mogadishu'),
('Mombasa'),
('Monastir'),
('Moncton'),
('Monrovia'),
('Montego Bay'),
('Monterrey'),
('Montevideo'),
('Montreal'),
('Morelia'),
('Moroni, Comoros'),
('Moscow'),
('Moscow'),
('Moscow'),
('Mostar'),
('Mosul'),
('Mount Pleasant'),
('Muan'),
('Mudanjiang'),
('Mulhouse'),
('Multan'),
('Mumbai'),
('Munich'),
('Murcia'),
('Murmansk'),
('Muscat'),
('Mykolaiv Oblast'),
('Mykonos Island'),
('Myrtle Beach'),
('Mysore'),
('Mytilene'),
('N'Djamena'),
('Nadi'),
('Nador'),
('Nagasaki'),
('Nagoya'),
('Nagpur'),
('Nairobi'),
('Nakhchivan (city)'),
('Nalchik'),
('Namangan'),
('Nampula'),
('Nanchang'),
('Nanjing'),
('Nanning'),
('Nantes'),
('Nantong'),
('Naples'),
('Narsarsuaq'),
('Nashville'),
('Nassau'),
('Navi Mumbai'),
('Naypyidaw'),
('Ndola'),
('Negev'),
('Nelspruit'),
('Nevşehir'),
('New Orleans'),
('New York City'),
('New York City'),
('Newark'),
('Newburgh'),
('Newcastle upon Tyne'),
('Newquay'),
('Niamey'),
('Nice'),
('Niigata'),
('Nîmes'),
('Ningbo'),
('Niš'),
('Nizhnekamsk'),
('Nizhnevartovsk'),
('Nizhny Novgorod'),
('Norfolk Island'),
('Norrköping'),
('Norwich'),
('Nosy Be'),
('Nottingham/Leicester'),
('Nouadhibou'),
('Nouakchott'),
('Nouméa'),
('Novokuznetsk'),
('Novosibirsk'),
('Nukuʻalofa'),
('Nuremberg'),
('Nuuk'),
('Oakland'),
('Oaxaca'),
('Odessa'),
('Ohrid'),
('Oita'),
('Okayama'),
('Olbia'),
('Olongapo'),
('Omaha'),
('Omsk'),
('Ontario'),
('Oradea'),
('Oral'),
('Oran'),
('Orange County'),
('Oranjestad, Aruba'),
('Orenburg'),
('Orlando'),
('Orlando/Sanford'),
('Orsk'),
('Osaka'),
('Osh'),
('Osijek'),
('Oslo'),
('Oslo'),
('Oslo'),
('Ostend/Bruges'),
('Östersund'),
('Ostrava'),
('Ottawa'),
('Ouagadougou'),
('Oujda'),
('Oulu'),
('Oumache'),
('Padang'),
('Pakse'),
('Palanga'),
('Palangkaraya'),
('Palembang'),
('Palermo'),
('Palm Springs'),
('Palma de Mallorca'),
('Palu'),
('Panama City'),
('Panama City Beach'),
('Panglao Island'),
('Papeete'),
('Paphos'),
('Paramaribo'),
('Pardubice'),
('Paris'),
('Paris'),
('Paro'),
('Patna'),
('Pau'),
('Pécs-Pogány'),
('Pekanbaru'),
('Pemba'),
('Penang'),
('Pereira'),
('Perm'),
('Perpignan'),
('Perth'),
('Perugia'),
('Pescara'),
('Peshawar'),
('Petrolina'),
('Petropavlovsk-Kamchatsky'),
('Petrozavodsk'),
('Philadelphia'),
('Philipsburg, Sint Maarten'),
('Phnom Penh'),
('Phoenix'),
('Phu Quoc'),
('Phuket Province'),
('Piešťany'),
('Pisa'),
('Pittsburgh'),
('Plaine Magnien'),
('Plovdiv'),
('Podgorica'),
('Pohnpei'),
('Pointe-à-Pitre'),
('Pointe-Noire'),
('Poitiers'),
('Ponta Delgada'),
('Poprad'),
('Port Blair'),
('Port Harcourt'),
('Port Hedland'),
('Port Moresby'),
('Port of Spain'),
('Port Sudan'),
('Port Vila'),
('Port-au-Prince'),
('Port-Gentil'),
('Portland (ME)'),
('Portland (OR)'),
('Porto'),
('Porto Alegre'),
('Porto Santo Island'),
('Porto Velho'),
('Portorož'),
('Poznań'),
('Prague'),
('Praia, Santiago Island'),
('Preveza'),
('Pristina'),
('Providence'),
('Providenciales'),
('Provideniya'),
('Pskov'),
('Puebla'),
('Puerto Cabezas'),
('Puerto Iguazú'),
('Puerto Montt'),
('Puerto Princesa'),
('Puerto Vallarta'),
('Pula'),
('Pune'),
('Pune'),
('Punta Arenas'),
('Punta Cana'),
('Punta del Este'),
('Pyongyang'),
('Qabala'),
('Qeshm'),
('Qingdao'),
('Quảng Nam'),
('Quanzhou'),
('Quebec City'),
('Queenstown'),
('Querétaro'),
('Quetta'),
('Quito'),
('Rabat'),
('Rahim Yar Khan'),
('Raipur'),
('Raleigh/Durham'),
('Ranchi'),
('Ras Al Khaimah'),
('Rayong and Pattaya'),
('Recife'),
('Regina'),
('Reno'),
('Resistencia'),
('Reus'),
('Reykjavik'),
('Reykjavik'),
('Rhodes'),
('Riga'),
('Rijeka'),
('Rimini'),
('Rio de Janeiro'),
('Río Gallegos'),
('Riyadh'),
('Road Town'),
('Roatán'),
('Rochester (NY)'),
('Rodez'),
('Rome'),
('Rome'),
('Roseau'),
('Rostov-on-Don'),
('Rota Island'),
('Rotterdam'),
('Rovaniemi'),
('Rzeszów'),
('Sabha'),
('Sacramento'),
('Saint Catherine'),
('Saint Croix'),
('Saint Etienne'),
('Saint Kitts'),
('Saint Petersburg'),
('Saint Thomas'),
('Saint-Denis'),
('Saipan Island'),
('Sal Island'),
('Salt Lake City'),
('Saltillo'),
('Salvador'),
('Salzburg'),
('Samana'),
('Samara'),
('Samarinda'),
('Samos'),
('Samsun'),
('San Andrés'),
('San Antonio'),
('San Bernardino'),
('San Carlos de Bariloche'),
('San Diego'),
('San Felipe de Puerto Plata'),
('San Francisco'),
('San Jose (CA)'),
('San José de Costa Rica'),
('San Juan'),
('San Juan'),
('San Luis Potosí'),
('San Pedro Sula'),
('San Salvador'),
('Sana'a'),
('Santa Clara'),
('Santa Cruz de la Sierra'),
('Santa Marta'),
('Santander'),
('Santiago de Chile'),
('Santiago de Compostela'),
('Santiago de Cuba'),
('Santiago de los Caballeros'),
('Santo Domingo'),
('Santorini'),
('Sanya'),
('São Luís'),
('São Paulo'),
('São Paulo'),
('São Tomé'),
('Sao Vicente Island'),
('Sapporo'),
('Sarajevo'),
('Sarasota/Bradenton'),
('Saratov'),
('Saskatoon'),
('Seattle'),
('Seattle'),
('Seattle'),
('Seiyun'),
('Semarang'),
('Sendai'),
('Seoul'),
('Sétif'),
('Seville'),
('Sfax'),
('Shanghai'),
('Shanghai'),
('Shannon'),
('Sharjah'),
('Sharm el-Sheikh'),
('Shenyang'),
('Shenzhen'),
('Shijiazhuang'),
('Shillong'),
('Shimla'),
('Shiraz'),
('Shizuoka'),
('Shymkent'),
('Sialkot'),
('Šiauliai'),
('Sibiu'),
('Siddharthanagar'),
('Siem Reap'),
('Sihanoukville'),
('Siliguri'),
('Simferopol'),
('Singapore'),
('Skiathos Island'),
('Skopje'),
('Skyros Island'),
('Sliač'),
('Snohomish County (WA)'),
('Sochi'),
('Sofia'),
('Sohag'),
('Sokoto'),
('Solo'),
('South Eleuthera'),
('Southampton'),
('Split'),
('Spokane'),
('Srinagar'),
('St. Gallen'),
('St. George's, Bermuda'),
('St. Jean'),
('St. John's'),
('St. Louis'),
('St. Petersburg (FL)'),
('Stavanger'),
('Stavropol'),
('Stockholm'),
('Stockholm'),
('Stockholm'),
('Stockholm'),
('Strasbourg'),
('Stuttgart'),
('Subang'),
('Sulaymaniyah'),
('Surabaya'),
('Surat Thani Province'),
('Surgut'),
('Suva'),
('Sydney'),
('Syktyvkar'),
('Sylhet'),
('Syracuse'),
('Szczecin'),
('Taba'),
('Tabarka'),
('Tabriz'),
('Taichung'),
('Taipei'),
('Taiyuan'),
('Tajoura'),
('Tallahassee'),
('Tallinn'),
('Tamale'),
('Tamanrasset'),
('Tampa'),
('Tampere'),
('Tampico'),
('Tangier'),
('Taoyuan'),
('Tarawa'),
('Tartu'),
('Tashkent'),
('Tbilisi'),
('Tegucigalpa'),
('Tehran'),
('Tenerife'),
('Tenerife'),
('Terceira Island'),
('Tete'),
('Tetouan'),
('The Valley'),
('Thessaloniki'),
('Thunder Bay'),
('Tianjin'),
('Tianshui'),
('Tijuana'),
('Timișoara'),
('Tinian Island'),
('Tirana'),
('Tirupati'),
('Tivat'),
('Tlemcen'),
('Toamasina'),
('Tobago'),
('Tokyo'),
('Tokyo'),
('Tôlanaro'),
('Toliara'),
('Toluca'),
('Tomsk'),
('Toronto'),
('Toronto '),
('Torreón'),
('Toulon'),
('Toulouse'),
('Tours'),
('Townsville'),
('Tozeur'),
('Trabzon'),
('Trapani'),
('Trichy'),
('Trieste'),
('Tripoli'),
('Trivandrum'),
('Tromsø'),
('Trondheim'),
('Tulcán'),
('Tunis'),
('Turbat'),
('Turin'),
('Turkmenbashi'),
('Turku'),
('Tuxtla Gutierrez'),
('Tuzla'),
('Tymbou'),
('Tyumen'),
('Udon Thani'),
('Ufa'),
('Ulan Bator'),
('Ulan-Ude'),
('Ulyanovsk'),
('Umeå'),
('Unguja, Zanzibar'),
('Uruapan'),
('Ürümqi'),
('Ushuaia'),
('Vaasa'),
('Vadodara'),
('Vágar'),
('Valencia'),
('Valencia'),
('Valladolid'),
('Vancouver'),
('Varadero'),
('Varanasi'),
('Varna'),
('Vavaʻu'),
('Växjö'),
('Venice'),
('Ventspils'),
('Veracruz'),
('Verona'),
('Victoria'),
('Victoria'),
('Victoria Falls'),
('Vienna'),
('Vientiane'),
('Vieux Fort Quarter'),
('Vijayawada'),
('Vilankulo'),
('Villahermosa'),
('Vilnius'),
('Visakhapatnam'),
('Visby'),
('Vitória'),
('Vladikavkaz'),
('Vladivostok'),
('Volgograd'),
('Volos'),
('Voronezh'),
('Wallis'),
('Walvis Bay'),
('Warsaw'),
('Warsaw'),
('Washington D.C.'),
('Washington, D.C.'),
('Weeze'),
('Weihai'),
('Wellington'),
('Wenzhou'),
('West Palm Beach'),
('Whitehorse'),
('Willemstad'),
('Windhoek'),
('Winnipeg'),
('Wrocław'),
('Wuhan'),
('Wuxi'),
('Xi'an'),
('Xiamen'),
('Xiangyang'),
('Xichang'),
('Xining'),
('Xuzhou'),
('Yakutsk'),
('Yancheng'),
('Yangon'),
('Yangyang'),
('Yanji'),
('Yantai'),
('Yaoundé'),
('Yap'),
('Yaren'),
('Yaroslavl'),
('Yekaterinburg'),
('Yerevan'),
('Yinchuan'),
('Yogyakarta'),
('Yuzhno-Sakhalinsk'),
('Zacatecas'),
('Zadar'),
('Zagreb'),
('Zakynthos'),
('Zamboanga City'),
('Zaporizhia'),
('Zaragoza'),
('Zhangjiajie'),
('Zhangye'),
('Zhengzhou'),
('Zhoushan'),
('Zhuhai'),
('Žilina'),
('Zonguldak'),
('Zurich'),