<?xml version="1.0" encoding="utf-8"?>
<!-- Generator: Adobe Illustrator 22.1.0, SVG Export Plug-In . SVG Version: 6.00 Build 0)  -->
<svg version="1.1" id="Capa_1" xmlns="http://www.w3.org/2000/svg" xmlns:xlink="http://www.w3.org/1999/xlink" x="0px" y="0px"
	 viewBox="0 0 250 250" style="enable-background:new 0 0 250 250;" xml:space="preserve">
<style type="text/css">
	.st0{fill:#F2F2F2;}
	.st1{fill:#2F6FB2;}
	.st2{fill:#3170B2;}
	.st3{fill:#F3F2F2;}
	.st4{fill:#2F6FB2;stroke:#FFFFFF;stroke-width:0.5;}
	.st5{fill:#F2F2F2;stroke:#FFFFFF;stroke-width:0.5;}
	.st6{fill:#F3F2F2;stroke:#FFFFFF;stroke-width:0.5;}
	.st7{fill:#F2F2F2;stroke:#FDFDFC;stroke-miterlimit:10;}
	.st8{fill:#F2F2F2;stroke:#FFFFFF;stroke-miterlimit:10;}
	.st9{fill:#2F6FB2;stroke:#FDFDFC;stroke-miterlimit:10;}
	.st10{fill:#2F6FB2;stroke:#FFFFFF;stroke-miterlimit:10;}
	.st11{fill:#F3F2F2;fill-opacity:0;stroke:#FFFFFF;}
	.st12{fill:#F3F2F2;fill-opacity:0;stroke:#FFFFFF;stroke-linecap:round;}
	.st13{fill:#F3F2F2;stroke:#FFFFFF;}
	.st14{fill:#F2F2F2;stroke:#FFFFFF;}
	.st15{fill:#2F6FB2;stroke:#FFFFFF;}
	.st16{fill:#F2F2F2;stroke:#F2F2F2;}
	.st17{fill:#2F6FB2;fill-opacity:0;stroke:#FFFFFF;}
	.st18{fill:#2F6FB2;stroke:#FFFFFF;stroke-width:0.25;stroke-miterlimit:10;}
	.st19{fill:#F3F2F2;stroke:#FFFFFF;stroke-width:0.25;stroke-miterlimit:10;}
	.st20{fill:#F3F2F2;stroke:#FFFFFF;stroke-miterlimit:10;}
	.st21{fill:#F3F2F2;stroke:#FFFEFE;stroke-width:0.5;stroke-miterlimit:10;}
	.st22{fill:#2F6FB2;stroke:#FFFEFE;stroke-width:0.5;stroke-miterlimit:10;}
	.st23{fill:#F2F2F2;stroke:#FFFEFE;stroke-width:0.5;stroke-miterlimit:10;}
	.st24{fill:#F3F2F2;stroke:#FFFFFF;stroke-width:0.732;}
	.st25{fill:#2F6FB2;stroke:#FFFFFF;stroke-width:0.732;}
	.st26{fill:#F3F2F2;stroke:#FFFFFF;stroke-width:0.75;stroke-miterlimit:10;}
	.st27{fill:#2F6FB2;stroke:#FFFFFF;stroke-width:0.75;stroke-miterlimit:10;}
</style>
<path id="DE-BW_4_" class="st20" d="M89.8,235.6l0.2,0.6l-0.4-0.2l-0.6,0.2l0.3-0.3l-0.2-0.4L89.8,235.6z M97.7,179.8l1.8,0.1
	l0.9-0.2l0.2-0.4l0,0l0.2,0l0,0l0.5-0.6l-0.3-0.6l0.7-0.7l0.8,0.3l0.5-0.4l0.4,0.4l0.4-0.1l0.3-0.4l-0.4-0.4l0.4-0.5l0-0.6l-0.6-0.6
	l-0.1,0.8l-0.5,0l-0.3-0.4l0.6-0.3l-1.5-0.3l0.5-0.2l-0.1-0.7l0.7,0l0.4-0.3l0.4,0.3l0.7-0.6l0.6,0.6l0.4-0.5l0.5-0.1l0.2,0.7
	l0.7-0.1l0.3,0.7l-0.1-0.9l0.2-0.2l0.3,0.1l1.3-0.4l-0.1,0.6l0,0l0,0.5l0,0l0.1,0.6l-0.4,0.2l0.3,0.3l-0.3,0.6l0.6,0.5l0,0l0.2-0.1
	l0,0l0.3-0.1l0-0.7l0.6-0.3l0.3,1.2l0,0h0.2l0,0l0.3-0.7l0.9-0.6l-0.1,0.3l0.8,0.6l-0.1,1.5l0.5,0.3l0.3,1l-0.6,0.5l0.1,0.5
	l-0.7,0.7l0.9,0.3l0.1-0.7l0.7-0.6l0.3,0.2l-0.3,0.6l0.4,0l0,0.3l0,0h0.1l0,0l-0.2,1.8l0.3,0.3l1.8,0l0.2-0.6l0.6-0.4l-0.4-0.4
	l0.5-0.5l0.5,0.4l-0.1,0.7l0.7,0.1l-0.4,0.6l0.4,0.8l-0.3,0l-0.2,0.5l0.8,0.3l0.6,1.3l-1.1,0.5l0.3,0.9l-0.3,0l-0.1,0.3l0.1,0.4
	l0.6,0.2l-0.2,0.7l0.5,0.6l-0.5,0.5l-0.2-0.4l-0.3,0.5l0.5,0.2l-0.3,0.2l0.4,1.1l-0.3,0l0,0.4l0.6,0.2l0.3,0.4l0.2-0.1l0.4,0.8
	l0.4-0.3l0.6,0.4l0.1,0.6l-0.6,0.3l-0.3,0.5l0.4,0.3l0.4-0.1l-0.3,0.5l0.5,0.4l-0.2,0.7l0.9-0.1l0.6,0.5l0.5,0l0.2,0.7l0.5,0.1v0.4
	l0.3-0.1l0.2,0.3l0.1-0.2l-0.2,0.5l0.3-0.1l0.2,0.6l0.4,0.3l-0.3,0.1l0.4,0.5l-0.7,0.3l0.6,0.5l0,0.9l-0.5,0.5l0.4,0.4l0,0.6
	l-0.6,0.4l0.2,0.7l-0.4,0.1l0.3,0.4l-0.2,0.3l0.6,0.6l0.3-0.2l-0.2,0.2l0.5,0.6l-0.2,0.2l0.5,0.5l-0.6,0.5l-1.1,0.3l0.3-0.3
	l-0.1-0.5l0.3-0.1l-0.6-0.1l-0.4,0.9l-0.5,0.4l-0.5-1.1l-0.6,0.1l-0.7-0.5l0.1,0.5l-0.3,0.2l0,0.5l1.3,1.7l-0.5,0.2l-0.1,0.4
	l0.4,0.7l-0.2,0.6l0.2,0.6l-1.5,0.3l-0.2,0.1l0.3,0l0,0.4l-1.1,0.5l-0.3,0.5l-0.8,0.1l-0.5-0.7l-0.9,0.7l-0.5-0.1l-0.2,0.6l0.3,0.2
	l-1.4,1.5l0.1,0.4l0.5,0l0,0.5l1.3,1.9l0,1.4l0.9,3l0.6,0.6l0.2,1.1l0,0v0.5l0,0l-0.1,0.2l0,0l0,0.2l0,0l-0.5,2.1l-0.5,0.2v0.5
	l0.5,0.5l0,0.7l-0.3,0.8l0.2,0.1L117,231l0.1,0.3l0.4-0.2l-0.3,0.6l0.3-0.3l-0.1,0.3l0.7,1l-0.4-0.1l-0.1,0.3l-0.5-0.1l-0.5,0.5
	l1.1,0.8l0,1.2l0.5,0.5l-0.2,0.7l-0.4,0.3l-0.4-0.2l-0.3,1l-0.2-1.1l-0.7,0l-0.1-0.3l-0.5,0.2l-0.7,0.8l-2.2-0.8l-0.4,0.3l0,0l0,0.1
	l0,0l-0.3,0.4l-0.5,0.1l0.1,0.4l-0.8,0.7l-0.9,0.3l-0.9-0.3l-0.4,0.3l-0.5,0.6l-0.2,1l0,0l-2.7-0.5l-5.5-2.7l-1.9-0.7l-1.4-0.2
	l-2.5,1.1l-0.9-1l0-0.4l0.4,0.1l0-0.3l-1.1-0.3l-0.2-0.7l-0.8,0.6l0,0.3l0.8,0.4l-0.3,0.6l-1.3-0.6l0.2-0.7l-0.5-0.4l0.2-0.5
	l0.4-0.1l-0.4-0.5l-0.6,0.3l-0.2-0.8l-0.6-0.5l-0.2,0.4l0.2,0.4l-0.5,0.4l-0.2-1.2l-0.8,0l-0.2-0.2l-0.1,0.4l0.3,0.4l-0.5-0.1
	l-0.6,0.4l-0.7,0l-0.7,0.9l0.1,0.5l-0.9,0.7l0.3,0.4l-0.3,0.3l0.8,0.6l0.4-0.1l0.2,0.5l0-0.3l0.4,0.2l0.6-0.1l0-0.5l0.3,0.1l0.1-0.3
	l0.7,0.1l0.5-0.3l0.5,0.7l-0.2,0.3l-0.1-0.4l-0.3,0.3l0.2,0.9l-0.6,0.5l-0.3-0.2l0.2-0.5l-1-0.5l-0.2,0.5l-1,0.5l0.2,0.5l0.4-0.1
	l0,0.3l-1.1,0.3l-0.7-0.3l-0.3,0.3l-1.2-0.2l-0.7-1.1l-0.6-0.2l-0.6,0.3l-0.4-0.5l-0.8,0.8l-1.1,0.4l-0.4,0.7l-0.4-0.2l-1,0.4
	l-1.2-0.2l-0.3,0.4l-0.6-0.2l-0.4-1.1l-1.4,0l-0.5,0.9l-2,0.7l-0.5-0.1l-0.6-0.7l1-0.1l-0.3-0.6l0.4-0.4l-0.4,0.3l-0.5-0.1l-0.5,0.5
	l-0.6-0.4l-0.5-1.3l-0.9-0.9l-0.2-1l0.7-1.1l-0.4-1.3l0.6-1.8l-0.1-1.1l0.5-0.5l0-1l0.8-1.2l-0.3-0.9l-0.8-1l0.1-2.6l1.8-3l0.5-2.4
	l1-0.8l-0.2-2l0.6-1.8l0.1-1.1l0.7-0.7l-0.1-2.1l0.8-1.7l1-0.6l1.5-1.8l0.2-1.1l0.9-0.1l0.3-0.8l0.7-0.1l0.5-0.4l1.2-3.1l1-1.6
	l0.7-0.3l0,0l1-0.9l0,0l0.3-0.6l0,0l0.3-1.2l0.9-1.4l0.2-2.1l0.7-1.5l-0.4,0l0.1-0.5l1.9-1.8l-0.8-0.9l0.9-1.3l0-0.7l-0.5,0.5
	l-0.2-0.2l0.6-0.6l0.2-1l-1.3-0.5L85,183l-0.9-2.5l0.1-0.9l0,0l0.5-0.2l0.5,0.2l1.7,2.1l0.7-0.5l0.2,0.1l0.2-0.4l-0.4-2.1l1.9-0.4
	l-0.1,0.5l-0.1-0.4l-0.2,0.2l0.5,0.6l-0.3,0.7l0.5,0.8l-0.1,0.4l0.6,0.5l0,0l0-0.1l0,0l1.3,0.3l0.5-0.4l-0.1,0.6l0.3,0.4l0.3-0.3
	l1-0.1l0,0.6l-0.5,0.5l-0.3,0l-0.2-0.5l-0.5,0.5l0.2,1l-0.7,0.7l0.3,0.4l0.3-0.3l0.4,0.4l0.9-0.8l0.2-0.7l0.2,0.2l0.7-0.5l-0.4-0.4
	l0.2-0.4l0.3,0.1l0-0.6l0.7-0.2l0.8,0.4l0.4-0.3l0,0l0.1-0.1l0,0l0.3-0.5l0.7,0.1l0.1,0.5l0.4-0.2l-1.1-1.5l0-0.3l0.2,0.4l0.3,0
	L97.7,179.8L97.7,179.8z"/>
<path id="DE-BY_4_" class="st20" d="M116.3,150.9l0.6-0.3l0-0.3l0.7-0.9l0.7,0.7l0.2-0.3l0.5,0.3l0.1-0.3l0.5-0.1l0.1,0.4l0.5,0.3
	l0,0.6l0.5-0.1l0.9,0.6l0.6,0l0.1,0.9l0.6,0.8l0.3,0l-0.2,0.2l0.6,0.2l-0.4,0.5l0.2,0.5l1.1-0.2l0.4,0.9l0,0h0.1l0,0l0.2-0.1l0,0.6
	l0.4-0.1l0.1,0.3l0.3-0.5l0.2,0.1l0.3,0.8l0.8,0.1l-0.2,0.8l0.2,0.5l-0.3,0.7l0.3,0l-0.2,0.3l0.2,0.4l-0.3,0.1l0.2,0.5l0.4,0.2
	l0.6-0.2l0.7,0.6l0,0h0.1l0,0l0.3,0.2l0.3-0.2l0-1.2l0.7,0.3l0.6-0.3l0.4,0.4l0.5-0.2l0-1l-0.7-0.1l0,0h-0.1l0,0l-0.1-0.4l-0.6,0
	l-0.6-0.7l-0.5-0.2l0.3-0.7l-0.3,0l0.1-0.6l0.8,0.2l0.6-0.8l0.4,0.2l0.5-0.4l0.6,0.1l0.3-0.3l0.3,0.5l0.3-0.2l0,0l0.1-0.1l0,0
	l0.4-0.1l1,1.4l0.3,0l-0.1-0.5l0.9,0.2l0.1,0.5l0.8-0.2l0.1-0.4l0.5,0l0.1,0.5l0.4-0.1l0.4,0.7l-0.5,0.9l0.3,0.4l0.7,0.2l-0.1,0.3
	l0.3-0.1l0.1-0.6l1.1,0.8l0.1-0.6l0,0h0.1l0,0l-0.2-0.1l0.4-0.4l-0.2-1l0.3,0l-0.3-0.5l0.5-0.3l-0.5-1.2l0.2-0.9l-0.4-0.6l0-0.9
	l0.8-0.2l0.1,0.3l0.2-0.4l0.4,0l0-0.6l0.5-0.1l0-0.3l1.7,0.3l0.2,0.4l-0.1,0.2l-0.3-0.1l0,1.5l0.6,0.4l-0.2,0.4l0.4-0.4l0.4,0.1
	l-0.1,0.9l0.8,0.1l0,0.7l0.8-0.3l0.2-0.5l0.4-0.1l0.6,0.5l1.7-0.5l0.1,0.2l0.5-0.4l0.5,0.1l-0.2-0.3l0.4,0.1l0.1-0.3l0.9,0.5v0.4
	l2-1.1l0,0l0.6,0.5l-0.1,0.4l0.3-0.1l0.4,0.4l-0.1,1.2l0.4-0.1l1,0.9l0-0.2l0.9,0l0.2,0.5l0,0l0.5,0.4l-0.1,0.3l0.4,0.7l-0.8,0.4
	l-0.1,0.4l0.7,0.5l0.5-0.1l0.2,0.8l0.3-0.1l0.2,0.4l0.3,0l-0.2,0.1l0.5,0.8l-0.4,0.8l0.1,1l0.6,0.5l0.3-0.1l0.5,0.6l-0.3,0.6
	l1.1,0.2l0.2,0.6l0.2-0.2l0.6,0.7l0.7,0l0,0.3l0.6,0.1l0,0.5l0.6-0.3l0.6,0.4l0.2,0.3l-0.6,0.7l0.1,0.4l1.4,0.5l0.1,0.6l-1,1.4
	l0,0.6l-0.5,0.1l-0.2,0.8l0.2,0.7l-1.4,0.8l0,0.6l0.8,1.2l0.9,0.5l0.7,0l0.1,2.1l0.6,0l0.6,2.5l0.6,0.3l0.3-0.2l0.2,0.3l-0.2,1.4
	l0.5,0.7l0,0.6l1,0.3l1,0.9l0.5,1.5l1.3,0.1l0.7,0.5l0-0.6l1.2,0.2l1.2,1.2l0.4,0l0.1,1.2l0.4,0l0.1,0.4l0.4,0.1l0.1,0.6l0.5,0.3
	l-0.1,0.5l1.2,0.9l0.1,1.1l1.1,0.7l1.1-0.1l2.1,2l0.2,2l1.8,1.4l0.3,0l0-0.8l0.5-0.2l1,0.1l0.6,1l0.4-0.3l-0.1,0.3l1,1.8l0.9,0.1
	l0.4-0.3l0.5,1.5l0.6,0.2l0.4,1l-0.2,0.5l0.7,0.3l-0.9,1.7l0.3,0.4l0.5,0.1l-0.5,0.2l0.2,2.3l-0.5,0.5l0,0.6l-0.6,0.6l-0.2-0.3
	l-0.2,0.3l0.1,0.6l-0.3,0.5l-1.3-0.6l-0.2-0.4l-0.9-0.5l-0.6,0.2l-1.3-0.9l0,0.4l-0.6,0.6l-0.5-0.2l-0.2,0.2l0.4,1.4l-0.6,1.6
	l0.3,0.8L183,216l-1.5,1.4l-1.6,1l-1.5-0.1l-3.2,1.1l-1.3,1.4l-1.7,0.2l-0.4,1l-1,0.6l-0.3,0.7l-0.5-0.1l-0.2,0.5l0.3,1.1l1.8,1.7
	l0.5,1.6l0.8,0.2l0.2,0.5l0.3-0.1l1.3,2.8l-1.5,2.3l0.3,0.2l-0.7,1.2l0.4,0.4l0.9,0.1l0.9-0.5l1.3,1.1l-0.1,0.5l0.4,1l-0.7,1
	l0.2,0.4l-0.6,0.3l0.3,0.4l-0.5,0.8l0.3,0.4l0,0.9l-0.9,0.8l-0.2-0.4l-0.4-0.2l-0.1,0.3l-1.2-0.7l-0.5-0.7l-0.6-0.2l-0.1-0.5l-1-0.3
	l-0.3-0.8l0.3-0.7l0.5-0.2l-1.3-1.1l0.5-0.7l-0.5,0.3l-0.5-0.5l-1-0.1l-0.6,0.4l-0.9-0.1l-0.6,1.2l-0.8-0.1l-0.8,0.3l-1.2-1.5l0-0.6
	l-1.4,0.3l-0.6-0.4l-1.6,0.5l-0.3-0.4l0.5-1.1l-0.2-0.3l-0.7,0.9l-1,0.3l0.7,1.8l0.1,0.9l-0.6,0.2l0.1-0.4l-0.8,0.3l-1.5-0.4
	l-0.8,0.3l-0.2-0.4l-0.6,0.3l-1.2,0l-1.1,0.3l-0.2,0.6l-1.2-0.3l-2.4,0.2l-0.5-0.3l0,0.4l-0.6,0.1l-0.3,1.6l-0.3,0.3l-1.3,0.3
	l-1.5-0.2l-1,1.2l0.5,0.1l0.3,0.7l-1.7-0.1l-0.9,0.6l0,0.6l-0.4,0.3l-0.9,0.1l0.6-1l-0.9-0.2l-1.5,0.6l-0.2,0.5l-2.8-0.1l-0.1-0.5
	l0.3-0.4l-1.1-1.2l0.1-0.3l-1.3,0l0.1-0.6l0.9-0.3l-0.6-0.7l-2.2,0.7l-0.4-0.6l-1.3-0.3l-0.1-0.4l-1.8-0.3l-0.5,1l-1,0l-1.3-0.6
	l0.5-0.9l-0.8,0l-0.2,0.2l0.4,0.7l-0.4,1.5l0.2,0.5l0.5,0.2l0.1,1.3l-0.8,0.6l0,0.9l-0.8,0.2l-1.3,2.1l-1.9,1l-0.6-0.2l-0.5,0.2
	l0.1-0.8l0.7-0.5l-0.3-0.4l0.7-1.6l-0.2-0.2l-0.3,0.2l-0.6-0.4l-0.4,0.7l-0.9-0.2l-0.4,0.6l-0.6-1.6l0.7-0.5l-0.2-0.7l-0.8-0.4
	l-0.2-0.6l-0.8,0.1l-0.3-0.4l0.2-0.2l-0.6-0.5l0.1-0.7l-0.1,0.3l-0.8,0.1l-0.8-0.5l-0.1,0.6l-1.2-0.6l0.2-0.9l-0.5-0.5l-0.8,0.3
	l-0.5,1.5l-2.7-0.4l0,0l0.2-1l0.5-0.6l0.4-0.3l0.9,0.3l0.9-0.3l0.8-0.7l-0.1-0.4l0.5-0.1l0.3-0.4l0,0l0-0.1l0,0l0.4-0.3l2.2,0.8
	l0.7-0.8l0.5-0.2l0.1,0.3l0.7,0l0.2,1.1l0.3-1l0.4,0.2l0.4-0.3l0.2-0.7l-0.5-0.5l0-1.2l-1.1-0.8l0.5-0.5l0.5,0.1l0.1-0.3l0.4,0.1
	l-0.7-1l0.1-0.3l-0.3,0.3l0.3-0.6l-0.4,0.2L117,231l0.6-0.4l-0.2-0.1l0.3-0.8l0-0.7l-0.5-0.5V228l0.5-0.2l0.5-2.1l0,0l0-0.2l0,0
	l0.1-0.2l0,0v-0.5l0,0l-0.2-1.1l-0.6-0.6l-0.9-3l0-1.4l-1.3-1.9l0-0.5l-0.5,0l-0.1-0.4l1.4-1.5l-0.3-0.3l0.2-0.6l0.5,0.1l0.9-0.7
	l0.5,0.7l0.8-0.1l0.3-0.5l1.1-0.5l0-0.4l-0.3,0l0.2-0.1l1.5-0.3l-0.2-0.6l0.2-0.6l-0.4-0.7l0.1-0.4l0.5-0.2l-1.3-1.7l0-0.5l0.3-0.2
	l-0.1-0.5l0.7,0.5l0.6-0.1l0.5,1.1l0.5-0.4l0.4-0.9l0.6,0.1l-0.3,0.1l0.1,0.5l-0.3,0.3l1.1-0.3l0.6-0.5l-0.5-0.5l0.2-0.2l-0.5-0.6
	l0.2-0.2l-0.3,0.2l-0.6-0.6l0.2-0.3l-0.3-0.4l0.4-0.1l-0.2-0.7l0.6-0.4l0-0.6l-0.4-0.4l0.5-0.5l0-0.9l-0.6-0.5l0.7-0.3l-0.4-0.5
	l0.3-0.1l-0.4-0.3l-0.2-0.6l-0.3,0.1l0.2-0.5l-0.1,0.2l-0.2-0.3l-0.3,0.1v-0.4l-0.5-0.1l-0.2-0.7l-0.5,0l-0.6-0.5l-0.9,0.1l0.2-0.7
	l-0.5-0.4l0.3-0.5l-0.4,0.1l-0.4-0.3l0.3-0.5l0.6-0.3l-0.1-0.6l-0.6-0.4l-0.4,0.3l-0.4-0.8l-0.2,0.1l-0.3-0.4l-0.6-0.2l0-0.4l0.3,0
	l-0.4-1.1l0.3-0.2l-0.5-0.2l0.3-0.5l0.2,0.4l0.4-0.5l-0.5-0.6l0.2-0.7l-0.6-0.2l-0.1-0.4l0.1-0.3l0.3,0l-0.3-0.9l1.1-0.5l-0.6-1.3
	l-0.8-0.3l0.2-0.5l0.3,0l-0.4-0.8l0.4-0.6l-0.7-0.1l0.1-0.7l-0.5-0.4l-0.5,0.5l0.4,0.4L116,182l-0.2,0.6l-1.8,0l-0.3-0.3l0.2-1.8
	l0,0h-0.1l0,0l0-0.3l-0.4,0l0.3-0.6l-0.3-0.2l-0.7,0.6l-0.1,0.7l-0.9-0.3l0.7-0.7l-0.1-0.5l0.6-0.5l-0.3-1l-0.5-0.3l0.1-1.5
	l-0.8-0.6l0.1-0.3l-0.9,0.6l-0.3,0.7l0,0H110l0,0l-0.3-1.2l-0.6,0.3l0,0.7l-0.3,0.1l0,0l-0.2,0.1l0,0l-0.6-0.5l0.3-0.6l-0.3-0.3
	l0.4-0.2l-0.1-0.6l0,0l0-0.5l0,0l0.1-0.6l-1.3,0.4l-0.3-0.1l-0.2,0.2l0.1,0.9l-0.3-0.7l-0.7,0.1l-0.2-0.7l-0.5,0.1l-0.4,0.5
	l-0.6-0.6l-0.7,0.6l-0.4-0.3l-0.4,0.3l-0.7,0l0.2,0.7l-0.5,0.2l1.5,0.3l-0.6,0.3l0.3,0.4l0.5,0l0.1-0.8l0.6,0.6l0,0.7l-0.4,0.5
	l0.4,0.4l-0.3,0.4l-0.4,0.1l-0.4-0.4l-0.5,0.4l-0.8-0.3l-0.7,0.7l0.3,0.6l-0.5,0.6l0,0l-0.2,0l0,0l-0.2,0.4l-0.9,0.2l-1.8-0.1l0,0
	l-0.4-0.7L97,179l0-0.5l0.7-0.7l-0.2-1.6l0.8-0.2l-0.1-0.4l0.5-0.8l-0.8-0.5l0.5-0.7l-0.1-0.4l-0.7,0.1l-0.3-0.8l0.2-0.9l-0.4,0.5
	l-0.2-0.2l0.2-0.2l-0.5,0.1l-0.1-0.7l0.3,0l-0.5-1.3l-0.1-2.1l0.1-0.4l0.5,0l-0.3-0.3l-0.1-1.1l-1-0.2l0.4-0.6l0-0.7l0.4-0.6l2-0.5
	l0.7,0.3l-0.1,0.8l0.8-1.1l-0.1-0.3l0.7-0.3l0.7,0.3l1.1,0.2l0.4-0.2l0.2,0.3l0.6,0l0.6,1.3l0.6,0.2l1.6-0.3l-0.1-1.6l0.3-0.1l0,0
	l0.2-0.5l0,0l0,0l0,0l-0.6-0.3l0,0l0-0.5l0.3-0.2l-0.4-0.8l0.1-0.5l0.8,0.5l0.7-0.2l0.1,0.3l1.6-0.4l0-0.2l-0.6-0.3l0.3-0.6l0.9-0.3
	l0.9-0.9l0-1l-0.3-0.4l0.6-2.2l0.4,0.2l0.4-0.2l0.1,0.4l1,0.5l0.2-0.4l0.2,0.3l0.4-0.1l1.1-0.6l0.8-1.2l0.4-0.2L116.3,150.9
	L116.3,150.9z"/>
<path id="DE-BE_4_" class="st1" d="M184.3,82.4L184.3,82.4L184.3,82.4l0.2-0.1l0,0.4l0.7,0.4l-0.5,1.2l0.2,0.5l0.8,0.1l0.6,0.6
	l0,0.7l1,0.2l-0.2,0.3l0.6,0l-0.9,1.9l0.2,0.2l0.5-0.4l1.2,0.8l-0.1-0.4l1.2,0.8l-0.4,0.4l0,0l-0.3-0.1l0,0l0.4,0.2l0,0l0,0.1l0,0
	l-0.1,0l0,0l-0.1,0.2l0,0l0.1,0.4l0,0l-0.2,0.3l0,0l-0.8,0.4l0.3,0.4l-0.5,0.3l-0.5,0.9l-0.2-0.2l0.1-1l-0.3-0.2l-0.4,0.2l-0.3-0.6
	l-1.1,0.1l0-0.3l-1.1,0.1l-0.3-0.8l-0.9,0.3l0,1.1l-0.6-0.1l0-0.3l-0.3,0l-0.5-0.7l-0.5,0.2l0,0l-0.3-0.1l0,0l-0.1-0.3l-0.5,0.4
	l-0.5,0l-0.1-0.5l-0.4,0l-1.2,0.5l-0.2,0.3l0.3,0l-0.8,0.2l0,0l-0.1,0l0,0l0.2-0.3l-0.7-0.4l0,0l-0.1-0.1l0,0l-0.1,0l0,0l0.1-0.3
	l0,0l0.5-0.5l-0.3-0.4l0.2-0.9l1-1l-0.5-0.3l-0.5,0.1l0.2-1.1l0.4-0.1l0.2-0.7l-0.5-0.4l0.7-0.4l1,0.4l-0.3-0.6l0.4-0.7l0.9,0
	l-0.1-0.4l0.4-0.1l0-0.6l0.5,0.1l0,0.9l1,0.2l0.7-0.8l0.6,0.4l0.4-0.5l0.5,0l-0.4-0.4l0.2-0.2l0,0l0.3-0.2l0,0l0.1,0l0,0L184.3,82.4
	L184.3,82.4z"/>
<path id="DE-BB_4_" class="st1" d="M140.5,67.5l2.5,0.4l0.1-0.9l0.5,0l0.4,0.2l0.4-0.2l0.2,0.4l0.6,0.2l0.6-0.2l0.5-0.4l-0.1-0.4
	l0.3-0.5l-0.3-1.5l0.7-0.1l0.8-0.9l0.8-0.2l1.2,0.4l0.1,0.5l0.9-0.3l0.8,0.1l0.2-0.4l-0.7-0.6l1.3,0.1l0.6-0.9l1.1,0.2l0.5-0.9
	l0.4,0.2l0.6-0.3l-0.1-1.1l0.8-0.6l-0.3-0.7l0.7,0.1l0,0.7l0.6,0.1l0.8-0.6l0.4,0.7l0.3-0.1l0-0.3l0.8-0.2l0.6,1.2l1-0.1l1.6,0.9
	l0,0.5l0.7,0.3l0.3,0.8l1.6-0.5l1.6,0.7l1.1-0.3l0.3,0.2l-0.2,0.5l0.4,0.2l1.4,0.1l-0.4,0.8l0.6,0.4l1.5-0.5l0.6,0.7l0.5-0.5l0.5,0
	l-0.2,0.2l0.4,0l0-0.3l0.6-0.2l0.3,0.3l-0.7,0.6l0.3-0.1l0.3,0.5L175,66l0.7-0.9l0.8-0.2l0.2-0.4l0.4-0.1l0-0.7l0.5,0l0.4-0.5l0.7,0
	l0.4,0.9l0.5,0.2l0.3-1.3l1.1-0.8l0.8,0.2l0.4-0.1l0.5,1.2l0.4-0.2l0,0l0-0.1l0,0l0.7-1.2l0-0.4l0.4,0l0.2,0.3l0.4-0.1l0.4-1.1
	l0.4,0.2l-0.1-1.1l0.2-0.4l0.4,0l0.3-0.4l-0.1-0.7l0.7-0.5l0.8,0.1l0.1-1l1.6-1.3l0.5-0.1l0.7,0.4l0.7-0.4l0.2-0.4l-1-0.6l0.4-1.5
	l0.6,1.4l1.1,0.4l0,1l0.8,0.7l-0.3,0.7l0.3,0.3l1.7-0.4l0.9,0.2l0.1,0.5l0.7,0.1l0.7-1l1.2,0.6l0.6,0l0.3-0.4l0.3,0.2l0.1,1.3
	l-0.4,1l-1.9,2l-0.6,1.2l1.2-0.2l1,0.4l1-0.2l0-0.6l0.8-0.3l0.3-0.8l0.6,0l1.3-0.7l0,0l0.2,1.7l0.4,0.1l0.1,0.4l-0.9,1.7l-0.5,0.4
	l-0.2,1.3l0.4,0.7l-0.5,2.1l-0.4,0.9l-1.7,1.6l-2.3,1.4l0.3,2.5l-0.7,1.5l0.4,0.5l1.5,0.3l1.2,1.4l1.4,0.8l2.2,2.9l2.6,1.7l0.8,1.2
	l-0.7,1.3l0.6,1.4l-1.1,1.6l-0.6,0.3l-0.3,1.2l0.5,2.1l0.4,0.6l-0.2,0.6l0.3,0.5l1.9,0.6l0.5,0.6l-0.1,0.9l-0.4,0.4l0.4,0.8
	l-0.5,0.9l0,0.9l1.5,1.6l-0.3,0.4l0.1,0.7l-0.7,0.9l0.1,0.3l-0.3,0.5l0.3,1.1l-0.5,1.3l-1.7,1.5l-0.4,0.9l0.3,0.7l0.8,0.3l0.5,2.2
	l1.4,1.2l0.4,0.9l0.1,1.7l-0.7,0.8l0,0l-0.7-0.5l0.1,0.6l-0.5,0.8l-1.3,0.1l-0.4-0.7l-0.6-0.3l-0.5,0.2l-0.1,0.4l-1.7,0.1l-0.1,0.5
	l-1.2,0l-0.9,0.7l-0.2,0.5l-0.2-0.3l0,0l0-0.1l0,0l-1.1-0.5l-0.5,0.1l-0.6-0.4l-1.5-0.1l-0.2,0.4l0.2,0.3l-0.7,0.1l-0.2,0.7
	l-0.4,0.2l0.3,0.5l-1.1,0l0.6,1l-0.5,0.3l0.2,0.5L195,123l0.2,0.3l-0.5,0l-0.1,0.7l-0.6-0.1l0-0.5l-0.2-0.1l-1,0.5l-1.4-0.1
	l-0.3,0.5l-0.7,0l-0.2,0.2l-0.1-0.2l-0.5,0.3l-1.5-0.5l-0.2,0.2l-1.2,0l-0.2-0.5l-0.4,0l-0.5,0.5l-0.1-0.4l-0.3,0l-0.1-0.6l-1.1-0.3
	l0.2-0.2l-0.5-0.4l-0.5,0.3l0.1-0.4l-0.6-0.6l-0.5,0.5l0,0.3l-1.1-0.4l0.1,0.3l-0.8,0.5l0,0.4l-0.5-0.1l0.1,0.5l-1-0.4l-0.4-1.3
	l-0.1,0.4l-0.3-0.1l0.6-0.7l-0.4-0.8l0-0.5l0.3,0l0.1-1l-0.4-1.1l-0.8-0.4l0.3-0.8l-0.8-0.9l-0.7,0.4l-0.7-1.2l0,0l1.9-1.2l0.2-0.3
	l-0.2-0.6l0.7-0.2l-0.7-0.9l0.2-0.2l-0.3-0.5l0.3-1.2l-0.8-1.6l0.6-0.1l-0.3-0.6l-0.4-0.1l-0.8,0.4l-0.8-0.1l-0.3-0.3l0.2,0l0.1-0.6
	l-1.4,0l0-0.7l-0.4-0.1l0-0.4l-0.8-0.1l-0.6,0.4l-0.1-0.2l-0.7,0l-0.1-1.1l-1.3,0.2l-0.5-0.8l-1.7-0.8l-0.3,0l-0.2,0.6l-0.6,0.1
	l0,0.3l-1.4-0.1l-0.1-0.5l-0.9-0.4l-0.2-0.6l-0.4,0l-0.2,0.6l-0.3,0l-0.9-0.9l-0.6-0.1l-0.9-1.4l-0.7-0.4l-0.3-0.9l-0.9-1.2l0.2-0.5
	l0.4,0l0-0.9l1-0.5l-0.7-0.2l0.2-0.2l-0.5-0.4l0.6-2.1l0.6-1l-0.5-0.6l0.4-0.4l-0.2-0.3l0.1-0.7l-0.5-0.3l0.5-0.3l-0.2-0.2l0.8-1.5
	l-0.4-0.3l0.4-0.3l-1.2,0.3l-0.2-0.3l0.2-0.2l-0.5-0.7l-0.5,0.7l-0.6,0.2l-0.4-0.6l0.5-0.6l-0.4-0.2l-0.5,0.3l0.7-1.4l-0.2-1.7
	l0.6,0.2l0.5-0.3l0,0l0-0.3l0,0l0.1-1.4l-0.3-0.3l0.1-0.5l-0.4-0.2l0.1-0.3l-0.2,0.1l0.5-0.9l-0.3-0.5l0.2-1l0.6-0.1l0.2-0.5
	l-0.5-1.8l-0.7-0.2l-0.1-0.3l-1.4,0.8l0-1.3l-0.2,0.6l-1.8-0.4l-0.9,0.5l-1.8-0.6l-0.4-0.5l-0.7,0l-0.2-0.4l0.5-0.6l-0.1-0.4
	l-1.2-0.3l-0.9-0.9l-0.9,0.4l-0.3-1l-1-0.1l0.3-0.9l-0.8,0.1l0,0l-1-0.6l-0.8,0.2l-1.1-1l-2.3,0.8l-1.3-1.4L140.5,67.5L140.5,67.5z
	 M184,82.3L184,82.3l-0.2,0.2l0.4,0.4l-0.5,0l-0.4,0.5l-0.6-0.4l-0.7,0.8l-1-0.2l0-0.9l-0.5-0.1l0,0.6l-0.4,0.1l0.1,0.4l-0.9,0
	l-0.4,0.7l0.3,0.6l-1-0.4l-0.7,0.4l0.5,0.4l-0.2,0.7l-0.4,0.1l-0.2,1.1l0.5-0.1l0.5,0.3l-1,1l-0.2,0.9l0.3,0.4l-0.5,0.5l0,0
	l-0.1,0.3l0,0l0.1,0l0,0l0.1,0.1l0,0l0.7,0.4l-0.2,0.3l0,0l0.1,0l0,0l0.8-0.2l-0.3,0l0.2-0.3l1.2-0.5l0.4,0l0.1,0.5l0.5,0l0.5-0.4
	l0.1,0.3l0,0l0.3,0.1l0,0l0.5-0.2l0.5,0.7l0.3,0l0,0.3l0.6,0.1l0-1.1l0.9-0.3l0.3,0.8l1.1-0.1l0,0.3l1.1-0.1l0.3,0.6l0.4-0.2
	l0.3,0.2l-0.1,1l0.2,0.2l0.5-0.9l0.5-0.3l-0.3-0.4l0.8-0.4l0,0l0.2-0.3l0,0l-0.1-0.4l0,0l0.1-0.2l0,0l0.1,0l0,0l0-0.1l0,0l-0.4-0.2
	l0,0l0.3,0.1l0,0l0.4-0.4l-1.2-0.8l0.1,0.4l-1.2-0.8l-0.5,0.4l-0.2-0.2l0.9-1.9l-0.6,0l0.2-0.3l-1-0.2l0-0.7l-0.6-0.6l-0.8-0.1
	l-0.2-0.5l0.5-1.2l-0.7-0.4l0-0.4l-0.2,0.1l0,0l0.1-0.2l0,0l-0.1,0l0,0l-0.2,0.2L184,82.3L184,82.3z"/>
<path id="DE-HB_4_" class="st20" d="M85.5,64.1l0.2,0l0,0l1,0.6l0.5-0.3l0.4,0.2l-0.4,0.7l0.6,0l0.3,0.6l1.1-0.1l0.4-0.3l0.1,0.3
	l0.5-0.1l0.3,0.5l1.7,0l0.2,0.2l0,0l0.1,0.3l0,0l0.4,0.5l0,0l0,0.1l0,0l1,0l0.6-0.6l0.8,0.8l-0.7,0.3l0.3,0.5l0.5,0.1l-0.5,0.4
	l0.1,0.8l0.3,0.4l-0.9,0.7l0,0.3l-0.8,0L93,70.2l0,0.6l-0.9,0l-0.9-0.6l-0.1-0.5l-0.3,0.5l-0.7,0l-0.3-0.5l0.1-0.7L89,68.6l0.1-0.4
	L88.3,67L88.1,66l-2.2-1l0,0l-0.1-0.1l0,0l-0.5-0.8L85.5,64.1L85.5,64.1L85.5,64.1L85.5,64.1z M86.1,51.5l1.4,0.4l0.5-0.4l0.6,0.1
	l-0.1-0.3h0.3L88,52.5l0.2,0.6l0.3,0.1l-0.1,0.9l0.2,0.5l-0.4,0.6l-0.5,0.4l-0.4-0.3l-0.2,0.2l-0.5-1.1l0.2-0.1l0,0l0.3,0l0-0.8
	l0.1,0.1l-0.4-0.4l0-0.8l-0.2,0l-0.1,0.4L86.1,51.5L86.1,51.5z"/>
<path id="DE-HH_4_" class="st20" d="M110.1,53.1l0.8-2.5l0,0.5l0.5,0.2l0.1,0.6l0.7,0.3l1.1-1.2l0.3-1l1.4,0.2l0.4-1.2l1.3,0.1
	l0.3-0.9l-0.2-0.2l0.3-0.3l0.8,0.2l0.9-0.8l0.5,0.3l0,0.2l-0.2,0.5l-0.5,0.2l0,0.5l-0.3,0.4l0.8,0.5l0.3,0.5l-0.2,0.3l0.6,0.2
	l-0.6,0.7l0.2,0.9l-1,0.4l0.2,1.7l0.5,0.3l0.5-0.3l0.6,1.3l1,1l0.7,0.1l-0.4,0.5l0,0l-0.9,0.4l-0.5,0.8h-1.3l-2.4-2.2l-0.1,0.5
	l-0.5,0l0.2,0.4l-0.9,0.6l-0.9-0.4l-0.5,0.5l-0.2-0.1l0.3-0.6l-0.3-0.7l-0.8,0.6l0,0.3l-1.1-1.1l-0.1-1l-0.4,0.1l0-0.3l-0.4-0.3
	l0.3-0.4l-0.3-0.7l0.2-0.4L110.1,53.1L110.1,53.1z"/>
<path id="DE-HE_4_" class="st20" d="M104.6,115.3l0.9-0.3l-0.1,0.7l0.4,0.3l0.7-0.4l0.5,0.5l1.1-0.4l0.2,0.9l1,1l-0.2,0.3l-1-0.5
	l-0.1,0.5l0.4,0.6l-0.5,0.1l-0.3-0.4l0.3,0.9l-0.7,0.5l1.1,1.5l-0.3,0.8l0.3,0.9l-0.3,0.4l-1,0.1l-0.4,0.7l0.4,0.3l-0.2,0.3
	l-0.7-0.2l0.6,0.7l0.9,0.6l0.5,0l0,0.4l0.8-0.2l1.3,0.7l0.7-0.4l0.1-1l-0.7,0.5l-0.7-1.4l0.8-0.2l0.6-0.5l0.5,0.1l-0.1-0.7l0.5-0.1
	l0.4,0.3l0,0.6l0.5,0.4l-0.3-1.4l0.6,0.3l0.1-0.3l0.4-0.1l0.6,0.8l0,0.6l0,0l-0.1,0.7l0.5,1.1l-0.2,0.4l0.6,0.2l0.1,0.5l1.6,0.2
	l-0.2,0.8l0.6,0.3l-0.2,0.5l0.9,0.4l0.5-0.2l0.2,0.4l0.3-0.1l0.6,0.6l0.8,0.2l-0.7,1.1l0.2,0.8l-0.3,0.4l-0.7-1.3l-0.9,0.4l1.1,0.7
	l-0.6,1l0.2,0.5l-0.3,0.3l1.3,0.8l0.2,0.3l-0.4,0.2l0.2,0.3l-1.1,0.5l-0.5-0.6l-0.3,0.2l-1.3-0.3l-0.4,1l0.4,0.4l0,0.6l0.4,0.1
	l-0.7,0.2l-0.1-0.2l-0.2,0.3l-1.2-0.2l0.1,0.6l0.2-0.3l0.5,0l-0.3,0.7l0.8-0.4l0.8,0.7l-0.1,0.3l0.2,0l0,0.2l-0.7,0.5l0,0.5l0.3-0.1
	l-0.2,0.6l-0.4-0.1l-0.2,0.4l-0.3-0.1l0,0l-0.1,0l0,0l-0.4,0.3l-0.2,0.7l0.2,0.8l-0.5,0l-0.1,0.5l0.3,0.1l0,0.5l-0.6,1l0.3,0.4
	l-0.9,0.7L113,147l1.7,0.3l0.2-0.4l-0.4-0.5l0.1-0.3l0.9-0.3l1.1,0.2l0.6,1.5l-0.7,0l-0.2,0.4l0.5,1.7l-0.4,0.8l0.1,0.4l0,0
	l-0.5,1.5l-0.4,0.2l-0.8,1.2l-1.1,0.6l-0.4,0.1l-0.2-0.3l-0.2,0.4l-1-0.5l-0.1-0.4l-0.4,0.2l-0.4-0.2l-0.6,2.2l0.3,0.4l0,1l-0.9,0.9
	l-0.9,0.3l-0.3,0.6l0.6,0.3l0,0.2l-1.6,0.4l-0.1-0.3l-0.7,0.2l-0.8-0.5l-0.1,0.5l0.4,0.8l-0.3,0.2l0,0.5l0,0l0.6,0.3l0,0l0,0l0,0
	l-0.2,0.5l0,0l-0.3,0.1l0.1,1.6l-1.6,0.3l-0.6-0.2l-0.6-1.3l-0.6,0l-0.2-0.3l-0.4,0.2l-1.1-0.2l-0.7-0.3l-0.7,0.3l0.1,0.3l-0.8,1.1
	l0.1-0.8l-0.7-0.3l-2,0.5l-0.4,0.6l0,0.7l-0.4,0.6l1,0.2l0.1,1.1l0.3,0.3l-0.5,0l-0.1,0.4l0.1,2.1l0.5,1.3l-0.3,0l0.1,0.7l0.5-0.1
	l-0.2,0.2l0.2,0.2l0.4-0.5l-0.2,0.9l0.3,0.8l0.7-0.1l0.1,0.4l-0.5,0.7l0.8,0.5l-0.5,0.8l0.1,0.4l-0.8,0.2l0.2,1.6l-0.7,0.7l0,0.5
	l0.3,0.1l0.4,0.7l0,0l-0.1,0.5l-0.3,0l-0.2-0.4l0,0.3l1.1,1.5l-0.4,0.2l-0.1-0.5l-0.7-0.1l-0.3,0.5l0,0l-0.1,0.1l0,0l-0.4,0.3
	l-0.8-0.4l-0.7,0.2l0,0.6l-0.3-0.1l-0.2,0.4l0.4,0.4l-0.7,0.5l-0.2-0.2l-0.2,0.7l-0.9,0.8l-0.4-0.4l-0.3,0.3l-0.3-0.4l0.7-0.7
	l-0.2-1l0.5-0.5l0.2,0.5l0.3,0l0.5-0.5l0-0.6l-1,0.1l-0.3,0.3l-0.3-0.4l0.1-0.6l-0.5,0.4l-1.3-0.3l0,0v0.1l0,0l-0.6-0.5l0.1-0.4
	l-0.5-0.8l0.3-0.7l-0.5-0.6l0.2-0.2l0.1,0.4l0.1-0.5l-1.9,0.4l0.4,2.1l-0.2,0.4l-0.2-0.1l-0.7,0.5l-1.7-2.1l-0.5-0.2l-0.5,0.2l0,0
	l-0.8-1.3l-0.5-2l1.6-0.9l0.8-1.2l-0.1-0.2l-1,0l-0.9-1.7l0.1-1l-0.8-0.7l0.2-1.2l-0.7-1.8l-1.5-1.6l-1.2-0.2l-2.8,1l-1.4,0.8
	l-1.7,0.2l-0.4-0.3l-0.3-1l-1.6-1.4l0.6-0.8l0.7,0l-0.1-0.4l0.4-0.9l0.6,0.4l0.4-0.2l0.6,0.6l-0.2-1l0.2-0.3l-1-0.7l0-0.4l0.5-0.4
	l0-0.3l0.7-0.2l0.1-0.3l0.7-0.3l0-0.3l0.5,0.6l0.4,0.1l0.4-0.7l0,0l-0.1-0.1l0,0l-0.5-0.5l0.3-0.4l0.7,0l0.1,0.3l0.5,0l0.3-1.2
	l-0.3-0.3l0-0.5l-0.6-0.2l0.1-0.5l-0.3-0.8l-0.3,0l-0.1-0.3l-0.5,0l0.1-0.5l-0.7,0l-0.4-0.4l0.4-0.4l0.1-0.4l-0.3-0.1l0.7-0.5
	l-0.6-1.1l0.3-1.2l1-1l0.5,0.6l0.6,0.2l0.6-0.5l0.3-1.5l-0.5-0.3l0.3-0.7l-0.6-0.9l0.3-0.8l0,0l0.8-1.5l-0.7-1.4l0.1-0.3l0,0l0.1,0
	l0,0l2.5-2.8l0.5,0l0.3,0.6h1l1.5-1.8l0.6,0l-0.2-0.7l0.2-0.8l0.4-0.1l-0.1-0.2l1.2-1.4l-0.4-0.8l-0.3,0.1l0.4-0.7l-0.5-0.5l0.5-0.5
	l0.6-0.2l2,0.3l0.5-0.4l0.7-0.1l-0.4-0.4l0,0h-0.1l0,0l0-0.4l1.2-1.3l-0.2-0.7l0.4-0.3l-0.5-0.3l-0.3-1l0.2-0.4l-0.3-0.4l-0.6-0.1
	l-1.9,0.9l-0.8-1l1.2-1.9l0.3-0.2l0.3,0.1l0.1-0.5l0.4-0.1l-0.1-0.4l0.3-0.2l0.7,0.1l1.4-0.6l0.7,0.1l0.4,0.4l0.7-0.5l0.9,0.1
	l0.2-1.2l-0.5-0.1l0-0.6l-0.6-1.1l2.5-1.2l0.4,0.5l0.7,0l0.3,0.3l-0.3,0.9l0.3,0.7l0.8-0.2l0.5,0.2l0.5-0.7l0.6,0.2l0.2-1l0.8-0.3
	l0.4-0.5l0.5,0l0.2-1.2l1.1-1.2l-0.7-0.7l1.7-0.5L104.6,115.3L104.6,115.3z"/>
<path id="DE-MV_4_" class="st20" d="M190.9,32.7l0.6,1.4l0.7,0.8l2.8,1.6l4.2,4.2l-0.8,0.5l0.6,0.4l0,1.1l-3.5-0.2l-0.9,0.9l-1,0.2
	l-0.3-0.3l0.4,0.1l0.2-0.3l-0.5-0.5l-0.3,1l-0.6,0.1l-1-0.3l0.2-0.7l1.2-0.2l0.8-1l-0.3-1.4l-0.5-0.5l0.2-0.8l1.1,0l-0.1,1.8
	l0.2-0.8l0.3-0.2l0.8,0l-0.2,0.4l0.6,0.3l0.1-1.4l-0.1-0.9l-0.4-0.3l-0.2,0.3l-0.2-1.1l-0.5-0.7l-1.2,0l-0.1,0.7l0.5,0.5l-0.1,0.4
	l-0.2-0.2l0.1-0.5l-0.4,0.7l-0.8,0.4l-0.1-0.5l0.5-0.8l-0.5-0.3l-1.1,1l-0.6,0l-0.1-0.4l0.3-0.3l0.5-1.4l0.1-0.9l-0.4-0.1l-0.7-0.8
	l-0.1-0.7l0.8-0.5L190.9,32.7L190.9,32.7z M177.5,27.9l-0.2,0.2l-0.2-0.3l0.2-0.1L177.5,27.9L177.5,27.9z M185.3,27.6l-0.1,0.2
	l-0.1-0.2l0.5-0.6l0.1,0.3L185.3,27.6z M169,23.8l0.5,0.4l-1.1,0l0.3-0.5L169,23.8L169,23.8z M173.8,23.3l0.3,0.2l-0.8,0.1l0.1-0.3
	L173.8,23.3z M175.9,23.1l-1.6,0.4l0.5-0.4l0.6,0l0.3-0.4L175.9,23.1L175.9,23.1z M165.6,22l-0.3,0.3l0.9,0.7l2.1,0.4l4.9-0.1
	l0.2,0.6l-1,0.4l-1-0.2l-0.4,0.4l-0.3-0.3l-1,0l-0.3-0.5l-0.6,0l-0.5,0.8l-0.6-0.3l0-0.3l-0.5,0.6l-0.8,0.1l0.4,0.4l-0.1,0.3
	l-0.1-0.3l-0.6,0l-0.5,0.3l-0.1,0.2l0.3,0.3l0.4-0.5l0.2,0.2l1,0l0.9-0.6l0-0.6l0.8-0.1l0.1,0.3l-0.5,0.1l0.1,0.5l-0.3,0.5l0.2,0
	l0.3-1l0.3,0l0.1,0.9l0.3,0.1l0.2-0.4l0.4,0.4l0.4-0.8l0.5,1.8l1.4-0.8l0.3-1.1l0.5-0.4l1.3-0.4l0.4-0.4l0.4,0.1l-0.1,1.3l0.4,0.6
	l0.6,0l0.3,0.5l-0.3,0.8l0.2,0.9l0.5,0.7l-0.2,0.6l0.6,0.5l0.6-0.3l0.3,0.3l-0.7,0.6l0.8-0.4l0.6,0.9l1.5,0.2l0.7,1.7l0.9,0.1
	l-0.6,0.1l-0.5,0.6l1.2-0.6l0.6,0.3l-0.3-0.5l0.5,0.2l0,0.5l-0.1-0.2l-0.6,0.4l0,0.2L183,33l-0.1,0.3l0.4,0.3l0.8,1.7l0.6,0l-0.5-1
	l0.3-0.3l2.7-0.6l1.4-1.1l0.3,0.1l0.1,0.2l-0.4,0.2l0,0.3l0.7,0.4l0.3-0.1l0.1,0.7l1,0.7l-0.3,1.2l-0.3,0.2l0.1,0.4l-0.7,0.6l0.3,0
	l0.1,0.4l0.7,0.7l0.8,0.4l0.4,1.2l0.5,0l0.7,0.9l-0.2,0.4l-0.7,0.3l-0.4,0.7l-0.4,0l0,0.4l-0.4,0.2l0.2,0.6l0.7,0l0.9,1.3l0.3-0.1
	l1,1.1l2.6,1.1l1.3-0.1l0.3,0.2l1-0.9l0.7,0.4l0,0.6l-1,0.9l1.1,0.2l0.2,0.3l-0.2,0.7l0.3,0.2l0,0.9l0.6,0.6l-0.2,2.4l0.4,1.3
	l0.5,0.5l0.8,4.6l0.4,0.8l0,0l-1.3,0.7l-0.6,0l-0.3,0.8l-0.8,0.3l0,0.6l-1,0.2l-1-0.4l-1.2,0.2l0.6-1.2l1.9-2l0.4-1l-0.1-1.3
	l-0.3-0.2l-0.3,0.4l-0.6,0l-1.2-0.6l-0.7,1l-0.7-0.1l-0.1-0.5l-0.9-0.2l-1.7,0.4l-0.3-0.3l0.3-0.7l-0.8-0.7l0-1l-1.1-0.4l-0.6-1.4
	l-0.4,1.5l1,0.6l-0.2,0.4l-0.7,0.4l-0.7-0.4l-0.5,0.1l-1.6,1.3l-0.1,1l-0.8-0.1l-0.7,0.5l0.1,0.7l-0.3,0.4l-0.4,0l-0.2,0.4l0.1,1.1
	l-0.4-0.2l-0.4,1.1l-0.4,0.1l-0.2-0.3l-0.4,0l0,0.4l-0.7,1.2l0,0l0,0.1l0,0l-0.4,0.2l-0.5-1.2l-0.4,0.1l-0.8-0.2l-1.1,0.8l-0.3,1.3
	l-0.5-0.2l-0.4-0.9l-0.7,0l-0.4,0.5l-0.5,0l0,0.7l-0.4,0.1l-0.2,0.4l-0.8,0.2L175,66l-0.6,0.2l-0.3-0.5l-0.3,0.1l0.7-0.6l-0.3-0.3
	l-0.6,0.2l0,0.3l-0.4,0l0.2-0.2l-0.5,0l-0.5,0.5l-0.6-0.7l-1.5,0.5l-0.6-0.4l0.4-0.8l-1.4-0.1l-0.4-0.2l0.2-0.5l-0.3-0.2l-1.1,0.3
	l-1.6-0.7l-1.6,0.5l-0.3-0.8l-0.7-0.3l0-0.5l-1.6-0.9l-1,0.1l-0.6-1.2l-0.8,0.2l0,0.3l-0.3,0.1l-0.4-0.7l-0.8,0.6l-0.6-0.1l0-0.7
	l-0.7-0.1l0.3,0.7l-0.8,0.6l0.1,1.1l-0.6,0.3l-0.4-0.2l-0.5,0.9l-1.1-0.2l-0.6,0.9l-1.3-0.1l0.7,0.6l-0.2,0.4l-0.8-0.1l-0.9,0.3
	l-0.1-0.5l-1.2-0.4l-0.8,0.2l-0.8,0.9l-0.7,0.1l0.3,1.5l-0.3,0.5l0.1,0.4l-0.5,0.4l-0.6,0.2l-0.6-0.2l-0.2-0.4l-0.4,0.2l-0.4-0.2
	l-0.5,0l-0.1,0.9l-2.5-0.4l0,0l-0.8-0.7l-0.8,0.2l-0.2-0.7l0.4-0.8l-2.1-1.1l-1.2-2.2l-0.4,0l-0.4-1.7l-0.7,0l-0.6-0.5l-1.6,1.5
	l-1.5-0.8l0.1-0.4l-0.5-0.1l-0.8-0.9l-2.1,0.2l0,0l0.4-0.6l0.3-2.4l0.4-0.2l0.8,0.2l0.2-0.7l1.1-0.2l0.6-0.9l0.7-0.1l-0.2-0.2
	l0.4-0.7l-0.2-1.1l0.3-0.1l0.2,0.4l1.2-0.2l0.4-1.9l0.5-0.6l-0.2-1.2l-0.4-0.2l0.1-0.3l-1.4-0.1l-0.8-0.6l-0.1-0.6l-0.9-0.5l0,0
	l0.1-0.6l0,0l0.2-0.8l-0.5-2l0.5-0.7l0.6-0.1l0.3-0.6l0.6-0.1l0.7-0.9l0.6,0.3l-0.2,0.3l0.2,0.3l1.1-0.3l-1.4-0.5l0.2-1.1l0,0
	l2.7-1.7l2.8-0.3l0.6,0.9l1,0.1l-0.3,0.9l0.3,0.7l0.6,0.1l0.9-0.9l0.6,0.8l0.7,0l0,0.5l0.5,0.3l0.1,0.4l0.5,0.1l-0.3-0.5l0.7-0.6
	l0.1-1.3l-0.2,0.1l-0.2-0.2l-0.4,0.4l0-1.3l-0.3,0.4l0.1,0.8l-0.7-0.4l-0.2,0.2l0.5,0H143l-0.3-0.5l0.2-0.7l1.2-0.7l0.9,0l-0.5,1.6
	l0.4,0.2l0.2-0.6l-0.2-0.3l0.4-0.7l0.5-0.2l-0.3-0.4l0.6,0.2l0.5-0.3l0.1-1l0.8-0.4l0.1-0.5l-0.4-0.4l-1.5,1.8l-0.1-0.9l0.6-0.7
	l1-0.4l1.4-1.5l1.5-0.1l1.8,0.3l3.2-1.1l2.3-0.2l1.2-1.8l3-2l1.4-2.8l1.2-1.4l0.7-1.9L165.6,22L165.6,22z M177.8,17.9l0.2,1
	l-0.2-0.8l0,0.8l-0.2-0.5L177.8,17.9l-0.7,0.7l0.1,1.5l-0.8,1.3l-0.2,1.4l-0.1-0.6l0.7-2.8l0-1.1l0.5-0.5L177.8,17.9z M183.4,15.1
	l-0.1,0.8l-0.7,0.3l-0.3,0.6l0.3,1.2l0.6,0.7L184,19l3.4-0.5l0.9,0.7l0,1.1l-2,1.9l0,1l0.8,1.5l1.2,0.1l1.1,1.6l0.7,0.5l-0.5,0.2
	l-0.4,0.8l0.1,1.2l-0.3,0.2l-0.5-0.5l0.5,0.1l-0.1-0.6l-0.8,0.3l-0.3-0.3l1.1-0.6l0.1-0.3l-0.6-0.1l-1.2,0.5l1.3-0.7l0.2-0.4
	l-0.8,0.1l-0.6,0.6l-0.6-0.8l-0.6,0.4l-1-0.1l-1.6,1.3l-0.7,1.2l0.1-0.5l-0.8,0.3L182,30l0.1-0.6l0.3,0.4l0.5-0.4l0.3,0.4l0.1,0.5
	l-0.6,0.6l-2-1l0.6,0.2l0.2-1.1l-0.5,0.4l0.2,0.3l-1,0.1l-1-0.8l-0.4,0.3l-0.1-0.9l-1.1,0.5L178,28l0.6,0.1l-1.4-1.1l0.3-1.3
	l1.4-0.2l0.5,0.3l0.8-0.6l-0.5-0.1l-0.1-0.5l0.5-0.2l-0.4,0.1l-0.4-0.9l-1.2,0.2l0.6-1.1l-1.1,0.5l-0.1-0.2l1-1.5l1.1,0.3l-0.1,0.7
	l-0.7,0l-0.1,0.3l0.3,0.3l0.1-0.4l0.9-0.1l-0.4-0.1l0.8-0.4l-0.8-0.2l0.1-0.9l-0.6,0.3l-0.6-0.2l-0.5-1.3l2-0.3l0.9,0.4l0,0.7
	l0.3,0.3l0.1-0.4l-0.3-1l1.1-0.9l0.3,0.1l-0.6,0.9l0.3,0.1l0.4-0.5l0.8,1.4l0,0.9l0.6,0.2l0.2,0.5l0.4-0.4l0.6,0l0.2-1.6l-0.4-1
	l0.4,0l0-0.3l-0.4,0.1l0,0.4l-0.9,0l-0.4-0.6l-0.6-0.2l-0.5-1.4l-0.8,0.7l0.1,0.4l-1.8,0.8l0.8-2l0-1l-1.1,0.7l0.2,1l-1.5,1.2
	l0.1-0.4l1-0.9l0-1.4l0.5-0.7l0.9-0.6L183.4,15.1L183.4,15.1z"/>
<path id="DE-NI_4_" class="st20" d="M52.3,51.7l-1.1,0.1l-0.7,0.4l0.8,0.6l-0.3,0.4l-0.3-0.4L50.2,53l-1.1-0.9l0.1-0.5L51,51
	L52.3,51.7L52.3,51.7z M54.2,50l-0.4,0.2l0.4,0l-0.4,0.2l0.2,0.3l-0.5,0l-0.2-0.5L54.2,50L54.2,50z M52.5,50.1l0.5,0.2l-0.4,0.1
	l-0.1-0.8L52.5,50.1L52.5,50.1z M57.6,48.8l0.3,0.3l-4.6,0.3L57.6,48.8z M62.6,47.5l0.2,0.3l-1,0.3l-0.2-0.2l0.1,0.2l-0.5,0.1
	l-1.2-0.1l-0.3,0.3l-0.5-0.3L59,48.5l-0.3-0.3l1-0.5L62.6,47.5L62.6,47.5z M79.2,47.3l0.4,0.2L79,47.6L78.9,48l-0.7,0l0.4-0.6
	L79.2,47.3z M63.9,47.2l0.6,0.1l0.1,0.5l-1.6-0.3L63.9,47.2z M67.4,46.4l1,0.1l0.1,0.3l-2.3,0.1L66,47.6l-0.1-0.2l0,0.3l-0.7,0
	l0.3-1L67.4,46.4L67.4,46.4z M76,46.3l0.2,0.6l-0.3-0.2L76,46.3z M76.1,46l-0.2,0.2l-0.2-0.1l0.2-0.4L76.1,46z M70.3,45.6l1.9,0.3
	L71,46.3l-1.2-0.2l-0.3,0.4l-0.3-0.1l0.3-0.7L70.3,45.6L70.3,45.6z M73.7,45.2l1.5,0.7l-1.9-0.4l-0.2,0.5l-0.4-0.4L73.7,45.2
	L73.7,45.2z M83.2,44.1l-0.6,0.1l0.5-0.5l0.3,0L83.2,44.1z M89.5,41.9l0,0.4l0.5,0.3l-0.1,0.3l0.4,0.3L90,42.6l1.1,1.1l2.4,0.4
	l2.5-0.6l-0.3-1.1l0,0l4.1-0.2l2.1,0.9l1,1.4l1.2,2.5l1.6,1.5l0.9,2.6l2.4,1.7l1.1,0.3l0,0l0.9,0.1l-0.2,0.4l0.3,0.7l-0.3,0.4
	l0.4,0.3l0,0.3l0.4-0.1l0.1,1l1.1,1.1l0-0.3l0.8-0.6l0.3,0.7l-0.3,0.6l0.2,0.1l0.5-0.5l0.9,0.4l0.9-0.6l-0.2-0.4l0.6,0l0.1-0.5
	l2.4,2.2h1.3l0.5-0.8l0.9-0.4l0,0l0.4,0.3l0.9,0l2.4,1.7l1.6,0.5l0.3-0.1l0,0l2.1-0.2l0.8,0.9l0.5,0.1l-0.1,0.4l1.5,0.8l1.6-1.5
	l0.6,0.5l0.7,0l0.4,1.7l0.4,0l1.2,2.2l2.1,1.1l-0.4,0.8l0.2,0.7l0.8-0.2l0.8,0.7l0,0l0.1,0.8l1.3,1.4l2.3-0.8l1.1,1l0.8-0.2l1,0.6
	l0,0l-0.8,0.8l-0.1,0.4l-0.9-0.2l-0.3,1.5l0.2,0.7l-0.9,0.2l-1,1l-1.8,0.9l-0.4,0.1l-0.1-0.5l-1,0.3l-0.4-0.6l-1.3-0.2l-1.1,0.2
	l0-0.5l-1.9,0l-0.3,0.1l-0.1,0.8l-0.9,1l-0.8-0.1l-0.3,0.3l-0.3-0.3l-2,0.4l-0.2,1.9l0.7,1.2l0.1,1.1l0.6-0.1l0.3,0.7l0,0v0.1l0,0
	l1.5,2.7l1.1-0.5l-0.1,0.6l-0.6,0.5l0,0.7l1.4,2.3l0,0l-0.2,0l0,0l-0.4-0.2l-0.6,0.2l-0.2,1.1l1.6,2l0,0.4l0.2-0.1l0,0l0.2,0.2l0,0
	l0.8,0.4l-0.1,0.6l-0.6,0.4l-1,0.1l1,1.2l0,0l0,0.1l0,0l-0.5,0.4l0.3,0.6l0.5,0.1l0.1,0.8l0,0h0.2l0,0l0.4,0.4l-0.2,0.3l-0.9,0.3
	l-0.3,0.4l0.1,0.7l0.8,0.2l-0.3,1.2l0,0H136l0,0l-1.2,0.9l-0.7,0.1l-0.1,0.3l0.6,0.3l-0.1,0.9l-1.6-0.1l-1.1,0.4l-2.6-0.1l-1,0.3
	l0.1,0.5l-0.6,0.6l-0.5,0.1l-0.1-0.3l-0.6,0.3l0.5,1l0.4-0.1l0.3,0.6l0.6,0l-0.8,0.6l0,0.6l0.7,0.4l0,0.6l-0.3,0.6l-1.1,0.7
	l-0.1,0.3l0.3,0.1l-0.3,0.8l0.3,1.4l0.7,0.4l0.1,0.7l0.7,0.8l0,1.3l0.6,0.8l0,0l-0.5,0.1l0.1,0.3l-0.9,0.3l0.2,0.4l-0.3,0l0.1,0.7
	l0.5,0.3l-0.2,0.5l-1-0.7l-0.9,0.7l-0.8,0.1l-0.5-0.6L124,117l0,0h-0.1l0,0l-1.1,0.1l0.2,0.6l0,0v0.2l0,0l-0.7,1.4l-0.7,0.1
	l-0.2,0.6l-1,0.3l-0.2,0.4l-0.3,0l-0.3-0.5l-0.5,0.5l0.2,0.2l-0.3,0.6l-0.6,0.1l0.2,0.4l-0.7,0l0,0h-0.1l0,0L117,122l-0.2,0.5
	l-0.4-0.6l-0.2,0.5l-0.6,0l-0.2,0.5l-1.4,0.9l0,0l0-0.6l-0.6-0.8l-0.4,0.1L113,123l-0.6-0.3l0.3,1.4l-0.5-0.4l0-0.6l-0.4-0.3
	l-0.5,0.1l0.1,0.7l-0.5-0.1l-0.6,0.5l-0.8,0.2l0.7,1.4l0.7-0.5l-0.1,1l-0.7,0.4l-1.3-0.7l-0.8,0.2l0-0.4l-0.5,0l-0.9-0.6l-0.6-0.7
	l0.7,0.2l0.2-0.3l-0.4-0.3l0.4-0.7l1-0.1l0.3-0.4l-0.3-0.9l0.3-0.8l-1.1-1.5l0.7-0.5l-0.3-0.9l0.3,0.4l0.5-0.1l-0.4-0.6l0.1-0.5
	l1,0.5l0.2-0.3l-1-1l-0.2-0.9l-1.1,0.4l-0.5-0.5l-0.7,0.4l-0.4-0.3l0.1-0.7l-0.9,0.3l0,0l-1.5-0.1l0.5-1.6l-0.3-0.6l0.1-0.4
	l-0.4-0.3l1.4-1.6l-0.4-0.7l0.3-0.5l-0.2-0.3l0.5-0.6l-1.1,0.2l-0.9-0.3l-0.7,0.3l0.4-0.9l-0.1-0.9l-1.3-0.8l0.1-0.4l-0.3-0.1
	l0.4-0.4l-0.2-0.4l-1.1,0l-0.2,0.4l-0.4-0.2l-0.2-0.5l0.4-0.5l-0.3-0.2l0.3-0.3l-0.4-0.7l0-0.7l0.4-0.4l-0.8-0.9l-0.4,0.1l0.5-0.8
	l-0.1-0.3l-0.5-0.3l-0.8,0.1L97,99.5l0-0.3l-1.2,0.4l0.2-1.2l-0.7-0.8l0.4,0.2l0.2-0.2l0.2,0.4l0.4,0l-0.2-1.3l0.3,0.1l0.5-0.4
	l-0.8-0.6l-1.3-0.4l0.1-0.3L95,95l0.4-0.2l0.2-1.3l0.4-0.1l0.2-0.5l0.6,0.2l0.8-1l-0.1-0.5l0.5-0.5l0-0.6l-0.3,0l0-0.4l-0.3-0.3
	l0.8-1.1l-0.7-0.7l-0.9-0.1l-0.8,1.4l-0.7,0.2l0.2,0.6l-0.9,0.5L94.4,91l-0.9-0.1l-0.1,0.4l-0.6,0.2l-1.3-0.3l-0.8,0.3l-0.4-0.4
	l-0.4,0.1l-0.1-0.8l0.3-0.3l-0.3-0.4l0-2l-0.3-0.5l-0.3,0.1l-0.4-0.5l-1.9,1.1l-1.1-0.4l-0.9,0.6l-0.1,1l-0.8,0.5l-0.3-0.2L83,89.7
	l-1.2-0.5l0,0.8l0.4,0.3L82.1,91l1.5,0.6l1,0.7l0.5,1.5l-0.2,0.9l0.2,1.3l-0.5,1l0.5,0.7l1,0.3l-0.9,1l-1.2,0.6l-0.1,0.8l-0.7,0
	l-0.6-0.5l-0.6,0.2l-0.5-0.2l0-0.3l-1.3,0.9l-0.6,1.1l-0.8-0.1l-1.1,0.6l-1.3-0.4l-1,1.1l-1.2-0.5l-0.7-1.1l1.7-1l0.7,0l-0.2-1.2
	l0.1-0.3l0.5-0.1L76,98.3l-1.4,0L74,97.9l-0.1-0.5l0.5-0.7l0-1.2l0.6-0.1l-0.5-0.6l0-0.5l1.2-0.2l-0.9-0.8l-0.2-1l-0.9-0.5l-0.9,0.4
	L72,92l-1.9-0.9l-0.5-1.7l-1.6-0.7l-0.9,1.4l0.8,0.3l-0.6,1.3l0.2,0.2l-1.2,0.2l-1.7,1.2l-0.2,0.6L63.6,94l-0.5,0.7L62.3,95
	l-0.4,0.5l-2.8-0.1l-0.7,0.2L58,96.2l-0.7,0l0,0l-0.7-1l0-0.5l0.9-2l0-0.7l-0.3-0.8l-0.5-0.1l-0.5-0.9l-0.4-1.2l-1,1.1l-1.8-0.5
	l0-0.3l-1.9-0.1L50,88.3l0.1-1.1l-0.5-1l0.7,0.1l0.2-0.5l0.8,0L50.4,85l0.1-0.9l-0.3-0.4l0.8-0.7l2.4-0.2l1.2,0.5l0.8-0.3l1.3,0.5
	l0.3-0.3l0.3-5.4l0.4-0.9l-0.1-0.4l1.9-3l0.7-2.1L60,67.8l-0.4-0.3L59.6,67l0.5-1.2l0.5-0.1l-0.4-0.3l0.2-0.3l-0.2-1.5l0.4-0.6
	l0.3-1.9l1.2-0.1l-5.8-0.7l-0.3-0.9l0.3-0.4l0.3-3.3l0.5-0.7l-0.3-0.9l0.4,0.8l0.7,0L58,55l0.2-0.3l-1,0l-0.4-0.9l0.5,0.6l0.2-0.5
	l0.6,0.7L58,54.2l0.5,0l0.4-0.6l-0.5-0.2l-0.5-1l1.2-1.2l0.1-0.5l0,0.2l1.8-1.6l2.3-0.6l0.3,0.2l2.1-0.1l0.9,0.4l3.5-1.1l0-0.5
	l0,0.7l2-0.4l0.6-0.8l-0.5,0.9l2-0.4l2.3,0.3l-0.1,0.9l0.5,1.3l0.6-0.2l0.5,0.5l0.2-0.3l0.1,0.2l-0.4,0.2l0.3,0.5l0.3-0.1l-0.2,0.2
	l0.1,0.5l0.9,1.9L79,54l0.3-0.2l-0.3,0.7L77.7,55L77,54.8l0.1,1l0.7,1l0.7-0.3l0.3,0.2l1,1.5l0.9,0.2l0.4-0.3l0.9-1.7L82,54.3
	l-1.6,0l0.3-2l0.8-1l0.5-0.2l0.6,0.2l0.9,1.3l1.6,0.7l0.8,0.1l0.3-0.3l0,0.3l0.6,0.4l0.1,0.5l0,0l-0.2,0.1l0.5,1.1l0.2-0.2l0.4,0.3
	l0.5-0.4l0.4-0.6l-0.2-0.5l0.1-0.9l-0.3-0.1l-0.2-0.6l0.8-1.2h-0.3l0.1,0.3L88,51.5l-0.5,0.4l-1.4-0.4l0,0l-0.7-1.7l0-1.3l1.2-3.1
	l0.1-0.9l1.3-2.2L89.5,41.9L89.5,41.9z M88.1,66l0.2,0.9l0.8,1.2L89,68.6l0.9,0.5l-0.1,0.7l0.3,0.5l0.7,0l0.3-0.5l0.1,0.5l0.9,0.6
	l0.9,0l0-0.6l0.6,0.9l0.8,0l0-0.3l0.9-0.7l-0.3-0.4l-0.1-0.8l0.5-0.4l-0.5-0.1l-0.3-0.5l0.7-0.3l-0.8-0.8l-0.6,0.6l-1,0l0,0l0-0.1
	l0,0l-0.4-0.5l0,0l-0.1-0.3l0,0l-0.2-0.2l-1.7,0l-0.3-0.5l-0.5,0.1l-0.1-0.3l-0.4,0.3l-1.1,0.1l-0.3-0.6l-0.6,0l0.4-0.7l-0.4-0.2
	l-0.5,0.3l-1-0.6l0,0l-0.2,0l0,0l-0.2,0.1l0.5,0.8l0,0l0.1,0.1L88.1,66L88.1,66z M85.8,40.7l0.3,0.4l-0.6,0.1l0.1-0.5L85.8,40.7z
	 M84.8,39.6l0.2,0.1l-0.7,0.6L84,40.1l0.4-0.6L84.8,39.6L84.8,39.6z"/>
<path id="DE-NW_4_" class="st20" d="M57.2,96.2l0.7,0l0.4-0.6l0.7-0.2l2.8,0.1l0.4-0.5l0.9-0.3l0.5-0.7l0.8-0.1l0.2-0.6l1.7-1.1
	l1.2-0.2l-0.2-0.2l0.6-1.3l-0.8-0.3l0.9-1.4l1.6,0.7l0.5,1.7L72,92l0.7,0.1l0.9-0.4l0.9,0.5l0.2,1l0.9,0.8l-1.2,0.2l0,0.5l0.5,0.6
	l-0.6,0.1l0,1.2l-0.5,0.7l0.2,0.5l0.5,0.4l1.4,0l0.4,0.4l-0.5,0.1l-0.1,0.3l0.2,1.2l-0.7,0l-1.7,1l0.7,1.1l1.2,0.5l1-1.1l1.3,0.4
	l1.1-0.6l0.8,0.1l0.6-1.1l1.3-0.9l0,0.3l0.5,0.2l0.6-0.2l0.6,0.5l0.7,0l0.1-0.8l1.2-0.6l0.9-1l-1-0.3l-0.5-0.7l0.5-1l-0.2-1.3
	l0.2-0.9l-0.5-1.5l-1-0.7L82.1,91l0.1-0.7L81.8,90l0-0.8l1.2,0.5l0.7-0.2l0.3,0.2l0.8-0.5l0.1-1l0.9-0.6l1.1,0.4l1.9-1.1l0.4,0.5
	l0.4-0.1l0.3,0.5l0,2l0.3,0.4l-0.3,0.3l0,0.8l0.4-0.1l0.4,0.4l0.8-0.3l1.3,0.3l0.6-0.2l0.1-0.4l0.9,0.1l0.1-0.5l0.9-0.5l-0.2-0.6
	l0.7-0.2l0.8-1.4l0.9,0.1l0.7,0.7l-0.8,1.1l0.3,0.3l0,0.4l0.3,0l0,0.6l-0.5,0.5l0.1,0.5l-0.8,1l-0.6-0.2L96,93.3l-0.4,0.1l-0.2,1.3
	L94.9,95l0.3,0.2l-0.1,0.3l1.3,0.4l0.8,0.6l-0.5,0.4l-0.3-0.1l0.2,1.3l-0.4,0l-0.2-0.4l-0.2,0.2l-0.4-0.2l0.7,0.8l-0.2,1.2l1.2-0.4
	l0,0.3l0.4,0.2l0.8-0.1l0.5,0.3l0.1,0.3l-0.5,0.8l0.4-0.1l0.8,0.9l-0.4,0.4l0,0.7l0.4,0.7l-0.3,0.3l0.3,0.2l-0.4,0.5l0.2,0.5
	l0.4,0.2l0.2-0.4l1.1,0l0.2,0.4l-0.4,0.4l0.3,0.1l-0.1,0.4l1.3,0.8l0.1,0.9l-0.4,0.9l0.7-0.3l0.9,0.3l1.1-0.2l-0.5,0.6l0.2,0.3
	l-0.3,0.5l0.4,0.7l-1.4,1.6l0.4,0.3l-0.1,0.4l0.3,0.6l-0.5,1.6l1.5,0.1l0,0l-0.6,0.5l-1.7,0.5l0.7,0.7l-1.1,1.2l-0.2,1.2l-0.5,0
	l-0.4,0.5l-0.8,0.3l-0.2,1l-0.6-0.2l-0.5,0.7l-0.5-0.2l-0.8,0.2l-0.3-0.7l0.3-0.9l-0.3-0.3l-0.7,0l-0.4-0.5l-2.5,1.2l0.6,1.1l0,0.6
	l0.5,0.1l-0.2,1.2l-0.9-0.1l-0.7,0.5l-0.4-0.4l-0.7-0.1l-1.4,0.6l-0.7-0.1l-0.3,0.2l0.1,0.4l-0.4,0.1l-0.1,0.5l-0.3-0.1l-0.3,0.2
	l-1.2,1.9l0.8,1l1.9-0.9l0.6,0.1l0.3,0.4l-0.2,0.4l0.3,1l0.5,0.3l-0.4,0.3l0.2,0.7l-1.2,1.3l0,0.4l0,0h0.1l0,0l0.4,0.4l-0.7,0.1
	l-0.5,0.4l-2-0.3l-0.6,0.2l-0.5,0.5l0.5,0.5l-0.4,0.7l0.3-0.1l0.4,0.8l-1.2,1.4l0.1,0.2l-0.4,0.1l-0.2,0.8l0.2,0.7l-0.6,0l-1.5,1.8
	h-1l-0.3-0.6l-0.5,0l-2.5,2.8l0,0l-0.1,0l0,0l-0.1,0.3l0.7,1.4l-0.8,1.5l0,0l-0.9-0.7l-0.4,0.3l-0.4-0.1l0-1l-1.4-1.5l0.2-1.5
	l-0.2-0.7l-0.2-0.2l-0.8,0.3l-0.7-0.9l-1.1-0.2l0.4-1.4l-1.1-0.5l-0.5,0.6l-0.6,0.2l0.5,0.5l-0.2,1.1l0.3,0.7l-0.7-0.2l-0.5,0.7
	l-0.8,0.2l0.4,0.4l-0.2,0.9L69,143l-1.1,0.1l-0.2,0.8l-0.8-0.2l-0.6,0.3l0,0.3l-1.7,0.6l-1.2-0.3l-0.3,0.7l0.3,0.5l-0.4,0.6l0.1,0.4
	l-0.5,0.3l-2.4,0.5l-0.2-0.8l-0.2,0.8l-0.3,0.3l-0.4-0.1l-0.1,0.4l-0.6-0.4l-0.5,0.8l-0.7-0.6l-1.2,1.3l-0.5,0.3l-0.9-0.1l0,0.8
	l-1,0.2l0.3,0.3l-0.2,0.3l0.3,0.1l-0.1,1.1l-0.8,0.5l-0.9-0.6l-0.2-0.6l-1.1,0.6l0.4,0.4l-0.4,0.6l0.6,0.2l0.2,0.4l-0.3,0.9l0.6,0.7
	l-0.1,0.3l-0.4-0.1l-1.5,0.9l-0.6-1.1l-0.6,0.8l-0.3-0.3l0.1-0.6l-0.4,0l0-0.4l-1.9,0.9l-0.5,0.7l-0.6,0.1l0.1-0.8l-0.3-0.3
	l-0.3,0.3l-0.3-0.8l-0.5,0.2l0.2,0.7l0.2,0l0,0.7l0.3,0.2l0,0.3l-0.4,0l0,0l-0.1-0.7l-1.1-1.1l0.7-1.7l-0.1-0.6l-0.6-0.2l0.2-0.8
	l-1.6-0.5l-0.9,0.3l-0.4-0.8l-0.4-0.2l0.1-0.3l-0.4-0.2l0-0.5l1-1l0.4,0l0.5-1.2l-1.4-0.2l-0.4,0.2l0.1-0.2l-0.3-0.3l0.3-0.3
	l-1.2-2.1l-1.5-0.3l-0.1,0.3l0.1-0.8l-0.5-0.5l0.2-0.4l-1-0.7l0.2-0.4l0.4,0.2l0.4-0.4l-0.1-1l0.7-0.3l0.4,0.3l0.3-0.8l-0.3-0.6
	l0.4-0.9l-0.8,0l-0.7-0.4l-0.3-0.7l0.4-0.8l-1.1,0.1l-0.3-0.3l-1.1,0.4l0.1-0.9l-0.5-0.5l-0.3-0.9l1-0.6l0.5,1l0.4,0l0.4-1.2
	l0.6-0.6l0.7-0.3l0.9-1.1l1.6-0.7l-0.7-0.5l0.8-0.4l-0.3-0.3l-1.3,0.8l-0.4-0.1l-0.3-1.5l0.4-0.1l-0.3-0.6l1-1l0.9-1.8l0.5-0.1
	l0.7-0.9l-0.2-0.8l0.2-0.4l-0.4,0l0.3-2.3l-0.2-1.3l-1.1-1.6l-1.4-1.4l0.5-1.6l-1.7-0.6l-0.1-1.1l0.3-0.3l-1-0.7l-0.8,0l0-0.4
	l0.7-0.5l0-0.6l-0.3-0.1l0.1-0.4l-0.6-0.5l0.2-0.2l-0.3-0.2l0.3-0.4l1,0l1-0.9l0.7,0.5l1.3,0.3l0-0.6l-0.5-0.8l-0.7-0.2l0.3-0.3l1,0
	l0.9,1l1.3-0.2l0.4,0.2l0.1,0.6l1,0l0.2,0.4l0.8,0.3l0.2-0.8l-0.5-0.3L44,108l0.8,0.5l0.4-0.2l0.4,0.4l1.5-1l2.8-1.1l0.9,0.6l1.1-1
	l0.2-0.9l0.6-0.2l0-0.7l-1.5-1.3l-1.3-0.4l0.1-1l0.8-0.2l0.5-1.4l1.9-0.1l1-1.8l0.9-0.2l0.7-1.4l1,0L57.2,96.2L57.2,96.2z"/>
<path id="DE-RP_4_" class="st20" d="M44.2,156.9l0.4,0l0-0.3l-0.3-0.2l0-0.7l-0.2,0l-0.2-0.7l0.5-0.2l0.3,0.8l0.3-0.3l0.3,0.3
	l-0.1,0.8l0.6-0.1l0.5-0.7l1.9-0.9l0,0.4l0.4,0l-0.1,0.6l0.3,0.3l0.6-0.8l0.6,1.1l1.5-0.9l0.4,0.1l0.1-0.3l-0.6-0.7l0.3-0.9
	l-0.2-0.4l-0.6-0.2l0.4-0.6l-0.4-0.4l1.1-0.6l0.2,0.6l0.9,0.6l0.8-0.5l0.1-1.1l-0.3-0.1l0.2-0.3l-0.3-0.3l1-0.2l0-0.8l0.9,0.1
	l0.5-0.3l1.2-1.3l0.7,0.6l0.5-0.8l0.6,0.4l0.1-0.4l0.4,0.1l0.3-0.3l0.2-0.8l0.2,0.8l2.4-0.5l0.5-0.3l-0.1-0.4l0.4-0.6l-0.3-0.5
	l0.3-0.7l1.2,0.3l1.7-0.6l0-0.3l0.6-0.3l0.8,0.2l0.2-0.8L69,143l0.3-0.4l0.2-0.9l-0.4-0.4l0.8-0.2l0.5-0.7l0.7,0.2l-0.3-0.7l0.2-1.1
	l-0.5-0.5l0.6-0.2l0.5-0.6l1.1,0.5l-0.4,1.4l1.1,0.2l0.7,0.9l0.8-0.3l0.2,0.2l0.2,0.7l-0.2,1.5l1.4,1.5l0,1l0.4,0.1l0.4-0.3l0.9,0.7
	l0,0l-0.3,0.8l0.6,0.9l-0.3,0.7l0.5,0.3l-0.3,1.5l-0.6,0.5l-0.6-0.2l-0.5-0.6l-1,1l-0.3,1.2l0.6,1.1l-0.7,0.5l0.3,0.1l-0.1,0.4
	l-0.4,0.4l0.4,0.4l0.7,0l-0.1,0.5l0.5,0l0.1,0.3l0.3,0l0.3,0.8l-0.1,0.5l0.6,0.2l0,0.5l0.3,0.3l-0.3,1.2l-0.5,0l-0.1-0.3l-0.7,0
	l-0.3,0.4l0.5,0.5l0,0l0.1,0.1l0,0l-0.4,0.7l-0.4-0.1l-0.5-0.6l0,0.3l-0.7,0.3l-0.1,0.3l-0.7,0.2l0,0.3l-0.5,0.4l0,0.4l1,0.7
	l-0.2,0.3l0.2,1l-0.6-0.6l-0.4,0.2l-0.6-0.4l-0.4,0.9l0.1,0.4l-0.7,0l-0.6,0.8l1.6,1.4l0.3,1l0.4,0.3l1.7-0.2l1.4-0.8l2.8-1l1.2,0.2
	l1.5,1.6l0.7,1.8l-0.2,1.2l0.8,0.7l-0.1,1l0.9,1.7l1,0l0.1,0.2l-0.8,1.2l-1.6,0.9l0.5,2l0.8,1.3l0,0l-0.1,0.9L85,183l-0.4,0.6
	l1.3,0.5l-0.2,1l-0.6,0.6l0.2,0.2l0.5-0.5l0,0.7l-0.9,1.3l0.8,0.9l-1.9,1.8l-0.1,0.5l0.4,0l-0.7,1.5l-0.2,2.1l-0.9,1.4l-0.3,1.2l0,0
	l-0.3,0.6l0,0l-1,0.9l0,0l-0.1-0.3l-0.5,0.3l-0.1-0.3L79,198l-1.3-0.4l-0.8-0.7l-1.5-0.4l-0.8-0.9l-0.3,0.5l-0.6-0.2l-0.4,0.5
	l-1.4-1l-0.5,0.6l-0.6,0.1l-0.1-0.4l-0.2,0.2l-0.5-0.2l0,0.3l-0.5,0.1l-0.8-0.3l0-0.6l-0.6-0.3l-0.7,0.1l-0.7-0.5l-0.6-1l-0.1-1.1
	l-1.2,0.1l0.1-0.6l-1.5,0.4l0,0.4l0,0l-1.3-1.4l0.1-0.5l-0.3-0.5l0.4-0.6l0.3,0.3l0-0.4l0.4-0.3l-0.2-0.3l0.5,0l0.4-0.5l0.3-2.3
	l-0.7,0.2l-0.2-0.5l-1.3-0.3l0-0.8l-0.8-0.5l-0.1-0.4l0.8-0.4l0.4-0.5l-0.5-0.3l0.2-1l0.4-0.2l-0.1-0.3l-0.6-0.1l-0.1-1.4l-1.1,0.6
	l0-0.3l-0.5,0l-0.2-0.3l0-0.4l-1,0.1l-0.4-0.3l-0.2,0.2l-0.6-0.9l-0.6-0.3l-0.8,0.6l0.1-0.4l-0.8,0.3l-0.2-0.3l-0.2,0.7l-0.7-0.1
	l-0.3,0.5l-0.3-0.2l-0.6,0.8l-0.5-0.2l-1.3,1l-0.7,0.1l-0.4,0.5l-0.1-0.4l-0.4,0.1l-0.2-0.2l-0.1,0.4l-0.3-0.1l-0.5,0.4l0,0.3
	l-0.5-0.1l-0.4-0.6l-0.9,0.4l-0.9-0.5l-0.4,0.2l-0.5-0.3l-0.3,0.2l-0.7-0.2l0,0l-0.4-0.6l0.5-0.2l-0.1-0.5l0.9-0.8l0.4-1.1l-0.2-0.4
	l1.5-1.4l-0.2-0.4l0.4,0.1l-0.3-0.8l0.3-0.4l-0.2-0.9l0.4-0.6l-0.3,0.2l-0.8-0.6l-0.8,0.4l-0.6-0.3l-0.7-0.9l-0.8,0.4l-0.2-0.9
	l-0.3,0.1l-1.3-1l0-0.6l-0.3-0.1l0.1-0.8l-0.3-0.2l-0.1,0.2l-0.2-0.6l-0.3,0.5l-0.2-1l-0.6-0.4l0.3-0.3l-0.3-0.2l0.2-0.3l-0.3-0.2
	l-0.1-0.9l-0.3,0l0.4-0.4l-0.3,0l0.1-0.6l0.3,0l-0.2-0.8l0.5-0.7l-0.4-0.4l0.2-0.5l0.1-0.3l0.2,0.2l0.6-0.3l-0.5-1.2l0.2-0.4
	l0.4-0.1l0.4-0.6l1.3-0.3l0.2-0.3l-0.1-0.5l0.5-0.8l0.5-0.1l0.5,0.6l0-0.3L44.2,156.9L44.2,156.9z"/>
<path id="DE-SL_4_" class="st20" d="M43.7,180.6l0.7,0.2l0.3-0.2l0.5,0.3l0.4-0.2l0.9,0.5l0.9-0.4l0.4,0.6l0.5,0.1l0-0.3l0.5-0.4
	l0.3,0.1l0.1-0.4l0.2,0.2l0.4-0.1l0.1,0.4l0.4-0.5l0.7-0.1l1.3-1l0.5,0.2l0.6-0.8l0.3,0.2l0.3-0.5l0.7,0.1l0.2-0.7l0.2,0.3l0.8-0.3
	l-0.1,0.4l0.8-0.6l0.6,0.3l0.6,0.9l0.2-0.2l0.4,0.3l1-0.1l0,0.4l0.2,0.3l0.5,0l0,0.3l1.1-0.6l0.1,1.4l0.6,0.1l0.1,0.3l-0.4,0.2
	l-0.2,1l0.5,0.3l-0.4,0.5l-0.8,0.4l0.1,0.4l0.8,0.5l0,0.8l1.3,0.3l0.2,0.5l0.7-0.2l-0.3,2.3l-0.4,0.5l-0.5,0l0.2,0.3l-0.4,0.3l0,0.4
	l-0.3-0.3l-0.4,0.6l0.3,0.5l-0.1,0.5l1.3,1.4l0,0l0,0.5l-0.7,0l-0.6,0.9l-1-0.5l-1,0.4l-0.3-0.5l-0.5,0.3l-0.6-0.7l-0.4,0.1l0.2-0.4
	l-0.3-0.1l-0.3,0.2l0.2,0.5l-0.7,0.5l-0.6-1.7l0.1-0.6l-0.4,0.1l-0.8-0.7l-0.3,0.2l-0.7-0.6l-0.6,0.4l-0.6-0.4l-0.4,0.3l0.5,1
	l-0.5,0.8l-1.1-0.5l-0.8,0.1l-0.5-0.7l0.4-0.6l-0.1-0.4l-0.6,0.1l-0.1-1l-0.6-0.3l0.2-0.6l-1.1-0.7l-0.5-0.6l0.1-0.4l-0.5-0.4
	l-0.1-0.3l0.5,0.2l0.2-0.5l-0.4-0.1l0.1-0.5l-0.9-0.5l0.2-0.7l-2.4-1.6l-0.7,0.4l-0.5-0.2l-0.2-1.8L43.7,180.6L43.7,180.6z"/>
<path id="DE-SN_4_" class="st10" d="M160.7,132.9l-0.2-0.3l-0.9-0.1l-0.3-0.6l0.4,0l0-0.3l-0.9-0.3l0.3-1.3l-0.8,0l0-0.3l0.3,0
	l0.3-0.8l-0.1-0.7l-0.2-0.6l-0.5-0.3l0.1-0.6l-0.5-1.1l1-0.3l0-1.3l-0.4-0.4l0.3-0.1l-0.2-0.7l0.3-0.4l-0.2-0.4l-0.5,0l-0.2-0.9
	l0.5-0.2l0.1-0.4l0.6-0.3l-0.3-1l0.9-0.9l-0.1-0.3l1.2,0.1l1-0.6l-0.1-0.2l1.7,0.1l0.3-0.9l0.3,0.2l0.4-0.1l0.1,0.4l0.4-0.4l0.6,0.2
	l0.8-0.8l0.3,0.2l0.6-0.3l-0.3,0.5l1.1-0.6l0.6-1.1l1.6,0.6l1.5-1.2l0.4,0.3l0.1,0.6l0.5-0.3l0.1,0.6l0.6-0.1l0.3,0.4l0.1-0.4l0.4,0
	l-0.1-0.4l0.2,0l0,0l0.1,0l0,0l0-0.2l0.6,0.2l0.2,0.8l0.6-0.3l0,0l0.7,1.2l0.7-0.4l0.8,0.9l-0.3,0.8l0.8,0.4l0.4,1.1l-0.1,1l-0.3,0
	l0,0.5l0.4,0.8l-0.6,0.7l0.3,0.1l0.1-0.4l0.4,1.3l1,0.4l-0.1-0.5l0.5,0.1l0-0.4l0.8-0.5l-0.1-0.3l1.1,0.4l0-0.3l0.5-0.5l0.6,0.6
	l-0.1,0.4l0.5-0.3l0.5,0.4l-0.2,0.2l1.1,0.3l0.1,0.6l0.3,0l0.1,0.4l0.5-0.5l0.4,0l0.2,0.5l1.2,0l0.2-0.2l1.5,0.5l0.5-0.3l0.1,0.3
	l0.2-0.3l0.7,0l0.3-0.5l1.4,0.1l1-0.5l0.2,0.1l0,0.5l0.6,0.1l0.1-0.7l0.5,0L195,123l0.6-0.4l-0.2-0.5l0.5-0.3l-0.6-1l1.1,0l-0.3-0.5
	l0.4-0.2l0.2-0.7l0.7-0.1l-0.2-0.3l0.2-0.4l1.5,0.1l0.6,0.4l0.5-0.1l1.1,0.5l0,0l0,0.1l0,0l0.2,0.3l0.2-0.5l0.9-0.7l1.2,0l0.1-0.5
	l1.7-0.1l0.1-0.4l0.5-0.2l0.6,0.3l0.4,0.7l1.3-0.1l0.5-0.8l-0.1-0.6l0.7,0.5l0,0l-0.4,0.6l0.5,1.1l1.2,0.3l1.1,0.9l1.3,0.2l0.6,0.4
	l0.4,0.9l-0.3,1l0.2,1l0.3,0.2l-0.1,1l1.3,2.2l-1,3.5l0.1,1.2l-0.3,0.2l-0.1,1.3l-1,2.4l-0.3,0.1l0,0.6l-0.3,0.1l-0.2,1l-1.5,1.8
	l0.1,0.4l-0.6,1.5l-0.6,0l-0.5-0.3l-0.4,0.2l-0.3-0.6l-0.4,0.1l-1.4-0.6l0.3-1.2l0.3-0.2l0-0.8l-1.3,0.6l-0.3-0.2l0.7-2.1l-0.7-0.7
	l-0.6,0.2l-0.1-0.4l-0.6-0.2l0.1-0.8l-0.2,0.7l-0.7-0.4l-0.9,0.5l-0.5-0.3l-0.1-0.4l-0.4-0.2l-0.5,0.2l-0.7-0.5l-0.3,0.5h-0.3
	l0.2,0.4l-0.1,0.4l-0.4,0.2l0,0.7l0.5,0.3l0.8-0.2l0.1,0.4l-0.5,0.2l0.3,0.2l-0.1,0.2l1.7,0.6l-0.2,1.2l-0.7-0.1l0,0.3l-0.9,0.3
	l-0.7-0.3l-0.7,0.2l-0.2,0.9l-2.7,1.1l-0.2,0.4l-0.9,0.2l-0.8-0.5l-0.7,0.4l-0.3,0.5l-0.7-0.1l-0.3,0.8l0.2,0.8l-0.7,0.1l-0.1,0.5
	l-1.6-0.3l-0.7,0.3l-0.3-0.2l-0.4,0.5l-0.8-0.4l-1.2,0.7l-0.9-0.1l-0.6,0.3l0.3,0.9l-0.6,0.7l0.2,0.4l-0.6,0.3l-0.6,0.8l-1-0.4
	l-0.5-0.9l-0.4-0.1l0.1,0.7l-1,0.6l0,0.9l-0.6,0.2l-0.2-0.5l-0.6,0l-1,2.8l-1.1-0.1l-0.1-0.4l-0.9,0.6l-1.1-0.3l-0.2,1.9l-0.8,0.9
	l-0.8,0.2l0.1,0.3l-2.5-1.8l-0.2,0.9l-0.3-0.6l-1.2,0.5l-0.6,1.1l-0.7-0.6l-3.2,0.6l-0.5,0.8l0.1,0.7l-0.4-0.2l-0.5,0.4l-0.2,0.6
	l-0.6,0l0,0.9l-0.6,0.2l-0.4,0.7l0.1,0.6l-0.6,0l0.1,0.7l-0.2,0.4l0.3,0.5l-0.3,0.3l0.3,0.3l-0.9-0.1l-0.3-0.6l0.4-0.7l-1.1-0.8
	l0.1-0.4l0.4,0.2l-0.2-0.6l-1.1-0.1l0-1l-0.3-0.5l-1.7,0.1l0,0l-0.2-0.5l-0.9,0l0,0.2l-1-0.9l-0.4,0.1l0.1-1.2l-0.4-0.4l-0.3,0.1
	l0.1-0.4l-0.6-0.5l0,0l0.1-0.3l-0.6-0.1L153,153l0.7-0.4l0.3,0.3l-0.2-0.5l0.5-0.5l-0.7-0.7l0-0.5l-0.9,0.2l-0.4-0.6l0.3-0.5
	l0.9-0.1l-0.1-0.9l1.2-0.8l-0.1-0.4l0.4-0.4l0.4,0.3l-0.3,0.3l0.7,0.7l-0.4,0.8l0.2,0.5l0.5,0l0.4-0.2l0.1-0.6l0.4-0.1l0.4,0.3
	l0.8-0.3l0-0.2l-0.5,0l0.3-1.4l0.8,0.5l0.2-0.8l1.3,0.3l0-0.4l1-0.6l0.1-0.6l-1.2-0.3l-0.2-0.7l0.4-0.4l-0.1-0.3l-0.8,0l0.3-0.9
	l0.6,0.2l0.4-0.7l0-0.2l-0.7,0l-0.1-1l0.6,0.3l0.2-0.5l0.2,0.3l-0.1-0.4l0.2,0.3l0.8-0.1l0-0.4l0.5-0.5l0.6,0.2l0.3-0.3l0.1,0.6
	l0.4-0.1l0.1-0.7l0.8-0.9l0.5,0.1l-0.1-0.3l0.3-0.2l0.3,0.2l1.7-0.3l0.4,0.2l0.3-0.5l-0.6-0.6l-0.3-1.8l-0.6,0.3l-1-0.4l0.3-0.2
	l0-0.6l-0.5-0.1l-0.2,0.3l-0.1-1.4l-0.3-0.1l0,0l-0.3,0l0,0l-0.3-0.6l-0.9,0.3l-0.3-0.3l-0.6,0.1l-0.1-0.5l-0.4-0.2L160.7,132.9
	L160.7,132.9z"/>
<path id="DE-ST_4_" class="st10" d="M147.1,70.3l0.8-0.1l-0.3,0.9l1,0.1l0.3,1l0.9-0.4l0.9,0.9l1.2,0.3l0.1,0.4l-0.5,0.6l0.2,0.4
	l0.7,0l0.4,0.5l1.8,0.6l0.9-0.5l1.8,0.4l0.2-0.6l0,1.3l1.4-0.8l0.1,0.3l0.7,0.2l0.5,1.8l-0.2,0.5l-0.6,0.1l-0.2,1l0.3,0.5l-0.5,0.9
	l0.2-0.1l-0.1,0.3l0.4,0.2l-0.1,0.5l0.3,0.3l-0.1,1.4l0,0l0,0.3l0,0l-0.5,0.3l-0.6-0.2l0.2,1.7l-0.7,1.4l0.5-0.3l0.4,0.2l-0.5,0.6
	l0.4,0.6l0.6-0.2l0.5-0.7l0.5,0.7l-0.2,0.2l0.2,0.3l1.2-0.3l-0.4,0.3l0.4,0.3l-0.8,1.5l0.2,0.2l-0.5,0.3l0.5,0.3l-0.1,0.7l0.2,0.3
	l-0.4,0.4l0.5,0.6l-0.6,1l-0.6,2.1l0.5,0.4l-0.2,0.2l0.7,0.2l-1,0.5l0,0.9l-0.4,0l-0.2,0.5l0.9,1.2l0.3,0.9l0.7,0.4l0.9,1.4l0.6,0.1
	l0.9,0.9l0.3,0l0.2-0.6l0.4,0l0.2,0.6l0.9,0.4l0.1,0.5l1.4,0.1l0-0.3l0.6-0.1l0.2-0.6l0.3,0l1.7,0.8l0.5,0.8l1.3-0.2l0.1,1.1l0.7,0
	l0.1,0.2l0.6-0.4l0.8,0.1l0,0.4l0.4,0.1l0,0.7l1.4,0l-0.1,0.6l-0.2,0l0.3,0.3l0.8,0.1l0.8-0.4l0.4,0.1l0.3,0.6l-0.6,0.1l0.8,1.6
	l-0.3,1.2l0.3,0.5l-0.2,0.2l0.6,0.9l-0.6,0.2l0.2,0.6l-0.3,0.3l-1.9,1.2l0,0l-0.6,0.3l-0.2-0.8l-0.6-0.2l0,0.2l0,0l-0.1,0l0,0
	l-0.2,0l0.1,0.4l-0.4,0l-0.1,0.4l-0.3-0.4l-0.6,0.1l-0.1-0.6l-0.5,0.3l-0.1-0.6l-0.4-0.3l-1.5,1.2l-1.6-0.6l-0.6,1.1l-1.1,0.6
	l0.3-0.5l-0.6,0.3l-0.3-0.2l-0.8,0.8l-0.6-0.2l-0.4,0.4l-0.1-0.4l-0.4,0.1l-0.3-0.2l-0.3,0.9l-1.7-0.1l0.1,0.2l-1,0.6l-1.2-0.1
	l0.1,0.3l-0.9,0.9l0.3,1l-0.6,0.3l-0.1,0.4l-0.5,0.2l0.2,0.9l0.5,0l0.2,0.4l-0.3,0.4l0.2,0.7l-0.3,0.1l0.4,0.4l0,1.3l-1,0.3l0.5,1.1
	l-0.1,0.6l0.5,0.3l0.2,0.6l0.1,0.7l-0.3,0.8l-0.3,0l0,0.3l0.8,0l-0.3,1.3l0.9,0.3l0,0.3l-0.4,0l0.3,0.6l0.9,0.1l0.2,0.3l0,0
	l-0.7,1.6l0.7,0l0.1,0.6l-0.9,1.1l-0.3,0.7l0.2,0.2l-0.5,0.5l0-0.7l-0.5,0l-0.1-0.5l-0.4,0.5l-1.5-0.6l-1.5,0.3l-0.2-0.7l-0.7-0.1
	l0-0.9l-0.5-0.3l-0.6,0.2l-0.5-0.9l-1.8,0.2l-0.5-0.2l-0.3,0.4l-0.5-0.8l-0.6-0.1l0-0.7l-0.6-0.6l-0.6,0l-0.4,0.4l-0.2-0.4l-0.7-0.2
	l-0.6,0.5l-1.2,0l-0.5-0.4l0.1-0.5l-0.3-0.6l0.4-0.1l0.3-0.5l-0.3-0.1l0-0.7l-0.4,0l-0.2-0.5l-1,0.2l0-0.4l-0.5-0.1l0.3-0.8l0.3,0.3
	l0.4-0.2l0.8-1.5l0.3-0.2l-1.2-1.2l0.2-0.3l-0.6-0.1l-0.1-1.2l-1-0.1l-0.5-0.8l-1.4,0.4l0-0.3l-0.5-0.2L139,123l-1,0l-1.6-0.8
	l-0.2,0.3l-1.1,0.1l0.4-0.2l-0.9-0.2l-0.1-1l0,0l0-0.1l0,0l0.2-0.5l-0.9-1.2l0.4-0.5l-0.7-0.6l-0.3,0.1l0,0l0-0.2l0,0l-0.1-0.6l0,0
	H133l0,0l0.2-0.7l0.7,0.3l0.1-0.4l-0.4-0.2l0.1-0.2l-0.7,0.2l-0.6-0.7l-0.7,0.3l-0.1-0.5l-0.9-0.3l-0.2,0.2l-1.1,0l0,0l-0.6-0.8
	l0-1.3l-0.7-0.8l-0.1-0.7l-0.7-0.4l-0.3-1.4l0.3-0.8l-0.3-0.1l0.1-0.3l1.1-0.7l0.3-0.6l0-0.6l-0.7-0.4l0-0.6l0.8-0.6l-0.6,0
	l-0.3-0.6l-0.4,0.1l-0.5-1l0.6-0.3l0.1,0.3l0.5-0.1l0.6-0.6l-0.1-0.5l1-0.3l2.6,0.1l1.1-0.4l1.6,0.1l0.1-0.9l-0.6-0.3l0.1-0.3
	l0.7-0.1l1.2-0.9l0,0h0.2l0,0l0.3-1.2l-0.8-0.2l-0.1-0.7l0.3-0.4l0.9-0.3l0.2-0.3l-0.4-0.4l0,0h-0.2l0,0l-0.1-0.8l-0.5-0.1l-0.3-0.6
	l0.5-0.4l0,0l0-0.1l0,0l-1-1.2l1-0.1l0.6-0.4l0.1-0.6l-0.8-0.4l0,0l-0.2-0.2l0,0l-0.2,0.1l0-0.4l-1.6-2l0.2-1.1l0.6-0.2l0.4,0.2l0,0
	l0.2,0l0,0l-1.4-2.3l0-0.7l0.6-0.5l0.1-0.6l-1.1,0.5l-1.5-2.7l0,0v-0.1l0,0l-0.3-0.7l-0.6,0.1l-0.1-1.1l-0.7-1.2l0.2-1.9l2-0.4
	l0.3,0.3l0.3-0.3l0.9,0.1l0.9-1l0.1-0.8l0.3-0.1l1.9,0l0,0.5l1.1-0.2l1.3,0.2l0.4,0.6l1-0.3l0.1,0.5l0.4-0.1l1.8-0.9l1-1l0.9-0.2
	l-0.2-0.7l0.3-1.5l0.9,0.2l0.1-0.4L147.1,70.3L147.1,70.3z"/>
<path id="DE-SH_4_" class="st20" d="M89.7,36l-0.4,0.3l0.4,0l-0.2,0.5l-0.4-0.5l0.3-0.4L89.7,36L89.7,36z M85.4,23l0.4,0.1l-0.1,0.3
	l0.4,0.4l-0.6,0.5L85,23.8l-0.3-0.9l0.4-0.5L85.4,23z M136.9,20.3l1.7,0.3l1.2,0.6l1.7,3.5l-1.3-0.3l-1,0.2l0-0.2h0.7L139,24
	l-0.5,0.3l0.4,0.2l-0.2,0.2l-1.1,0l-0.5-0.2l0.1-0.8l-0.3-0.5l-0.4-0.1l-0.8,0.3l0.5,0.5l-0.8-0.5l0-1.4l0.4-0.9l0.6-0.8L136.9,20.3
	L136.9,20.3z M85.5,20.2l-0.3,1.3l-0.4-1.6L85.5,20.2z M92,19.6l0.4,0.2l-0.3,0.1l-0.6-0.3L92,19.6L92,19.6z M89.8,19.4l-0.1,1.1
	l-0.4,0.2l0.3,0.1L89.5,21l0.3,0.3l-0.3-0.3l-0.4,0.5l-1,0.1L87.5,21l0-0.7L89.8,19.4z M86.8,18.7l0.4,0.7l-0.5,0l-0.8-0.7
	L86.8,18.7L86.8,18.7z M90.4,16.6L90.2,17l-0.3-0.1l0.1-0.3L90.4,16.6z M88.9,16l-0.3,0.6l-1.2,0.2l-0.7,0.6l-0.4-0.3l0.2-0.4
	l1.9-0.5l0.5-0.5L88.9,16L88.9,16z M90.1,15.1l-0.2,0.5l-0.5-0.1l0.6-0.7L90.1,15.1z M83.4,16.6l0,0.3l0.4,0.1l-0.4,0.2l0.3,0.3
	l-0.8,0.1l-1.4-1.9l1.4-1.6l-0.4,0.8l0.5,1.3L83.4,16.6L83.4,16.6z M86.2,12.6l1.2,0.4l-0.1,0.6l0.3,0.4L87,15.3l-1.6,0l-1.7-0.7
	l-0.1-0.6l0.6-1L86.2,12.6L86.2,12.6z M84.5,2.5L85,2.7l-1.4,0L83.7,3l0.5,0.1l0.3,0.6l-1.2,0.6l-0.6,1l0.3,2.4l1.1,0.7l3.4-0.3
	l0.7-0.4V7.3l0.9,0l0.9,0.6l1,0.1l0.7-0.5l0.9,0.3l0.8-0.3l1,0.1l2,1l1.9,0l1.8,0.8l0.3,1.4l0.5-0.1l0.4,0.4l0.2-0.2l0.8,0.3
	l0.8-1.3l0.5-0.1l0.5,1.1l0,0.7l0.6-1.2l0.6,0l0.3-0.5l1.1-0.6l0.3-0.7l0.5,0l-0.4,1l0.3,0.6l3.7,1.2l1.2,1.5l0.5,0l0.4-0.6l0.2,0.3
	l0-1.2l1,0.6l0.6,2.1l1,1.1l-0.1,0.5l-0.1-0.7l-0.6,0.1l0.2,0.9l0.5-0.3l-0.4,0.3l0.4,0.1l-0.1,3.6l-1.2,1.6l-1.9,1l-0.7,0l0.6,0.9
	l0.9-0.1l0.4-0.3l-0.2,0l4-0.8l1.5,1l-0.6,0.7l0.4,1.5l-0.6,0.2l-0.1,0.6l-0.2,0l0.3,1.1l-0.5,0.9l0.6-0.7l0.4,0.1l-0.3-0.2l0.2-1
	l0.3-0.2l0-0.4l0.7-1.2l1.1-0.1l0.3-0.5l0.6-0.1l1.5,0.4l1.6,1.2l2.4,0.9l2.1,2l1.7-0.3l2.8-2.4l1.7,0.1l-0.8,0.1l0.9,0.3l1.1-0.3
	l0.2-0.5l0.5-0.2l-0.1,0.3l0.2-0.2l0.3,0.2l-0.1,0.5l-1,0.9l0-0.3l-0.4,0l0.1,0.3l0.2-0.1l0.4,5l-2.8,1.9l-1.6,1.9l-1-0.1l-0.2-0.6
	l-0.4,1.1l-0.8,0.9l0.7,1.7l1.7,0.2L133,39l0,0.7l0.4,0.1l0,0l-0.2,1.1l1.4,0.5l-1.1,0.3l-0.2-0.3l0.2-0.3l-0.6-0.3l-0.7,0.9
	l-0.6,0.1l-0.3,0.6l-0.6,0.1l-0.5,0.7l0.5,2l-0.2,0.8l0,0l-0.1,0.6l0,0l0.9,0.5l0.1,0.6l0.8,0.6l1.4,0.1l-0.1,0.3l0.4,0.2l0.2,1.2
	l-0.5,0.6l-0.4,1.9l-1.2,0.2l-0.2-0.4l-0.3,0.1l0.2,1.1l-0.4,0.7l0.2,0.2l-0.7,0.1l-0.6,0.9l-1.1,0.2l-0.2,0.7l-0.8-0.2l-0.4,0.2
	l-0.3,2.4l-0.4,0.6l0,0l-0.3,0.1l-1.6-0.5l-2.4-1.7l-0.9,0l-0.4-0.3l0,0l0.4-0.5l-0.7-0.1l-1-1l-0.6-1.3l-0.5,0.3l-0.5-0.3l-0.2-1.7
	l1-0.4l-0.2-0.9l0.6-0.7l-0.6-0.2l0.2-0.3l-0.3-0.5l-0.8-0.5l0.3-0.4l0-0.5L119,48l0.2-0.5l0-0.2l-0.5-0.3l-0.9,0.8l-0.8-0.2
	l-0.3,0.3l0.2,0.2l-0.3,0.9l-1.3-0.1l-0.4,1.2l-1.4-0.2l-0.3,1l-1.1,1.2l-0.7-0.3l-0.1-0.6l-0.5-0.2l0-0.5l-0.8,2.5l0,0l-1.1-0.3
	l-2.4-1.7l-0.9-2.6l-1.6-1.5l-1.2-2.5l-1-1.4l-2.1-0.9l-4.1,0.2l0,0l-0.3-0.6l-0.6-0.2l-1-1.2L93.3,39l-0.4-0.5l0.4-0.3l-0.4,0.3
	l-0.5-0.9l-0.6,0l1.5-0.7l0.8,0.2l-0.2,0.3l0.3,0l0-0.3l0.1,0.2l0.5-0.1l0.5-0.7l0-0.2l-0.5,0l0.4-0.2l-0.6-0.7l0.2-0.1l-0.3,0
	l-0.4-1.3l-0.6-0.1l-0.7,0.5l0.1-0.4l-0.1,0.4l-1-1.8l0.6-2l0-1.7l-0.3-0.3l-0.8,0.3l-0.8-0.4l-0.7,0.1l-0.6,0.8L88.6,29l-0.8-1.2
	l0.2,0.7l-0.4-0.4l0.4,0.6l-0.6-0.8l0.5-1.6l0.3-0.1L88,26.6l0.5,0.2l0.3-0.5l0.7-0.1l-0.3,0.1l0.3-0.6l-0.3,0.2l-0.4-0.2l-0.1,0.2
	l-0.9-0.2l0.2-0.7l4-0.9l1,0.2l1-0.7l0.8-1l0.8-0.2l0.1-0.5l0.6,0.2l0.3-0.2l-0.4,0.1l-0.5-0.2l0.1-0.6l-0.4-0.7L94.8,21l-0.6,1.4
	L94,22.3l0.2,0.1l-0.6,0.3l-1,0l-0.8-0.3l0.2-0.5l-0.2-0.4l1.4-1.2L93,19.2l0.2-1l0.2,0L93,18.1l0.2-0.4L92.9,18l-1,0l-0.1-0.2
	l0.9-0.5l-0.3,0.1L92,16.2l-1.4-0.9l-0.1-1l-1-0.5l-0.1-0.2l0.4-0.2l-0.3-1.1l-1.8-2.4l-0.1-1.5l-1.7,0L84,9.5l-0.7-0.4L83,8.5
	l-0.5-0.1l-0.1,0.5l-0.7,0.5l0,3.8l-0.4-0.3l0.3-5.5l1.9-4.9L84,2.3L84.5,2.5L84.5,2.5z"/>
<path id="DE-TH_4_" class="st10" d="M129.3,115.5l1.1,0l0.2-0.2l0.9,0.3l0.1,0.5l0.7-0.3l0.6,0.7l0.7-0.2l-0.1,0.2l0.4,0.2l-0.1,0.4
	l-0.7-0.3l-0.2,0.7l0,0h0.1l0,0l0.1,0.6l0,0l0,0.2l0,0l0.3-0.1l0.7,0.6l-0.4,0.5l0.9,1.2l-0.2,0.5l0,0l0,0.1l0,0l0.1,1l0.9,0.2
	l-0.4,0.2l1.1-0.1l0.2-0.3l1.6,0.8l1,0l0.6-0.3l0.5,0.2l0,0.3l1.4-0.4l0.5,0.8l1,0.1l0.1,1.2l0.6,0.1l-0.2,0.3l1.2,1.2l-0.3,0.2
	l-0.8,1.5l-0.4,0.2l-0.3-0.3l-0.3,0.8l0.5,0.1l0,0.4l1-0.2l0.2,0.5l0.4,0l0,0.7l0.3,0.1l-0.3,0.5l-0.4,0.1l0.3,0.6l-0.1,0.5l0.5,0.4
	l1.2,0l0.6-0.5l0.7,0.2l0.2,0.4l0.4-0.4l0.6,0l0.6,0.6l0,0.7l0.6,0.1l0.5,0.8l0.3-0.4l0.5,0.2l1.8-0.2l0.5,0.9l0.6-0.2l0.5,0.3
	l0,0.9l0.7,0.1l0.2,0.7l1.5-0.3l1.5,0.6l0.4-0.5l0.1,0.5l0.5,0l0,0.7l0.5-0.5l-0.2-0.2l0.3-0.7l0.9-1.1l-0.1-0.6l-0.7,0l0.7-1.6l0,0
	l1.1-0.4l0.4,0.2l0.1,0.5l0.6-0.1l0.3,0.3l0.9-0.3l0.3,0.6l0,0l0.3,0l0,0l0.3,0.1l0.1,1.4l0.2-0.3l0.5,0.1l0,0.6l-0.3,0.2l1,0.4
	l0.6-0.3l0.3,1.8l0.6,0.6l-0.3,0.5l-0.4-0.2l-1.7,0.3l-0.3-0.2l-0.3,0.2l0.1,0.3l-0.5-0.1l-0.8,0.9l-0.1,0.7l-0.4,0.1l-0.1-0.6
	l-0.3,0.3l-0.6-0.2l-0.5,0.5l0,0.4l-0.8,0.1l-0.2-0.3l0.1,0.4l-0.2-0.3l-0.2,0.5l-0.6-0.3l0.1,1l0.7,0l0,0.2l-0.4,0.7l-0.6-0.2
	l-0.3,0.9l0.8,0l0.1,0.3l-0.4,0.4l0.2,0.7l1.2,0.3l-0.1,0.6l-1,0.6l0,0.4l-1.3-0.3l-0.2,0.8l-0.8-0.5l-0.3,1.4l0.5,0l0,0.2l-0.8,0.3
	l-0.4-0.3l-0.4,0.1l-0.1,0.6l-0.4,0.2l-0.5,0l-0.2-0.5l0.4-0.8l-0.7-0.7l0.3-0.3l-0.4-0.3l-0.4,0.4l0.1,0.4l-1.2,0.8l0.1,0.9
	l-0.9,0.1l-0.3,0.5l0.4,0.6l0.9-0.2l0,0.5l0.7,0.7l-0.5,0.5l0.2,0.5l-0.3-0.3L153,153l0.1,0.4l0.6,0.1l-0.1,0.3l0,0l-2,1.1v-0.4
	l-0.9-0.5l-0.1,0.3l-0.4-0.1l0.2,0.3l-0.5-0.1l-0.5,0.4l-0.1-0.2l-1.7,0.5l-0.6-0.5l-0.4,0.1l-0.2,0.5l-0.8,0.3l0-0.7l-0.8-0.1
	l0.1-0.9l-0.4-0.1l-0.4,0.4l0.2-0.4l-0.6-0.4l0-1.5l0.3,0.1l0.1-0.2l-0.2-0.4l-1.7-0.3l0,0.3l-0.5,0.1l0,0.6l-0.4,0l-0.2,0.4
	l-0.1-0.3l-0.8,0.2l0,0.9l0.4,0.6l-0.2,0.9l0.5,1.2l-0.5,0.3l0.3,0.5l-0.3,0l0.2,1l-0.4,0.4l0.2,0.1l0,0h-0.1l0,0l-0.1,0.6l-1.1-0.8
	l-0.1,0.6l-0.3,0.1l0.1-0.3l-0.7-0.2l-0.3-0.4l0.5-0.9l-0.4-0.7l-0.4,0.1l-0.1-0.5l-0.5,0l-0.1,0.4l-0.8,0.2l-0.1-0.5l-0.9-0.2
	l0.1,0.5l-0.3,0l-1-1.4l-0.4,0.1l0,0l-0.1,0.1l0,0l-0.3,0.2l-0.3-0.5l-0.3,0.3l-0.6-0.1l-0.5,0.4L131,155l-0.6,0.8l-0.8-0.2
	l-0.1,0.6l0.3,0l-0.3,0.7l0.5,0.2l0.6,0.7l0.6,0l0.1,0.4l0,0h0.1l0,0l0.7,0.1l0,1l-0.5,0.2l-0.4-0.4l-0.6,0.3l-0.7-0.3l0,1.2
	l-0.3,0.2l-0.3-0.2l0,0h-0.1l0,0l-0.7-0.6l-0.6,0.2l-0.4-0.2l-0.2-0.5l0.3-0.1l-0.2-0.4l0.2-0.3l-0.3,0l0.3-0.7l-0.2-0.5l0.2-0.8
	l-0.8-0.1l-0.3-0.8l-0.2-0.1l-0.3,0.5l-0.1-0.3l-0.4,0.1l0-0.6l-0.2,0.1l0,0h-0.1l0,0l-0.4-0.9l-1.1,0.2l-0.2-0.5l0.4-0.5l-0.6-0.2
	l0.2-0.2l-0.3,0l-0.6-0.8l-0.1-0.9l-0.6,0l-0.9-0.6L120,151l0-0.6l-0.5-0.3l-0.1-0.4l-0.5,0.1l-0.1,0.3l-0.5-0.3l-0.2,0.3l-0.7-0.7
	l-0.7,0.9l0,0.3l-0.6,0.3l0,0l-0.1-0.4l0.4-0.8l-0.5-1.7l0.2-0.4l0.7,0l-0.6-1.5l-1.1-0.2l-0.9,0.3l-0.1,0.3l0.4,0.5l-0.2,0.4
	L113,147l0.1-0.9l0.9-0.7l-0.3-0.4l0.6-1l0-0.5l-0.3-0.1l0.1-0.5l0.5,0l-0.2-0.8l0.2-0.7l0.4-0.3l0,0l0.1,0l0,0l0.3,0.1l0.2-0.4
	l0.4,0.1l0.2-0.6l-0.3,0.1l0-0.5l0.7-0.5l0-0.2l-0.2,0l0.1-0.3l-0.8-0.7l-0.8,0.4l0.3-0.7l-0.5,0l-0.2,0.3l-0.1-0.6l1.2,0.2l0.2-0.3
	l0.1,0.2l0.7-0.2l-0.4-0.1l0-0.6l-0.4-0.4l0.4-1l1.3,0.3l0.3-0.2l0.5,0.6l1.1-0.5l-0.2-0.3l0.4-0.2l-0.2-0.3l-1.3-0.8l0.3-0.3
	l-0.2-0.5l0.6-1l-1.1-0.7l0.9-0.4l0.7,1.3l0.3-0.4l-0.2-0.8l0.7-1.1l-0.8-0.2l-0.6-0.6l-0.3,0.1l-0.2-0.4l-0.5,0.2l-0.9-0.4l0.2-0.5
	l-0.6-0.3l0.2-0.8l-1.6-0.2l-0.1-0.5l-0.6-0.2l0.2-0.4l-0.5-1.1l0.1-0.7l0,0l1.4-0.9l0.2-0.5l0.6,0l0.2-0.5l0.4,0.6l0.2-0.5l0.6,0.1
	l0,0h0.1l0,0l0.7,0l-0.2-0.4l0.6-0.1l0.3-0.6l-0.2-0.2l0.5-0.5l0.3,0.5l0.3,0l0.2-0.4l1-0.3l0.2-0.6l0.7-0.1l0.7-1.4l0,0v-0.2l0,0
	l-0.2-0.6l1.1-0.1l0,0h0.1l0,0l1.2,0.6l0.5,0.6l0.8-0.1l0.9-0.7l1,0.7l0.2-0.5l-0.5-0.3l-0.1-0.7l0.3,0l-0.2-0.4l0.9-0.3l-0.1-0.3
	L129.3,115.5L129.3,115.5z"/>
</svg>
