<?xml version="1.0" encoding="utf-8"?>
<!-- Generator: Adobe Illustrator 22.1.0, SVG Export Plug-In . SVG Version: 6.00 Build 0)  -->
<svg version="1.1" id="Capa_1" xmlns="http://www.w3.org/2000/svg" xmlns:xlink="http://www.w3.org/1999/xlink" x="0px" y="0px"
	 viewBox="0 0 250 250" style="enable-background:new 0 0 250 250;" xml:space="preserve">
<style type="text/css">
	.st0{fill:#F2F2F2;}
	.st1{fill:#2F6FB2;}
	.st2{fill:#3170B2;}
	.st3{fill:#F3F2F2;}
	.st4{fill:#2F6FB2;stroke:#FFFFFF;stroke-width:0.5;}
	.st5{fill:#F2F2F2;stroke:#FFFFFF;stroke-width:0.5;}
	.st6{fill:#F3F2F2;stroke:#FFFFFF;stroke-width:0.5;}
	.st7{fill:#F2F2F2;stroke:#FDFDFC;stroke-miterlimit:10;}
	.st8{fill:#F2F2F2;stroke:#FFFFFF;stroke-miterlimit:10;}
	.st9{fill:#2F6FB2;stroke:#FDFDFC;stroke-miterlimit:10;}
	.st10{fill:#2F6FB2;stroke:#FFFFFF;stroke-miterlimit:10;}
	.st11{fill:#F3F2F2;fill-opacity:0;stroke:#FFFFFF;}
	.st12{fill:#F3F2F2;fill-opacity:0;stroke:#FFFFFF;stroke-linecap:round;}
	.st13{fill:#F3F2F2;stroke:#FFFFFF;}
	.st14{fill:#F2F2F2;stroke:#FFFFFF;}
	.st15{fill:#2F6FB2;stroke:#FFFFFF;}
	.st16{fill:#F2F2F2;stroke:#F2F2F2;}
	.st17{fill:#2F6FB2;fill-opacity:0;stroke:#FFFFFF;}
	.st18{fill:#2F6FB2;stroke:#FFFFFF;stroke-width:0.25;stroke-miterlimit:10;}
	.st19{fill:#F3F2F2;stroke:#FFFFFF;stroke-width:0.25;stroke-miterlimit:10;}
	.st20{fill:#F3F2F2;stroke:#FFFFFF;stroke-miterlimit:10;}
	.st21{fill:#F3F2F2;stroke:#FFFEFE;stroke-width:0.5;stroke-miterlimit:10;}
	.st22{fill:#2F6FB2;stroke:#FFFEFE;stroke-width:0.5;stroke-miterlimit:10;}
	.st23{fill:#F2F2F2;stroke:#FFFEFE;stroke-width:0.5;stroke-miterlimit:10;}
	.st24{fill:#F3F2F2;stroke:#FFFFFF;stroke-width:0.732;}
	.st25{fill:#2F6FB2;stroke:#FFFFFF;stroke-width:0.732;}
	.st26{fill:#F3F2F2;stroke:#FFFFFF;stroke-width:0.75;stroke-miterlimit:10;}
	.st27{fill:#2F6FB2;stroke:#FFFFFF;stroke-width:0.75;stroke-miterlimit:10;}
</style>
<path id="Hei_Long_Jiang_5_" class="st25" d="M241.6,67.2c0.3-2.6,5.9,0.3,5.7-1.8c-0.3-3.4,0.5-1.6,0.5-3.5c0-1,1.3-2.7,0.9-4.1
	c-0.2-0.6,0-1.1-0.2-2.4c-0.2-0.9,0.4-1.4,0.1-2.2c-0.6-1.5,3.2-2.2,0.7-4.2c-0.7-0.6,0.5-2.6-0.5-2.8c-1.5-0.3-3.2,2.2-4.6,2.8
	c-1.9,0.7-2.2,2.8-2.6,2.9c-3.4,1.1-3.6,0.7-4.4,0.9c-1.9,0.5,0,1.4-2.4-1c-1-1.1-0.1-0.4-0.2-1.8c-0.1-1.6-1.2-0.2-1.1-2.3
	c0.1-1.7-0.9,0.9-3.8-1.9c-2-1.9-1.5,0.6-2.7-0.3c-2-1.6-2.5-0.1-4.7-0.3c-1.8-0.2-1.2-3-1.8-3.4c-1.1-0.7-0.3-0.8-1.5-2.7
	c-0.9-1.4-1.3-0.5-1.4-2.2c-0.1-0.5-0.6-0.8-0.8-1.3c-0.3-1.2-1.6-2.5-1.6-2.6c-0.1-0.4,0.1-1-0.1-1.4c-0.1-0.2-0.7,0.3-0.9-0.7
	c0-0.2-1.5-2.6-1.6-2.6c-1.4-0.7-2.6-2.5-4.2-1.4c-1.1,0.7-3.3-2.8-7.2-0.9c-0.7,0.3-1.9-0.1-2.2,0.3c-0.3,0.4-1.9,0.6-2.8,0.8
	c4.1,2.4-2.2,3.8,0.9,5.3c1.2,0.5,1.2,1.3,2.1-0.2c0.6-0.9,1.4,0.7,1.9,0.9c1.3,0.6-0.5-0.2,0.5,1.8c0.8,1.6,1.2,4.4,3.6,3.1
	c1.1-0.6,1.6,0,4-1c1.9-0.8-0.1-3.7,3.5-0.4c2.3,2.1,2,2.1-0.1,7.2c-0.8,2,1.7,4.9-0.9,5.9c-1,0.4,0,2.7-0.7,3.4
	c-0.3,0.3,1,1.9,0.2,2.3c-0.9,0.5-0.7-3.5-1.8-1.3c-1.1,2.1-4.9,5.2-5.4,6.3c-0.4,1.1,1.5,1.7,2,2.8c1.2,2.5,1.4-1.6,2.1,0
	c0.1,0.2,1-0.4,0.9,0.5c-0.2,1.1-3.4,0.4-1.6,2.7c0.1,0.1,0.1,0.2,0.1,0.3c0.5,0.1,1.1,0.1,1.6,0c2.7-0.7,1.1,0.9,2.4,2.5
	c2,2.7,3.1,0.4,4,1c1,0.7,1.6-1,2.4-0.7c0,0,1.4,2.6,2.7,1.5c1.4-1.1,3.5-0.6,3.3,0.7c-0.6,3,2.2,0.7,2.3,1.7c0.2,3,3,2.7,2.6,1.7
	c-0.5-1.3,0.7-3.2,1.2-1.5c0.6,1.9,0.7,1.6,1.6,3.1c1.2,2,2.3,0.9,2.1,0.4c-0.6-1.4,0.9-0.9,1.6-1.8c1.1-1.5,1.4,0.4,2-0.6
	c0.6-1.1,1,1.2,1.8,1.4c1.7,0.6,0.9,0.6,2.8,0.2c0-0.1,0-0.1-0.1-0.2c-0.7-2.2,0.7-2.2-2.4-7.2C239.4,68.7,241.5,67.8,241.6,67.2
	L241.6,67.2L241.6,67.2z"/>
<path id="Ji_Lin_5_" class="st25" d="M228.8,75.1c0.4,1-2.4,1.3-2.6-1.7c-0.1-1-2.9,1.3-2.3-1.7c0.3-1.3-1.9-1.8-3.3-0.7
	c-1.2,1-2.6-1.5-2.7-1.5c-0.8-0.2-1.4,1.4-2.4,0.7c-0.9-0.6-2,1.6-4-1c-1.3-1.7,0.3-3.2-2.4-2.5c-0.5,0.1-1.1,0.1-1.6,0
	c0,1.9-1.9,0.7-1,1.9c0.2,0.3,0.5,2.2-1.3,0.8c-0.9-0.8,0.3,1.1-1.7-0.3c-1.2-0.9-0.6,0.3-1.3,1.1c-0.5,0.6,0.9-0.3,1.1,0.8
	c0.1,0.7,1.7,1.1,0.9,2.3c-0.5,0.7,0.6,0.7,0.1,1.5c-0.4,0.6,1.2,2,1.4,3.2c0.1,0.9,1.1-0.4,2.6-1.4c1.4-0.9-0.3,0.1,1.1,0.9
	c0.6,0.3,0,0.7,1,1.9c0,0,0.6,1.4,0.3,1.6c-1.1,0.9-0.2,0.7,0.3,1.1c0.3,0.2,0.1,0,0.8,0.1c0.3-0.9,0.5-0.4,0.6-0.4
	c1,1,2.2,0.6,2.3,1.5c0.4,2.8,1.3,0,1.3,0c0.9-1.4,0.8-0.1,0.8,0.6c0,0.3,1.9,2.8,2.2,3.4c0.6,1.1,1.6-0.1,1,0.6
	c0,0-0.9,1.9-0.2,2.5c1,0.8,0.9,1.3,1.5,1.8c2.1,2.1-0.6,1.1,0.9,2.6c0.1-0.1,0.2-0.2,0.4-0.2c1-0.2,1.5-1.9,2.1-2.9
	c0.5-0.7,0.9-3.8,2.3-2.2c1.4,1.7,2.6,0.3,4.2,0.7c0.8,0.2,1.4-0.5,0.1-2.1c-0.3-0.3-0.8-1.4,0.1-1.5c4.8-0.8,3.4-3.2,4.4-3.3
	c0.9-0.1,0.1,0.5,1.1-0.2c0.7-0.5-0.4-1.3-0.1-2.1c0.1-0.2,0.5-1.2,0.7-1.2c0.2,0,2.9,2.3,2.9,2.4c0.1,0.1,0.2-0.7-0.5-1.1
	c-1.6-1,2.1-0.6,2-2.8c0-0.8,0.2-1.4,0-2.2c-1.9,0.4-1,0.4-2.8-0.2c-0.8-0.3-1.2-2.5-1.8-1.4c-0.6,1.1-0.9-0.9-2,0.6
	c-0.6,0.9-2.1,0.4-1.6,1.8c0.2,0.5-1,1.5-2.1-0.4c-0.9-1.5-1.1-1.2-1.6-3.1C229.5,71.9,228.4,73.8,228.8,75.1L228.8,75.1L228.8,75.1
	z"/>
<path id="Liao_Ning_5_" class="st25" d="M219.2,87.5c-0.3-0.6-2.2-3.1-2.2-3.4c0-0.7,0.1-2-0.8-0.6c0,0-0.9,2.7-1.3,0
	c-0.1-1-1.4-0.5-2.3-1.5c-0.1-0.1-0.3-0.5-0.6,0.4c0,4.4-0.8,0.2-1.8,3.2c-0.5,1.4-3.5-0.1-3.1,0.7c0.2,0.3,1.1,0.3-1.3,0.6
	c-1.2,0.2,0.2,1.7-1.8,1.4c-0.7-0.1-1,1.2-2.6,1.8c-2.1,0.7-2.7,3.9-3.2,3c-1.6-3.2-1-1.8-2.2-2.8c-0.3-0.3-2,0-1.1,1.1
	c0.7,0.8-0.1,1.2,0.6,3.4c0.1,0.3,0.6,0.5-0.5,1.1c0,0.5-0.1,0.7-0.5,1.2c-1.8,2.7-0.1,1.7,0.8,2.7c0.9,1,1.3-0.5,1.8,0.9
	c0.8,2.4,0.8,0.7,1.2,2.2c0.5-0.4,1-0.8,1.8-1.2c1.3-0.8,2.7-5.4,4.6-4.8c1.5,0.5,1-1.2,1.9-0.5c0.4,0.3,0,0.6,1,1.5
	c1.2,1.1,0.4,2.2-0.2,3.3c-0.5,1-2.4,1.8-1.7,2.6c0.3,0.4-2.1,1.3-0.4,1.8c0.5,0.2,1.9-0.3,1.2,0.5c-0.2,0.2,0.7,1.8,1.4,1l1.1-1.4
	c0.6-0.8,2.5-2.4,3.5-2.7c0.7-0.2,0.6-0.7,1.3-0.8c0.7,0,1.5-0.5,2.3-0.6c1.5-0.2,0.8-0.8,2-2.2c0.9-1,0.6-1.1,1.8-1.9
	c0.6-0.4,0-0.4,1.3-1.2c0.5-0.3,0.9-1,1.3-1.4c-1.5-1.4,1.2-0.5-0.9-2.6c-0.5-0.5-0.4-1.1-1.5-1.8c-0.8-0.6,0.2-2.5,0.2-2.5
	C220.8,87.4,219.8,88.6,219.2,87.5L219.2,87.5L219.2,87.5z M205,107.7c-1,1-0.5,0.1-0.5,1.3c0,0.6,0.5-0.1,0.9-0.2
	c0.3-0.1,1.4-0.7,1.4-0.7c0-0.2-0.3-0.6-0.4-0.7C206.4,107.4,205.2,107.5,205,107.7L205,107.7z M211.3,106.4c-0.4,0.1-0.3,0.6,0,0.6
	c0.2-0.2,1.3-0.6,0.2-0.6C211.5,106.4,211.4,106.4,211.3,106.4z M212.8,106.1c-0.1,0.2,0.1,0.6,0.5,0.2c0,0,0.1,0,0.1,0
	C213.3,106.1,212.8,106,212.8,106.1L212.8,106.1L212.8,106.1z M209.6,105.8c-0.8,0.7,0.2,1,0.2,0.1
	C209.8,105.8,209.6,105.8,209.6,105.8z M210.4,105.5c0.6,0.8,1.4,0,1,0c-1.1-0.1-1-0.4-1.4-0.3C209.9,105.3,210.3,105.5,210.4,105.5
	L210.4,105.5L210.4,105.5z M212,105.2c-0.4,0.3,0.9,0.4,0.5-0.2c0-0.1-0.2,0-0.2,0C212,105.1,212.6,104.7,212,105.2L212,105.2
	L212,105.2z M212.3,104c-0.2,0.1-0.2,0.8,0.2,0.5C212.5,104.5,212.5,104,212.3,104z M212.2,103.8c-0.8-0.4-0.6,0.6,0,0.2
	C212.2,103.9,212.2,103.8,212.2,103.8z M202.5,100c0,0,0.8-0.4-0.3-0.4c0,0,0,0,0,0C202.2,99.6,202,100.4,202.5,100z"/>
<path id="He_Bei_5_" class="st24" d="M195.3,99.8c-0.9-1-2.6,0-0.8-2.7c0.3-0.5,0.5-0.7,0.5-1.2l-0.4,0.1h-0.3l-0.5,0h-0.5l-0.2-0.2
	l-0.2,0.1l-0.3,0.1h-0.3l-0.5,0.1l-0.2,0.2h-0.4l-0.1-0.4v-0.4L191,95l-0.3-0.3l-0.5-0.2l-0.2-0.4l0-0.4l0.3-0.2l0.3-0.2l0.1-0.3
	l-0.5-0.3l-0.2-0.4l-0.3-0.3l-0.1-0.4l-0.3-0.3l-0.1-0.5l0-0.4l-0.2-0.3l-0.3-0.2l-0.2-0.3l-0.3-0.3l-0.4-0.1h-0.4l-0.4,0.1
	l-0.2,0.2l-0.2,0.2l-0.2,0.2L186,90h-0.6h-0.4l-0.2,0.3l-0.2,0.3l0,0.3l0.1,0.2l0.1,0.2v0.2l-0.1,0.2l-0.2,0.2l0.1,0.2l0.1,0.2
	l0.1,0.2l-0.2,0.3l-0.1,0.3l-0.4,0.1l-0.4,0.1l-0.4-0.1H183l-0.3-0.2l-0.2,0l-0.2,0.1l-0.1,0.2l-0.3,0.3l-0.3,0.3l-0.1,0.2l-0.2,0.1
	l-0.2,0.1l-0.4-0.2l-0.2-0.3l-0.2-0.3l-0.5,0.1l-0.4,0.4l-0.4,0.2l-0.4,0.4l-0.4,0.2l-0.3,0.3l-0.2,0.4l-0.2,0.4l-0.3,0.2h-0.5h-0.5
	l-0.2-0.6v-0.6l0.2-0.5l0.2-0.6l-0.3-0.3l-0.4-0.4l-0.3-0.2l-0.4-0.1l-0.4,0.4l-0.3,0.5l-0.3,0.4l-0.4,0.4l-0.2,0.3l-0.1,0.4
	l-0.1,0.4l-0.1,0.4l-0.2,0.4h-0.5l-0.2,0.5l0,0.6l-0.2,0.3l0.2,0.3l0.1,0.3l-0.1,0.3l-0.1,0.2l0,0.3l0.2,0.2l0.2,0.3l0.2,0.2
	l0.1,0.4c0.8,1.6,0.6,0.7,1.2,2.4c0.3,0.8,2.5-0.1-0.8,1.4c-2.1,1,1.2,1.5,1.4,2.1c0.8,3,1.1-0.8,0.3,3.3c-0.2,1.4-2.4,0.1-3,1.5
	c-0.2,0.4,1,0.9-0.2,1.7c-0.5,0.3-1.2,2.1,0.1,2.6c0.6,0.2,2.1,3,2.1,3c0,0.1-1.7,3.1-1.7,4.2c-0.1,1.5-2.3,0.3,0.3,3.2
	c0.4,0,5.3,1.2,5.3,1.2c0.8,0.5,0.6-1.6,1.7-0.3c0.4,0.5,0.5,0.1,1-0.2c0.2-0.7-2.4-2.1,0.4-3.6c1.2-0.7,0.8-2.7,2.3-3.2
	c0.5-0.2,0.4-1.2,0.9-1.1c0.5,0.1-0.3,1.2,1.6-1.3c0.6-0.8,2.9-0.1,3.2-1.1c0.3-1.2,0.1-0.4,0.9-1c0.3-0.2,0.2-0.4,0.4-0.7
	c-0.7-0.5,0.3,0.1-1.1-1.9c0-0.1-0.1-0.1-0.1-0.2c-2.3,0.3-5.3-1-3.5-2.3c1-0.7-0.2-0.6-0.2-3c-0.4-0.1-1-0.2-1.3,0.1
	c-2.2,1.8-0.2,0.3-2,0.2c-1.9-0.1,0,0.8-2.1,0c-1.5-0.6-0.3-0.8-0.5-1.5c-0.7-1.9-0.5-0.5,1.4-2.1c0.9-0.8-1.7-2.1,0.1-2.3
	c0.4-0.1,2-1.4,2-1.4c1.4-2.8,1.5,0.6,3,0.5c4.1-0.2-1,0.7,1.7,2.6c0.5,0,2,1.1,1.2,1.2c-1.3,0.2-0.3,2.2,0.7,2.4
	c1.4,0.2-0.4,0.7,0.6,1.2c0.2,0.1,0.2,0.2,0.3,0.4c0.1,0,0.2,0,0.4,0.1c2.3,1.6,0.6,1.2,2.5,0.1c0.3-0.2,1.3,0.6,2.4-0.9
	c0.7-1-0.2-2.1,2.5-4.3c-0.3-1.5-0.3,0.1-1.2-2.2C196.6,99.3,196.2,100.7,195.3,99.8L195.3,99.8L195.3,99.8z M187,105.2
	c0-0.6-0.5-0.1-0.4-1.3c-0.5,0-2.1-0.1-1.4,0.9c0.3,0.5,0.8,0.1,0.6,1c0,0.1,0,0.1,0,0.2C186.1,106,187.1,106.8,187,105.2L187,105.2
	L187,105.2z"/>
<path id="Shan_Dong_5_" class="st24" d="M183.4,126.3 M195.2,114.5c-1.1-1-0.8,0.8-2,0.2c-1.1-0.5-1.2,1.1-1.9,0.1
	c-0.2-0.2-0.3-0.4-0.6-0.6c-0.2-0.1-0.3-0.2-0.4-0.3c-0.2,0.3-0.1,0.5-0.4,0.7c-0.8,0.5-0.6-0.2-0.9,1c-0.3,1-2.6,0.3-3.2,1.1
	c-1.9,2.5-1.1,1.4-1.6,1.3c-0.5-0.1-0.4,1-0.9,1.1c-1.5,0.5-1,2.6-2.3,3.2c-2.9,1.5-0.3,2.9-0.4,3.6c0.4,0.7-0.4,1.2-0.5,1.4
	c-0.6,1.4,0.9,0.1,1,0.1c1.2-0.2,0.4-0.4,1.1-0.6c0.8-0.2,1.1-0.5,1.2-0.6c0,0,0,0.1-0.1,0.2c-0.3,1-2.9,2.3-2.9,2.8
	c-0.1,1.2-1.2,0.8-1.5,1.4c-0.2,0.6-1.9,2.1-0.5,2.1c2.3,0,0.9,0.2,1.7,0.5c2.4,0.9-1.4,1.8,4.4,1.6c0.6-0.4,0.4-0.3,0.7-0.6
	c0.5-0.4-0.3-1.4,0.7-1.5c1.1-0.1,0.8-0.6,1-0.4c0,0,0,0,0.1,0c-0.9-1-1.5-1.1-0.6-1.9c0.4-0.4,0.1,0.5,1.4,1.8l0.7,0.8
	c0.2,0.2,0.5,0.4,0.9,0.8c0.1,0.1,0.2,0.2,0.3,0.2c2,1.9,2.4-2.1,3.6-0.1c0.8,1.4,1.5,0.7,1.5,0.3c0.4-2.4,0.7-0.6,1.1-1.4
	c1.1-1.8-0.2-1.5,2.3-2.2c0.1,0,0.1-0.1,0.2-0.1c0.9-0.3,0.8-3,1.9-3.2c0.6-0.1,2-2,1.4-2.5c-0.9-0.9,0.9-1.5,0.8-0.3
	c-0.1,0.6,1.5-0.2,1.5-0.5c0.1-0.5-0.5-1.2,0.1-1.7c0.1-0.1,1.3,0.5,0.6-0.7c-0.2-0.4-1.4,0-0.3-0.3c1.5-0.4,3-1,4.2-2
	c0.5-0.4,1.3-0.5,1.7,0c0.4,0.6,1.7-0.5,0.9-0.9c-0.4-0.2,0.4-0.9,0.4-1.4c0-0.6,0.8-1.3-0.6-0.8c-1,0.4-1.5-0.9-2.1-0.3
	c-0.7,0.7-1.1,0.4-1.8,0.6c-0.6,0.1-0.4-0.7-1.4-0.6c-1,0.1-1.5-1.8-2.8-0.9c-0.7,0.5-1.4,0.4-1.7,1.3c-0.3,1-1.3,0.9-1.6,2.2
	c-0.5,1.9-5.5,0.8-4.2-0.7c0.3-0.3,0.5-1.6,0.2-1.7C195,115.5,196.3,115.5,195.2,114.5L195.2,114.5L195.2,114.5z M203.6,111.4
	c0,0-0.2,1,0.4,0.3C204.3,111.3,203.6,111.4,203.6,111.4z M203.5,112.1c-0.1,0-0.4-0.1-0.5,0C203,112.2,204,113,203.5,112.1z
	 M203.6,112.9c-0.9-0.5-1.8,1-0.5,0.3C203.3,113.1,203.8,113.1,203.6,112.9z M203.9,113.5c-0.1,0.1,0.2,0.7,0.4,0.2
	C204.4,113.3,203.9,113.5,203.9,113.5z M203.2,114.6c0.5,0.7,0.6-0.9-0.7-0.5c0,0,0,0.1,0,0.1C202.4,114.6,202.9,114.1,203.2,114.6
	L203.2,114.6L203.2,114.6z"/>
<path id="_40567464_5_" class="st24" d="M206.3,152.3 M196,133c-0.5,0.8-0.8-0.9-1.1,1.4c-0.1,0.4-0.7,1.1-1.5-0.3
	c-1.2-1.9-1.6,2.1-3.6,0.1l-0.3-0.2c0.4,1.1-0.4,1.2-0.6,0.7c0-0.2-1.1-1.7-1.1-1.7l-0.2-0.1c-0.1,0-0.3-0.2-0.6-0.4c0,0,0,0-0.1,0
	c-0.3-0.2,0,0.3-1,0.4c-1,0.1-0.2,1.1-0.7,1.5c2.2,1.6,1.9,0.3,3.4,2.4c1.1,1.5,2.4-0.6,3.3,2.1c0.3,0.8,3.1-1.8,1.3,2.3
	c-0.7,1.6,0.8,0.9,1.2,0.7c-0.8-0.5,0.5-0.2,0.9-0.5c0.8-0.6,1.5,0.2,0.8-0.4c-0.4-0.3-1.1-2-0.1-1.7c0.2,0.1,0.3,0.2,0.3,0.4
	c0.4,1.1,1.6,0.8,1.2,1.8c-0.8,1.9-1.1,1.2-1.1,1.2c-0.3,0-0.6,0.8-0.8,0.2c-0.1-0.3-0.1-0.4-0.1-0.5c-0.1,0-0.1-0.1-0.2-0.1
	c-0.2-0.1-0.4-0.2-0.5-0.3c0.2,0.8-0.1,3.4,2.1,2.3c0.4-0.2,1.3-2.9,2.5-0.3c0.3,0.7,0.3,1.9-1,1.3c-0.7-0.3-2.7-0.5-1.3,0.5
	c1.4,1.1-1.1,1.6-1.2,1.9c-0.1,2.9,3.9,2.1,2.3,4.1c-1.1,1.3,2.3,0.1,2.7,0.4c0.5,0.4,0.8,0.4,1.5,0.4c0.3-0.3,0.6-0.3,1.2-0.3
	c0-1.7,1.7-2.2,2.4-1.7c0.3,0.2-0.6-0.1-0.1,0.4c0.4,0.4-0.6,0.2,0,0.6c0.9,0.5,0.1,0.4,0.3,0.7c0.1,0.1,0.2,0.1,0.2,0.1
	c0,0-0.1,0-0.3,0.2c0,0,0,0,0,0c0.1,0.1,0.1,0.4,0.1,1l0,0.2l0.3,0.4h0.3c0.3-0.5,0.8-0.6,0.9-1.1c0.4-0.2,0.4-0.4,0.8-0.5l0-0.5
	c1.2-0.7,0.2-1.7,1.4-2.2l0.4-0.3c-0.3-0.4-0.1-0.6-2.5-1.1c-1-0.2-0.7-2.6-2.5-0.8c-0.2,0.2-1.3,0.3-1.3,0.2c0.1-0.2,0.8-0.3,1-0.5
	c2-1.8,2.6,1.1,3.7,0.5c1.8-1,4.3,1.9,3.7-0.2c-0.6-2-2.8-0.9-3-2.5c-0.1-1.4-2.2-0.3-2.3-2.7c-0.1-1-2.3-4.1-2.7-5.7
	c0,0-1.1-2.4-1.9-2.5c-1.7-0.2-3.6-1.7-4.1-1.8c-0.7,0-0.8-1.3-0.4-1.7C195.8,131.5,197.1,131.2,196,133L196,133L196,133z"/>
<path id="Zhe_Jiang_5_" class="st24" d="M214.1,162.2 M216.5,153.7c0.1,0.4,0.8-0.2-0.3-0.7c-0.1,0.1-0.2,0.1-0.2,0.2
	C216,153.7,216.3,153.6,216.5,153.7C216.6,153.7,216.5,153.6,216.5,153.7L216.5,153.7L216.5,153.7z M217,152.4
	c-0.3,0-0.1,0.4,0.5,0.3c0-0.1,0-0.5-0.2-0.5C217.2,152.3,217.1,152.4,217,152.4L217,152.4L217,152.4z M217.9,153
	c-0.7,0.2,0,0.4,0.4,0.3C218.4,153.1,217.9,153,217.9,153z M218.7,154.5c-0.4,0.5,0.6,0.2,0.2-0.2
	C218.8,154.3,218.7,154.5,218.7,154.5z M218.1,156.3l0.1,0.5C218.4,156.8,218.5,156.3,218.1,156.3z M217.5,156
	c-0.2,0.3,0.4,0.3,0.6,0.2C218,156,217.5,155.9,217.5,156z M215.5,155.1c0.1,0.1,1.1,0,1.1-0.1c0,0-0.6-0.1-0.6-0.5
	c-0.2,0-0.4,0-0.5,0.1C215.5,154.6,215.4,155,215.5,155.1L215.5,155.1L215.5,155.1z M214.2,156.3c0.1,0.1,0.1-0.4,0.1-0.4l-0.3-0.1
	C213.9,155.9,213.9,156.4,214.2,156.3L214.2,156.3z M215.2,155.6c-0.9,0-0.4,1.3,1.3,0.6c0-0.1-0.4-0.6-0.3-0.3
	c-0.2,0.3-0.4,0-0.6-0.2C215.4,155.6,215.3,155.6,215.2,155.6L215.2,155.6L215.2,155.6z M214.6,157.6c0.8,0,0.9,0.4,1.6,0.4
	c1.6,0.1-1.1-1.4-1.4-1.4C214.4,156.5,213.6,157.7,214.6,157.6L214.6,157.6z M215.7,159.5c0.3-0.1,0.9-0.2,0.3-0.4
	c0-0.3,0.3-0.1,0.3-0.5c0-0.2-0.3-0.3-0.4-0.2c-0.1,0.1-0.1,0.6-0.4,0.6c-0.6,0.1-0.3,0.1,0,0.5
	C215.7,159.8,215.5,159.6,215.7,159.5L215.7,159.5L215.7,159.5z M215.6,161c0.9,0.2,0.3-0.7,0.1-0.5c-0.1,0.1,0,0.2,0,0.3
	C215.6,160.9,215.6,161,215.6,161L215.6,161z M215.1,162.1c-0.3,0.3,0.3,0.8,0.3,0.4C215.4,162.3,215.2,161.9,215.1,162.1z
	 M214.2,163.1c1,0.7,1-0.4,0.4-0.3c-0.1,0-0.1,0-0.1,0C214.4,162.9,214.2,163,214.2,163.1L214.2,163.1L214.2,163.1z M214.3,165
	c-0.4,0.3,0.5,0.6,0.4,0.3C214.5,165,214.5,165,214.3,165z M214.8,166.2c0,0.4,0.5,1.9,0.7,0.7c0-0.4,0-0.6-0.4-0.8L214.8,166.2
	L214.8,166.2L214.8,166.2z M213.6,167.6c-0.2,0.8,0.7,0.4,0.3,0C213.9,167.6,213.7,167.6,213.6,167.6z M211.4,169.7
	c0.1,0.2,1.4,0.5,0.8-0.6c-0.1,0-0.1,0-0.2,0.1L211.4,169.7L211.4,169.7L211.4,169.7z M211.2,170.6c0.1-0.3,0.2-0.6-0.3-0.5
	C210.9,170.3,211.1,170.5,211.2,170.6z M211.9,170.2c-0.2,0.1-0.1,0.2-0.4,0.2c-0.6,0,0.7,1,0.6,0
	C212.2,170.4,212.1,170.2,211.9,170.2L211.9,170.2L211.9,170.2z M206,152.5 M205.9,150.5c-0.7-0.5-2.4,0-2.4,1.7
	c-0.7,0-0.9,0-1.2,0.3l0,0.2l0,0.2l0,0.2l-0.2,0.3l-0.1,0.2L202,154v0.2l-0.1,0.3l-0.1,0.2l-0.1,0.2l-0.1,0.3l-0.2,0.2l-0.3,0.1
	l-0.3,0.1l-0.2,0.2l-0.2,0.2l0.3,0.2l0.1,0.1l0.2,0.2l0.2,0.2l0,0.2l-0.1,0.2l-0.2,0.2l-0.1,0.2l-0.3,0.2l-0.3,0l-0.2-0.1l-0.3-0.2
	l-0.2,0l-0.3,0.1l-0.2,0.2l-0.2,0.2l0,0.2l0,0.3l0,0.1l0.1,0.3l0.1,0.2l0.1,0.2l0,0.1l0,0.2l0,0.3l-0.1,0.1L199,160l-0.1,0.1l0,0.2
	l-0.1,0.1l-0.1,0.1l-0.1,0.1l-0.1,0.2l-0.1,0.1l-0.1,0.2l-0.2,0.2l-0.1,0.2l-0.2,0.2l-0.2,0.2l-0.2,0.2l-0.2,0.2l-0.2,0.2l-0.2,0.1
	l-0.2,0.1l-0.2,0.1l-0.2,0.1l-0.2,0.1l-0.2,0c0,0.5-0.6,1.1-0.6,1.1c-0.5,1.2,2.2,2,2.4,4.2c0.1,0.6,0.2,0.9,0.3,1
	c0.5,0.5,1.4-1,1.5,1.4c0,1,0.9,1.7,0.9,2.8c0,0.8,0.8,0,1.3,0.3c0.9,0.6,1.9-2,2.4-1.2c1.1,1.7,0.5,1.8,2.6,1
	c0.8-0.3,1.3,0.4,1.8,0.9c1-0.3,0.4-2.1,0.5-2.3c0.3-0.8,1.4-1.6,0.2-2.1c-2.1-0.9,1.2,0.1,1.5-0.7c0.3-0.9,0.7-0.5,0.2-1.3
	c-0.3-0.5,0.6-0.8,1.2,0.2c0.5,0.8,0.5-0.9,1.4-0.9c0.3,0,0.8,0.3-0.2-1.1c-1-1.3-2.2-0.8-0.1-1.1c0.6-0.1,0.8-0.7,0.1-0.9
	c-1.8-0.5,2.3,0.4-0.7-1.2c-0.4-0.2,0.3-0.7,0.4-1c0.3-0.5,0.5,1.4,1,0.4c0-0.1,0.1-0.2,0.1-0.3c0,0.1,0,0.1,0,0.2
	c0,0.2,0.9,0.7,0.6-0.8c-0.5-2.6-0.1-1.4-1.5-0.7c-0.1,0-1.4,1.1-1.2,0.2c0,0,0.8-0.2,2-1.5c1-1.1,1.4-0.7-0.8-1.3
	c-1.7-0.5-1.7-2.8-3.7-0.9c-1.8,1.7-1.2-1.3-3.3,0.1c-1.3,0.8,0.1-0.9,1.5-0.8c2.1,0.1,0.9-0.6,2.1-1.5c0.4-0.3,0.7-0.6,1-0.9
	c-0.4,0-0.4,0-0.6-0.3c-0.4,0-0.4,0-0.5-0.2l-0.4,0c-0.5-0.5,0.3-0.8-0.7-1c-0.4,0.1-0.4,0.3-0.8,0.5c-0.1,0.5-0.6,0.6-0.9,1.1h-0.3
	l-0.3-0.4l0-0.2c0-0.6,0-0.9-0.1-1c0,0,0,0,0,0l0,0c0.1,0,0.1-0.1,0.1-0.1c0,0,0,0,0,0c0,0,0.1,0,0.1,0c0,0-0.1,0-0.2-0.1
	c-0.2-0.3,0.6-0.2-0.3-0.7c-0.6-0.3,0.4-0.1,0-0.6C205.3,150.4,206.2,150.7,205.9,150.5L205.9,150.5L205.9,150.5z"/>
<path id="An_Hui_5_" class="st24" d="M199,158l0-0.2l0.2-0.2l0.2-0.2l0.3-0.1l0.2,0l0.3,0.2l0.2,0.1l0.3,0l0.3-0.2l0.1-0.2l0.2-0.2
	l0.1-0.2l0-0.2l-0.2-0.2l-0.2-0.2l-0.1-0.1l-0.3-0.2l0.2-0.2l0.2-0.2l0.3-0.1l0.3-0.1l0.2-0.2l0.1-0.3l0.1-0.2l0.1-0.2l0.1-0.3V154
	l0.1-0.3l0.1-0.2l0.2-0.3l0-0.2l0-0.2l0-0.2c-0.7,0-0.9,0-1.5-0.4c-0.4-0.3-3.8,0.9-2.7-0.4c1.6-2-2.4-1.2-2.3-4.1
	c0-0.3,2.6-0.9,1.2-1.9c-1.4-1,0.6-0.9,1.3-0.5c1.3,0.6,1.4-0.6,1-1.3c-1.2-2.6-2.1,0.1-2.5,0.3c-2.1,1.1-1.8-1.5-2.1-2.3
	c-0.1,0-0.1-0.1-0.2-0.1c-0.4,0.2-1.9,0.9-1.2-0.7c1.7-4-1.1-1.5-1.3-2.3c-0.9-2.6-2.2-0.6-3.3-2.1c-1.5-2.1-1.2-0.8-3.4-2.4
	c-0.4,0.3-0.1,0.2-0.7,0.6c-0.1,2.4,1.6,0.7,1.8,2.1c0.2,1.6,1.4,0.6-0.9,2.3c-1.8,1.3-1.4-2.3-3.2-1.5c-1.5,0.7,1.1,2.5-1,2.9
	c-1.4,0.3,1.1,2.6-1.6,2.6c-0.3,0-1.2-0.6-0.7,0.6c0.3,0.7,1.3,0.1,1.4,1.5c0.1,1.3,0.5,0.1,1.6,1.4c1,1.2,1.5-2.5,2.2,1.8
	c0.6,3.5-1.9,0.3-2.5,4.4c0.3,0.1,0.7,0.4,0.9,0.8c0.2,0.3,1.1,0,1.9,0.6c1.2,0.9,0.4,0.2-0.5,1.8c-0.3,0.6,0.5,1.4,0.6,2.2
	c0.2,1.3,0.3-0.7,1.1,2.4c0.1,0.4,0.2,0.6,0.3,0.7c0.7,0.6,2-1.7,2.7-1.4c2,0.8-0.4,1-0.2,2.3c0.2,1,2.4-0.5,2-1.1
	c-0.2-0.3,0.5-0.9,0.7-0.5c0.2,0.3-0.1,0.3,0.4,0.2c1.4-0.1-0.4,1.5,2.7,1.5c1.2,0,1.6,0.3,1.7,0.6l0.2,0l0.2-0.1l0.2-0.1l0.2-0.1
	l0.2-0.1l0.2-0.1l0.2-0.2l0.2-0.2l0.2-0.2l0.2-0.2l0.2-0.2l0.1-0.2l0.2-0.2l0.1-0.2l0.1-0.1l0.1-0.2l0.1-0.1l0.1-0.1l0.1-0.1l0-0.2
	l0.1-0.1l0.1-0.2l0.1-0.1l0-0.3l0-0.2l0-0.1l-0.1-0.2l-0.1-0.2l-0.1-0.3l0-0.1L199,158L199,158L199,158z"/>
<path id="He_Nan_5_" class="st24" d="M184.2,148.6c-0.7-4.3-1.2-0.6-2.2-1.8c-1.1-1.3-1.5-0.1-1.6-1.4c-0.1-1.3-1.1-0.8-1.4-1.5
	c-0.5-1.2,0.3-0.6,0.7-0.6c2.7,0,0.2-2.3,1.6-2.6c2.1-0.4-0.5-2.2,1-2.9c1.8-0.8,1.5,2.8,3.2,1.5c2.3-1.7,1.1-0.7,0.9-2.3
	c-0.1-1.4-1.8,0.2-1.8-2.1c-5.9,0.2-2.1-0.7-4.4-1.6c-0.8-0.3,0.6-0.5-1.7-0.5c-1.4,0,0.3-1.5,0.5-2.1c0.3-0.6,1.4-0.2,1.5-1.4
	c0-0.6,2.7-1.8,2.9-2.8c0,0,0,0,0,0c0,0,0-0.1,0-0.1c0,0,0,0,0,0c-0.1,0.1-0.4,0.5-1.2,0.6c-0.8,0.2,0,0.4-1.1,0.6
	c-0.1,0-1.6,1.3-1-0.1c0.1-0.2,1-0.7,0.5-1.4c-0.5,0.3-0.6,0.7-1,0.2c-1-1.2-0.8,0.8-1.7,0.3c0,0-4.9-1.1-5.3-1.2
	c-0.4,3.6-0.1,4.8-3,5.8c-1.9,0.6,1.2,0.5-3.2,0.6c-2.5,0.1,0,0.3-1.8,0.9c-2.6,0.7,0.1,1.2-3.2,1.7c-1.3,0.2-0.8,0.7-3.9,1.3
	c-0.1,0-0.2,0.1-0.3,0.1c0.6,0.7,0.6,1.7,0.9,2c0.2,0.2,0.9,1.4,0.6,1.7c-0.1,0.1,0.3,0.3,0.7,0.9c0.9,1.5,0.8-0.6,0.8,2.3
	c0,0.1,0,0.1,0,0.2l0,0c0.2,0.4,0.8,0.4,1.2,1.7c0.2,0.6,1.4,2,2.1,2c1.1,0,2.5,1.8,3.5,1.3c1.1-0.5,1.2,0.2,2.3-0.2
	c2-0.8,1.7,1.3,3.6-0.1c1.1-0.9,0.5,1.7,0.6,1.9c0.2,0.3,0.6,0.9,0.9,1.1c0.9,0.6-0.1,0.6,1.3,0.1c0.1,0,2,0.5,2,0.6
	c0.2,0.9,0.5,0.8,1.3,1.2c1.1,0.5,1.6-2.1,1.9,0.2c0,0.1,0.3,0.1,0.6,0.3C182.2,148.8,184.7,152.1,184.2,148.6L184.2,148.6
	L184.2,148.6z"/>
<path id="Shan1_Xi_5_" class="st24" d="M169.7,131.3c3-1,2.6-2.3,3-5.8c-2.6-2.9-0.4-1.6-0.3-3.2c0-1.1,1.7-4,1.7-4.2
	c0,0-1.6-2.8-2.1-3c-1.3-0.5-0.6-2.3-0.1-2.6c1.2-0.8,0-1.3,0.2-1.7c0.6-1.4,2.7-0.2,3-1.5c0.7-4.1,0.5-0.4-0.3-3.3
	c-0.2-0.6-3.5-1.2-1.4-2.1c3.3-1.5,1.1-0.6,0.8-1.4c-0.6-1.7-0.3-0.8-1.2-2.4c0.3,2.6-0.7,1.4-1.7,2.7c-0.8,0.9-2.3-0.3-3,0.7
	c-1,1.3-2.3-0.9-3.2,1c-0.3,0.6-0.7,2.2-0.9,2.8c-0.3,1-1.2-0.7-2.4,0.6c-1,1.1-0.5,0.3-1.4,0.6c0,1.3,1.1,0.1-0.3,2.6
	c-0.4,0.7,0,2.5-1.7,3.7c-0.7,0.4-0.4,1.9,0,2.4c1.8,2.3-0.1,1.6,0.3,3.1c0.2,0.7-1.8,1.3-0.8,4.6c0.3,1.1-0.6,2.5,0.3,3.6
	c1.2,1.5-2.6,5.9-1.1,7.2c0.1,0.1,0.2,0.2,0.3,0.3c0.1,0,0.2-0.1,0.3-0.1c3.1-0.6,2.6-1.1,3.9-1.3c3.3-0.5,0.6-0.9,3.2-1.7
	c1.9-0.5-0.7-0.8,1.8-0.9C170.9,131.8,167.8,131.9,169.7,131.3L169.7,131.3z"/>
<path id="Shan3_Xi_5_" class="st24" d="M151.4,116.3 M157.1,135.6c-1.6-1.3,2.3-5.7,1.1-7.2c-0.8-1,0-2.5-0.3-3.6
	c-1-3.4,1-3.9,0.8-4.6c-0.4-1.5,1.5-0.9-0.3-3.1c-0.4-0.5-0.7-2,0-2.4c1.8-1.1,1.3-2.9,1.7-3.7c1.4-2.5,0.3-1.3,0.3-2.6
	c0.4-1.3-0.9-0.7-1.6,0.5c-0.5,0.8,0-0.3-1.4-0.1c-0.1,0-1.6-0.8-1.5-0.2c0,0.1,1.3,0.7,0,0.9c-0.9,0.1,0.2-0.5-1.4,1.1
	c-0.5,0.5,0.4,0.5-1.2,1.3c-0.1,0.1-2.8,3-2.4,3.8c0.2,0.4,0.4,0.6,0.5,0.7c-0.1-0.1-0.4-0.1-0.9,0c-0.9,0.2,1.3,2.8-1.6,1.8
	c-1-0.3-0.1,1.1-2.4-0.4c-0.5-0.3-0.8-0.5-1.2-0.4c-0.3,0.1-0.7,0.4-1.1,1c-0.7,0.9-0.5,1.9-0.6,2.9c-0.2,2.1,0.6,0.8,3.2,2.7
	c2.2,1.6,3.8,0.9,3,3.6c-0.5,1.4-1.7-0.1-0.5,3c0.8,2.1-4.6,0.4-4.3,1.5c0,0.1,1.9,1.7-1.7,1.7c-1.2,0-2-2-3.6-1
	c-1.1,0.7,0.8,0.6-0.4,1.9c-1.7,1.8,1,0.8,1.2,2.1c0.1,0.5-1.4-0.4-1.4,2.5c0,2.1,2.5,1.8-1.2,1.7c-0.8,0-0.7-0.9-2.4,1.1
	c0.2,0.5,2.4,2.1,0.1,2.6c-0.7,0.2-1.4-0.5-1.4,0.7c0.1-0.1,0.2,0.1,0.7,0.6c0.1,0.1,2.1-1.7,2.4-0.1c0.3,1.3,4-0.5,4.3,0.7
	c0.5,2,1.7,0.3,1.8,0.9c0.2,0.7,0.8,0.3,1.4,1c0.9,1,0.8,0.6,1.5,0.3c0.3-0.1,0.9-0.1,1.4,0.1c3.2,1.1,1.2,1.1,2.7,1.5
	c0.8,0.2,0.6,0.2,0.8,0.5c0.9,1.2,1.9,0.8,2.5,0.9c0.1-1.6-0.8-0.8-0.1-1.9c0.4-0.7-1.4-1.2,0-2.8c0.5-0.6,2.9,0.5,2.8-0.8
	c-0.1-1.5-1.6-0.6-1.7-1.6c-0.2-1.2-1.6-0.9-1.7-1.1c-0.3-0.8,3-0.3,3.3-0.2c2.6,0.5,0.9-1,2,0.2c0.6,0.7,1.2-0.3,1.9-0.5l0,0
	c0-0.1,0-0.1,0-0.2c-0.1-2.9,0.1-0.9-0.8-2.3c-0.4-0.7-0.8-0.8-0.7-0.9c0.3-0.3-0.4-1.5-0.6-1.7c-0.3-0.2-0.3-1.2-0.9-2
	C157.3,135.8,157.2,135.7,157.1,135.6L157.1,135.6L157.1,135.6z"/>
<path id="Gan_Su_5_" class="st24" d="M139.1,131.3c-0.2,0-2-1.7-2-1.7c-1.6-0.5,0.6-0.2-1.5-1c-2.1-0.8,0-2.2,0-2.5
	c0.1-2-2.2-1.6-0.7-3.2c0.5-0.5-1.4-1.4-1.8-2.4c-0.3-0.7-1.9,0-1-0.6c0.8-0.5-0.2-1-0.8-1.1c-2.5,0.1-2.3-0.8-4.1-2.1
	c-0.2-0.2-0.6-0.3-0.7-0.6c-0.5-1.1,1.1-1.6,0.6-2.7c-0.3-0.7,1.4-0.3,2.9-2.6c1.1-1.9,0.1-1,0-2.7c-0.1-2-4.4,1.6-5.4,1.1
	c-1.8-1-2-0.5-2.6-0.5c-3,0.1-0.2,1-0.7,1.5c-1.5,1.6-1.2,1.9-4-0.6c-0.9-0.8-1.5,0-1.1-1.2c0.5-1.7-0.7-1.4-1.5-2.2
	c-0.3-0.4-0.5-0.2-0.6-0.7c-0.1-0.4-0.9-0.8-1.3-1.1c-2.2-1.7-3.6,0.6,0.5-3.3c2.5-2.4,0.4-3.5-3.1-3c-4.3,0.5-2.2,0.2-2.7,1.4
	c-0.2,0.5-2,0.2-1.3-1.2c0.3-0.7-1.4-2.6-1.9-3.3c-1.3-2-0.1-0.8,0.3-2.3c0.2-0.6-1.5-5.2-1.8-6.1c-1.2-0.2-2.3-0.3-3-0.3
	c-0.3,0-0.5,0-0.6-0.1c-1.4,1.2-1.5,1.1-1.1,2.9c0.1,0.6,0.5,1.4-1.5,1.4c-1.7,0-1.6,1.1-2.3,0.5c-1.8-1.2-4.9,1.6-6,2.9
	c-0.6,0.7-2.9,3.1-3.8,2.8c-2.6-1.1-1.6,0-2.6,2.7c-0.6,1.5,0.3,2.8-1.2,3.9c-0.9,0.7-0.8,0.9-0.8,0.9c0.8,0.7,2.3,0.7,2.4,1.8
	c0.1,0.7,4.1,0.3,2.7,0.9c-1.1,0.5,0.6,0.6,1.4,0.5c1.3-0.3,0.6,2.6,2.2,2.4c4-0.5,1.5,0.3,4.9,1c0.9,0.2,1.1-0.5,1.9,0.4
	c1,1.2,1.1-0.2,1.8,0c1.1,0.3,0.1-1.4,0.9-1.8c2-1-0.4-5.8,3.7-2.1l2,1.6c0.7,0.2,0.7-1.3,1.5-0.9c1.1,0.6,1.5-1.1,2.3,0.2
	c0.4,0.6,4.9,5.8,4.8,4.1c0-1.8,0.8,0.5,1.5,0.7c0.7,0.2-0.1,0.4,1.6,1.5c1.1,0.8,0.5,0.1,2.2,1.7c2.3,2.2,1.5,0.3,2.5,0.2
	c0.7,0,0.1,1.4,0.6,1.7c3.7,2.4,0.5,1.9,2.2,3.7c0.4,0.4-0.7,0.4,0.1,1.2c0.6,0.6,0.2,1.1,0.9,1.6c0.9,0.7-0.2,1.1-0.2,2
	c0,1-0.9,0.3-0.9,1.6c0,1.4-2.6,0.4-2,2.4c0.3,1-3.7,1.4-2.3,3.1c1.7,2,1.7,0.7,0.1,2.5c-1.3,1.5-4.6-3.3-5.5-0.7
	c-0.1,0.2,2,3.2,2.2,3.2c1.1,0.3,1.1-0.2,1.8,1c0.1-0.2,0.2-0.3,0.5-0.3c0.8,0.2-1.1,3.4,0.8,2.1c1.7-1.3,2.4-1.3,1.8-2
	c-1.7-1.9,0-2.1,0.2-2.3c0.2-0.2-0.1-0.4,0.4-0.4c1.4-0.2,0.9-1.7,2.2-0.6c0.6,0.5,1,0.6,0.8,1.3c-0.6,1.7,1.3,1.6,1.5,1.7
	c0.7,0.5,1.3,0.2,2.1,0.3c1,0.2,2,3.3,1.4,4.4c-0.6,1,3.2,2.3,4.2,1.8c0.6-0.4,0.9-0.6,1.1-0.7c0-1.2,0.7-0.5,1.4-0.7
	c2.2-0.5,0-2.1-0.1-2.6c1.8-2,1.6-1.1,2.4-1.1c3.7,0.1,1.2,0.4,1.2-1.7c0-2.9,1.5-2,1.4-2.5c-0.3-1.4-2.9-0.3-1.2-2.1
	c1.2-1.3-0.7-1.2,0.4-1.9c1.6-1,2.4,1,3.6,1c3.6,0,1.7-1.6,1.7-1.7c-0.3-1.1,5.1,0.6,4.3-1.5c-1.2-3.1,0-1.5,0.5-3
	c0.8-2.6-0.8-1.9-3-3.6c-2.6-1.9-3.4-0.6-3.2-2.7c-3.9,0.3-2.7-0.7-2.9,1.6c-0.1,0.6-1.5,1-0.9,1.6c1,0.9-0.7,1.2,0.5,1.4
	c2.5,0.2,1.6,3.2,0.7,3.1c-1.1-0.1-1-0.9-1.4,1C139.4,130.1,140.1,131.3,139.1,131.3L139.1,131.3L139.1,131.3z"/>
<path id="Hu_Bei_5_" class="st24" d="M153.8,147c-1.4,1.6,0.5,2.1,0,2.8c-0.8,1.2,0.2,0.3,0.1,1.9c0.2,0,0.4,0.1,0.5,0.3
	c0.4,0.7-0.2,0.6,0.4,0.6c0.4,0,2.2,1.2,1.7,2.5c-0.3,0.8,0,1.8-1.2,1.4c-1.3-0.3-2.2,2.9-4.1,1.6c-0.3-0.2-0.5-0.3-0.8,0
	c-0.6,0.8-0.8,0-1.9,0.5c-0.9,0.4-0.5,0.7,0,1.1c0.3,0.3,0.2,1.7-0.1,2c-0.7,0.8-0.1,1.3,0.3,0.7c0.4-0.6,0.5,0.4,0.7,0.6
	c0.7,0.5,0.7,1.7,1.5,1.8c0.5,0.1,0.3,1,0.8,1.3c0.1,0,0.1,0.1,0.2,0.1c0.4-0.3,1.3-2.7,1.6-2.7c1.1-0.2,2.5-1.8,3.6-0.6
	c0.8,0.8,1.8-0.3,1.8-0.3c0.1-0.4-0.6-0.5-0.5-1.5c0.3-0.1,0.7-0.1,1-0.2c0.2-0.5,1,0,1.4,0c1.1,0.1,1.9,0.9,3.1,0.9
	c1,0,2.7,1.1,2.9,1.4c0.6,0.7,0.8,0,1.5,0c1.5,0,1-0.9,1.6-1c1.2-0.3,0.6,0.7,0.6,1c0,2.5,2.2-0.6,2.6-1.2c0.8-1,0,0.4,0.5,0.7
	c1.8,1.1,0.4,1.2,0.5,2.8c0,0.3,0.8,0.5,1.4,1c-0.1-1.3,0.8-0.9,1.5-1.8c0-0.1,1.7-0.5,1.7-0.5c1.6,0,1.6-1.9,2.4-1.1
	c0.5,0.5,0.1-0.6,0.6-0.6c1.5,0,0.9-0.8,1.4-1.1c1.4-0.8,0.9,1.6,3-0.1c-0.1-0.1-0.3-0.3-0.3-0.7c-0.8-3.1-0.9-1.1-1.1-2.4
	c-0.1-0.8-0.9-1.6-0.6-2.2c0.8-1.6,1.7-0.9,0.5-1.8c-0.8-0.6-1.7-0.2-1.9-0.6c-0.2-0.4-0.6-0.6-0.9-0.8c-0.3-0.1-0.5-0.2-0.6-0.3
	c-0.3-2.2-0.8,0.4-1.9-0.2c-0.8-0.4-1.1-0.3-1.3-1.2c0-0.1-1.9-0.7-2-0.6c-1.4,0.6-0.4,0.5-1.3-0.1c-0.3-0.2-0.7-0.8-0.9-1.1
	c-0.1-0.2,0.5-2.8-0.6-1.9c-1.8,1.4-1.6-0.7-3.6,0.1c-1.1,0.4-1.2-0.3-2.3,0.2c-1.1,0.5-2.4-1.3-3.5-1.3c-0.7,0-1.9-1.4-2.1-2
	c-0.4-1.3-1-1.3-1.2-1.7c-0.7,0.3-1.2,1.2-1.9,0.5c-1.1-1.2,0.5,0.3-2-0.2c-0.4-0.1-3.7-0.5-3.3,0.2c0.1,0.2,1.5-0.1,1.7,1.1
	c0.1,1,1.6,0.1,1.7,1.6C156.7,147.5,154.3,146.4,153.8,147L153.8,147L153.8,147z"/>
<path id="Jiang_Xi_5_" class="st24" d="M176.4,168.4c0.1,1,1,1.9-0.1,2.6c-0.5,0.3-0.2,1-0.8,1.4c-1.2,0.8-0.6,0.8-1.3,1.8
	c-0.4,0.5-0.8,2,0.2,2c2.1,0-0.1,0.6,1,2.1c0.4,0.5-0.6,2,0.3,2.1c0.9,0.1,0.6,0.3,0.7,1c0.1,0.4-0.5,1.4-0.4,1.5
	c0.4,0.7,1.1-0.5,1.3-0.3c0.2,0.2-0.8,0.9-0.8,1c0,0.8-0.3,1.1-0.6,1.7c0,0,0.1,1.1,0.4,2c0.1,0.5,0.3,0.9,0.5,0.9
	c2.4-0.1,1.7-1.5,3.3-0.1l0,0.3c0.1,1.1-0.9,0.5-1.5,2.1c-0.1,0.4-1.1,1.2-1.1,1.3c0.2,0.9,2,0.3,2.5,0.3c1.5-0.1,1.3-0.8,1.9-0.8
	c1.1,0,1.5-0.6,2.1-0.6c0.2,0.2,1.4,1.4,1.6,1.4c0.8,0,0.1-0.8,0.1-1c-0.2-0.8,0.1-1.2,0.5-1.3c0.1-2.9,0.2-1.5,0.6-3.8
	c0.7-3.7,2.7-2.5,2-3.6c-1.1-1.5,1.1-0.9,0.6-1.9c-1.2-2.8,0.2-2.6,1.3-3.2c1.4-0.8,0.8-2.1,0.8-2.1c-0.2-1.5-0.8-1.4,0-1.7
	c0.5-0.2,1.4-2.4,2.1-1.7c1.1,1.3,0.7-0.2,2-0.5c1.1-0.2,0.6-0.6,1.1-0.6c1.5-0.1-0.3-0.4,1.3-1.3c-0.1-0.1-0.3-0.4-0.3-1
	c-0.2-2.2-2.8-3-2.4-4.2c0,0,0.6-0.6,0.6-1.1c0-0.3-0.4-0.6-1.7-0.6c-3.1,0.1-1.3-1.5-2.7-1.5c-0.5,0-0.2,0-0.4-0.2
	c-0.3-0.4-1,0.2-0.7,0.5c0.4,0.6-1.8,2.1-2,1.1c-0.2-1.3,2.1-1.5,0.2-2.3c-0.7-0.3-2,2.1-2.7,1.4c-2.1,1.8-1.6-0.6-3,0.1
	c-0.5,0.3,0.1,1.1-1.4,1.1c-0.5,0-0.1,1.2-0.6,0.6c-0.8-0.8-0.8,1.1-2.4,1.1c0,0-1.6,0.5-1.7,0.5c-0.7,0.9-1.6,0.5-1.5,1.8
	C175.9,167.1,176.3,167.6,176.4,168.4L176.4,168.4L176.4,168.4z"/>
<path id="_40484744_5_" class="st24" d="M151,212.6c0.1-0.1-0.1-0.3-0.4-0.2C150.2,212.7,150.6,213.3,151,212.6z"/>
<path id="_40547016_5_" class="st24" d="M151.1,213.5c0.5,0.2,0.5-0.3,0-0.2V213.5z"/>
<path id="Hu_Nan_5_" class="st24" d="M176.4,187.1c-0.2-0.8-0.4-1.9-0.4-2c0.4-0.6,0.6-0.8,0.6-1.7c0-0.1,1-0.8,0.8-1
	c-0.2-0.2-0.9,1.1-1.3,0.3c-0.1-0.1,0.5-1.1,0.4-1.5c-0.2-0.7,0.2-0.9-0.7-1c-0.9-0.1,0.1-1.6-0.3-2.1c-1.1-1.4,1.1-2.1-1-2.1
	c-1,0-0.6-1.5-0.2-2c0.6-1,0.1-1,1.3-1.8c0.6-0.4,0.3-1,0.8-1.4c1.1-0.7,0.1-1.6,0.1-2.6c-0.1-0.8-0.5-1.3-1-1.7
	c-0.7-0.5-1.4-0.7-1.4-1c-0.1-1.6,1.3-1.7-0.5-2.8c-0.4-0.3,0.3-1.6-0.5-0.7c-0.4,0.5-2.6,3.7-2.6,1.2c0-0.3,0.6-1.3-0.6-1
	c-0.6,0.1-0.1,1-1.6,1c-0.7,0-1,0.7-1.5,0c-0.3-0.3-1.9-1.4-2.9-1.4c-1.1,0-1.9-0.8-3.1-0.9c-0.4,0-1.2-0.5-1.4,0
	c-0.3,0.1-0.7,0.1-1,0.2c-0.1,1,0.5,1.1,0.5,1.5c0,0-1,1.1-1.8,0.3c-1.1-1.2-2.5,0.4-3.6,0.6c-0.3,0-1.3,2.4-1.6,2.7
	c0.7,0.5,0,0.9,0,1.7c0,0.2,0.4,0.5,0.2,0.6c-0.2,0.1-0.4,0.5-0.2,0.7c0.4,0.5,0.1,0.3,0,0.8c0.2,1.4,0.9,1,0.6,1.7
	c-1.2,2.6,1,2.3,0.5,3.2c-0.6,1.3-1.6,0.4-3.2,2.8c-1,1.5,2.3-1.1,3.5,0.2c0.7,0.7-0.5,0.6-0.1,1c0.5,0.7-1.1,1-0.8,1.4
	c0.8,1.1-0.3,1.2-0.2,2.1c0.5,0,0.3,0,0.7,0.1c0.2,0.5,0.1,1.1,0.1,1.6c0.3-0.2,0.7-0.2,1.1,0.2c0,0,0.4,1.4,0.7-0.2
	c0.2-1,0.9-1.4,1.4-0.5c1.1,1.9,1.9-1.8,3.2-1.3c0.7,0.3,2.1-0.7,2.7,0.2c0.3,0.5-0.9,2.6,0.6,1.9c0.8-0.4-0.2,1.2-0.2,2.2
	c0,0.7-2.7,2.9-1.5,3.2c0.4,0.1,1.8-2.2,2.4-0.2c0.1,0.5-0.5,2.5,0.7,1.9c0.9-0.5-0.2-1,1.9-0.5c1.2,0.3,0.6-2.3,1.3-2.4
	c2.9-0.6,2.7,2,3.8,1.1c0.4-0.3,0.5-1.7-0.1-1.8c-0.7-0.1,0.7-0.8,0.9-1.1c1-1.1,2.1,1.6,3.9,0.1
	C175.9,187.2,176.1,187.1,176.4,187.1L176.4,187.1L176.4,187.1z"/>
<path id="Gui_Zhou_5_" class="st24" d="M153,184.3c0-0.6,0.1-1.1-0.1-1.6c-0.5-0.1-0.3,0-0.7-0.1c-0.2-0.9,1-1,0.2-2.1
	c-0.3-0.4,1.3-0.7,0.8-1.4c-0.4-0.5,0.7-0.3,0.1-1c-1.2-1.3-4.5,1.3-3.5-0.2c1.6-2.3,2.6-1.5,3.2-2.8c0.5-1-1.7-0.6-0.5-3.2
	c0.3-0.7-0.4-0.3-0.6-1.7c-0.1,0.3-0.4,0.2-0.5,0.6c-0.7,1.9-0.6,0.7-1.1,0.6c-1.1-0.2-0.6-1.8-1.1-1.2c-0.3,0.3-0.4,1.2-0.4-0.6
	c0-0.6-1.2-0.2-1.2-1.2c-0.2-2.3,0.1-1-1-1.4c-1.1-0.5-1.3,1-1.9-0.3c-0.4-0.9-1.8-0.5-1.8-0.2c-0.1,0.7,0.4,0.8-0.1,1.3
	c-1.2,1.2-1.2-0.8-1.9,0.2c-0.6,0.8-1-0.4-0.7,0.6c0.2,0.4-1.1,2.1-1.1,0.9c0-0.8-0.7-2.1-0.6-0.4c0,0.7-0.5,0.7-0.9,0.6
	c-0.2-0.1-0.4-0.2-0.5-0.3c-0.8-0.8-2.8-0.5-3.1,0.5c-0.3,1.3,0.8,1,1.4,1.8c0.3,0.3,3.1,0.6,1.9,2.1c-0.4,0.4-3.3,0.7-3.7,0.4
	c-0.3-0.2-0.7-0.2-1.1-0.1c-0.7,0.5-0.1,1.9-2,2.2c-3.3,0.5-2.1-0.7-3.2-0.6c-0.9,0.1-0.3,1.3-1.5,0.2c-0.4-0.3-0.3-0.1-0.7-0.1
	c-0.1,0.9-2.1,1.4-1.2,2c0.8,0.6-0.5,1.5,0.3,1.9c0,0.1,0,1.7,1.4,1c0.2-0.1,0.3-0.3,0.4-0.5c0.5,0,0.6,0.2,1.1-0.1
	c0.8-0.5,2.1,1.4,1.3,2.1c-0.4,0.3-2.2,3.2-1.6,3.9c0.4,0.5,0.8,0.6,1.1,1.2c0.3,0.7,1.6,0.6,0.6,1.3c-0.3,0.2-0.2,0.8-0.5,1.2
	c-0.2,0.2-0.4,0.5-0.5,0.7c0.5,2.5,2.8-1.1,3.6-0.8c1.3,0.5,2.1,1.4,3.5,1.6c0,0,1.2,1.3,1.5-1.1c0.1-0.6,1.2-0.2,2.1-1
	c0.5-0.4,2.6-0.3,2.1-1.5c-0.4-1.1,1.4-1.6,1.7-0.5c0.1,0.3,0.8,1.5,1,1.4c1.1-0.3,0.2-0.5,1.1,0.3c1.4,1.2,2.4-1.7,2.9-1.9
	c0.6-0.2,1.5,1.6,1.5,0.6c0-0.5,0.5-1.4,0.9-1c0.8,0.8,1.9-0.2,1.1-0.4c-1.3-0.4,0.9-0.5,1.3-0.4C152,185.5,152.4,184.7,153,184.3
	L153,184.3L153,184.3z"/>
<path id="Si_Chuan_5_" class="st24" d="M133.8,169.6c0.2-0.9,2.3-1.3,3.1-0.5c0.1,0.1,0.3,0.2,0.5,0.3c0-0.1,0-0.1,0-0.2
	c0.3-3.1-2.5-2-2.6-2.6c-0.3-2.6-0.9-0.9-1.5-1.8l-1-1.3c0,0,1.6-1.3,1.8-1.5c1.9-1-0.3-1.2,0.2-2.1c1.5-2.9,2.7,0.9,3.8-0.2
	c1.2-1.2,0.6,1.7,3,1.3c0.6-0.1,2.1-2.5,2.1-2.9c0-2.1,0.9-1.3,2-1.3c0.6,0,1.6-3.7,2.6-4.2c2.1-1.2-0.8-1.4-0.2-2.2
	c0.4-0.6,0.6-0.5,0.6-0.5c0-0.1-0.1-0.3-0.2-1c-0.6-0.2-1.1-0.3-1.4-0.1c-0.8,0.3-0.7,0.7-1.5-0.3c-0.7-0.7-1.2-0.3-1.4-1
	c-0.2-0.6-1.3,1-1.8-0.9c-0.3-1.2-4.1,0.6-4.3-0.7c-0.3-1.6-2.3,0.2-2.4,0.1c-0.5-0.5-0.5-0.7-0.7-0.6c-0.2,0.1-0.5,0.3-1.1,0.7
	c-1,0.6-4.8-0.8-4.2-1.8c0.7-1.1-0.4-4.2-1.4-4.4c-0.8-0.2-1.4,0.2-2.1-0.3c-0.2-0.2-2.1,0-1.5-1.7c0.2-0.7-0.2-0.8-0.8-1.3
	c-1.3-1.1-0.8,0.4-2.2,0.6c-0.5,0.1-0.2,0.3-0.4,0.4c-0.2,0.2-1.9,0.3-0.2,2.3c0.6,0.7-0.1,0.7-1.8,2c-1.9,1.4,0-1.9-0.8-2.1
	c-0.3-0.1-0.5,0-0.5,0.3c-0.3,0.8,0.5,2.9-1.1,1.9c-1.2-0.8-2.1,0.5-1.6,1.7c0.5,1-1.3,1.3-2.1,1.2c-0.8-0.1,0-0.1-0.8,0.5
	c-0.2,0.1-1.2,0.4-0.9-0.1c0.1-0.2,1.2-0.6-0.2-1.3c-0.4-0.2-1.6,1.7-1.4,0.3c0.1-0.8,1.2-0.4-0.5-1.8c-1-0.9-0.2,2.7-2.9,0.2
	c-0.6-0.5-0.8-1-1.5-1.3c-1.7-0.8,0.1-5-3.6-5.1c-1.8-0.1-1.5-1.1-2.8,0.2c-1.4,1.3,1.4,2.2,0.9,2.7c0,0-0.3,0-1.1,1
	c-0.3,0.5-0.1,0.7-0.6,1.1c-1.1,0.8,0.5,2.3,1.2,2.6c0.1,0,0.2,0.1,0.3,0.2c0.6,0.2,1.7,1.1,1.8,2c0,0.4,0.6,0.7,0.5,2.1
	c0,0.3,0.7,1.1,0.9,1.5c0.1,0.2,1.5,2,0.3,1.6c-1.4-0.5,0.1,1.5,0,2c-0.1,0.5,0.9,0.3,0.4,2.2c-0.4,1.4,0.8,3,0,4.2
	c0,0-0.1,1.7-0.1,3.7c0,2.3,0.1,5,0.5,5.4c0.9,1-0.3-0.9,0.9-1.7c0.8-0.6,1.4-2.1,1.9-0.1c0.3,1.1,2.1,1.6,1,2.8
	c-0.6,0.7,0.9,2.6,1.4,2.1c0.2-0.2,1.3-0.4,1.4-0.2c0.3,0.5,1.7,4.2,1.8,4.6c0.1,0.8,1.9,1.8,1.5,2.5c-0.9,1.5,0.6,0.9,0.7,2.1
	c0.1,1.4,2.2,1.7,3.2,0.8c2.6-2.2,1.2,1.5,2.2,0.2c0.4-0.5,0.2-0.6,0.9-0.7c0.5-0.1,0.8-1.4,0.4-3c-0.1-0.3-0.1-2.8,0-2.8
	c0.6-0.3,1.1-0.2,1.5-0.9c0.7-1.1,2.3-1.1,1.6-2.8c-0.2-0.5,0.6-1.6,1.1-1c0.4,0.5,1.3-0.7,0.8-1.1c-1.8-1.5,4-1.3,2.5-0.5
	c-1.7,1,1.1,1.2,0.1,2.9c-0.8,1.2,1.7,1.7,2.9,0.3c0.8-1,1.8,0,1.4,1c-0.3,0.8,0,0.8,0.5,0.8c0.3,0,0.7-0.1,1.1,0.1
	c0.4,0.3,3.3,0,3.7-0.4c1.2-1.5-1.6-1.8-1.9-2.1C134.6,170.7,133.5,171,133.8,169.6L133.8,169.6L133.8,169.6z"/>
<path id="Yun_Nan_5_" class="st24" d="M124,179.3c-0.7-0.4,0.5-1.3-0.3-1.9c-0.9-0.6,1.1-1.1,1.2-2c0.3,0,0.3-0.2,0.7,0.1
	c1.2,1,0.6-0.1,1.5-0.2c1.1-0.1-0.1,1.1,3.2,0.6c1.8-0.3,1.3-1.7,2-2.2c-0.5,0-0.8,0-0.5-0.8c0.4-1-0.6-1.9-1.4-1
	c-1.2,1.5-3.6,1-2.9-0.3c1-1.7-1.7-1.9-0.1-2.9c1.4-0.8-4.4-1-2.5,0.5c0.6,0.5-0.4,1.6-0.8,1.1c-0.5-0.6-1.3,0.5-1.1,1
	c0.7,1.7-0.9,1.6-1.6,2.8c-0.4,0.7-0.9,0.6-1.5,0.9c-0.1,0.1-0.1,2.6,0,2.8c0.5,1.6,0.1,2.9-0.4,3c-0.7,0.1-0.5,0.2-0.9,0.7
	c-1,1.2,0.4-2.4-2.2-0.2c-1,0.9-3.1,0.6-3.2-0.8c0-1.2-1.6-0.6-0.7-2.1c0.4-0.6-1.4-1.7-1.5-2.5c-0.1-0.4-1.5-4.1-1.8-4.6
	c-0.1-0.2-1.2,0-1.4,0.2c-0.5,0.5-2-1.4-1.4-2.1c1.1-1.2-0.7-1.7-1-2.8c-0.5-2-1-0.5-1.9,0.1c-1.2,0.8,0,2.7-0.9,1.7
	c-0.4-0.4-0.5-3.1-0.5-5.4c-1.2,0-0.4,1.6-1,2.1c-0.6,0.5-0.5-0.7-0.6-0.8c-0.7-1.2-0.8,1.4-0.8,1.4c-0.7,1.2,0.8,2.4-0.5,2.6
	c-1.3,0.2-1.2,0.6-1.3-0.6c-0.1-1.4-1,0.1-1.3,0.6c0,0.1,0,0.4,0,1.2c0,0.6,0.5,2.6,1,2.3c2.2-1.2,1,2.1,1.1,2.7
	c0.2,0.8-0.2,1.4,0,2c0.2,0.8-1,2.6-0.6,2.9c0.8,0.8-1.3,0.7-0.5,1.3c1.3,1-0.9,0.6-1,1.1c-0.6,2.2-0.9-0.2-2,1.8
	c-1,2-1.3-0.1-2.3,1.7c-0.5,0.9,0.6,1-0.9,1.6c-0.3,0.1-0.7,1.7-0.3,1.8c2,0.7-0.5,2.7-0.5,2.8c0.3,1.6,1.1-0.7,5.6-0.3
	c2.8,0.3,0,0.4,0.2,1.7c0.1,0.7,1.2,0.7,0.5,1.6c-0.2,0.3,0.8,0.6,0.3,1.3c-1.3,1.9,5,1.1,2.5,2.8c-1,0.7-0.2,1.8-1.1,2.5
	c-3.1,2.5,4,1.5,3.3,3.1c-0.6,1.5,1.1,1.5,0.7,1.9c-1.1,1.1,1.5,0.8,1.8,1c1.1,0.7,3.3-2.2,3.6-0.7c0.2,1-1,3.5,1.4,2.6
	c0.2-0.1,2.5,1.7,1.6-0.1c-0.7-1.3,1.2-2-0.2-3.7c-0.9-1.1-0.1-3.8,1.1-2.8c0.4,0.3,2.1,0.5,2.4-0.1c2.7-4.2,2.4,2.8,5-0.5
	c1.4-1.7,1.1,1.3,1.9-0.4c0.6-1.3,1.5,2.8,2.2,0.6c0.7-2.2,1.7,0.4,2.2-0.1c1-0.9,1.9-0.5,2.1-1.6c0.1-1.1,1.5-1.1,2.2-1.8
	c0.4-0.3,0.9,0.2,1.5,0.9c0.5-0.4,1.4-1.1,1.6-1.7c0.5-0.1,0.8,0.5,1.1,0.2c1.6-1.7,0.3-4.3-0.4-3.8c-1.4,1-1.8,0-2.1,0.3
	c-0.4,0.3-0.6,0-1.1-0.1c-1.1-0.2-0.2-1.3-0.8-1.7c-1.3-1-2.6,0.4-2.8-0.3c-0.3-0.9-0.5-1.6-0.1-2.3c0.1-0.2,0.3-0.5,0.5-0.7
	c0.3-0.3,0.2-1,0.5-1.2c1-0.7-0.3-0.6-0.6-1.3c-0.3-0.6-0.7-0.7-1.1-1.2c-0.6-0.7,1.1-3.6,1.6-3.9c0.9-0.7-0.5-2.5-1.3-2.1
	c-0.4,0.2-0.6,0.1-1.1,0.1c-0.1,0.1-0.3,0.4-0.4,0.5C124,181,124,179.4,124,179.3L124,179.3L124,179.3z"/>
<path id="_40529352_5_" class="st24" d="M114.3,121.6c0-0.5,0.3-0.6-0.3-0.9c-1.2-0.5,0-1.9-3.1-2.2l-0.4,0c-1.3,0.7,1.2,1-0.7,1.2
	c-1.1,0.1,0.6,1.9,2.5,2.1C112.9,122,114.4,123.4,114.3,121.6L114.3,121.6L114.3,121.6z"/>
<path id="Qing_Hai_5_" class="st24" d="M100.5,136c3.7,0.1,1.8,4.3,3.6,5.1c0.8,0.4,1,0.8,1.5,1.3c2.8,2.5,1.9-1.1,2.9-0.2
	c1.7,1.4,0.6,0.9,0.5,1.8c-0.1,1.4,1-0.5,1.4-0.3c1.4,0.7,0.3,1.1,0.2,1.3c-0.3,0.5,0.7,0.3,0.9,0.1c0.8-0.6,0-0.6,0.8-0.5
	c0.8,0.1,2.6-0.2,2.1-1.2c-0.5-1.1,0.4-2.4,1.6-1.7c1.6,1,0.8-1.1,1.1-1.9c-0.6-1.2-0.6-0.7-1.8-1c-0.3-0.1-2.3-3-2.2-3.2
	c0.9-2.6,4.2,2.2,5.5,0.7c1.6-1.8,1.6-0.5-0.1-2.5c-1.4-1.7,2.6-2.1,2.3-3.1c-0.6-2,2-1,2-2.4c0-1.3,1-0.6,0.9-1.6
	c0-0.8,1.1-1.3,0.2-2c-0.7-0.5-0.3-1-0.9-1.6c-0.8-0.8,0.3-0.8-0.1-1.2c-1.8-1.8,1.5-1.3-2.2-3.7c-0.4-0.3,0.1-1.7-0.6-1.7
	c-1,0-0.2,2-2.5-0.2c-1.7-1.6-1.1-0.9-2.2-1.7c-1.6-1.2-0.9-1.3-1.6-1.5c-0.7-0.2-1.5-2.5-1.5-0.7c0,1.7-4.5-3.5-4.8-4.1
	c-0.8-1.3-1.2,0.4-2.3-0.2c-0.9-0.5-0.8,1-1.5,0.9l-2-1.6c-4.1-3.6-1.7,1.2-3.7,2.1c-0.8,0.4,0.2,2.1-0.9,1.8
	c-0.7-0.2-0.8,1.2-1.8,0c-0.8-0.9-1-0.2-1.9-0.4c-3.4-0.7-0.9-1.5-4.9-1c-1.6,0.2-0.9-2.7-2.2-2.4c-0.8,0.2-2.5,0-1.4-0.5
	c1.4-0.6-2.6-0.2-2.7-0.9c-0.1-1.1-1.6-1.1-2.4-1.8c0,0-0.2-0.2-1.7-0.3c-1.1-0.1-9.5,0.9-9.5,1.6c-0.1,1,1.4,0.2,0.7,1.7
	c-1,2.2,2.2,3.2,2.3,5.1c0.1,0.9,1.7,1.9-0.6,1.8c-1-0.1-3.7,1.2-1,2.2c0.8,0.3,0.9,4-1.5,2.1c-0.8-0.6-1.7-0.5-2.5-1.2
	c-0.7-0.6,0.1,0.6-2,0.5l-0.2,0c-2.8-0.1,0.3,1.2,0.3,1.4c0,0-0.2,0.1-0.2,0.3c0,0.4-0.3,0.7-0.4,1.2c-0.1,1.1-2.2,0.4-1.3,2.3
	c0.3,0.7-0.6,1.1,0.5,1.2c1.2,0.2-0.7,1.1-0.3,1.5c0.4,0.4,0.4,0.6,0.3,1.6c-0.1,1.1-1.8,1.2-1,2.3c0.8,0.9,1.8,4.2,2.4,4.5
	c3.3,2,3.2,0,4,0.2c0.2,0.1,1.1,2.6,3.2,3.5c1.5,0.6,0.7,0.6,3.6,1.3c2.3,0.5,2.4,2.3,3.2,1.7c0.7-0.5,1.7,1.6,3.7,0.5
	c2.3-1.2,1.9,2.3,3.7,2.3c1.6,0,0.3,1.8,0.5,2.2c0.7,1.1,0.6,0.6,1.8,1.2c0.9,0.4,1-0.2,1.5,0.7c0.4,0.7,1.2,0,0.6-0.6
	c-0.2-0.2-0.2-1.8,1.2,0c1,1.3,1.5,0.3,1.4-0.9c0-0.2,2.2,0.3,2.7-0.9c0.7-1.6,1-1.6,2.8-1.4c0,0,0.1,0,0.1,0
	c-0.1-0.1-0.2-0.1-0.3-0.2c-0.7-0.3-2.4-1.8-1.2-2.6c0.5-0.4,0.2-0.6,0.6-1.1c0.8-1,1.1-1,1.1-1c0.5-0.5-2.3-1.3-0.9-2.7
	C99,135,98.7,136,100.5,136L100.5,136L100.5,136z M109.8,119.8c1.9-0.2-0.6-0.5,0.7-1.2l0.4,0c3,0.2,1.8,1.7,3.1,2.2
	c0.6,0.2,0.3,0.4,0.3,0.9c0.1,1.8-1.5,0.4-2,0.3C110.4,121.8,108.7,119.9,109.8,119.8L109.8,119.8L109.8,119.8z"/>
<path id="_40521080_5_" class="st24" d="M195.5,142.3 M196.2,140.9c0.8,0.6,0-0.2-0.8,0.4c-0.4,0.3-1.6-0.1-0.9,0.5
	c0.1,0,0.1,0,0.1,0c0,0,0.1,0.1,0.1,0.2c0.1,0.1,0.3,0.2,0.5,0.3c0.1,0.1,0.2,0.1,0.2,0.1c0,0.1,0,0.2,0.1,0.5
	c0.2,0.6,0.5-0.3,0.8-0.2c0,0,0.3,0.7,1.1-1.2c0.4-1-0.8-0.7-1.2-1.8c-0.1-0.2-0.2-0.3-0.3-0.4C195,138.9,195.7,140.6,196.2,140.9
	L196.2,140.9L196.2,140.9z"/>
<path id="Hai_Nan_5_" class="st24" d="M151.2,219.9c-0.3,1,0.8,0-1.4,1.6c-2.1,1.5-1.3,0.6-1.5,2.8c-0.1,0.9,0.3,1.2,0.3,1.8
	c-0.2,2,3.3,1.7,4.2,2.5c1.6,1.4,1.1-1.6,2.7-1c0.8,0.3,0.6-1.2,2.4-1.6c0.2,0,1.1-3.7,1.9-4.3c0.7-0.6-0.1-0.8,0.9-0.9
	c0.8-0.1,0.3-1.8-0.1-2.2c0,0-0.1,0-0.2,0c-0.6,0-1.2-1.2-1.8-0.3c-0.4,0.6-1.3-0.4-2.2,0.1c-0.9,0.5-1.2,0.3-1.3,0.3
	c-0.7,0.5-1.4-0.4-2.1,0.4C152.6,219.7,151.5,218.9,151.2,219.9L151.2,219.9L151.2,219.9z"/>
<path id="Chong_Qing_5_" class="st24" d="M148.1,149.8 M149.4,163.2c-0.2-0.2-0.3-1.3-0.7-0.6c-0.4,0.6-1.1,0.1-0.3-0.7
	c0.3-0.3,0.4-1.8,0.1-2c-0.5-0.5-0.9-0.8,0-1.1c1.2-0.5,1.3,0.3,1.9-0.5c0.3-0.4,0.5-0.2,0.8,0c1.9,1.3,2.8-1.9,4.1-1.6
	c1.2,0.3,0.9-0.6,1.2-1.4c0.5-1.3-1.3-2.5-1.7-2.5c-0.6,0,0,0.1-0.4-0.6c-0.1-0.2-0.3-0.2-0.5-0.3c-0.5,0-1.5,0.4-2.5-0.9
	c-0.3-0.4,0-0.3-0.8-0.5c-1.5-0.4,0.5-0.4-2.7-1.5c0.1,0.7,0.1,0.9,0.2,1c0,0-0.2-0.1-0.6,0.5c-0.6,0.8,2.3,1,0.2,2.2
	c-0.9,0.6-2,4.2-2.6,4.2c-1.1,0-2-0.8-2,1.3c0,0.5-1.5,2.8-2.1,2.9c-2.4,0.4-1.8-2.5-3-1.3c-1.1,1.2-2.4-2.7-3.8,0.2
	c-0.5,1,1.8,1.1-0.2,2.1c-0.2,0.1-1.8,1.4-1.8,1.5l1,1.3c0.6,0.9,1.2-0.8,1.5,1.8c0.1,0.7,2.9-0.4,2.6,2.6c0,0.1,0,0.1,0,0.2
	c0.4,0.1,0.9,0,0.9-0.6c-0.1-1.7,0.6-0.4,0.6,0.4c0,1.2,1.3-0.4,1.1-0.9c-0.4-1,0,0.2,0.7-0.6c0.8-1,0.8,1,1.9-0.2
	c0.4-0.5,0-0.6,0.1-1.3c0-0.2,1.4-0.7,1.8,0.2c0.6,1.4,0.8-0.1,1.9,0.3c1,0.4,0.8-0.8,1,1.4c0.1,0.9,1.3,0.6,1.2,1.2
	c0,1.8,0.1,1,0.4,0.6c0.5-0.5,0,1,1.1,1.2c0.6,0.1,0.5,1.3,1.1-0.6c0.1-0.3,0.4-0.2,0.5-0.6c0.1-0.5,0.4-0.3,0-0.8
	c-0.2-0.2,0-0.6,0.2-0.7c0.2-0.1-0.2-0.3-0.2-0.6c0-0.8,0.7-1.2,0-1.7c0,0-0.1-0.1-0.2-0.1c-0.5-0.3-0.2-1.2-0.8-1.3
	C150,164.8,150,163.7,149.4,163.2L149.4,163.2L149.4,163.2z"/>
<path id="Tian_Jin_5_" class="st24" d="M185.6,109.5c-1.7,1.3,1.3,2.6,3.5,2.3c-0.3-1.1,0.6-3.7,1.4-3.9c-0.1-0.2,0-0.3-0.3-0.4
	c-1-0.5,0.8-1-0.6-1.2c-1-0.2-2.1-2.1-0.7-2.4c0.7-0.1-0.7-1.2-1.2-1.2c-0.3,0.2-1,0.9-1.1,1.2c-0.1,1.2,0.3,0.7,0.4,1.3
	c0.1,1.7-0.9,0.9-1.2,0.8c-0.4,0.2-0.3,0.4-0.3,0.6C185.4,109,186.6,108.8,185.6,109.5L185.6,109.5z"/>
<path id="Bei_Jing_5_" class="st24" d="M182.1,106.9c1.8,0.1-0.2,1.6,2-0.2c0.3-0.3,0.9-0.2,1.3-0.1c0-0.2,0-0.4,0.3-0.6
	c0-0.1-0.1-0.1,0-0.2c0.2-0.9-0.3-0.5-0.6-1c-0.6-1,0.9-0.9,1.4-0.9c0-0.3,0.8-1,1.1-1.2c-2.7-1.9,2.5-2.8-1.7-2.6
	c-1.5,0.1-1.6-3.3-3-0.5c0,0-1.6,1.3-2,1.4c-1.9,0.2,0.8,1.6-0.1,2.3c-1.9,1.6-2,0.2-1.4,2.1c0.2,0.6-0.9,0.9,0.5,1.5
	C182.1,107.7,180.2,106.8,182.1,106.9L182.1,106.9L182.1,106.9z"/>
<path id="Ning_Xia_5_" class="st24" d="M132.1,119.9c-0.9,0.5,0.7-0.1,1,0.6c0.4,0.9,2.3,1.8,1.8,2.4c-1.5,1.6,0.8,1.2,0.7,3.2
	c0,0.4-2.1,1.8,0,2.5c2.1,0.8-0.1,0.5,1.5,1c0,0,1.8,1.7,2,1.7c1,0,0.4-1.2,0.4-1.3c0.4-1.9,0.3-1.1,1.4-1c1,0.1,1.8-2.9-0.7-3.1
	c-1.2-0.1,0.5-0.4-0.5-1.4c-0.6-0.5,0.9-1,0.9-1.6c0.2-2.3-1-1.3,2.9-1.6c0.1-1.1-0.1-2,0.6-2.9c0.5-0.6,0.8-0.9,1.1-1
	c-1.5-1.2-0.1,0.8-1.3-1.1c-1.1-1.8-1.9,0.6-3.4-1.5c-0.2-0.3,1.4-3,1.9-3.4c0.3-0.3,0.5,0.2-0.6-2.1c-0.5-1-2.5,0.9-2.5,0.9
	c-0.9,0.4,0.3-0.6-1.3,1.8c-1.3,2,0.3,1.8-0.6,3c-1,1.3,1.8,1.9-3.4,3.5l-2.7,0.5C131.9,118.9,132.9,119.4,132.1,119.9L132.1,119.9
	L132.1,119.9z"/>
<path id="Nei_Meng_Gu_5_" class="st24" d="M124.6,109.4c1,0.6,5.3-3.1,5.4-1.1c0.1,1.6,1.1,0.8,0,2.7c-1.4,2.3-3.2,1.9-2.9,2.6
	c0.5,1.1-1.1,1.6-0.6,2.7c0.1,0.2,0.5,0.4,0.7,0.6c1.8,1.3,1.5,2.2,4.1,2.1l2.7-0.5c5.2-1.6,2.4-2.1,3.4-3.5c0.9-1.2-0.8-1,0.6-3
	c1.6-2.4,0.4-1.4,1.3-1.8c0,0,2-1.8,2.5-0.9c1.1,2.2,1,1.8,0.6,2.1c-0.5,0.4-2.1,3.1-1.9,3.4c1.6,2.1,2.3-0.3,3.4,1.5
	c1.2,1.9-0.2-0.1,1.3,1.1c0.4-0.1,0.8,0.1,1.2,0.4c2.3,1.5,1.4,0.1,2.4,0.4c2.9,1,0.7-1.6,1.6-1.8c0.5-0.1,0.8-0.1,0.9,0
	c0,0-0.1-0.1-0.2-0.3c-0.1-0.1-0.2-0.2-0.3-0.4c-0.4-0.7,2.3-3.7,2.4-3.8c1.6-0.8,0.6-0.8,1.2-1.3c1.6-1.5,0.5-0.9,1.4-1.1
	c1.3-0.2,0.1-0.8,0-0.9c-0.1-0.5,1.4,0.3,1.5,0.2c1.3-0.2,0.9,0.9,1.4,0.1c0.7-1.2,2-1.8,1.6-0.5c0.9-0.4,0.4,0.5,1.4-0.6
	c1.2-1.3,2.1,0.4,2.4-0.6c0.2-0.6,0.6-2.2,0.9-2.8c0.9-1.9,2.2,0.4,3.2-1c0.7-1,2.2,0.2,3-0.7c1.1-1.3,2.1-0.1,1.7-2.7l-0.1-0.4
	l-0.2-0.2l-0.2-0.3l-0.2-0.2l0-0.3l0.1-0.2l0.1-0.3l-0.1-0.3l-0.2-0.3l0.2-0.3l0-0.6l0.2-0.5h0.5l0.2-0.4l0.1-0.4l0.1-0.4l0.1-0.4
	l0.2-0.3l0.4-0.4l0.3-0.4l0.3-0.5l0.4-0.4l0.4,0.1l0.3,0.2l0.4,0.4l0.3,0.3l-0.2,0.6l-0.2,0.5v0.6l0.2,0.6h0.5h0.5l0.3-0.2l0.2-0.4
	l0.2-0.4l0.3-0.3l0.4-0.2l0.4-0.4l0.4-0.2l0.4-0.4l0.5-0.1l0.2,0.3l0.2,0.3l0.4,0.2l0.2-0.1l0.2-0.1l0.1-0.2l0.3-0.3l0.3-0.3
	l0.1-0.2l0.2-0.1l0.2,0l0.3,0.2h0.3l0.4,0.1l0.4-0.1l0.4-0.1l0.1-0.3l0.2-0.3l-0.1-0.2l-0.1-0.2l-0.1-0.2l0.2-0.2l0.1-0.2v-0.2
	l-0.1-0.2l-0.1-0.2l0-0.3l0.2-0.3l0.2-0.3h0.4h0.6l0.4-0.1l0.2-0.2l0.2-0.2l0.2-0.2l0.4-0.1h0.4l0.4,0.1l0.3,0.3l0.2,0.3l0.3,0.2
	l0.2,0.3l0,0.4l0.1,0.5l0.3,0.3l0.1,0.4l0.3,0.3l0.2,0.4l0.5,0.3l-0.1,0.3l-0.3,0.2l-0.3,0.2l0,0.4l0.2,0.4l0.5,0.2L191,95l0.1,0.4
	v0.4l0.1,0.4h0.4l0.2-0.2l0.5-0.1h0.3l0.3-0.1l0.2-0.1l0.2,0.2h0.5l0.5,0h0.3l0.4-0.1c1.1-0.6,0.6-0.8,0.5-1.1
	c-0.8-2.2,0-2.6-0.6-3.4c-0.9-1.1,0.8-1.3,1.1-1.1c1.2,1,0.6-0.4,2.2,2.8c0.5,0.9,1.1-2.2,3.2-3c1.6-0.6,2-1.9,2.6-1.8
	c2.1,0.3,0.6-1.2,1.8-1.4c2.4-0.4,1.4-0.3,1.3-0.6c-0.4-0.7,2.6,0.8,3.1-0.7c1-3,1.8,1.2,1.8-3.2c-0.6-0.1-0.5,0.2-0.8-0.1
	c-0.5-0.4-1.4-0.1-0.3-1.1c0.3-0.2-0.3-1.6-0.3-1.6c-1-1.2-0.4-1.6-1-1.9c-1.4-0.9,0.3-1.9-1.1-0.9c-1.5,1-2.5,2.3-2.6,1.4
	c-0.2-1.2-1.8-2.6-1.4-3.2c0.5-0.8-0.6-0.8-0.1-1.5c0.8-1.2-0.8-1.7-0.9-2.3c-0.2-1.1-1.6-0.2-1.1-0.8c0.7-0.9,0-2,1.3-1.1
	c2,1.4,0.8-0.5,1.7,0.3c1.7,1.5,1.5-0.5,1.3-0.8c-0.8-1.2,1,0,1-1.9c0-0.1-0.1-0.2-0.1-0.3c-1.8-2.3,1.4-1.6,1.6-2.7
	c0.2-0.9-0.8-0.3-0.9-0.5c-0.7-1.6-0.9,2.5-2.1,0c-0.5-1.1-2.5-1.7-2-2.8c0.4-1.1,4.3-4.2,5.4-6.3c1.1-2.2,0.9,1.8,1.8,1.3
	c0.8-0.4-0.5-2-0.2-2.3c0.6-0.7-0.3-3,0.7-3.4c2.6-1,0-3.8,0.9-5.9c2.1-5.1,2.3-5,0.1-7.2c-3.6-3.3-1.6-0.4-3.5,0.4
	c-2.4,1-2.9,0.4-4,1c-2.4,1.3-2.9-1.5-3.6-3.1c-0.9-2,0.8-1.2-0.5-1.8c-0.5-0.2-1.3-1.9-1.9-0.9c-0.9,1.5-0.8,0.7-2.1,0.2
	c-3.2-1.4,3.2-2.9-0.9-5.3c-0.4,0.1-0.6,0.2-0.7,0.3c-1.2,1.2-0.3-1.3-3.4,2.9c-0.3,0.5-1.2,0.9-0.5,1.7c0.5,0.5,2.3-1.8,2.3,1
	c0,1.3,1.9,1.2-1.1,3.7c-1.2,1-0.8,3.3-1.8,4.5l-1.3,3.7c0,0.4,2.3,0.1-0.2,2.2c-0.8,0.7-1-0.2-2.8,1.9c-2.3,2.6-5.6-0.6-5.7,0.1
	c-0.5,2.7-2.7,5.2-2.8,8.1c-0.1,1.7-2.2,0.7,0.1,3.7c0.8,1,1.2-1,4.1-1c1.8,0,1.3,2.5,3.1-0.3c0.9-1.3,3.6-0.5,4.5,0.4
	c0.4,0.4,1.2,0.4,1.3,1c0.1,0.6,5.8,4.3,2.9,5.2c-2.2,0.7-3.1-1.1-4.1-0.2c-0.7,0.7-1-0.6-2.1,0.3c-2.2,1.9-2.9-0.3-2.9,1.5
	c0,1.4-2.9-0.1-3.7,1.9c-0.6,1.5-0.7,0-0.7,2.4c0,0.8-2.4,2.4-4.7,2.4c-2.3,0-0.5-0.2-3.2,2c-1.8,1.5-2.6,2.2-5.1,1.7
	c-1.4-0.3-1.6-2.3-4-1.4c0,0-2.2,3.4-1.7,4.5c1.8,3.3,3.5,2.3-0.5,5c-1.6,1-0.2-1.3-3.2,3.3c-1,1.6-2.1,0.3-3.4,1.6
	c-1.4,1.3-6.7,0.2-9.8,0.7c-6,1-8.1,4.4-11.2,3.8c-1.5-0.3,1.2-1.5-2.4-1.1c-2.7,0.3-4.4-2.4-6.9-2.4c-2,0-1.4-1.8-2.8-2.3
	c-6.2-2.1-7.1-0.5-9.9-1.5c-1.4-0.5-5.7-1.2-8.9-1.6c0.3,0.9,2,5.5,1.8,6.1c-0.4,1.5-1.6,0.3-0.3,2.3c0.5,0.7,2.3,2.6,1.9,3.3
	c-0.7,1.4,1.1,1.7,1.3,1.2c0.5-1.2-1.6-0.9,2.7-1.4c3.4-0.4,5.6,0.7,3.1,3c-4.1,3.9-2.8,1.6-0.5,3.3c0.4,0.3,1.2,0.7,1.3,1.1
	c0.1,0.6,0.3,0.4,0.6,0.7c0.8,0.8,1.9,0.5,1.5,2.2c-0.4,1.3,0.2,0.4,1.1,1.2c2.8,2.5,2.4,2.2,4,0.6c0.5-0.6-2.2-1.4,0.7-1.5
	C122.6,108.9,122.8,108.3,124.6,109.4L124.6,109.4L124.6,109.4z"/>
<path id="Guang_Xi_5_" class="st24" d="M162,202.8 M146.9,186.8c-0.5,0.2-1.6,3.1-2.9,1.9c-0.9-0.8-0.1-0.7-1.1-0.3
	c-0.3,0.1-1-1.1-1-1.4c-0.2-1.2-2.1-0.7-1.7,0.5c0.4,1.2-1.6,1.1-2.1,1.5c-0.9,0.8-2,0.4-2.1,1c-0.3,2.4-1.5,1.1-1.5,1.1
	c-1.4-0.2-2.2-1.2-3.5-1.6c-0.8-0.3-3.1,3.2-3.6,0.8c-0.3,0.7-0.1,1.4,0.1,2.3c0.2,0.7,1.5-0.7,2.8,0.3c0.6,0.4-0.3,1.5,0.8,1.7
	c0.5,0.1,0.7,0.4,1.1,0.1c0.4-0.3,0.7,0.7,2.1-0.3c0.7-0.5,2,2.1,0.4,3.8c-0.3,0.3-0.6-0.3-1.1-0.2c-0.2,0.6-1.1,1.2-1.6,1.7
	c0.4,0.5,0.8,1,1.1,1.1c1.9,1,0.2,0.5,1.9,0.3c1.5-0.1,0.1,1.2,2.2,0.3c0.4-0.1,2.5,0.6,0.6,2.2c-1.2,0.9,0.2,1.5,0.4,2.8
	c0.1,0.7,1.1,0.6,1.5,1c0.1,0.1,0.5,1.6,3.1,1.7c0.8,0,1.1-0.4,1.8,0.2c1.5,1.1,2.3-0.7,2.6,0.1c0.3,0.9,1.1-0.2,0.6-0.9
	c-0.6-0.8,0.7-0.9,0.7-0.6c0,0.8,0,0.2,0.5,1c0.6,0.8,0.7-1.3,0.9-0.2c0.1,0.8,2.3,0.2,1.3,1.3c-0.6,0.7,2.1,0.3,2.4-0.2
	c0.3-0.5-0.5-0.7,0-1.2c0.4-0.4-0.3,0.5,0.3,0.8c0.5,0.3,0.1,0.8,1,0.8c-0.3-1.3,0.6-0.4,0.8-1.9c0.1-0.9,2.8,0.4,2.2-1.3
	c-0.5-1.7,0.5,0,1.8-1.2c1-0.9-0.3-0.2,0.1-1.6c0.1-0.5,1.4-0.4,1.8-0.7c0.1-0.1,0.3-0.2,0.4-0.3c0.2-0.1,0.3-0.2,0.4-0.3l0.3-0.2
	c1.8-1.1-0.4-3.5,1.7-5c0.6-0.4-0.1-0.3,0.6-0.9c2.4-1.9-0.1-1.9,1-2.5c1.5-0.8-0.2-1.9,0.2-2.9c-2.1-0.5-0.9,0-1.9,0.5
	c-1.2,0.6-0.6-1.4-0.7-1.9c-0.6-2-2,0.3-2.4,0.2c-1.2-0.4,1.5-2.5,1.5-3.2c0-1,1-2.6,0.2-2.2c-1.4,0.7-0.3-1.5-0.6-1.9
	c-0.5-0.9-2,0.1-2.7-0.2c-1.3-0.5-2.1,3.2-3.2,1.3c-0.5-1-1.3-0.5-1.4,0.5c-0.3,1.6-0.6,0.3-0.7,0.2c-0.4-0.4-0.8-0.4-1.1-0.2
	c-0.6,0.3-1,1.2-1.3,1.2c-0.4-0.1-2.6,0-1.3,0.4c0.7,0.2-0.3,1.3-1.1,0.4c-0.4-0.4-0.9,0.5-0.9,1
	C148.4,188.4,147.5,186.6,146.9,186.8L146.9,186.8L146.9,186.8z"/>
<path id="_40431192_5_" class="st24" d="M186.6,130.6c-1,0.8-0.4,0.9,0.6,1.9c0.3,0.2,0.5,0.3,0.6,0.4c0.4,0.2,0-0.5,1,0.4l-0.7-0.8
	C186.6,131.1,187,130.2,186.6,130.6L186.6,130.6L186.6,130.6z M187.9,132.9c0,0,1,1.5,1.1,1.7c0.1,0.6,1,0.4,0.6-0.7
	c-0.4-0.3-0.6-0.6-0.9-0.8c-1-0.8-0.6-0.2-1-0.4L187.9,132.9L187.9,132.9L187.9,132.9z"/>
<path id="Xin_Jiang_5_" class="st24" d="M80.1,104.2c0,0-0.1-0.3,0.8-0.9c1.5-1.1,0.6-2.4,1.2-3.9c1-2.6,0-3.8,2.6-2.7
	c0.9,0.4,3.2-2.1,3.8-2.8c1.1-1.3,4.2-4.1,6-2.9c0.8,0.5,0.6-0.5,2.3-0.5c2,0,1.6-0.8,1.5-1.4c-0.4-1.8-0.4-1.7,1.1-2.9
	c-0.3-0.2-0.1-0.9-1.4-3.3c-0.5-0.9-0.5-4.2-1.2-4.6c-0.7-0.4-1.1-0.3-0.1-1.1c0.6-0.5-1.5-0.2-2.2-1c-6-7.1-7.4-4.1-10.3-6
	c-0.7-0.4-1.5-0.1-2-0.7c-0.7-0.6-4.2-0.7-2.5-4.2c0.7-1.4,1.3-0.1,1.5-2.7c0.2-2.1,1.7-1.1-0.2-4.5c-0.6-1.1-0.3-5.1-2.1-5.2
	c-1,0-0.6-1.2-2.4-1.4c-1.4-0.1-1.9-2.6-2.9-3.5c-1.9-1.4,0.4-1.1-1.1-1.9c-0.9-0.5,2.4-2.7-1.3-2.3c-0.6,0.1-2-1.9-2.4,0.3
	c-0.6,3.1-4.1,1.4-5.2,2.9c-1.6,2-0.3,7.4-3.2,6.2c-1-0.4-1.4,1.1-2,0c-0.7-1.4-1.5,0.7-5-2.6c-1-0.9-1.5,0.1-3.4,2.5
	c-0.5,0.6-3,3.9-3,4.4c0,2,1.3,2.5,0.4,2.8c-1.5,0.4-2.6-1.8-2.8-1.7c-0.9,0.1-2,0.6-4.8,0.1c-0.3-0.1-3.2-0.4-3.3,0
	c-0.3,1.4,2.1,0.7,1,3.4c-0.5,1.2,0.3,2.8-0.3,3.9c-0.3,0.6,1.3,3.8-0.9,3.4c-0.9-0.2-1.1,0.7-0.7,1.1c0.5,0.5-1.8-0.2-1.9,2
	c-0.1,2.1-0.9,1.6-2.6,2.3c-0.4,0.2-4.2,0.8-5.4,1.1c-1.9,0.5-1.8-0.9-2.1,0c-0.4,1.2-1.2,0.2-1.8,0.8c-1.6,1.5-3.2-2.5-5.2,0
	c-2.7,3.5-2.2,0.9-4.1,1.6c-0.9,0.3-0.8-1.1-0.6-1.5c0.9-1.6-1.9,0.6-2.9-0.7c-0.7-1-0.4,0.4-2.8,1c-0.5,0.1-2-1.7-3.5,1.6
	c-0.6,1.4-2.1-0.3-2,1.7c0.1,0.9,0.7,1.2-0.2,2c-0.8,0.7,0.1,2.5,1,2.1c0.8-0.3,3.1,1,2.7,2c-1.1,2.7-0.2,2.9-1,4
	c-0.8,1,1.7,2.7-1,2.4c-0.5,0-2.6-1.6-2.1,0.2c0.1,0.5,1,0.1,1.3,0.6c0.5,0.9,1.5,0.5,2.5,2.4c0.4,0.7,1.4,0.3,1.5,2.2
	c0,1.1-1.4,1.8-0.6,2.9c0.9,1.3-1.2,0.9,1.8,1.2c1,0.1-1.1,0.3,0.9,1.8c1.4,1,2.4,2.1,4.2,2.4c1.6,0.3-0.7,1-0.1,1.6
	c1.2,1.5-1,3,0.8,3.8c0.5,0.2,1.6,1.4,1.4,2.3c7.3,0.3,3.5,0.5,5.8-1.9c0.6-0.7,1.4-0.7,2-1.5c0.8-1,2,0.7,3.3,0.9
	c3.1,0.6,1.7,2.3,5.8,0.4c1-0.5,2.9-0.4,3.1,1c0.2,1.7,4.9,2.6,5.9,2.2c2-0.8,3.9-0.8,5.1-0.4c1.7,0.6,3.1,0.6,3.8-0.7
	c0.6-1.2,3.8-0.5,6.8-0.4c5.6,0.1,3.9,1.1,5.6,1.5c1.3,0.3,2.3,1.3,3.3,2.3l0.2,0c2.2,0.1,1.4-1.1,2-0.5c0.7,0.7,1.7,0.6,2.5,1.2
	c2.4,1.9,2.3-1.9,1.5-2.1c-2.7-0.9,0-2.2,1-2.2c2.2,0.1,0.6-1,0.6-1.8c-0.1-1.9-3.3-2.9-2.3-5.1c0.7-1.5-0.8-0.8-0.7-1.7
	c0.1-0.7,8.4-1.7,9.5-1.6C79.9,104.1,80.1,104.3,80.1,104.2L80.1,104.2L80.1,104.2z"/>
<path id="Xi_Zang_5_" class="st24" d="M63,124.2c-1.1-0.2-0.2-0.6-0.5-1.2c-0.8-2,1.3-1.2,1.3-2.3c0-0.6,0.4-0.9,0.4-1.2
	c0-0.2,0.2-0.3,0.2-0.3c0-0.3-3.1-1.5-0.3-1.4c-1-0.9-1.9-1.9-3.3-2.3c-1.7-0.4,0-1.4-5.6-1.5c-2.9-0.1-6.2-0.8-6.8,0.4
	c-0.6,1.3-2.1,1.2-3.8,0.7c-1.2-0.4-3.1-0.4-5.1,0.4c-1,0.4-5.7-0.4-5.9-2.2c-0.2-1.4-2.1-1.5-3.1-1c-4,1.9-2.6,0.1-5.8-0.4
	c-1.3-0.2-2.5-2-3.3-0.9c-0.6,0.8-1.4,0.9-2,1.5c-2.3,2.4,1.5,2.2-5.8,1.9c0,0.2-0.2,0.4-0.4,0.5c-1.2,0.9-1-0.3-1.2,1.7
	c0,0.4-1.1,0.8-0.6,2.3c0.3,0.9,1.5,1.5,0.9,4.5c-0.3,1.5-2.8,2.3-2.6-0.2c0.1-1-1.7-0.5-1.6,0.5c0.1,1.5-1.3-0.1,0.1,2.7
	c0.3,0.7-1,0.6-0.2,1.5c0.7,0.7-0.7,0.8-0.4,1.4c0.5,0.9-0.6-0.1,0.4,1.6c0.3,0.5,0.3,3,1.4,1.7c0.3-0.4,0.9,0.5,1.3,0.8
	c1.4,0.8,0.8,2.2,3.6,4.1c0.7,0.5,1.8,1.8,1.8,2.7c0.1,1.9,2.2-1.8,3.2-1c0.1,0.1,0.2,0.2,0.3,0.3c0.8,0.8,1.6,0.6,1.6,1.9
	c0,0,1.7,1.9,2.4,3.2c0.8,1.5,1.7,0.2,2.3,2.8c0.8,2.9,1.4-0.1,3.2,1.6c0.8,0.7-0.5,2,0.3,2.3c0.9,0.3,1.7,2.9,3.2,2.1
	c1.4-0.8-0.1,1.7,0.1,1.9c0.3,0.6,0.7,0.1,2,0.9c0.6,0.4,0.8-1.1,1.5,2c0.4,1.7,1.3-1.3,1.5,0c0.2,2.2,1.6,0,2.4,0.7
	c4.3,3.6,2,0.9,4,2.2c0.8,0.6,1-0.7,1.6-0.2c1.1,0.9,3.7-0.6,4.2,0c1.8,2.2-2.1,3,0.3,4.9c0.7,0.6,1.4-0.1,0.8-0.9
	c-0.3-0.5,3.5-4.2,5.1-3.3c0.8,0.4,1.7,0.3,2.3,1.1c0.5,0.6,0.7,0,2,1.2c1.6,1.6,2.1-1.3,3.3,1.2c0.4,1-1,2.2,1.1,2.4
	c1.9,0.2-0.1,1.8,0.3,2.6c0.9,1.8-0.7,0.5,5.1,1.7c5,1.1,3.2-2.1,7.8-2.7c6.4-0.9,3.9-3.7,7.8-2.3c1,0.3,1.5-0.2,3.5,2.1
	c0.4,0.5,1.1,0.5,1.5,1c0.4,0.6,0.6,0.1,1.3-0.2c1.9-0.7-0.8-0.6,1-2.2c0.8-0.7,1.3-2.8,1.8-0.2c0.1,0.4,0.5-0.2,1,0.6
	c0.6,0.9,0.7,0.8,0.7,1c0.3-0.6,1.2-2,1.3-0.6c0.1,1.2,0,0.8,1.3,0.6c1.2-0.2-0.2-1.5,0.5-2.6c0,0,0.2-2.6,0.8-1.4
	c0.1,0.2,0,1.4,0.6,0.8c0.5-0.5-0.2-2.1,1-2.1c0-1.9,0.1-3.7,0.1-3.7c0.8-1.2-0.4-2.8,0-4.2c0.5-1.9-0.5-1.7-0.4-2.2
	c0.1-0.5-1.4-2.6,0-2c1.2,0.5-0.2-1.4-0.3-1.6c-0.2-0.4-0.9-1.3-0.9-1.5c0-1.4-0.5-1.7-0.5-2.1c-0.1-0.9-1.2-1.9-1.8-2
	c0,0-0.1,0-0.1,0c-1.9-0.2-2.1-0.2-2.8,1.4c-0.5,1.2-2.7,0.7-2.7,0.9c0.1,1.2-0.4,2.2-1.4,0.9c-1.4-1.9-1.4-0.3-1.2,0
	c0.6,0.6-0.2,1.3-0.6,0.6c-0.5-0.9-0.6-0.3-1.5-0.7c-1.2-0.6-1.1-0.1-1.8-1.2c-0.2-0.3,1.1-2.2-0.5-2.2c-1.7,0-1.4-3.5-3.7-2.3
	c-2,1.1-3-1.1-3.7-0.5c-0.9,0.7-1-1.1-3.2-1.7c-2.9-0.7-2.1-0.7-3.6-1.3c-2.1-0.8-2.9-3.4-3.2-3.5c-0.8-0.2-0.7,1.8-4-0.2
	c-0.6-0.3-1.6-3.6-2.4-4.5c-0.9-1.1,0.8-1.1,1-2.3c0.1-0.9,0.1-1.2-0.3-1.6C62.3,125.3,64.2,124.4,63,124.2L63,124.2L63,124.2z"/>
<path id="_40416824_5_" class="st3" d="M18.4,107.7c-0.7-0.9-1-0.3-0.9-0.7c0.1-0.5-0.3-0.1-0.4-0.1c-0.5-0.1-0.5-0.4-0.6-0.4
	c-0.3,0-0.2,0.1-0.3,0.1c0,0-0.1-0.1-0.3-0.3c-0.2-0.2-2.2-0.3-3.7,0.5c0,0.3-1.1,0.8-0.7,1.3c1.2,1.5-1,3,0.8,3.8
	c0.5,0.2,1.6,1.4,1.4,2.3c7.3,0.3,3.5,0.5,5.8-1.9c0.6-0.6,1.3-0.7,1.9-1.3c-0.3-0.3-0.7-0.5-0.9-0.3c-0.7,0.5-0.4-0.8-1-0.9
	C18.6,109.7,19,108.4,18.4,107.7L18.4,107.7L18.4,107.7z"/>
<path id="_40415816_5_" class="st3" d="M12.3,116.7 M12.9,116.6c0-1.6,2.4,1.6,3-0.5c0.7-2.4,1.1-0.3,1.6-1.7
	c-0.7,0-1.9-0.1-3.8-0.2c0,0.2-0.2,0.4-0.4,0.5c-1.2,0.9-1-0.3-1.2,1.7c0.1,0.2,0.1,0.2,0.1,0.2c0,0,0,0,0,0.2
	C12.6,118.4,12.9,117.4,12.9,116.6L12.9,116.6L12.9,116.6z"/>
<path id="_40041992_5_" class="st3" d="M67.5,165.4c-1.1-0.5-1.5,1.1-3.6-0.4c0.4,1-1,2.2,1.1,2.4c1.9,0.2-0.1,1.8,0.3,2.6
	c0.9,1.8-0.7,0.5,5.1,1.7c5,1.1,3.2-2.1,7.8-2.7c6.4-0.9,3.9-3.7,7.8-2.3c1,0.3,1.5-0.2,3.5,2.1c0.4,0.5,1.1,0.5,1.5,1
	c0.4,0.6,0.6,0.1,1.3-0.2c1.6-0.6,0-0.6,0.4-1.5c-0.3-0.7-0.5-1.4-1.4-1.4c-1.8,0-1.6-1.1-2.3-0.9c-2.2,0.9-0.8-1,0.1-1.5
	c0.9-0.5,0.2-0.5,0.1-1.2c-0.1-2.3-1.7,0.8-1.8-0.1c-0.2-1.8,2.7-1.5,1.1-1.8c-0.7-0.1-0.3-1.4-1.3-1.2c-3.3,0.4-2.3,2.3-4.2,1.4
	c-1.8-0.8-1.7-0.3-2.1-1.4c-0.2-0.7-0.8-0.2-1.9,0.1c-1,0.3-1.5,1-2.3,1.5c-2,1.4-2.6,0.2-4,0.6c-0.4,0.1-1.1,2.1-2.7,2.2
	c-1.3,0.1-0.7,0.1-0.7,0.8C69.7,165.8,67.9,165.6,67.5,165.4L67.5,165.4L67.5,165.4z"/>
<path id="_40041272_5_" class="st3" d="M8.9,130.6c-0.4,0-0.2,0.1-0.7,0.2c0.3,0.5,0.3,3,1.4,1.7c0.1-0.1,0.3-0.1,0.5,0.1l0.2-0.5
	c-0.1-0.5-0.2,0.2-0.3-0.9c0-0.4-0.3-0.9-0.4-0.8C9.1,130.4,9.6,130.6,8.9,130.6L8.9,130.6z"/>
<path id="_40009704_5_" class="st3" d="M8.3,125c0.6-0.3-0.1-0.1-0.2-0.7c-0.3,0.2-0.7,0-0.1,1.3C8.3,125.5,8.1,125.1,8.3,125
	L8.3,125z"/>
<path id="_40009104_5_" class="st3" d="M13.5,121.2c-1,0,0.6,0-1-0.3c0.1,0.6,0.1,1.4-0.1,2.5c-0.1,0.3-0.2,0.6-0.4,0.8
	c0,0-0.3,1.2,1.3,0.3c0.3-0.2,0.3-1.6,0-1.7c-0.5-0.3,0.1,0,0.1-0.6C13.5,121.9,14.3,121.2,13.5,121.2L13.5,121.2L13.5,121.2z"/>
<path id="_39996200_5_" class="st3" d="M8,101.6c0,0-1.8-2.5-2.8-3c-0.2,0.9-1.3,1.5-0.6,2.5c0.9,1.3-1.2,0.9,1.8,1.2
	c1,0.1-1.1,0.3,0.9,1.8c0.7,0.5,1.3,1,2,1.5c0.1-0.1,0.1-0.1,0.3-0.2c1.2-0.4-0.8-1.5-0.9-1.6C7.3,101.9,7.5,102.9,8,101.6L8,101.6
	L8,101.6z"/>
<g id="Shang_Hai_5_" transform="translate(-2.22557e-4,0)">
	<path id="_40506880_5_" class="st24" d="M212.3,153.2c1.9-0.4,0-2.7-0.8-3c-0.7-0.3-0.9-0.5-1.1-0.6l-0.4,0.3
		c-1.2,0.4-0.2,1.5-1.4,2.2l0,0.5c1,0.2,0.2,0.5,0.7,1l0.4,0c0.1,0.2,0.1,0.3,0.5,0.2c0.2,0.3,0.2,0.3,0.6,0.3
		C211.2,153.7,211.6,153.4,212.3,153.2L212.3,153.2L212.3,153.2z M210.6,148.9c0.3,0.2,1.5,0.8,2,0.7c0.2,0,0.7-0.2,0.7-0.4
		c-0.2-0.8-0.5-0.1-1.9-0.8c-2.2-1.2-2.4,0-1.4,0.3C210.2,148.8,209.8,148.5,210.6,148.9L210.6,148.9z"/>
	<path id="_39191984_5_" class="st24" d="M212.1,149.9c-1.2-0.1,0.6,0.7,1,0.4C213.5,150,212.3,149.9,212.1,149.9z"/>
</g>
<g id="Fu_Jian_5_">
	<path id="_40547808_5_" class="st24" d="M190.9,177.1c-1.1,0.6-2.6,0.4-1.3,3.2c0.4,1-1.7,0.4-0.6,1.9c0.7,1.1-1.3-0.1-2,3.6
		c-0.4,2.3-0.5,0.9-0.6,3.8c0.9-0.2,2.6,0.5,2.5,0c-0.1-0.9,0.7,1.5,1.2,1.2c1.3-0.9,0.7,0.3,1.8,1.6c1.2,1.4-0.6,0.9,1.4,4
		c0.3-0.1,0.7-0.3,0.8-0.7c0.1-0.4,0.6-0.3,0.9-0.7c0.1-0.2,4.1-2.6,3.2-3.3c-0.5-0.3-1.2-0.3-0.4-1c0.4-0.4,1-0.4,1.5-0.6
		c0.9-0.5,1.2,1.3,1.8-0.5c0.3-0.7-0.6-0.7,0.3-1.1c1.6-0.6-0.7-1.5,1.5-2.1c1.4-0.4-1-1.1,0.6-1.7c0.4-0.2,3.4,0.4,1.4-0.5
		c-1.5-0.7,0.4-0.5,0.2-1.3c-0.3-1.3,0.8-0.2-0.4-1.7c-0.5-0.6,1.3-0.7,0.2-1.8c-0.9-0.9,2.2-0.2-0.1-1.2c-1.2-0.5-0.2-1.6,0.7-1
		c1.4,0.9,1.8-1.5,2.6-2c0.9-0.6,0-0.2-0.6-0.8l0.3,0.1c0.4,0.1,0.7,0.1,1,0.1c-0.5-0.5-1-1.2-1.8-0.9c-2.1,0.8-1.5,0.7-2.6-1
		c-0.6-0.8-1.5,1.8-2.4,1.2c-0.5-0.4-1.3,0.5-1.3-0.3c0-1.1-0.9-1.8-0.9-2.8c0-2.4-0.9-0.9-1.5-1.4c-1.7,1,0.2,1.2-1.3,1.3
		c-0.4,0,0,0.4-1.1,0.6c-1.3,0.2-0.9,1.8-2,0.5c-0.6-0.7-1.6,1.5-2.1,1.7c-0.8,0.3-0.2,0.2,0,1.7C191.7,175,192.3,176.3,190.9,177.1
		L190.9,177.1L190.9,177.1z M194.2,198.3 M194.8,197.7c-1.1,0.5,0.7,0.7,0.2,0.1C195,197.7,194.9,197.7,194.8,197.7z M193.2,197.9
		c0.2-0.2,1.3-0.8-0.2-0.5l-0.4,0.1C192.2,197.8,193,197.8,193.2,197.9L193.2,197.9L193.2,197.9z M205.9,178.4
		c0.3,0.8,1.7-1.1,1.5-1.3c-0.1,0-0.3-0.1-0.3-0.1C206.8,177.2,206,178.1,205.9,178.4L205.9,178.4z M205.5,179.8
		c0,0.5,0.3-0.1,0.5-0.2c0.5-0.2,0.1-0.3-0.2-0.5C205.6,179.4,205.5,179.4,205.5,179.8L205.5,179.8z M205.4,186.3
		c0,0-0.9-0.7-0.8-0.3C204.6,186.3,205.3,187,205.4,186.3z M205.6,183.2c-0.1,0.5,0.3,0.7,0.3,1c0,0.3-0.2,0.3,0.1,0.7
		c0.4,0.5,0.8-0.7,0.7-1.1c-0.1-0.2-0.5-0.7-0.6-0.7C205.8,183.1,205.7,183.1,205.6,183.2L205.6,183.2L205.6,183.2z"/>
	<path id="_38569272_5_" class="st24" d="M195.6,195.4c0,0-0.5,0.2-0.2,0.4c0.6,0.5,0.8-1.5,0.4-1.1
		C195.6,194.8,195.7,195.2,195.6,195.4L195.6,195.4L195.6,195.4z"/>
</g>
<g id="Guang_Dong_5_">
	<path id="_40542808_5_" class="st24" d="M159.3,216.3c-0.2,0.3-0.7,0.1-0.8,0.4c0.3,0.1,1.1,0.2,0.9-0.2L159.3,216.3L159.3,216.3z"
		/>
	<path id="_40540776_5_" class="st24" d="M158.3,213.1c0,0.2,0.3,0.6,0.4,0.7c0.6-0.4-0.2-0.6-0.1-1.2c0.1-0.4,0.7-0.2,0.4-0.7
		c0-0.1-0.1,0-0.2,0c-0.3,0.1-0.4,0.4-0.7,0.5c-0.2,0.1-0.3-0.1-0.5,0.2C157.8,213.1,158.3,212.9,158.3,213.1L158.3,213.1
		L158.3,213.1z"/>
	<path id="_40524296_5_" class="st24" d="M182,191c-0.5,0-0.4,0.7-1.9,0.8c-0.5,0-2.3,0.6-2.5-0.3c0,0,1-0.9,1.1-1.3
		c0.5-1.6,1.6-1,1.5-2.1l0-0.3c-1.6-1.4-0.9,0-3.3,0.1c-0.2,0-0.4-0.4-0.5-0.9c-0.2,0.1-0.4,0.1-0.6,0.2c-1.8,1.5-2.9-1.2-3.9-0.1
		c-0.3,0.3-1.7,1-0.9,1.1c0.6,0.1,0.5,1.5,0.1,1.8c-1.2,0.9-0.9-1.7-3.8-1.1c-0.6,0.1-0.1,2.7-1.3,2.4c-0.4,1,1.3,2.2-0.2,2.9
		c-1.1,0.6,1.3,0.6-1,2.5c-0.8,0.6,0,0.5-0.6,0.9c-2.1,1.5,0.1,3.9-1.7,5c-0.1,0.1-0.2,0.1-0.3,0.2c-0.1,0.1-0.3,0.3-0.7,0.6
		c-0.4,0.3-1.6,0.3-1.8,0.7c-0.4,1.4,0.9,0.6-0.1,1.6c-1.3,1.2-2.3-0.5-1.8,1.2c0.6,1.7-2.1,0.4-2.2,1.3c-0.2,1.6-1.1,0.6-0.8,1.9
		c1.3,0.1,0,0.7-0.1,1.1c-0.1,0.5-0.5,0.8-0.4,1.3c0.2,1.1-0.7,0.4,0.3,2c1.2,2.1,1,0.9,1.3,1.7c0.3,0.9,0.5,1.4,1.7,1
		c2-0.6,0.3-1.8,0.1-2.7c-0.2-1.2-1.8-0.9,0-2c0.5-0.4,0.7-2.9,1.1-1.3c0.3,1.1,0.8-0.3,1.4-0.4c0.9-0.2,1.5-0.7,2.5-0.5
		c0.6,0.2,0.3-0.4,1.9-0.4c1.5,0,0-2.2,0.9-1.2c0.4,0.5,1.3,0.5,1-0.4c-0.3-0.7,0.2,0.1,0.6,0c0.9-0.2,0.3,0.3,1,0.3
		c0.8,0.1,1.1-2.2,1.1-1.1c0,2.2,1.5-0.5,1.9-0.3c2.2,1.3,0.7-1.6,1-2.6c0.2-0.5,0.1,2.9,1.2,1.7c0.6-0.6,1-0.7,1.3-0.7
		c0.1,0,0.2-0.1,0.3-0.2c0.1-0.2,0.1-0.7,0.1-1.7c0-1.2-1.7-2.4,0.7-1.3c1,0.5,0.1,1.2,1,0.7c0.3-0.2,0.4,0.1,0.8,0.1
		c0.2,0,0.5,0,0.9-0.1c0.1,0,0.2,0,0.3-0.1c1-0.3,2,2.1,1.3,0.1c-0.4-1.1,1.1-1.5,1.2-0.7c0.1,0.3,0.8,0.7,0.8,0.7
		c0.4-0.3,0.7-2.7,2.3-1c1.1,1.2,1-2,2-0.9c0.7,0.8,1.9-0.5,3.6-0.7c1.1-0.1,0.2-1.3,1.2-1.7c2.1-0.8-1.1-0.6-0.8-1
		c0.5-0.5,1.7,0.5,1.9-0.7c0.1-0.8,0.6-0.9,1.1-1c-2-3.1-0.2-2.6-1.4-4c-1.1-1.3-0.5-2.5-1.8-1.6c-0.5,0.3-1.3-2.1-1.2-1.2
		c0.1,0.5-1.6-0.3-2.5,0c-0.4,0.1-0.7,0.4-0.5,1.3c0,0.2,0.7,1-0.1,1c-0.2,0-1.4-1.2-1.6-1.4C183.5,190.4,183.1,191,182,191L182,191
		L182,191z"/>
	<path id="_39192064_5_" class="st24" d="M194.7,195.6c-0.7,0.5,0.4,1.4,0.3,0.2C195,195.5,195,195.3,194.7,195.6z"/>
	<path id="_40364056_5_" class="st24" d="M172.9,207c-0.2,0.2-1,0.6,0.1,0.6c0.4-0.5,0.1-0.7,0-0.8C172.9,206.8,173,207,172.9,207
		L172.9,207L172.9,207z M173.6,206.5c-0.7,0.2,0.4,0.3,0.5,0.3C174.2,206.7,174.3,206.3,173.6,206.5z M176.1,207.1
		c0.1-0.1-0.8-1.2-1.3-1.6c-0.1,0.1-0.2,0.2-0.3,0.2c0.4,0.6,0.4,0.2,0.7,0.5C175.7,206.8,175.1,207.7,176.1,207.1L176.1,207.1z
		 M170.7,209.4c-0.1,0.7,0.8-0.9,0.4-1c-0.1,0-0.5,0.1-0.5,0.1c-0.4,0.5-0.8-0.1-1,0.5C170,209.6,170.3,208.8,170.7,209.4
		L170.7,209.4z"/>
</g>
<g id="g29933_5_" transform="translate(-731.572,0)">
	<g id="g29928_5_" transform="translate(731.572,0)">
		<path id="_40546000_5_" class="st24" d="M179.1,206.2c-0.2-0.1-0.3-0.1-0.6,0c-0.1,0-0.2,0.1-0.2,0.2
			C178.6,206.5,179.2,206.7,179.1,206.2L179.1,206.2L179.1,206.2z"/>
		<path id="_40545208_5_" class="st24" d="M178.5,206.5l-0.6,0C177.7,207.7,178.7,206.6,178.5,206.5z"/>
		<path id="_40544016_5_" class="st24" d="M177.5,207.6c0.4-0.4,0-0.7-0.1-0.5C177.3,207.3,177.4,207.5,177.5,207.6z"/>
	</g>
	<path id="_39122872_5_" class="st24" d="M910.4,204.4c-2,1-0.5,1.4-0.2,0.9c0.1-0.3,0.3-0.3,0.4-0.6
		C910.5,204.6,910.5,204.5,910.4,204.4L910.4,204.4z M908.6,204.9c-0.3,0.1-1.4,0.6-0.4,0.6C908.8,205.5,909.1,205.3,908.6,204.9z
		 M909,203.3c0,0.2-1.1,2.6,1.1,0.9c0.9-0.7-0.1-0.1-0.2-0.8c0-0.1,0-0.1-0.1-0.2C909.5,203.3,909.2,203.4,909,203.3L909,203.3z"/>
</g>
<g id="g2506_5_" transform="translate(-706.114,12.7291)">
	<g id="g2508_5_" transform="translate(731.572,0)">
		<path id="path2514_5_" class="st24" d="M162.3,200c0.4-0.4,0-0.7-0.1-0.5C162.1,199.7,162.2,199.9,162.3,200z"/>
	</g>
	<path id="path2516_5_" class="st24" d="M882.1,192.5c-1.5,0.6-0.3,1.1-0.1,0.8c0.1-0.2,0.1,0.2-0.1-0.3
		C881.8,192.9,882.2,192.6,882.1,192.5L882.1,192.5z M880.6,193.4C880.3,193.5,879.9,193.3,880.6,193.4
		C881,193.3,880.9,193.6,880.6,193.4z M881.1,191.8c0,0.1-0.7,1.8,0.8,0.7c0.6-0.5-0.4,0.4-0.5-0.1c0-0.1-0.2-0.4-0.1,0
		C881.1,192.5,881.3,191.8,881.1,191.8L881.1,191.8z"/>
</g>
<g id="Tai_Wan_5_" transform="matrix(0.0716973,0,0,0.0719374,417.38,371.111)">
	<g id="g2869_5_" transform="matrix(1.3779,0,0,1.28047,999.359,-7.1216)">
		<g id="g2456_5_">
			<g id="g5774_5_" transform="translate(-927.807,-248.547)">
				<path id="path2873_5_" class="st3" d="M-1826-1776.4l-0.2,0l-0.2,0.2l-0.1,0.3h-1.1l-0.4-0.4l-0.2,0.1v0.4l-0.2,0.1l-0.9,0.1
					l-0.1-0.3l-0.1,0.1l0,0.3l-0.3,0.2l-0.6,0.2l-0.3,0.2l-0.3,0.1l-0.6,1.4l-0.1,0l-0.7-0.1l-0.2,0.2l0,0.3l-0.2,0.2l-0.2,0.5
					l-0.1,0.2l0,0.3l-0.2,0.2l-0.4,0.3l-0.2,0.2l0,0.3l-0.4,0.7l-0.4,0.1l-0.2,0l0,0.2l0.6,0.6l0.4,0l0.6,0.3l0.3,0.5l0.3,0.2
					l0.2,0.2l0.4,0.8l0,1.4l-0.2,0.1l0-0.3l-0.1-0.3l0-0.3l-0.4-0.5l0-0.3l-0.1-0.3l-0.9-0.8l-0.6-0.3h-0.4l-0.2,0.2l-0.1,0.4
					l-0.7,0.6l-0.6,0.2l-0.2,0.2l-0.3,0.1l-0.8,0.5l-0.9,0.3l-0.2,0.2l-2.2,0l-0.4,0.4l-0.3,0.1l-0.4,0l-0.5-0.4l-0.3-0.1l-0.6,0.1
					l-0.2,0.2h-0.4l-1.5,0.6l-0.4,0l-0.3,0.2l-0.7,0.7l-0.6,0.3l-0.3,0.2l-2.2,0.6h-0.4l-0.5,0.3l-0.3,0.2l-0.3,0.1l-0.3,0.2
					l-0.2,0.3l-0.5,0.3l-0.3,0.1l-0.2,0.2l-0.3,0l-0.7,0.3l-0.9,0.7l-0.4,0.6l-0.2,0.2l-0.2,0.5l-0.6,0.7l0,0.3l0.2,0.2v0.7
					l-0.3,0.4l-0.2,0.1l-0.2,0.2l-0.1,0.3l-0.6,0.7l-0.2,0.2l-1.1,1.6l0.1,0.4l0.1,0.3l-1,1.3l-0.1,0.6l-0.2,0.2l-0.1,0.3l-0.4,0.5
					l-0.1,0.3l-0.2,0.2l-0.3,0.1l-0.9,1.3l-0.2,0.2l0.1,0.6l0,0.2l0.1,0.1l0.4,0l0,0.3l-0.1,0.3l-0.1,0.6l-0.1,0.2l0,0.7l-0.3,0.5
					l-0.1,0.3l0.3,0.2l-0.1,0.2l-0.1,0.3l-0.4,0.4l-1,0.4l-0.2,0.2l-0.2,0.2l-0.2,0.5v0.4l-0.1,0.3l-0.2,0.2l-0.1,0.3l-1,0.9
					l-0.3,0.1l-0.2,0.2l0,0.3l0.3,0l0.1,0.3l0.3,0.1l0.4,0l0.1,0.2l-0.2,0.1l-0.4-0.1l-0.2-0.2l-0.7-0.3h-0.4l-0.8,0.4l-1,0
					l-0.4,0.4l-0.3,0l-0.6,1l-0.1,0.6l-0.2,0.2l0.3,0.2l0.3,0.1l0,0.3l-0.2,0h-0.3l-0.5,0.3l0.1,0.4l-0.1,0.3l-0.2-0.3l-0.5-0.4
					l-0.6,0.1l-0.2,0.2l0,0.1l-0.4,0.5l-1.8,5.3l-0.2,0.3l-0.2,0.6l-1,1.3l-0.1,0.3l-0.6,0.7l-0.7,0.6l-0.6,0.2l0,0.4l-1.7,2.3
					l-0.4,0.9l0,0.7l0,0.1l-0.2,0.3l-0.1,0.3l-0.5,0.2l-0.2,0.3l-0.9,0.6l0,0.3l0.1,0.2l0,0.4l-0.2,0.2l-0.4-0.1l0.5,0.2l0.1,0.2
					l-0.2,0.3l-0.2,0.1l-0.4-0.5l-0.2,0.1l-0.2,0.2l-0.4,0.2l0,0.3l-0.1,0.2l-0.5,0.3l-0.2,0.3l0.8,1l0,0.3l-0.2,0.2l-0.1,0.3
					l-0.2-0.4l0-0.3l-0.3,0.3l-0.3,0l-0.1-0.3l0.2-0.3l0-0.3l-0.2,0.2l-0.4,1.2l0.3,0.2l0.1,0.3l0.1,0.1l0,0l0.3,0.2v0.4l-0.1,0.3
					l-0.7,1l-0.2,0.2l-0.3,0.7l0,0.4l-0.3,0.1l0.1,0.3l0.1,0.2l-0.3,0.1l-0.6,0.8l0,0l-0.5,0.8l-0.2,0.1l-1,0l0,0.3l0.3,0.2l0,0.7
					l-0.2,0.2l-0.1,0.3l-0.1,0.3l-0.2,0.2l0,0.7l0,0.1l-0.2,0.3v0.4l0.1,0.2l0,0.4l-0.3,0.2l-0.6,0.2l-0.1,0.3l-0.4,0.4l0,0.6
					l-0.1,0.3l-0.5,0.1l-0.3,0.2l-0.3,0l-0.4,0.3l-0.3,0.1l-0.1,0.3l-0.7,0.6l-0.1,0.6v0.4l-0.2,0.3l0,0.3l-0.2,0.2l-0.1,0.6l-0.4,0
					l-0.3-0.1l-0.3,0.2l-0.2,0.9l0.1,0.2h0.7v0.2l-0.9,1.3l0,0l-0.1,0.4l-0.2,0.2l-0.1,0.3l-0.2,0.2l-0.2,0.9l-0.4,0.4l-0.1,0.3
					l-0.3,0.5l-0.1,0.3l-0.2,0.2l0,0.4l-0.2,0.1l-0.2,0.2l-0.3,0.1l-0.2,0.2l-0.3,0.1v0.3l0.2,0.2l-0.1,0.1h-0.3l-0.2,0.2l-0.1,0.7
					l-0.1,0.2h-0.7l-0.2-0.1l-0.3,0l-0.1,0.3l-0.3,0l-1.1,2l0,0.1l-0.4,0l-0.2,0.1l-0.4,0.4l-0.1,0.3l0,0.7l-0.2,0.2l0,0.3l0.3,0.4
					l0,0.3l-0.3,0.4l-0.6,0l-0.1,0.3v0.3l-0.4,0.2v0.4l0,0l-0.1,0l-0.1,0.3v0.4l0.1,0.3l0.4,0l0.3,0.4l-0.4,0.5l-0.3,0.5l-0.1,0.3
					l-0.4,0.6l-0.2,0.6l-0.2,0.4l-0.5,1.4l0,1.4l-0.1,0.3l0,0.3l0.3,0.2l0,0.3l-0.3,0.1l-0.4,0.3l0.1,0.4l0.2,0.1l0.3,0l0,0.4
					l-0.2,0.2v0.7l0.2,0.2l0.4,0.5l0.3,0.2l-0.2,0.1l-0.2,0.3l-0.3,0l-0.1-0.3l-0.2-0.2l-0.3,0.2l-0.4,0.5l-0.3,0.1l-0.1,1.7
					l0.2,0.3l0.3,0.1l1-0.1l0.3,0.1v0.4l-0.1,0.3l-0.1,0.3l-0.2,0.2v0.4l-0.1,0.3l0.1,0.4l0.3,0.2h0.3l-0.4,0.8l0,0.3l0.3,0.1v0.3
					l-0.2,0.6l0,0.3l0.1,0.3l0.2,0.2l0.3-0.2l0.1,0.2l0,0.6l-0.2,0.3l-0.2,0.9l-0.7,0.3l-0.3,0l-0.6,1.3l0,0.9l0.1,0.3h0.7l0.3,0.1
					l0.1,0.3l-0.2-0.2l-1.3-0.2l-0.7,1.3l0.1,0.2l0.2,0l-0.1,0.3l-0.2,0.2l0,0.3l0.5,0.3l0.2,0l0.3-0.1l-0.4,0.6l-0.6,0.2l-0.2,0.2
					l0,0.3l0.1,0.3l-0.5,0.4l-0.1,0.3l-0.1,0.3l-0.4-0.1l-0.1,0.2l-0.1,0.6l0,0.7l-0.9,1.7l-0.1,0.6l-0.3,0.5l0.2-0.3l0.3-0.1l0.3,0
					l0.1,1.5l0.2,0.2l0.3,0.1l-0.2,1l-0.6,0.3h0l-0.6,0.2l-0.6,0.5l-0.6,0.3l0,0.6l0,0.1l0,0.7l0.1,0.2h0.4l0,1.1l0.1,0.4l0.4,0.5
					l0.1,0.1l0.3-0.1l0.4-0.4l0,0.3l0,0.3l0.9,0.5l0.2,0l0.3,0.3l0.6,0.3l0.7,0.8l0.3,0.1l1,0.9l0,0.1l0.6,0.6l0.4,0.7l0.3-0.1
					l0.4-0.4l0.3-0.1l-0.2,0.4l-0.2,0.2v0.2l0.6,0.2l-0.3,0.3l-0.3,0l-0.2-0.3l-0.2-0.1l0.1,0.4l0.2,0.3l0.1,0.3l-0.1,1.8l-0.1,0.3
					l0.1,0.3l0.3,0.4l0.1,0.8l0.6,1.2v0.3h0.1l0-0.3l0.1-0.2l0.4,0l0.4,0.9l0,0.3l-0.3,0l-0.3-0.2l-0.1-0.2l-0.1,0.2l0,0.3l0.1,0.4
					l0,0.3l0.3,0.6v0.3l1.6,3.9l0,0.3l0.3,0.6l0.3,0.3l0.9,1.9l0.8,1l-0.4,0.5l-0.7-0.7l0.5,1.1l-0.7,0.7l0,0.8l-0.1,0.3l0.1,0.3
					l0.5,0.5l0.2,0.3v0.4l0.2,0.2l0,0.4l-0.2,0.1l0.1,0.2l0.3,0.1l0.2,0.6l0.5,0.5l0.1,0.3l0.2,0.3l0.2,0.1l0.2,0.2l0.1,0.3l0.6,0.7
					l0.1,0.3l-0.5,0.1l-0.1,0.1v0.1l0.3,0.1l0.6,0l0.1,0l0.6,0.6l0.3,0.1l0.4,0.5l0.1,0.3l2.3,1.8l0.3,0.1l0.5,0.5l1,0.3l0-0.1
					l-0.2-2.7l0.2-0.5l0.2-0.2l0.3,0.1v0.4l-0.1,0.2l0,0.7l-0.1,0.2l0.1,0.3l0,1.7l0.5,0l0.4,0.4l0,0.3l-0.2,0l0.3,0.4l0.9,0.7
					l0.2,0.2l0.3,0.1l0.1,0l0,0l0,0.1l0.6,0.2l0.2,0.2l0.3,0.2l0.5,0.2l0.2,0.2l0.3,0.1l0.2,0.2l0.3,0.1l0.2,0.2l1.8,1l0.2,0.3
					l0.3,0.1l2,1.6l0.2,0.2l0.4,1l-0.1,0.1l1,0.7l1.1,1.3l0.1,0.3v0.9l0.3,0.5l0.1,0.6l0,0.3l-0.1,0.3l0,0.3l0.7,0.6l0.2,0.2
					l0.2,0.2l0.1,0.2l0.2,0.6l0.6,0.6l-0.2,0.3v0.4l0.1,0.3l0.2,0.2l0.3,0.9l0,1l0.2,0.6v0.4l0.1,0.2l0.1,0.4l0.2,0.2l0.1,0.2
					l0.1,0.3l0.3,0.3l0,0.7l0.1,0.2l0,0.4l-0.1,0.2l-1,0.3l0,0.3l0.3,0.1l0.1,0.2l0,0.1l0.1,0.3l0.1,0.2l-0.1,0.2l-0.2,0.2l-0.5,0.3
					l0,0.3l0.2,0.2l-0.7,0.6v0.7l0.3,0.2v0.4l0.2,0.2l-0.1,0.3l0.7,0.6l0.1,0.3l0.2,0.2l0.1,0.2l0.1,0.5l-0.2,0.6l0,1.1l-0.2,0.5
					l0.2,0.2l0.3,0l0.2,0.6l0.2,0.3l0.7,0.1l0.3-0.4l0.2-0.2l0-0.3l-0.1-0.6l0.1-0.3l0.3-0.1l0.4-0.4l0.2-0.1h0.3l0.1,0.3l0.8,0.5
					l0.1,0l0.4,0l0.3,0.1l0.1,0.2l0.3,0.1l0.3,0.2l0.4,0.1l0.4,0l0.7,0.7l0,0.3l0.3,0.1l0.2,0.1l0.1,0.2l0,0.3l0.5,0.5h0.3l0.2-0.2
					l0-0.3l-0.2-0.2l-0.1-0.3l0-0.3l-0.1-0.3l-0.9-1.4v-1.3l0.1-0.3l-0.1-0.3l0.1-0.6l0.2-0.1l0-0.3l0.6-0.1l0.3-0.1l0.1-0.2
					l0.3-0.1l0.2-0.2l0.1-0.3l0-0.3l0.2-0.2l0.3,0l0.1-0.6l0.7-0.4l0.1-0.3l-0.4-0.5l0-1.7l-0.2-0.3v-0.4l0.5-0.8l0.2-0.2v-0.3
					l-0.3-0.1l-0.4-0.4l-0.1-0.3l0-0.9l0-0.1l0.2,0l0.1-0.1l0.1-0.1l0.1-0.1l-0.2-0.3l0-0.7l-0.2-0.2l0-0.1l0.1-0.1l0.1-0.1l0-0.1
					l0-0.1v-0.3l-0.1-0.2l-0.1-0.1l0-0.2l-0.1-0.1l-0.1-0.2l0-0.3l0.3-0.2l0.1-0.1l0-0.1l0-0.3l0-0.1v-0.1l0-0.1l-0.2-0.2l0.1-0.6
					l0.2-0.2l0.1-0.3l-0.2-0.2l-0.2-3l-0.2-0.3l0-1l0.1-0.3v-0.6l0.5-1.7l0.5-0.5l0.1-0.9l0.2-0.2l0.7-1.9l0.2-0.2l0.1-0.3l0.4-0.5
					l0.1-0.3l0.2-0.2l0-0.6l0.2-0.2l0.1-0.6l0.2-0.3l0-0.4l0.4-0.8v-0.7l0.2-0.2v-0.4l0.5-1.3v-0.5l0.2-0.1v-0.4l0.1-0.3l0-0.3
					l0.2-0.2l0-0.3l0.1-0.2l0.3-0.2l0.2-0.2l0.6-0.6l0.4-0.5l0-0.3l0.1-0.3l0-1l0-0.1l0-0.3l0.1-0.3l0-0.3l0.2-0.2l0-0.3l0.2-0.2
					l0.2-0.6l0.3-0.5l0.2-0.2l0.7-0.3l0.2-0.2l0.3,0l0.2-0.2l0.1-0.3l0.5-0.2l0.4-0.3l0.2-0.1l0.2-0.2l0.3,0l0.2-0.2l0.4-0.1
					l0.3-0.1l0.2-0.2l0.4-0.1l0.4-0.2l0.7-0.8l0.3-0.1l0.2-0.1l0.1-0.2l0.5-0.4l0.1-0.2l0.2-0.2l0.5-0.2l0.4-0.4l0.2-1.5l0.3-0.3
					l0.3,0l0.4-0.4l0.1-0.3l-0.2-0.5l0.1-0.3l-0.2-0.2l-0.2-0.1l-0.1-0.2l0.1-0.2h0.4l-0.1-0.2l-0.3-0.4l-0.1-0.2l0-0.3l0.1-0.2
					l1.1-0.9l0.6-0.1l0.3-0.1l0.6,0.1l0-0.6l0.4-0.5l0.3-0.1l0.2-0.2l0.1-0.6l0.4-0.8l0.4-0.4l0.6-1.4l0-0.6l0.1,0l0.2-0.3l0.2-0.2
					l0.3,0l0.1-0.3l0.6-0.6v-0.3l0.1-0.3l0.1-0.2l0.2-0.9l0.2-0.3l0.2-0.5l0.2-0.2l0.2-0.1l0-0.3l0.2-0.3l0.2-1l0.2-0.3l0.3-0.9
					l0.4-0.5v-0.4l0.1-0.2v-0.4l0.3-0.1l0.2-0.2l0.7,0l0.2-0.1l0.4-0.8l0.2-0.2l0.7,0l0.2-0.5l-0.6-0.6l0-1l0.3-0.3l0-0.7l-0.1-0.3
					l-0.4-0.7l-0.1-1.5l0.5-0.4l0-0.3l-0.2-0.2l0.2-0.1l0.2,0.3l0.3,0l0.3-0.2l0.1-0.2l-0.1-0.3l-0.2-0.2l0.3-1.2l0-0.4l0.1-0.3
					l0.2-0.2l0.1-0.7l0.2-0.2l0-0.3l0.1-0.3l0.3-0.2l0.1-0.2l0.2-0.6l0.2-0.2l0.3-0.1h0.3l0.3-0.2l0.2-1l0-1l0.3-0.7l0.3-2.3
					l0.3-0.2v-0.4l0.7-1.7l0.1-0.7l0.1-0.3v-0.4l0.1-0.3l-0.3-0.2l-0.1-0.1l0.3,0l0.3-0.1l0.2-0.2l0.1-0.3l0-0.7l-0.3-0.5v-0.7
					l-0.1-0.3l-0.1-0.1l0-0.4l0.2-0.3l0-0.7l0.2-0.6l0-0.4l0.3-0.4l0.1-0.3l0.3-0.2l0.2-0.6l0-0.7l0.2-0.3l0-2.3l0.2-0.3l0.1-0.6
					l0.3-0.1l0.2-0.2l-0.1-0.2l0-0.2l0.2-0.2l0.2-1.3l0.1-0.2l0-0.3l0.2-0.2l-0.1-0.5l-0.2-0.1l0-0.3l0.1-0.3v-0.3l0.3-0.2l0.6-1
					l0.3-1.2l-0.1-0.3v-1.9l0.2-0.6l0.5-0.6l0.1-0.3l0.3-0.7l0-0.3l0.1-0.3v-0.3l0.4-0.8l0.1-0.6l0.1-0.2l0-1l0.1-0.3l0.1-1.3
					l0.1-0.3l0-1l-0.3-0.6l0.2-0.6l0.2-0.2l0.1-0.3l0.2-0.2h0.3l0.1,0.2l0.4,0l0.1-0.6h-0.3l0.2-0.5l0.3-0.1l-0.1-0.2l0.1-0.3
					l0.3,0.1l0.2-0.6v-0.3l-1.3-1.4l-0.1-0.6l-0.1-0.2l0-2.2l0.3-0.5l0.6-0.6l0.3-0.1l0.6-0.7l0.3-0.1l0.3-0.4l0.1,0l0-0.1l0.1-1
					l0.1-0.1l-0.4-0.8v-1l0.2-0.6l0.7-1l0.2-0.1l0.2-0.2l0.3-0.1l0.6-0.5l0.3,0l0.2-0.2l0.6-1l0.6-0.1l0,0l0.1-0.4l0.3-0.1l0.2-0.5
					l0.2-0.2l0-1l0.5-0.7l0.4-0.4l0.2-0.3l0.3-0.1l0.1-0.2l0-1l-0.1-0.2l0-0.7l0.5-0.9l0.1-0.3l0.3-0.5l0.1-2l0.1-0.3l0.2-0.2v-0.4
					l0.2-0.6l0.3-0.4l0.1-0.3l0.5-0.3l0.2-0.2l0.2-0.5l0-0.3l0.8-0.8l0.8-0.4h0.3l0.1,0l-0.3-0.1l-0.2-0.2l-0.1-0.2v-0.4l-0.5-0.3
					l-0.1-0.9l0.3-0.2l0.2-0.2l0.6-0.1l0.5-0.3l0.3-0.1l0.1-0.3l0-0.3l-0.1-0.3l0-0.3l-0.1-0.2l-0.1-0.6l0.1-0.2l-0.2-0.3l0.1-0.3
					h0.3l0-0.3l-0.2-0.2l0-0.1l0.3-0.1l-0.2,0.1l-0.3-0.1l0-0.2l-0.4-0.4l0.1-0.3l0.3,0l0.3,0.2l0,0.3l0.3,0l0.3-0.1l-0.7-0.7
					l-0.6-0.2l-0.1-0.1l-0.1,0l-0.3-0.4l0-0.2l-0.7-1.7l0-0.7l-0.1-0.2l0.1-0.1v-0.4l-0.1-0.3l0.1-1.9l-0.5-0.6l-0.2-0.3v-0.3
					l-0.3-0.3l-0.1-0.6l0-0.3l-0.2-0.2l0.1-2.6l0.1-0.4v-0.3l0.2-0.5l0-0.7l0.2-0.6l0-0.3l0.4-0.9l0-0.3l0.2-0.4l0.3-0.1l0.2-0.5
					l0.2-0.2l0.3-0.1l0.7-0.8l0.2-0.1l0.6-0.7l0-0.6l0.1-0.3l0.5-0.3l0.3-0.1l0.3-0.4l0.2-0.2l0.2-0.1l0.5-0.6l0.1-0.3l0.3-0.2
					l0.3,0l0.2-0.1l0.2-0.2l0.3,0l0.2-0.1l0.4,0l0.7-0.3l0.1-0.3l0.3,0l0.1-0.2l0.5-0.2l0.1-0.2l0.3,0l0.1-0.3l0-0.3l-0.3-0.4
					l-0.3,0l-0.2,0.2l-0.2-0.4l-0.3-0.1l-0.2-0.2l-0.3-0.1l-0.3,0l-0.2,0.2l-0.3,0.2l-0.7-0.1l-0.9-0.7l-0.1-0.3v-1l-0.1-0.1
					l0.3-0.2l0-0.1l-0.8-0.8l-0.2-0.6l0.3-0.8l0.3-0.2l0.1-0.3l-0.1-0.2l-0.2-0.2l-0.1-0.2l0.1-0.2l0.2-0.1v-0.3l-0.3,0l-0.3,0.1
					l-0.2,0.2l-0.6,0.2h-0.4l-1.1-0.2l-0.3,0.1l-0.3-0.1l-0.8,0l-0.5-0.2l-0.3,0.1l-0.2,0.2h-0.3l-0.2-0.2l0.1-0.3l0.1-0.2l0.1-0.1
					h-0.4l-0.3,0.1h-0.4l-0.2-0.2l0.1-0.6l-0.3,0l-0.4,0.3l-0.4-0.4l-0.4,0l-0.2-0.1v-0.4l-0.3-0.1l-0.1,0.3l-0.3,0.1l-0.1-0.3h-0.2
					l0.1,0.3l0.3,0.4l-0.3,0.4l-0.5,0.4l-0.2,0l0.4-0.4l-0.1-0.3v-0.6l-0.3,0l-0.3-0.1l-0.3,0l-0.4-0.4h-0.7l-0.2-0.1l0-0.3
					l-0.1-0.3l-0.3-0.1l-0.2-0.2l-0.3-0.1l-0.3-0.2l-0.1-0.2l0.1-0.3l0.5-0.3l-0.1-0.1l-0.2-0.2l0.2-0.2l0.3-0.1l0.2-0.2l-0.1-0.2
					l-0.8,0.7l-1.2,0.1l-0.9-0.9l0-0.2l0.2-0.2l-0.1-0.2h-0.4l-0.3-0.1l-0.4-0.4l0.1-0.7l-0.1-0.3l-0.1-0.2l-0.2-0.2l-0.7-1
					l-0.6-0.2l-0.3-0.4l-0.3-0.1h-0.4l-0.3-0.2l-0.2-0.2L-1826-1776.4L-1826-1776.4L-1826-1776.4L-1826-1776.4z"/>
			</g>
		</g>
	</g>
</g>
</svg>
