<?xml version="1.0" encoding="utf-8"?>
<!-- Generator: Adobe Illustrator 22.1.0, SVG Export Plug-In . SVG Version: 6.00 Build 0)  -->
<svg version="1.1" id="Capa_1" xmlns="http://www.w3.org/2000/svg" xmlns:xlink="http://www.w3.org/1999/xlink" x="0px" y="0px"
	 viewBox="0 0 250 250" style="enable-background:new 0 0 250 250;" xml:space="preserve">
<style type="text/css">
	.st0{fill:#F2F2F2;}
	.st1{fill:#2F6FB2;}
	.st2{fill:#3170B2;}
	.st3{fill:#F3F2F2;}
	.st4{fill:#2F6FB2;stroke:#FFFFFF;stroke-width:0.5;}
	.st5{fill:#F2F2F2;stroke:#FFFFFF;stroke-width:0.5;}
	.st6{fill:#F3F2F2;stroke:#FFFFFF;stroke-width:0.5;}
	.st7{fill:#F2F2F2;stroke:#FDFDFC;stroke-miterlimit:10;}
	.st8{fill:#F2F2F2;stroke:#FFFFFF;stroke-miterlimit:10;}
	.st9{fill:#2F6FB2;stroke:#FDFDFC;stroke-miterlimit:10;}
	.st10{fill:#2F6FB2;stroke:#FFFFFF;stroke-miterlimit:10;}
	.st11{fill:#F3F2F2;fill-opacity:0;stroke:#FFFFFF;}
	.st12{fill:#F3F2F2;fill-opacity:0;stroke:#FFFFFF;stroke-linecap:round;}
	.st13{fill:#F3F2F2;stroke:#FFFFFF;}
	.st14{fill:#F2F2F2;stroke:#FFFFFF;}
	.st15{fill:#2F6FB2;stroke:#FFFFFF;}
	.st16{fill:#F2F2F2;stroke:#F2F2F2;}
	.st17{fill:#2F6FB2;fill-opacity:0;stroke:#FFFFFF;}
	.st18{fill:#2F6FB2;stroke:#FFFFFF;stroke-width:0.25;stroke-miterlimit:10;}
	.st19{fill:#F3F2F2;stroke:#FFFFFF;stroke-width:0.25;stroke-miterlimit:10;}
	.st20{fill:#F3F2F2;stroke:#FFFFFF;stroke-miterlimit:10;}
	.st21{fill:#F3F2F2;stroke:#FFFEFE;stroke-width:0.5;stroke-miterlimit:10;}
	.st22{fill:#2F6FB2;stroke:#FFFEFE;stroke-width:0.5;stroke-miterlimit:10;}
	.st23{fill:#F2F2F2;stroke:#FFFEFE;stroke-width:0.5;stroke-miterlimit:10;}
	.st24{fill:#F3F2F2;stroke:#FFFFFF;stroke-width:0.732;}
	.st25{fill:#2F6FB2;stroke:#FFFFFF;stroke-width:0.732;}
	.st26{fill:#F3F2F2;stroke:#FFFFFF;stroke-width:0.75;stroke-miterlimit:10;}
	.st27{fill:#2F6FB2;stroke:#FFFFFF;stroke-width:0.75;stroke-miterlimit:10;}
</style>
<path id="JP-23_1_" class="st19" d="M145.1,134.6l-0.1-0.2l0.2-0.9l-0.4-0.7l0.1-0.7l0.2-0.7l-0.1-0.2l-0.4,0.2l-0.6-0.2l0,0
	l-0.5-0.8l-0.2-0.6l0,0l0.1-1.1l0.8-1.4l0.6,0.1l0.8-0.2l0.7-0.5l0,0.3l0.6,0.4l0,0.3l0.2,0.1l0,0.2l0.1,0.2l0.2,0.1l0.1-0.1
	l0.5,0.2l0.3,0.3l0.4-0.1l0.4-0.4l0.3,0l0.4,0.2l0,0.1l0.4,0l0,0.1l0.5,0.2l0.8-0.7l0.4,0l0,0l-0.2,0.4l0.3,0.4l0,0.2l0.6-0.1
	l0.4-0.3l0.8,0.1l0.1,0.2l0.4-0.1l0,0l-0.1,0.5l0.3,0.2l-0.3,0.3l0,0.2l-0.2,0.1l-0.7,1l0,0.5l-0.6,0.9l-1.3,0.7l-0.2,0.6l0.1,1.1
	l0,0l-1.6,0.4l-1.7,0.6l-1,0.1l-0.1-0.1l0.4-0.8l0.2,0l0.1,0.3l1.1-0.5l0.4-0.3l0-0.2l0.2-0.2l0.2,0.1l0.1-0.1l0.1-0.6l-0.3-0.3
	l-0.8-0.1l-0.3,0.2l-0.1,0.4l-0.4-0.3l-1,0.1l-0.7-0.7l0.1-0.5l-0.2-0.1l-0.2,0.3l-0.1,1.1l0.5,0.4l0.1,0.4l-0.8-0.3L145.1,134.6
	L145.1,134.6z"/>
<path id="JP-05_1_" class="st18" d="M175.7,75.4l-0.3-1.3l-0.7-0.8l0.2-0.4l0.4,0.1l0.3,0.4l0.1-0.6l-0.1-0.2l0.2-0.3l0.1-0.7
	l-0.2-0.7l-0.5-0.2l-0.2,0.2l-0.3,0.4l-0.3,1l0.3,0.2l0,0.6l-0.4-0.1l-0.4,0.1l-0.1,0.1l0.1,0.4l-1,0l-0.5-0.9l-0.1-0.6l0.1-0.4
	l0.9,0.6l0.3-0.1l0.7-0.7l0.4-0.8l0.4-1.2l0.3-1.5l0-0.8l-0.8-0.9l0,0l0.2-0.1l0.5,0.2l0.1-0.4l0.4-0.2l0.3,0.2l0.1,0.2l0.7-0.1
	l0.4,0.1l0.7-0.2l0.4,0.1l0.2-0.5l0.6-0.1l0.1,0.4h0.4l0.6,0.6l0.5-0.4l0.6,0.4l0.4-0.3l0.4,0l0.3-0.3l0.3,0l0.1-0.5l0.6-0.2
	l-0.1,1.1l1-0.1l0.1,0.9l-0.2,0.1l-0.2,0.6l0.1,0.6l0,0l-0.2,0.3l-0.3,0.1l-0.4,0.5l0.2,0.2l-0.1,0.8l-0.3,0.2l0,1.3l0.3,1.2
	l-0.3,0.1l-0.2-0.2l-0.4,0.2l0,0.5l0.5,0.3l-0.4,0.7l-0.2,0.1l0.3,0.6l0.1,0.5l-0.2,0.6l-0.1,0l-0.3,0.4l-0.2,0.1l0.1,0.3l-0.2,0.6
	l-0.4,0.4l0,0.4l-0.2,0.1l0,0.3l0.2,0l0.3,0.6l-0.1,0.4l0.3,0.4l0.5,0.4l-0.2,0.5l0.4,0.2l-0.3,0.1l-0.2,0.4l0.1,0.1l-0.1,0.5
	l0.5,0.2l0.1,0.2l-0.4,0.7l0,0.6l0,0l-0.3,0.1l-0.8,0.8l-0.9,0.2l-0.1-0.1l0,0l-0.1-0.2l-0.7-0.3l-0.3-0.9l-0.5,0l-0.2-0.4l-0.5,0.1
	l-1.5-0.5l-0.4-0.3l-0.3-0.1l-0.1-0.6l-0.5,0.1l-0.2,0.2l-1.2-0.2l0,0l0.3-0.7l-0.1-0.4l0.2-0.4l0-0.3l0.2-0.3l0.3-0.1l0.5-1.2
	l0.4-2L175.7,75.4L175.7,75.4z"/>
<path id="JP-02_1_" class="st18" d="M186.1,60.9l0.4-0.4l0.3-0.5l0.3-0.9l0.1-1.2l0.3-0.6l-0.3-1l-0.4-0.5l-0.4,0l-0.4,0.8l-0.5,0.4
	l-0.7-0.2l-0.3,0.3l-0.9,0.2l-0.4,0.4l-0.4-0.2l0.3-2.2l0.2-0.3l0.1-0.9l0.7-1l-0.1-0.4l0.1-0.3l0.8,0.8l0.6,0.1l0.4,0.2l0.8,1
	l0.7,0.4l0.4,0.1l0.5-0.2l1-0.8l-0.7,3.3l0,2.5l0.3,2.7l0.7,2.4l0.6,0.5l0.3-0.2l0.1,0.3l0.9,0.9l0,0l-0.2,0.3l-0.7,0.3l-0.1,0.4
	l-0.4,0.3l-0.6-0.4l-0.3,0l-0.8,0.5l-0.3-0.5l-0.9,0.7l-0.7,0.2l-0.4,0.2l0,0.3l-0.2,0l-0.5,0.4l-0.5,0l-0.2-0.3l0,0l-0.1-0.6
	l0.2-0.6l0.2-0.1l-0.1-0.9l-1,0.1l0.1-1.1l-0.6,0.2l-0.1,0.5l-0.3,0l-0.3,0.3l-0.4,0l-0.4,0.3l-0.6-0.4l-0.5,0.4l-0.6-0.6h-0.4
	l-0.1-0.4l-0.6,0.1l-0.2,0.5l-0.4-0.1l-0.7,0.2l-0.4-0.1l-0.7,0.1l-0.1-0.2L176,66l-0.4,0.2l-0.1,0.4l-0.5-0.2l-0.2,0.1l0,0l0.1-0.9
	l-0.1-0.7l-0.2-0.4l-0.5,0l-0.1-0.4l0.9-0.7l0.5-0.9l0.3-0.2l0.3-0.1l0.6,0.3l0.7-0.5l0.4,0l0.2-0.3l0.5-1.7l0-1.8l-0.3-0.4l-0.3,0
	l0.1-0.2l0.4,0.1l0.2-0.2l0.2-1.4l0.5,0.3l0.3,0.5l0.3,0.2l0.3-0.1l0.5-0.5l0.5,0.2l0.3,0.3l-0.1,1.1l0.2,1.2l0.4,1.6l0.4,0.6
	l0.6-0.1l0.6-0.6l0.1-0.3l-0.1-0.6l0.2-0.7l0.7,0.3l0.3,0.5l-0.1,0.3l0.4,0l0.4,0.2l0.3,0.4L186.1,60.9L186.1,60.9z"/>
<path id="JP-12_1_" class="st19" d="M173.6,127.5l0.1-0.1l0.5,0.2l0.2-0.2l-0.1-0.3l0-0.3l0.7-0.2l-0.1-0.2l0.1-0.1l0.1,0.2l0.7-1
	l0.3,0.2l0.1-0.2l-0.3-0.6l-0.4-0.4l-0.6-0.6l-0.3,0.1l-0.2-0.4l0,0l-0.5-1.1l0,0l0.2-0.1l0.1-0.6l-0.8-1.6l0-0.5L173,119l0,0l0.2,0
	l0.2,0.4l0.8,1l0.3,0.1l0.1,0.3l0.5,0.3l1.2,0.4l0.3,0.3l0.5-0.2l0.4,0.1l0.3-0.2l0.4,0.1l0.4-0.4l1-0.3l0.5,0.3l0.4,0l0.5,0.5
	l0.6,0.1l0.5,0.7l1.2,0.7l0,0l-0.1,0.3l-0.4-0.2l-0.7,0.2l-0.4-0.1l-0.4,0.1l-1.3,1l-0.7,0.8l-0.5,1l-0.1,1.1l0.2,0.6l-0.3,1.4
	l-0.3,0.1l-0.2,0.5l-0.1,0l-1,0.3l-0.1-0.2l-0.6,0.1l-0.4,0.5l-1,0.7l-0.2,0.6l0,0.3l-0.2,0.3l-0.5,0.2l-0.6-0.1l-0.1-0.3l-0.6-0.3
	l0-0.1l0.4,0.1l0.6-0.3l-0.4-0.8l0.2-0.2l-0.2-0.2l0.1-0.3l-0.2-0.3l0-0.4l0.4-0.3l0-0.3l-0.2-0.4l0-0.2l-0.4-0.2L173.6,127.5z"/>
<path id="JP-38_1_" class="st19" d="M103.4,151.5l0.1-0.2l0.2-0.1l0.2,0l0-0.1l-0.1-0.1l-0.2-0.1l-0.2,0.1l-0.1,0.1L103,151
	l-0.1,0.2l-0.2-0.1l-0.1-0.1h-0.2l0.1-0.2l0.1-0.1l0.1,0l0.1-0.1l0-0.1l0-0.1l-0.1,0l-0.1-0.2l0.2-0.1l0-0.2l-0.1,0l0.2-0.2l0.1,0
	l0.1-0.1l0-0.2l-0.1,0.1l-0.2,0l0.1-0.2l-0.2,0l-0.2-0.2l-0.1,0l-0.2,0.1l-0.4,0.3l-0.3,0.1l-0.2,0.2l-0.5,0.2l-0.3,0.3l-0.1,0.1
	l-0.1,0.1l-0.2,0l0-0.1l0.2-0.1l0-0.1l-0.2,0l-0.4,0.3l-0.2,0.1l-0.1,0l1-0.9l0.2-0.1l0.3-0.2l0.3,0l0.1-0.2l0.1-0.1l0.2,0l0.1-0.1
	l0-0.1l0.6-0.3l0.4-0.3l0.4-0.2l0.1-0.2l0.4-0.5l0.3-0.2l0.7-0.3l0.6-0.4l0.1-0.1l0.2-0.5l0.2-0.2l-0.1-0.3l0-0.5l0.1-0.5l0.1-0.3
	l0.2,0.1l0.2-0.1l0.2-0.6l0-0.3l0.9-0.8l0.5-0.1l0-0.2l0.1-0.1l-0.1-0.3l0.2-0.3l0.4,0.4l0.5,0.7l0.3,0.7l0.2,0.3l0.1,0.2l0.2,0.2
	l0.5-0.2l0.7-0.2l0.2,0l-0.1-0.2l0.6-0.1l0.1-0.1l0.2,0l0.2,0.2l0.3-0.1l0.3,0l0.2,0l0.4,0.2l0.2,0l0.3-0.2l0.1-0.2l0.1-0.2l0.1,0
	l0.2-0.1l0,0l0.2,0.1l0.5,0.1l0.3,0.2l0,0l-0.1,0.3l0.1,0.2v0.5l-0.1,0.3l-0.2,0.1l0,0l-0.2,0l-0.3,0l-0.2,0.2l-0.2-0.2l-0.1,0
	l-0.3,0.4l-0.1,0.1l-0.1,0.1l-1,0l-0.4-0.1l-0.7,0l-0.1,0.1l-0.1,0.4l-0.1,0.1l-0.3,0.1l-0.2-0.2l-0.1,0l-0.1,0.3l-0.2,0.4l-0.2,0.2
	l-0.2,0.2l0,0.3l-0.1,0.1l-0.3,0l-0.1,0.3l-0.1,0.4l-0.1,0.2l0.1,0.1l0,0.3l-0.2,0.1l-0.3,0.4l0,0.1l-0.6,0.2l-0.1-0.1l-0.3,0
	l-0.6-0.1l-0.2,0.1l-0.2,0.1l0.2,0.2l0.1,0.5l0.1,0.1h0.1l0.1,0.3l0.2,0.1l0.1,0.2l0,0.3l0,0.1l-0.4,0.2l-0.6,0.2l-0.1,0.3l-0.1,0.6
	l-0.2,0l-0.1,0.1l-0.1,0.2l-0.3,0.4l-0.1,0l-0.5-0.4l-0.1-0.1l-0.1,0l-0.1,0.1l0.1,0.3l0,0.1l0.2,0.2l0.1,0l0,0.1l-0.1,0.4l0.1,0.1
	l0.1,0.5l0,0.6l-0.2,0l0,0.2l0,0l-0.2-0.1l-0.5,0.2l-0.1-0.1l-0.1-0.2l0-0.1l-0.2,0.1l-0.1,0l-0.1,0l0,0.1l0,0.1l-0.1,0.1l-0.2,0
	l-0.1,0l-0.1,0l0-0.2l-0.2-0.2l0-0.1l0.2,0l0.2-0.1l-0.3-0.2l0.1-0.1l0.1,0.1l0.1,0l0.1,0l-0.1-0.2l0-0.1l-0.1-0.1l-0.1,0l0-0.4
	l-0.1,0l-0.2,0.2l-0.2-0.1l-0.2,0.1l-0.1,0l0,0.1l0,0.1l-0.2-0.1l0.2-0.2l0-0.2l0.1-0.2l0.1,0l0.1,0.1l0.1,0.2l0.2,0l0.3-0.1
	l0.1-0.1l-0.1-0.1l0.1-0.2l0.2-0.3l0-0.2l-0.2,0l-0.1,0l-0.1,0l-0.1,0.1l-0.1-0.1l0-0.1l-0.2-0.1l0.1-0.2l0.1-0.2l-0.3-0.3l0.2,0.1
	l0.3,0.2l0.1,0.2l0.2,0l0-0.2l-0.1-0.2l0.1-0.1l0.3,0l0.1,0l0-0.1l-0.1-0.2l-0.1,0l-0.2-0.2l0.2-0.1l0-0.1l-0.4,0L103.4,151.5
	L103.4,151.5z"/>
<path id="JP-18_1_" class="st19" d="M134.5,125.1l0.6,0.3l0,0.2l0.1,0l0.2-0.1l-0.3-0.4l0.1-0.1l0.3,0.2l0.2-0.3l-0.3-0.2l-0.1-0.4
	l0.3,0.1l0.2,0.3l0.4-0.2l0.1,0.2l0.6-0.2l0.1-0.2l-0.1-0.2l0-0.5l-0.2-0.3l0.6-0.5l0.2,0.3l-0.1,0.7l0.2,0.3l0.3-0.1l0.2-0.7l0-0.6
	l-0.3-0.5l-0.7-0.7l0-0.5l-0.4-0.6l0.5-0.6l0.2-0.7l1-1.5l-0.1-0.3h0.4l0.7-0.5l0,0l0.8,0.8l0.1,0.6l0.2,0.2l0.4-0.1l0.3,0.4l0.2,0
	l0.8-0.2l0.9,0.7l0.1,0.3l0.9-0.2l0,0l0.1,0.2l-0.2,0.2l-0.1,0.7l0.2,0.2l0,0.3l0.4,0.1l-0.1,0.2l0.3,0.3l0.1,0.6l-0.3,0.2l-0.1,0.4
	l-0.6,0l-0.5,0.2l-0.2-0.3l-0.2,0.2l-0.3-0.1l-0.2,0.2l-0.4-0.1l-0.3,0.4l-0.1-0.2l-0.5,0l-0.6-0.2l-0.4,0.2l0,0.5l-0.5,0.8l0,0
	l-0.9-0.5l-0.3,0.1l-0.1,0.3l0.4,0.9l-0.1,0.4l-0.5-0.2l-0.2,0.5l-0.6,0.1l-0.2,0.4l-0.2,0l-0.4-0.4l-0.5,1.3l-0.3,0.1l-0.2-0.2
	l-0.3,0l0,0.2l-0.2,0l-0.2,0.4l0,0l-0.7,0.1l-0.7-0.3l-0.8-0.1l-0.1-0.4l-0.6-0.6l0.1-0.5l-0.3-0.2l0.2-0.4l0,0l0.4,0.1l-0.1,0.5
	l0.1,0.1l1.2,0.2l0.9-0.2l0.1-0.4l-0.3,0.1l0-0.2l-0.3-0.1l0.3-0.3L134.5,125.1L134.5,125.1z"/>
<path id="JP-40_1_" class="st19" d="M83.6,146.8l0.6-0.7l0.1-0.3l-0.1-0.2l-0.2,0l0-0.3l0.3,0l0.1-0.4l0.4-0.3l0-0.2l0.4,0l0.1,0.1
	l0.5-0.1l0.3-0.2l0.3-0.5l0.5,0.2l0.2-0.2l0.9,0.2l0.2,0.3l0.4-0.1l0.2-0.4l0.6-0.4l0.2,0.1l-0.3,0.7l0.1,0.5l-0.4,0.3l0.1,0.2
	l0.3-0.1l0.3,1.2l0.7,1l0.3-0.1l0.5,0.4l0,0L91,148l0.1,0.4l-0.2,0.3l0.1,0.2l-0.9,0.1l-0.5-0.1l-0.4,0.1l-0.8,0.7l-0.1,0.8
	l-0.2,0.1l-0.2,0.3l0.1,0.1l0.1,0.5l-0.1,0.3l-0.3,0.1l-0.1,0.2l0.2,0.1l0,0.3l0.4,0.4l-0.2,0.7l-0.2,0.1l0,0l-0.7-0.3l-0.3-0.3
	l-0.4,0l-0.1-0.2l-0.3,0.7l-0.7-0.1l-0.8,0.7l0.1,0.5l-1,0l0,0l0.2-0.5l-0.2-0.4l-0.4-0.4l0-0.2l-0.2-0.1l0,0l0.1-0.6l0.3-0.5
	l0.9-0.7l0.2-0.4l0.2,0l0-1.1l-0.2-0.1l-0.4,0.1l-0.5,0.5l-0.3-0.3l-0.4-0.1l-0.8-0.5l-0.2,0.1l-0.4-0.1l-0.3,0.2l-1.3,0l0,0
	l0.1-0.3l0.8-0.2l0.3-0.3l0.1-0.3l-0.2,0.1l-0.1-0.2l-0.1-0.1l-0.2,0.1l-0.1-0.2l0.6-0.2l0.1-0.2l-0.1-0.2l0.4-0.1l0.1-0.3l0.3,0.2
	l-0.1,0.2l0.1,0.2l0.4,0.1l0.1,0.3l0.2,0l0.1-0.2l0.3,0l0.5-0.2l0.1-0.4l0.3-0.1l0-0.3L83.6,146.8L83.6,146.8z"/>
<path id="JP-07_1_" class="st18" d="M184.4,108.5l-0.3,0.4l-1.2,0.6l-0.2,0.3l0,0.2l0,0l-1.7-0.5l-0.3-0.5l-0.2,0.2l0.2,0.6
	l-0.5,0.2l-0.7,0.7l-0.2-0.3l-0.6-0.2l-0.2-0.6l-0.4-0.1l-0.4-0.5l-0.3,0l0,0l-0.2-0.2l0.1-0.9l-0.4,0l-0.1-0.5l-0.5-0.5l-1.2-0.5
	l-1.2-0.1l-0.7,0.3l-0.1,0.4l-1.3,0.4l-0.1,0.2l-0.4,0.1l-0.1,0.2l-0.3,0l-0.4,0.4l-0.7,0.1l-0.3,0.5l-0.5,0.2l0,0l-1.1-0.3
	l-0.3,0.1l0-0.2l0,0l0.1-0.2l-0.1-0.6l0.1-0.4l-0.2-0.7l0.2-0.6l-0.2-0.4l-0.3-0.1l-0.3-0.4l0.5-0.7l0.1-0.6l0.1-0.6l-0.3-0.3
	l0.3-0.4l1-0.1l0.3-0.1l0.3,0.1l0.2-0.6l0.2-0.1l0.2,0l0.2,0.2l0.2-0.1l0.6,0.1l0.2-0.1l-0.2-0.4l0-0.4l-0.2-0.5l0-0.4l0.7-0.5
	l-0.1-0.1l0.3-0.6l0.8-0.8l0,0l0.4-0.1l0.3,0.3l0.5-0.3l0.3,0.2l0.3,0l0.2-0.2l0.5,0.8l0.6-0.2l0.7,0.5l0.4-0.3l0.6,0.1l0.6-0.8
	l-0.3-0.2l0-1l0.1-0.8l0,0l0.7,0.3l0.5-0.3l0.6,0.3l0.2,0.5l1.3-0.1l0.4,0.1l0.3,0.2l-0.1,0.6l0.1,0.4l0.3,0.2l0.6,0.1l0.1-0.1
	l-0.2-0.2l0.8,0l0.1-0.1l0-1l0.3-0.1l0.3,0.1l0,0l0.2,0.6l0.3,0.2l0,0.6l0.2,0.4l0.3,2.9v1.6L184.4,108.5L184.4,108.5z M182.7,110
	L182.7,110L182.7,110L182.7,110z"/>
<path id="JP-21_1_" class="st19" d="M141.1,129.3l-0.3-0.3l0.2-0.1l0-0.4l0.2-0.3l0-0.6l0.3-0.2l-0.3-0.4l0-0.5l-0.3-0.3l0.1-0.4
	l-0.3-0.3l-0.1,0.2l-0.4-0.1l0.1-0.8l-0.3,0l-0.1-0.5l0,0l0.5-0.8l0-0.5l0.4-0.2l0.6,0.2l0.5,0l0.1,0.2l0.3-0.4l0.4,0.1l0.2-0.2
	l0.3,0.1l0.2-0.2l0.2,0.3l0.5-0.2l0.7,0l0.1-0.4l0.3-0.2l-0.1-0.6l-0.3-0.3l0.1-0.2l-0.4-0.1l0-0.3l-0.2-0.2l0.1-0.7l0.2-0.2
	l-0.1-0.2l0,0l0.2-0.5l-0.1-0.4l0.3-0.1l0.5-0.8l0-0.2l-0.4-0.2l-0.1-0.3l0,0l0.3,0l0.1-0.5l0.4-0.3l0.1,0.3l0.2-0.2l0.4,0.2
	l0.2,0.4l-0.1,0.4l0.2,0l0.7-0.6l0.1-0.6l1-1l0.3,0l0.1,0.2l0.7-0.3l0.3,0l0,0.4l0.1,0l0.7-0.4l0.1,0.4l0.5,0.2l0.3-0.2l0.4,0.4
	l0.5,0l0,0l0.1,0.2l0.5,0.3l0,0.3l0,0.4l-0.7,0.9l0.2,0.3l0,0.3l-0.4,0.3l0,0.4l0.2,0.2l0.3,0.1l-0.2,0.8l-0.5,0.4l-0.2,0.4l-0.2,0
	l-0.3,0.5l-0.2,0l-0.2-0.2l-0.6,0.2l-0.2,0.5l-0.3,0.1l-0.1,0.3l0.1,0.2l0.5,0l0,0.2l0.6,0.2l0.4,0.9l0.4,0.3l-0.2,0.6l0.2,0.2
	l0,0.5l0.1,0.3l0.5-0.2l0.3,0.3v0.4l-0.3,0.3l0.3,0.5l-0.4,0.1l0.1,0.6l-0.4,0.3l0,0.3l0,0l-0.4,0l-0.8,0.7l-0.5-0.2l0-0.2l-0.4,0
	l0-0.1l-0.4-0.2l-0.3,0l-0.4,0.4l-0.4,0.1l-0.3-0.3l-0.5-0.2l-0.1,0.1l-0.2-0.1l-0.1-0.2l0-0.2l-0.2-0.1l0-0.3l-0.6-0.4l0-0.3
	l-0.7,0.5l-0.8,0.2l-0.6-0.1l-0.8,1.4l-0.1,1.1l0,0L143,130l-0.8-1.2L141.1,129.3z"/>
<path id="JP-10_1_" class="st19" d="M171.8,117.5l-0.1,0.3l-0.2,0.1l-0.3-0.2l-1.2,0.2l-0.9-0.6l-0.4,0.1l-0.5-0.1l-0.3,0.1
	l-0.8-0.4l-0.3,0l-0.6,1l0,0.4l-0.2,0.4l-0.7,0l-0.2,0.4l-0.7,0.2l-0.4,0.5l-0.6,0l-0.4,0.5l0,0l-0.2,0l-0.2-0.3l-0.3-0.1l-0.2-0.9
	l0.2-0.2l-0.1-0.3l-0.3,0l-0.2-0.4l0.1-0.1l0.2,0.2l0.2-0.2l0-0.4l-0.2-0.2l-0.1-0.5l0.5-0.3l0-0.7l-0.1-0.6l-0.4-0.1l-0.3,0
	l-0.2,0.2l-0.4-0.1l-0.1,0.1l-0.2,0l-0.6-0.4l0-0.6l0.3-0.8l0-0.5l0.5-0.6l0.5-0.1l0-0.5l0.9-0.2l0.7-0.4l0,0l0.1,0.1l0.2-0.3
	l0.6,0.2l0.4-0.3l0-0.5l0.3,0l0.7-0.3l-0.1-0.2l0.1-0.5l0.4,0.1l0-0.1l-0.1-0.9l0.8-0.1l0.4-0.4l0.1-0.5l0.7,0.7l0.1,0.4l0.4,0
	l0.1,0.2l0,0l0,0.2l0.3-0.1l1.1,0.3l0,0l-0.3,0.7l0.5,0.2l-0.5,0.7l0.1,0.6l-0.3,0.4l-0.1,0.7l0.7,0.4l0.6,0l0.2,0.3l-0.4,0.3
	l-0.2,0.6l0.2,0.4l-0.6,0.7l-0.1,0.5l0.5,0.4l0,0.3l0.5,0.5l0.5-0.1l0.3,0.2l0.5-0.1l0.2,0.1l0,0.1L171.8,117.5L171.8,117.5z"/>
<path id="JP-28_1_" class="st19" d="M122.4,134.5l-0.5,0.4l-0.6-0.1l0,0l-0.3-0.7l-0.5-0.5l-0.1-0.2l0.3-0.6l-0.3-0.4l0.2-0.2
	l0.1-0.4l-0.1-0.3l0.4-0.3l0-0.4l0.3-0.1l0.1-0.5l0.1-0.1l0.3,0l0-0.4l-0.3-0.3l0.2-0.4l0,0l0.3,0.1l0.8-0.6l-0.1-0.6l0.1-0.2
	l-0.4-0.5l0-0.5l-0.4-0.2l-0.2-0.9l0.1-0.5l-0.2-0.4l-0.3-0.3l0,0l1-0.3l0.6-0.4l0.6,0.1l0.2,0.2l0.4-0.3l0.7,0.1l0.6-0.1l0.2,0.2
	l0.5,0l0,0l0,1l0.4,0.4l0.1,0.3l0.3,0.1l0.6-0.3l0.2,0.3v1.3l-0.4,0.3l-0.6-0.3l-0.2,0.5l0,0.6l0.7,0.3l0.6,0.5l0.4-0.2l0.5,0l0,0.4
	l0.4,0.4l-0.1,0.3l0.3,0.1l0.2-0.2l0.4,0l0.1,0l0,0.4l0.4-0.1l0.5,0.2l0.1,0.6l-0.2,0.1l-0.1,0.3l0,0l-0.2,0l-0.1,0.1l0.2,0.1l0,0.5
	l-0.1,0.2l0.7,0.4l0.5,0.1l-0.4,0.2l0.2,0.1l-0.2,1l0.4,0.6l0.1,0.7l-0.3,0.6l0,0l-0.2-0.2l0.1-0.2l-0.1-0.3l-0.4,0.2l-0.2-0.3
	l-0.5-0.1l-1,0.5l0,0.3l-1.2,0.3l-2.1-0.8l-0.8-0.8L122.4,134.5L122.4,134.5z M126.9,139.8l0.1,0.4l-1,0.4l-0.5,0.4l-0.6,0.1l0-0.2
	l-0.3-0.1l0-0.2l-0.2-0.1l-0.3-0.5l0.3-0.5l0.2,0.1l0.2-0.1l0.6-1.4l0.2-0.2l0.2,0l0.5-0.7l0.5-0.2l0.4-0.5l0.3-0.1l0.2,0.4
	l-0.3,0.3l-0.1,0.4l-0.9,1.1l0,0.7L126.9,139.8L126.9,139.8z"/>
<path id="JP-01_1_" class="st19" d="M178.9,34.9l1.3-1l0-0.3l-0.9-1.5l-0.7-0.5l-0.3-0.6l0.3-1.2l-0.1-0.2l0.8,0.1l0.3-0.2l0.1-0.3
	l0.3-0.1l1.3,1.3l0.9,0.4l0.5,0.6l1.2-0.2l0.1-0.2l0.5-0.2l0.3,0l-0.1,0.6l1.5,0.7l1.1-0.6l1-1l0.5-0.8l0-1.1l-0.7-1.3l0.3-0.9
	l-0.3-0.7l-0.2-1.1l0.5-1l0.7-0.4l0.4,0l1-0.6l0.4-0.9l0.2-0.9l-0.2-3.8l0.2-0.2l0.8-1.7l0.1-1.4l0.2-0.4l0.1-0.8l-0.1-1.6l-0.4-1.9
	l-1.5-3.5l-0.1-0.6l0-0.5l0.4-0.6l0.4-0.9L190.7,2l0.1-0.6l0.4,0.4l0.1,0.3l0.2,0.1l0.9-0.1l0.7-0.5l0.3-1l0.4-0.1l0.2,0.2l0.3,0.6
	l0.3,0.2l0.3,0.7l1.1,0.8l1.1,1.5l2.4,2.7l1.9,3.5l1.2,1.2l1.2,1.5l2.7,2.1l0.8,0.4l0.2,0.5l0.6,0.5l1.8,0.9l1.6,0.6l2.8,0.8
	l1.3,0.3l0.2-0.1l0.1,0.4l0,0.6l0.4,0.7l0.3,0.2l1.6,0.5l1.6,0.1l1.2-0.2l1.1-1l0.7-0.9l1.1-1l0.9-0.6l0.3-0.7l0.5-0.6l0.4-0.7
	l0.2,0l0.2,1.1l-0.6,1.2l-0.4,0.4l-0.3,1.2l-0.8,1l-0.5,1l0,0.4l-0.4,1l0.1,0.5l0.7,1.2l0.7,1l0.7,2.5l0.7,0.9l-0.6-0.3l-0.1-0.3
	l-0.6-0.1l-0.1,0.2l0.1,0.6l0.4-0.3l0.2,0.2l-0.1,0.3l0.2,0.2l0.2-0.1l1.2,0.3l1-0.8l0.2-0.3l0.5-0.3l0.1-0.2l1.6,0.1l-0.1,0.2
	l-0.6,0.4l-0.8,0.1l-0.9,0.5l-0.4,1.4l-0.4-0.2l-0.6,0l-1.3,0.2l-0.7,0.4l-0.6-0.1l-0.3,0.3l-0.1,0.6l-0.8,1l-0.5,0.2l-0.9,0
	l-0.4-0.4l0-0.3l0.2-0.1l-0.3-0.2l-0.4,0l-0.6,0.8l0,0.2l0.6,0.5l-1-0.1l-0.6-0.2l-1.7,0l-0.3-0.1l-0.8-0.6l-1.5,0.3l-1.2,0.6
	l-1.6,1.2l-2.5,2.5l-2,2.8l-0.7,1.6l-0.1,0.8l0.3,0.7l-0.4,1.9l-0.4,0.7v0.8l-1.8-1.8l-2.3-1l-3.9-2.2l-1.2-0.8l-0.9-1l-1.6-0.5
	l-1.1-1l-0.9-0.6l-0.9-0.3l-1.2,0l-1.5,0.5l-1,0.6l-1.3,1.1l-0.8,0.4l-1,1.2l-0.2,0.4l-0.5-0.2l-0.2-0.3l0.2-0.1l0.3,0.3l0.1-0.4
	l-0.7-0.2l-0.4-1.1l-0.4-0.2l-0.5-0.5l-0.1-0.3l-0.6-0.6l-0.6,0l-0.6,0.3l-0.5-0.3l-0.6,0l-0.8,0.9l-0.7,1.3l-0.3,1.2l0.1,0.9
	l1.1,0.6l1.3,1.1l0.4,0.1l0.7-0.3l1,0.1l0.6,1.1l0.8,0.6l0.5,0.9l1.5,0.7l0.3,0.4l0.4,0.3l-0.3,0.3l-0.5,0l-0.5,0.6l-0.8,0.3
	l-0.4-0.4l-1.3-0.4l-0.4,0.1L182,50l-0.2,0l-0.1-0.3l0.3-0.2l-0.1-0.3l-0.3-0.2l-0.4,0l-0.2,0.2l-0.2,0.8l-0.7,0.5l-0.6,0l-0.2,0.2
	l-0.1,1.9l-0.2,0.2l-0.5,0l-0.9,0.4l-0.4,0.9l-0.2,0.2l-0.5-0.4l-0.6,0.1l-0.4-0.3l-0.5-1.3l0-0.4l0.2-0.9l0.7-1.5v-0.5l0.4,0
	l0.1-0.3l0.1-1.3l-0.2-1l-0.9-1.4l-0.3-0.2l-0.6-0.1l-0.2-0.6l-0.4-0.4l-0.6-0.2l-0.2-0.4l-0.1-0.7l0.1-0.5l0.5-0.5l0.2-0.5l0-1.3
	l-0.2-1.1l0.4-0.7l0.5-0.3l1.1,0l0.3-0.4l0.7-0.4l0.4-0.9l0.4,0.3l0.3,0.5l0.4-0.1l0-0.7l0.4-0.4L178.9,34.9L178.9,34.9z M186,5.2
	l0-0.6l0.6-0.6l1,0.6l0.2,0.9l-0.9,0.7l-0.7-0.5L186,5.2L186,5.2z M170.6,44.4l-0.1,1.1l-0.2,0.3l-0.3,0.1l0,0.2l-0.3-0.3l0-0.8
	l-0.2-0.5l0.4-0.5l0.9-0.2l0.2-0.3l0,0.3L170.6,44.4L170.6,44.4z M185.2,2.4l-0.1,1.3l-0.2,0.1l-0.4-1.4l0.1-0.6l-0.3-0.2l0-0.4
	l0.3,0.4l0.3-0.1l0-0.3l0.2,0.1l0.2,0.4L185.2,2.4z"/>
<path id="JP-34_1_" class="st19" d="M104.9,141l-0.4-0.3l-0.7,0.8l0.1,0.4l0.4-0.1l0.2,0.1l-0.1,0.1l-0.3,0.3l-0.1-0.1l-0.7,0.1
	l-0.1-0.3l0.6-0.3l-0.1-0.2l0.1-0.3l0.3-0.2l0-0.5l-0.3-0.8l0.1-0.5l-0.6-0.3l-1.1,0.5l0,0.2l-0.8,0.8l-0.1,0.2l0.1,0.1l0,0
	l-0.2,0.1l-0.6-0.1l-0.2-0.7l0-0.3l-0.4-0.4l-0.1-0.7l0.1-0.4l-0.1-0.3l0,0l-0.2-0.3l0.1-0.3l0.3-0.1l0.3-0.3l0.1-0.9l0.3-0.5
	l-0.3-0.2l0.1-0.2l0.7-0.4l0.1-0.6l0.4,0.1l0.2,0.2l0.1-0.2l0.6-0.1l0.3,0.2l0.2-0.2l0-0.1l0.2-0.1l0.1,0.2l0.8,0.1l0.7-0.5l0.9-0.1
	l0-0.4l-0.3-0.1l-0.2-0.2l0.4-0.5l0.6-0.1l1.2-1.6l0.2,0l0.6,0.3l0.4-0.3l0.5,0.4l0.7-0.2l0.3,0.1l0,0v0.1l1-0.2l0.2,0.2l0,0
	l0.5,0.6l-0.2,0.6l0,0.8l0.8,1l-0.1,0.5l0.2,0.9l0,0.7l0.6,0.8l0.1,0.8l0,0l-0.2,0.6l-0.4,0l0,0.4l-0.2,0.1l-1.2-0.2l0-0.1l0.3-0.1
	l0-0.3l-0.3-0.1l0,0.2l-0.3,0.1l-0.8,0.3l-0.4,0l-0.1,0.5l-0.6,0.2l-0.6-0.1l-0.6,0.1l-0.2,0.3l-0.3,0.1l-0.1-0.3l-0.3,0l-0.1,0.4
	l-0.2-0.1l0,0.5l-0.6,0L104.9,141L104.9,141z"/>
<path id="JP-08_1_" class="st19" d="M180.4,116.5l0,1l0.4,1.6l1.3,2.7l0.8,1.2l0.4,0.2l0,0.2l0,0l-1.2-0.7l-0.5-0.7l-0.6-0.1
	l-0.5-0.5l-0.4,0l-0.5-0.3l-1,0.3l-0.4,0.4l-0.4-0.1l-0.3,0.2l-0.4-0.1l-0.5,0.2l-0.3-0.3l-1.2-0.4l-0.5-0.3l-0.1-0.3l-0.3-0.1
	l-0.8-1l-0.2-0.4l-0.2,0l0,0l-0.2,0.2l-0.2,0l-0.4-0.9l0.1-0.4l0,0l0.4,0l0.8-0.4l0.3-0.8l0.5,0.1l0.1-0.4l0.5-0.2l0.1-0.2l0.8,0
	l0.1-0.1l0-0.3l0.3,0.1l0.2-0.2l0.2,0l0.1,0.2l0.3-0.1l0.1-0.6l0.4-0.9l0-0.9l-0.3-0.9l0.1-0.2l0.5-0.1l0-0.1l-0.3-0.5l0.1-0.6
	l-0.1-0.5l0-1l0,0l0.3,0l0.4,0.5l0.4,0.1l0.2,0.6l0.6,0.2l0.2,0.3l0.7-0.7l0.5-0.2l-0.2-0.6l0.2-0.2l0.3,0.5l1.7,0.5l0,0l0,0l0,0
	l0,0l0,0l0.1,0.3l-0.3,0.1l-0.2,0.5l-0.6,1.9l-0.3,0.6l-0.4,1.1l0.1,1.4L180.4,116.5L180.4,116.5z"/>
<path id="JP-17_1_" class="st19" d="M143.9,107.2l0-0.6l-0.2-0.1l-0.2,0.2l-0.1-0.1l0.3-1.1l0.2-0.2v-0.8l0.2-0.2l0.7-0.6l0.5-0.2
	l0.5,0.1l1.4-0.7l0.2-0.3l0.5-0.2l0.6-0.1l0.6-0.3l0.5,0.1l0.2,0.3l-0.1,0.2l0.2,0.4l-0.3,0.1l-0.5,0l-0.3,0.2l-0.1,0.6l0.3,0.5
	l-0.3,0.5l-0.9,0l-0.4,0.2l-0.3,0.7l-0.6,0.4l-0.3-0.3l-0.2,0l0.1-0.3h-0.2l-0.7,1l0.3,0.1l-0.1,0.3l-0.2,0.1l0.1,0.2l-0.1,0.2
	l0.3,0l0.3-0.3l0.5,0.5l0.4-0.3l0.1-0.3h0.3l0,1.7l0,0l-0.6,0l-0.3,0.1l-0.7,0.7l-0.3,1.7l-0.3,0.3l-0.1,0.5l0.1,0.2l-0.4,0.6
	l0.1,0.5l0.2,0.3l-0.4,1.4l0.2,0.9l-0.2,0.2l0.1,0.4l0,0l0.1,0.3l0.4,0.2l0,0.2l-0.5,0.8l-0.3,0.1l0.1,0.4l-0.2,0.5l0,0l-0.9,0.2
	l-0.1-0.3l-0.9-0.7l-0.8,0.2l-0.2,0l-0.3-0.4l-0.4,0.1l-0.2-0.2l-0.1-0.6l-0.8-0.8l0,0l0.5-0.7l0.4-0.2l0.7-0.7l2.2-2.9l0.5-1
	l0.6-1.8l0-1.1l-0.5-0.7L143.9,107.2L143.9,107.2z"/>
<path id="JP-03_1_" class="st18" d="M193.3,80.6l0.2,0.1l0,0.2l-0.4,0l0.3,0.3l0.2,0l0.2,0.3l-0.5,0.2l-0.4,0l0,0.2l0.2,0.1l0.3-0.1
	l0,0.1l-0.3,0.3l-0.4,0l-0.1,0.1l0.8,0.5l-0.4,0.1l-0.6-0.3l0.1,0.5l0.5,0.1l-0.6,0.1l0.4,0.3l-0.1,0.1l-0.5,0l-0.2,0.1l-0.2-0.2
	l0-0.3l-0.2-0.1l0,0.3l-0.1,0.2l0.3,0.4l-0.2,0l0.1,0.4l-0.2,0.2l-0.3-0.5l0.1-0.3l-0.1-0.1l-0.4,0l0.1,0.4l0,0l-0.6-0.2l-0.7-0.1
	l-0.1,0.3l0.1,0.9l-0.3,0.3l0,0.2l-0.2,0.9l-1.2-0.5l-0.4,0.4l-0.1,0.3l-0.3,0.1l-0.9-0.5l-0.2-0.5l0.3-0.3l-0.1-0.2l-0.3-0.1
	l-1.1,0.1l-0.3-0.4l-0.7-0.2l-0.6-0.4l-0.5,0.1l0,0l0-0.6l0.4-0.7l-0.1-0.2l-0.5-0.2l0.1-0.5l-0.1-0.1l0.2-0.4l0.3-0.1l-0.4-0.2
	l0.2-0.5l-0.5-0.4l-0.3-0.4l0.1-0.4l-0.3-0.6l-0.2,0l0-0.3l0.2-0.1l0-0.4l0.4-0.4l0.2-0.6l-0.1-0.3l0.2-0.1l0.3-0.4l0.1,0l0.2-0.6
	l-0.1-0.5l-0.3-0.6l0.2-0.1l0.4-0.7l-0.5-0.3l0-0.5l0.4-0.2l0.2,0.2l0.3-0.1l-0.3-1.2l0-1.3l0.3-0.2l0.1-0.8l-0.2-0.2l0.4-0.5
	l0.3-0.1l0.2-0.3l0,0l0.2,0.3l0.5,0l0.5-0.4l0.2,0l0-0.3l0.4-0.2l0.7-0.2l0.9-0.7l0.3,0.5l0.8-0.5l0.3,0l0.6,0.4l0.4-0.3l0.1-0.4
	l0.7-0.3l0.2-0.3l0,0l0.7,1l0.7,1.7l-0.5,0.5l0.7,0.3l0.2,0.3l-0.1,0.1l-0.2,0l-0.2,0.3l0.1,0.5l0.2,0.2l0.2,0.1l0.2,0.4l0.3,0.1
	l0.2,0.3l-0.2,0.8l0.3,0.6l0.1,1.4l-0.2,0.8l0.2,0l-0.4,1.2h0.1l0.6-0.9l0,1l0.3,0l0.1,0.3l-0.1,0.2l-0.3,0l-0.4,0.6l-0.3,0.1
	l0.2,0.4l0.6-0.5l0.1,0l0.1,0.2l-0.2,0.6l-0.5,0.1l-0.4,0.3l-0.4,0.6l0.2,0.2l0.4-0.2l0.2,0.3l-0.8,0.1L193.3,80.6L193.3,80.6z"/>
<path id="JP-39_1_" class="st19" d="M109.5,153.9l-0.1,0.5l-0.5-0.2l-0.3,0.2l-0.2,0.8l0.2,0.8l-0.6,0.2l0,0.5l0.5,0.3l0.2,0.7
	l-0.1,0l-0.8-0.7l-0.4-0.1h-0.2l-0.6,0.5l-0.3-0.2l-0.1,0.1l-0.4-0.5l-0.8,0.4l0-0.4l0.3-0.5l0-0.2l0.6-0.6l-0.1-0.2l-0.4,0l0-0.2
	l0.2,0l0-0.6l-0.2-0.6l0.1-0.4l-0.4-0.4l-0.1-0.4l0.2-0.2l0.5,0.6l0.1,0l0.4-0.7l0.3-0.1l0.2-0.8l0.6-0.2l0.4-0.3l0-0.3l-0.3-0.2
	l-0.5-1.1l0.4-0.2l1,0.1l0.6-0.2l0.5-0.7l-0.2-0.4l0.3-0.9l0.4-0.2l0-0.3l0.4-0.4l0.3-0.7l0.3,0.2l0.3-0.1l0.3-0.5l2.1,0l0.5-0.6
	l0.3,0.1l0.2-0.2h0.5l0,0l0.2,0.3l0.6,0.3l0.9-0.1l0.3,0.4l0.4,0.2l0.3-0.1l0.2-0.4l0.2-0.1l0.1,0.2l0.3-0.1l0.2,0.6l0,1l1,0
	l0.1,0.4l-0.2,0.3l0,0.2l0.4,0.6l1,0.1l0,0l-0.9,1.7l-0.3,1.7l-0.4-0.6H119l-0.1-0.4l-0.5-0.5l-0.2-0.5l-0.7-0.3l-0.2-0.5l-1.6-0.3
	l-0.2-0.3l-1.5,0.2l-0.1,0.2l-1.1,0.6l0,0.3l-1.1,0.2l-0.3,0.5l-0.1-0.3l-0.4,0.1l0,0.3l-0.1,0.1l0.1,0.2l-0.2,0.4l0.2,0l0,0.3
	l-0.2,0.1l0.1,0.3l-0.4,0.5l0.1,0.4l-0.1,0.1l0-0.2l-0.2,0L109.5,153.9L109.5,153.9z"/>
<path id="JP-37_1_" class="st19" d="M115.8,139.9l1-0.6l0.1-0.5l1,0.3l0.8,0l0.5-0.6l0.3,0.2l-0.1,0.5l0.1,0.2l0.2,0l0.1-0.2l0.2,0
	l0.5,0.1l0,0.2l-0.2,0.1l0.1,0.2l0.5,0.1l0.4,0.3l0.2,0l0.7,0.5l0,0l-0.1,0.5l-0.2,0.1l-0.5-0.3l-0.1,0.1l-0.8-0.1l-0.8,0.1
	l-0.4,0.3l0,0.2l-0.2,0.2l-0.6,0.1l-0.6,0.4h-0.2l-0.4-0.5l-0.7,0.1l-0.4,0.1l-0.1,0.2l-0.3-0.1l-0.5,0.4l-0.1,0.2l-0.3,0.1l0,0
	l-0.9-0.4l0.3-0.2l0.2-1.5l-0.7-0.6l0-0.2l0.1,0l0.8,0.4l0.3-0.1L115.8,139.9L115.8,139.9z"/>
<path id="JP-43_1_" class="st19" d="M86.8,164.8l-0.6-0.3l-0.1-0.2l-0.3-0.1l-0.2-0.3l-0.3,0.4l-0.4,0.2l-0.4,0l-0.3,0.3l-0.5-0.1
	l-0.2-0.3l-0.3-0.1l0,0l0.1-0.5l0.5-0.5l0.6-1.3l0.8-0.8l-0.1-0.5l-0.2,0l0-0.2l0.3,0l0.1-0.1l-0.4-0.3l1.2-1.2l-0.1-0.1l-0.5,0.2
	l-1.3,0l0-0.2l1.3-0.9l0-0.7l0.1-0.2l-0.4-0.6l-0.4-0.1l-0.1-0.4l-0.7-0.3l-0.2-0.8l-0.3-0.2l0,0l1,0l-0.1-0.5l0.8-0.7l0.7,0.1
	l0.3-0.7l0.1,0.2l0.4,0l0.3,0.3l0.7,0.3l0,0l0,0.1l0.4,0.1l0.3,0.4l0.3,0l0.2,0.3l0.2,0l0.2-0.3l0.1-0.4l-0.4-0.6l0.1-0.4l0.5-0.3
	l0.7,0.1l0.5,0.5l0.1,0.6l0.4,0.4l0.3,0.8l0.1,1.1l0.7,0.6l0,0l-0.6,0.1l-0.3,0.5l0,0.4l-0.5,0.3l-0.1,0.4h-0.3l-0.2,0.3l-0.1,0.7
	l-0.2,0.2l-0.3-0.1l-0.1,0.3l-0.2,0.1l-0.1,0.7l0.1,0.5l0.2,0.3l0.2,0l0.1,0.6l0.4,0.3l-0.3,0.5l-0.3,0l-0.1,0.3l0.6,0.6l0.1,0.4
	l-0.4,0.1l-0.5-0.2l-0.3,0.6l-0.2,0.1l-0.4-0.2l-0.5,0.3L86.8,164.8L86.8,164.8z M83.9,160.1l0.2,0l-0.1,0.6l-0.3,0.4l0.1,0
	l-0.3,0.4l-0.4,0.2l-0.6-0.3l-0.4,0l0-0.2l-0.2-0.1l-0.2,0.2l0.2,0.2l0,0.2l-0.2,0.5l-0.9,0.7l-0.1,0.4l-0.5,0.3l0,0.5l-0.2,0.1
	l-0.3-0.5l0.1-0.4l-0.4-0.1l0.3-0.7l-0.2-0.3l0-0.3l0.6-1.2l0.1-0.5l0.7-0.3l0.7-0.1l0.1,0.1l-0.1,0.4l0.1,0.5l0.8-0.4l0.3-0.3
	l0.4-0.1l0.3,0.2L83.9,160.1L83.9,160.1z M81.4,163.5l0-0.3l0.3-0.3l-0.1,0.5l0.3,0.8l-0.2,0.1l-0.2,0.6l-0.5-0.4l0-0.4l-0.2-0.2
	l0.1-0.4L81.4,163.5L81.4,163.5z M84.1,159.7l-0.3,0.1l-0.2-0.1l-0.1-0.4l0.5-0.4l0.2,0.4l-0.2,0.2L84.1,159.7z"/>
<path id="JP-14_1_" class="st19" d="M164.8,127.1l0.2-0.5l0.9-0.4l0.2-0.3l0.3,0l0.2-0.3l0.2-0.3l0-1.3l0,0l0.3,0.1l0.2,0.3l0.3,0
	l0.3,0.5l0.4-0.1l1,0.3l0.7,0.9l0.1,0l0.1-1l-0.4-0.3l0.1-0.1l0.2,0.2l0.4-0.4l1.3,0.6l0.2,0.3l0.2,0.1l0,0.2l0,0l0.3-0.1l0,0h0l0,0
	h0l0,0h0l0,0l0.2,0.4l-0.7,0.4l-0.4,0l-0.2,0.2l0.2,0.2l0.2-0.1l0.2,0.1l-0.2,0.4l-0.2-0.1l-0.2,0l0,0.2l0.2,0.1l0.1,0.6l-0.2,0.3
	l0.5,0.4l0.5,0.1l-0.2,0.5l-0.3,0l-0.3,0.3l0.1,0.3l0.2,0l0,0.2l-0.6,0l0.1-0.6l-0.2-0.6l-0.3-0.3l0-0.3l-1.2-0.3l-1.2,0.2l-1,0.3
	l-0.6,0.4l-0.1,1l-0.3,0.2l0,0l-0.7-0.1l-0.1-0.3l-0.3-0.3l-0.1-0.7l0.3-0.3l0.1-0.5l-0.2-0.7l-0.1-0.1L164.8,127.1L164.8,127.1z"/>
<path id="JP-46_1_" class="st19" d="M82.3,172.3l0.5-0.9l0.1-1.1l-0.1-0.5l-1.5-1.5l0.5-1.3l-0.1-0.5l-0.4-0.7l0.3-0.5l-0.3-0.3
	l0.1-0.3l0.4-0.2l0.3,0l0.3,0.2l0.5,0l0.2-0.5l0,0l0.3,0.1l0.2,0.3l0.5,0.1l0.3-0.3l0.4,0l0.4-0.2l0.3-0.4l0.2,0.3l0.3,0.1l0.1,0.2
	l0.6,0.3l0,0l-0.2,0.5l0.3,0.1l0.4,0.4l0.2,0.7l0.5,0.2l0.4,0.4l-0.1,0.6l-0.1,0l0.1,0.4l0.3,0l0.1,0.2l0.5,0.1l-0.1,0.3l0.4,0.1
	l0.1,0.8l0.3,0.5l0.2-0.3l0.3,0.3L91,170l0.2,0.1l0.1,0.4l-0.1,0.3l0.1,0.4l-0.3,0.3l-0.1,0.3l0,0l-0.6-0.2l-0.5,0.4l-0.3,0.5l0,0.4
	l0.9,0.3l0,0.2l-0.3,0.3l0.1,0.1l0.4-0.1l0.1,0.1l-0.6,0.5l-0.5,0l-0.1,0.4l-0.4,0.6l-0.9,0.5l-0.7,0.1l-1.3,1l0.2-0.7l-0.2-0.2
	l0.9-0.7l0.2-0.5l-0.1-0.3l0.3-0.4l0.1-0.9l-0.5-1l-0.2-0.3l-0.3-0.1l0.1-0.9l-0.7,0l-0.4-0.4l0.3-0.4l0.5-0.1l0.4,0.3l-0.1,0.4
	l0.5,0l0.5-1l-0.2-0.5l-1.3-0.4l-0.4,0.3l-0.1,0.6l-0.4,0.6l0.1,0.3l-0.3,0.7l-0.1,0l-0.1,0.5l0.1,0.6l0.4,1l0.5,0.5l0.4,0.1
	l-0.3,0.9l-0.5,0.4l-0.3-0.2l-0.4,0.1l-0.1-0.1l0-0.4l-0.5-0.4l-1,0l-0.4-0.2l-0.9,0.2l-0.1-0.7l-0.3-0.1l0.3-0.3l-0.7-0.7l0.3-0.3
	l0.1,0.2l0.5,0.2L82.3,172.3L82.3,172.3z M84.6,183l0.7,0.3l0,0.2l0.7,0.2l0.3,0.3l-0.2,0.9l-0.6,0.6l-0.6,0.1l-0.8-0.1l-0.1-0.4
	l-0.1,0.1l0-0.3l-0.2-0.3l-0.1-0.6l0-0.2l0.5,0l0.4-0.4l0-0.2L84.6,183L84.6,183L84.6,183L84.6,183z M88.9,181.7l-0.1-1l0.4-0.6
	l0.1,0l0.1-0.6l0.5-0.6l0.2,0.6l-0.1,0.3l0.1,0.8l-0.2,0.3l0,0.6l-0.2,0.3l0,0.2l-0.3,0.2l-0.4,0.7l0.1,0.1L89,183l0.2,0.3l-0.1,0.2
	l0.1,0.2l-0.2,0.1l0,0.2l-0.4,0l-0.5,0.3L88,184l0.1-0.4l-0.2-0.7l0.2,0L88.9,181.7L88.9,181.7z M77.2,169.9l-0.4,0.2l-0.2-0.1
	l-0.1-0.3l0.2-0.1l0.2-0.5l0.6-0.2l0.2-0.6l0.2,0.1l0,0.2l-0.3,0.6l-0.3,0.1l0.1,0.2l-0.2,0.2l0.1,0.2L77.2,169.9L77.2,169.9z
	 M78.2,167.7l-0.2-0.3l0.2-0.2l0.3,0l0.2,0.2l0.4-0.1l0.1,0.2l0,0.3l-0.4,0.1l-0.2-0.1l0-0.2l-0.2-0.2L78.2,167.7z M82,182.9
	l0.3,0.2l0,0.1l-0.2,0l-0.3,0.2l-0.2-0.2l0-0.2l-0.2,0.1l-0.3-0.4L82,182.9L82,182.9z"/>
<path id="JP-26_1_" class="st19" d="M131,131.3l0.1-0.3l0.2-0.1l-0.1-0.6l-0.5-0.2l-0.4,0.1l0-0.4l-0.1,0l-0.4,0l-0.2,0.2l-0.3-0.1
	l0.1-0.3l-0.4-0.4l0-0.4l-0.5,0l-0.4,0.2l-0.6-0.6l-0.7-0.3l0-0.6l0.2-0.5l0.6,0.3l0.4-0.3l0-1.3l-0.2-0.3l-0.6,0.3l-0.3-0.1
	l-0.1-0.3l-0.4-0.4l0-1l0,0l0.1,0.1l0.5,0l0.3-0.1l0.2-0.4l0.4,0l0.9-0.7l0.9-0.3l0.5,0.3l0.3,0.6l-0.5,0.5l-0.1,0.4l-0.5,0.6l0,0.3
	l0.1,0l0.3-0.5l0.3,0.2l0.1,0.1l-0.3,0.3l0.7,0.3l0.1-0.2l0.1,0.7l0.2-0.2l0.4,0.1l0-0.2l-0.6-0.4l0.4-0.3l0.4-0.1l0.1-0.3l0.2,0
	l0,0.3l0.2,0.1l0,0l-0.2,0.4l0.3,0.2l-0.1,0.5l0.6,0.6l0.1,0.4l0.8,0.1l0.7,0.3l0.7-0.1l0,0l0.6,0.9l0.2,0l-0.2,0.7l0.2,1l-0.1,0.8
	l-0.2,0.1l0.1,0.6l0.4,0.7l-0.1,0.5l0.3,0.2l0.4-0.2l0.1,0.4l0.1,0l0.1,0.2l0.2-0.1l0.3,0.3l-0.1,0.1l0.1,0.2l0,0l0.2,0.6l0,0
	l-0.2,0.4l-0.3,0l-0.2-0.3l-0.5,0l0-0.2l-0.4,0.5l-0.4,0l-0.9-0.3l-0.3-0.6l0,0l0.1-0.3l-0.5-0.6L134,133l-0.6-0.6v-0.3l-0.4,0
	l-0.1,0.3l0.2,0.2l-0.4,0.1l-0.3-0.4l-0.1,0.1l0-0.6l-1-0.3L131,131.3L131,131.3z"/>
<path id="JP-24_1_" class="st19" d="M143.7,140L143.7,140l0.2-0.5l-0.3-0.2l-0.3,0.7l-0.5,0.4l-0.2,0l-0.1-0.4l-0.1,0l-0.1,0.4
	l0-0.3l-0.3,0l0.1,0.5l-0.1,0.1l-1.4,0.3l-0.2-0.1l-0.3,0.3l-0.3,0.5l0.2,0.3l0.2,0l-0.2,0.3l-0.3,0l-0.2-0.3l-0.2,0.1l0.1,0.2
	l-0.3,0.1l0.1,0.2l0.3,0l0,0.3l0.3,0.2l-0.1,0.6l-0.3,0l-0.4,0.5l-0.5,0.1l-0.2,0.3l-0.3,0l-0.5,0.9l-0.3,1l0,0l-0.6-0.1l-0.8-0.9
	l0-0.9l0,0l0.5-0.8l0.6-0.2l0.4-0.5l0.8,0.1l-0.1-0.6l0.1-0.1l0.1-0.8l-0.2-0.3l0.4-0.7l-0.3-0.6l0.3-0.2l-0.6-0.9l0.2-0.5l1.1-0.2
	l0.2-0.5l-0.1-0.5l-0.3,0.1l-0.2-0.5l-0.4,0.1l-0.5-0.2l-0.1-0.2l0.2-0.5l0-0.3l0.2-0.3l-0.4-0.8l0,0l-0.2-0.6l0,0l0.6-0.3l0-0.2
	l0.4-0.3l0-0.1l-0.3,0l0-0.1l0.2-0.2l0.2,0.2l0.5,0l0.6,0.3l1.1-0.5l0.1-0.4l0.4-0.5l0-0.7l0.4-1.2l-0.3-0.4l0-0.4l0,0l0,0l0,0
	l1.1-0.5l0.8,1.2l0.5,0.1l0,0l0.2,0.6l0.5,0.8l0,0l-0.4,0.1l-0.4,0.3l-0.2,0.5l0.1,0.5l-0.9,1.4l-0.3,0.8l0,0.3l0.3,0.1l-0.2,0.6
	l1,0.3l0.1,0.3l0.6,0.2l0.5,0.4l0.6,0l0.1,0.3l0.3,0.1l-0.1,0.1l0.1,0.1l0.3-0.1l0.1,0.1l0,0.4l-0.5,0.3l0.1,0.2l0.3,0.1l-0.3,0.3
	l0.1,0.2l-0.2,0.6l-0.5,0.1l-0.7-0.2l0.5-0.1l0.3,0.1l0-0.3l-0.2-0.1l-0.1,0.1l-0.7-0.2L143.7,140L143.7,140z"/>
<path id="JP-04_1_" class="st18" d="M185.3,92.1l-0.2,0.3l0.2,0.1l0.2-0.1l0.1,0.3l-0.6,0.4l-0.8,1.8l-0.2,1.8l0.2,0.9l0,0l-0.3-0.1
	l-0.3,0.1l0,1l-0.1,0.1l-0.8,0l0.2,0.2l-0.1,0.1l-0.6-0.1l-0.3-0.2l-0.1-0.4l0.1-0.6l-0.3-0.2l-0.4-0.1l-1.3,0.1l-0.2-0.5l-0.6-0.3
	l-0.5,0.3l-0.7-0.3l0,0l0-1l0.8,0l0.5-0.3l0.1-0.5l0.5-0.8l-0.1-0.6l0.1-0.5l0.5-0.6l-0.1-0.3l0.5-0.6l0.3-0.8l-0.1-0.3l-0.3-0.2
	l-0.1-0.4l0.2-0.3l0-0.3l-0.3-0.7l0-0.1l0.3,0.2l0.2,0l0.2-0.6l-0.1-0.5l0.3-0.5l-0.4-0.2l-0.1-0.5l-0.5-0.5l0.1-0.2l0,0l0.1,0.1
	l0.9-0.2l0.8-0.8l0.3-0.1l0,0l0.5-0.1l0.6,0.4l0.7,0.2l0.3,0.4l1.1-0.1l0.3,0.1l0.1,0.2l-0.3,0.3l0.2,0.5l0.9,0.5l0.3-0.1l0.1-0.3
	l0.4-0.4l1.2,0.5l0.2-0.9l0-0.2l0.3-0.3l-0.1-0.9l0.1-0.3l0.7,0.1l0.6,0.2l0,0l0.4,1.4l-0.2-0.1l-0.2-0.4l-0.3,0.1l0,0.8l-0.7,0.4
	l-0.1,0.3l0.5,0.3l0,0.6l-0.3-0.3l-0.5,0.5l-0.3,0.1l0,0.3l0.8,0.1l-0.1,0.3l-0.3,0.3l-0.2,0l0,0.2l0.2,0.1l0.1,0.3l0.2-0.1l0.3,0.2
	l-0.1,0.5l-0.2-0.3l-0.2,0.1V91l-0.4,0l0.2,0.2l0.1,0.5l0.6-0.1l0,0.1l-0.3,0.1l0.3,0.9l-0.2,0.5l-0.7-0.5l0.1-0.3l-0.4-0.1l0.1-0.2
	l0.3-0.1l-0.3-0.3l-0.5,0.2l-0.1-0.3l-0.1-0.1l-0.5,0l-0.8,0.2l-0.6,0.4l0.1,0.4l-0.3,0.1l0-0.7l-0.4-0.1l-0.2,0.1L185.3,92.1
	L185.3,92.1z"/>
<path id="JP-45_1_" class="st19" d="M94.2,165.4l-0.5,1.6l-0.1,0.7l0.4,0.6l-0.3,0.8l0,1l-0.4,0.2l-0.4,1l0.1,0.4l-0.3,0.2l0.1,0.5
	l-0.4,0.4l0.2,0.3l-0.2,0l-0.3-0.2l-0.4,0l-0.3-0.7l-0.5-0.1l0,0l0.1-0.3l0.3-0.3l-0.1-0.4l0.1-0.3l-0.1-0.4l-0.2-0.1l-0.5,0.1
	l-0.3-0.3l-0.2,0.3l-0.3-0.5l-0.1-0.8l-0.4-0.1l0.1-0.3l-0.5-0.1l-0.1-0.2l-0.3,0l-0.1-0.4l0.1,0l0.1-0.6l-0.4-0.4l-0.5-0.2
	l-0.2-0.7l-0.4-0.4l-0.3-0.1l0.2-0.5l0,0l1.2,0l0.5-0.3l0.4,0.2l0.2-0.1l0.3-0.6l0.5,0.2l0.4-0.1l-0.1-0.4l-0.6-0.6l0.1-0.3l0.3,0
	l0.3-0.5l-0.4-0.3l-0.1-0.6l-0.2,0l-0.2-0.3l-0.1-0.5l0.1-0.7l0.2-0.1l0.1-0.3l0.3,0.1l0.2-0.2l0.1-0.7l0.2-0.3h0.3l0.1-0.4l0.5-0.3
	l0-0.4l0.3-0.5l0.6-0.1l0,0l0.2,0.3l0.2,0l1-0.3l0.4,0.4l-0.1,0.2l0.1,0.1l0.4,0.1l0.3-0.2l1.1,0l0.2-0.3l0.1-0.4l0.4-0.1l0.8,0.3
	l-0.1,0.8l0.3,0l0,0l-0.1,0.3l-0.8,0.5l-0.3,0.8l-0.5,0.3l-0.2,0.4l0.1,0.3l0.4,0.3l-0.3,0.3l-0.4,0.1l0.1,0.3l0.3,0.2l-0.4,0.2
	l-0.6,1.3L94.2,165.4L94.2,165.4z"/>
<path id="JP-15_1_" class="st19" d="M158.1,106.3l0.9-0.6l1.2-1.3l1.1-0.6l1.1-1.9l0.4-0.3l0.3-0.6l0.7-2.2l0.4-0.5l2-1.4l1.2-0.3
	l0.8-0.5l0.8-0.9l0.6-1l0.2-0.8l0.1-1.9l0.9-1.8l0,0l0.9,0.5l0.7,0.2l0.1,0.1l-0.2,1l0.4,0.5l0.9,0.2l0.6,0.6l-0.4,0.8l-0.7,0.4
	l-0.8-0.1l-0.3,0.4l0.1,0.6l-0.2,0.4l0.2,0.4l-0.3,0.2l-0.3,1.5l0.3,0.6l0.3,0.2l0.2-0.1l0.2,0.4l0,0l-0.8,0.8l-0.3,0.6l0.1,0.1
	l-0.7,0.5l0,0.4l0.2,0.5l0,0.4l0.2,0.4l-0.2,0.1l-0.6-0.1l-0.2,0.1l-0.2-0.2l-0.2,0l-0.2,0.1l-0.2,0.6l-0.3-0.1l-0.3,0.1l-1,0.1
	l-0.3,0.4l0.3,0.3l-0.1,0.6l-0.1,0.6l-0.5,0.7l0.3,0.4l0.3,0.1l0.2,0.4l-0.2,0.6l0.2,0.7l-0.1,0.4l0.1,0.6l-0.1,0.2l0,0l-0.1-0.2
	l-0.4,0l-0.1-0.4l-0.7-0.7l-0.1,0.5l-0.4,0.4l-0.8,0.1l0.1,0.9l0,0.1l-0.4,0l-0.1,0.5l0.1,0.2l-0.7,0.3l-0.3,0l0.1,0.5l-0.4,0.3
	l-0.6-0.2l-0.2,0.3l-0.1-0.1l0,0l-0.1-0.2l-0.2-0.1l0.3-0.4l-0.1-0.2l0.1-0.4l-0.5-0.2l-0.5-0.5l0-0.7l-0.2-0.5l-0.4-0.1l-1.2,0.4
	l-0.4,0.8l-0.6,0.3l-0.1,0.8l-0.1,0l-0.1-0.3l-0.4,0l-0.5,0.3l-0.6,0l-0.4,0.5l-0.5-0.3l0.3-0.6l-0.2-0.3l-0.9-0.2l-0.5,0l0,0.6
	l-0.4,0.6l-0.7,0.5l0,0l-0.3-0.8v-0.4l-0.2-0.3l0-0.6l-0.4-0.1l-0.3-0.4l0,0l2.6-1l0.9-0.6l0.4-0.1l0.4-0.5l0.5,0.1L158.1,106.3
	L158.1,106.3z M160.5,94.3l-0.3,0.6l0.1,0.5l0.3,0.1l0.8-0.3l0.1,0.1l-0.7,1.9l-1.3,1.1l-0.5,0l-0.5,0.3l-0.4-0.1l-0.1-0.2l0.6-0.3
	l0.2-0.4l0-0.4l0.5-0.5l0.1-0.4l-0.1,0.2l-0.3-0.3l-0.3,0l-0.3,0.5l-0.2-0.1l0-0.4l-0.1-0.1l0.2-0.2l0-0.7l0.5-0.6l0.3-0.8l0.4-0.2
	l0.3-0.5l0.3-0.1l0.2-0.7l0.5-0.1l-0.2,1.6L160.5,94.3z"/>
<path id="JP-20_1_" class="st19" d="M151.9,128.5l0-0.3l0.4-0.3l-0.1-0.6l0.4-0.1l-0.3-0.5l0.3-0.3v-0.4l-0.3-0.3l-0.5,0.2l-0.1-0.3
	l0-0.5l-0.2-0.2l0.2-0.6l-0.4-0.3l-0.4-0.9l-0.6-0.2l0-0.2l-0.5,0l-0.1-0.2l0.1-0.3l0.3-0.1l0.2-0.5l0.6-0.2l0.2,0.2l0.2,0l0.3-0.5
	l0.2,0l0.2-0.4l0.5-0.4l0.2-0.8l-0.3-0.1l-0.2-0.2l0-0.4l0.4-0.3l0-0.3l-0.2-0.3l0.7-0.9l0-0.4l0-0.3l-0.5-0.3l-0.1-0.2l0,0l0.4-0.4
	l0.2-0.4l0-0.4l0.2-0.3l0.3-0.1l-0.1-0.2l-0.1,0l0.1-0.4l0.6-0.3l0.1-2l0,0l0.7-0.5l0.4-0.6l0-0.6l0.5,0l0.9,0.2l0.2,0.3l-0.3,0.6
	l0.5,0.3l0.4-0.5l0.6,0l0.5-0.3l0.4,0l0.1,0.3l0.1,0l0.1-0.8l0.6-0.3l0.4-0.8l1.2-0.4l0.4,0.1l0.2,0.5l0,0.7l0.5,0.5l0.5,0.2
	l-0.1,0.4l0.1,0.2l-0.3,0.4l0.2,0.1l0.1,0.2l0,0l-0.7,0.4l-0.9,0.2l0,0.5l-0.5,0.1l-0.5,0.6l0,0.5l-0.3,0.8l0,0.6l0.6,0.4l0.2,0
	l0.1-0.1l0.4,0.1l0.2-0.2l0.3,0l0.4,0.1l0.1,0.6l0,0.7l-0.5,0.3l0.1,0.5l0.2,0.2l0,0.4l-0.2,0.2l-0.2-0.2l-0.1,0.1l0.2,0.4l0.3,0
	l0.1,0.3l-0.2,0.2l0.2,0.9l0.3,0.1l0.2,0.3l0.2,0l0,0l0,0.2l0.3,0.5l-0.1,0.3l0,0l-0.2,0l-0.4,0.5l-0.5,0l-0.3-0.6l-0.9,0l-0.1,0.2
	l-0.2,0l-0.2-0.3l0-0.3l-0.7-0.3l-0.9,1.3l-0.3-0.3l-0.1,0.1l-0.5,1l0.4,0.4l-0.5,0.5l0.4,0.9l0,0l-0.3,0.8l-0.2-0.1l-0.3,0.3
	l0.2,0.1l-0.2,0.3l0.2,0.6l-0.4,0.1v0.3l0.3,0.3l-0.1,0.3l-0.8,0.3l-0.6,0.5l-0.6,0.3l-0.1,0.2l-0.2,0l-0.2,0.4l-0.5,0.1l0,0
	l-0.4,0.1l-0.1-0.2l-0.7-0.1l-0.4,0.3l-0.6,0.1v-0.2l-0.3-0.4L151.9,128.5L151.9,128.5z"/>
<path id="JP-29_1_" class="st19" d="M137.5,134.8l0.4,0.8l-0.2,0.3l0,0.3l-0.2,0.5l0.1,0.2l0.5,0.2l0.4-0.1l0.2,0.5l0.3-0.1l0.1,0.5
	l-0.2,0.5l-1.1,0.2l-0.2,0.5l0.6,0.9l-0.3,0.2l0.3,0.6l-0.3,0.7l0.2,0.3l-0.1,0.8l-0.1,0.1l0.1,0.6l-0.8-0.1l-0.4,0.5l-0.6,0.2
	l-0.5,0.8l0,0l-1,0.2l-0.3-0.2l-0.3,0l-0.6,0.3l-0.1-0.3l-0.2-0.1l0.3-0.9l-0.1-0.2l-0.3-0.1l0-0.3l-0.6-0.5l0.1-0.3l0.7-0.7
	l0.2-0.3l0-0.3l0.3-0.1l0.4,0.2l0.2-0.3l-0.1-0.3l-0.4-0.2l-0.1-0.8l-0.2-0.3l0,0l0.3-0.2l0.1-0.5l0-0.6l-0.3-0.6l0.3-0.4l-0.1-0.2
	l-0.2,0l0.2-1.1l0.2-0.2l0.1-0.7l0.2,0l0,0l0.3,0.6l0.9,0.3l0.4,0l0.4-0.5l0,0.2l0.5,0l0.2,0.3l0.3,0L137.5,134.8L137.5,134.8z"/>
<path id="JP-42_1_" class="st19" d="M82.3,156.1l0.5-0.1l0.2,0.2l0.4,0.8v0.5l-0.3,0.4l0.1,0.1l-0.1,0.2l-0.8,0.3L82,159l-0.6,0.2
	l0-0.3l-0.4-0.2l0-0.4l0.7-0.5l0-0.3l-0.2-0.1l0.1-0.2l-0.1-0.1l-0.9,0l-0.5,0.3l-0.7,0l-0.1,0.5l-0.5,0.7l-0.5,0.3l-0.4,0.5
	l-0.6,0.2l0.1-0.3l0.3-0.1l0.5-1.5l-0.6-0.7l0.1-0.2l-0.3,0l-0.1,0.2l-0.4-0.4l-0.3-0.9l-0.3-0.4l0-0.3l0.2-0.4l0.1-0.8l0.5-0.1
	l0.3,0.3l-0.1,0.6l0.2,0l0.1-0.2l0.5,0.3l0,0.8l-0.2,0l0.1,0.3l-0.2,0.3l0.3,0l0.3,0.4l0.5-0.5l0.8,0.5l0.3-0.1l-0.7-0.9l0.2-0.7
	l-0.2-0.5l-0.7-0.5l-0.8,0.1l-0.4-0.2l-0.2-1l-0.2,0l0.1,0.4l-0.4,0.3l-0.1-0.3l0.3,0l-0.1-0.3l-0.4,0l-0.2-0.3l-0.4-0.2l-0.3,0
	l0.1-0.4l0.3-0.2l-0.1-0.7l0.2-0.6l0.3,0.2l0.4-0.4l0.1,0.1l-0.2,0.3l0.1,0.1l0.4,0.1l0.3-0.2l0.2,0.2l0.2-0.2l0.1,0.4l0,0l-0.3,0.5
	l0.5,0.7l0,0.6l0.7,0.3l0.5,0l0.2,0.4l0,0.2l-0.3,0l0,0.2l0.6,0.4l0.7,0.8l1.4,0.3l0,0l0,0.3l-0.3,0.2l-0.4,0.4l0.4,0.4L82.3,156.1
	L82.3,156.1z M73.4,139.5l0.2-0.6l-0.3,0.3l-0.6,0l-0.2-0.1l0.3-0.1l0.1-0.2l0.1-1l0.3-0.7l0.2-0.1l0-0.2l-0.4-0.1l0-0.2l0.2-0.2
	l0.1-0.7l0.7,0l0.2-0.5l0.3-0.2l0.3,0.1l0.1,0.3l-0.3,0.7l0,0.6l-0.4,0.6l-0.6,0.6l0.3,0.5l-0.1,0.5l0.2,0l0.1,0.1l-0.4,0.4l0,0.2
	l0.2,0.1l-0.3,0.3l-0.3-0.1l-0.4,1.7l-0.7,0.5l-0.1-0.2l-0.3,0l0.4-2.6l0.2,0.1l-0.1,0.3l0.4-0.1l0-0.2L73.4,139.5L73.4,139.5z
	 M68.8,157.6l0.1,0.6l0.5,0.4l0,0.2l-0.7,0l-0.1-0.2l-0.4,0.1l-0.1,0.3l0.2,0.1l0.1,0.2l-0.2,0.2l-0.2-0.1l-0.2-0.3l-0.8,0.2
	l-0.5-0.2l0.1-0.4l0.1,0.1l0.5-0.2l-0.2-0.3l-0.1-0.9l0.2-0.2l0.2,0l0.3,0.3l1-0.5l0,0.2L68.8,157.6L68.8,157.6z M71.3,154.1
	l-0.1,0.7l0.3,0l0.4-0.3l0.2,0.1l0,0.3l-0.8,0.7l0,0.6l-0.3,0l-0.1,0.5l-0.2-0.1l0.1-0.7l-0.2-0.6l-0.1,0.1l-0.3-0.1l0.2-0.4l0.3,0
	l-0.1-0.6l0.6-0.6l-0.1-0.5l0.2-0.5l0.1,0.6L71.3,154.1L71.3,154.1z M75.3,150.3l0.1,0l0-0.2l-0.3,0l0.1-0.2l0.3,0l0.1,0.3l-0.1,0.1
	l0.2,0.1l-0.2,0.1l0,0.2l-0.2,0l0.1,0.2l-0.7,1.1l-0.9,0.5l-0.2-0.1l0-0.3l0.2,0.2l0.2,0l-0.1-0.4l0.4-0.3l-0.2-0.3l0.4-0.6l0.6-0.6
	L75.3,150.3L75.3,150.3z M68.9,156.4l0.4,0.3l-0.2,0.7l-0.4-0.2l0-0.6L68.9,156.4z M70.4,156.2l-0.3-0.1l-0.2-0.3l0.3,0l-0.2-0.3
	l0.1-0.2l0.4,0.4l-0.1,0.6L70.4,156.2L70.4,156.2z M71.6,151.3l0,0.2l0.2,0.1l-0.3,0.1l0,0.1l-0.6-0.1l0-0.1l0.2-0.2l0.3,0l0-0.2
	L71.6,151.3L71.6,151.3z M69.7,156.9l-0.1-0.2l-0.2,0l0-0.2l-0.4-0.3l0.2-0.2l0.3,0.1l0.1,0.4l0.2-0.4l0.1,0l0.1,0.2l-0.2,0.3
	l0.1,0.1L69.7,156.9L69.7,156.9z M74.2,150.4l0.3-0.8v1l-0.3,0L74.2,150.4z M75.8,149.2l-0.2,0.1l-0.5,0l0.6-0.4l0.3,0.2L75.8,149.2
	L75.8,149.2z M70.9,152.5l-0.1,0.1l-0.2-0.1l0.2-0.3l0.2,0.1l0.3-0.1l-0.1,0.3L70.9,152.5z"/>
<path id="JP-47_1_" class="st19" d="M59,226.1l0.4-0.4l1-0.4l0.2-0.4l-0.4-0.3l-0.5,0l-0.2-0.4l0.1-0.2l-0.2-0.3l0-0.3l0.3,0.1
	l0.5-0.1l0.4,0.1l0.1,0.1l-0.2,0.3l0.2,0.2l0.4-0.1l0.5-0.3l0.1-0.4l0.4-0.2l0-0.1l0.7-0.7l0.2-0.5l0-0.3l0.1-0.1l0.4,0.3l0.2,1
	l-0.9,1.3l-0.9,0l0,0.3l-0.3,0l0.3,0.4l-0.6,0.3l-0.6-0.2l0.2,0.3l-0.8,0.6l-0.2,0.3l-0.8-0.2l-0.4,0.3l0.1,0.3l0.3,0.3l0,0.2
	l0.5,0.5l0,0.2l-0.5-0.4l-0.3,0.1l-0.6,1.3l0.1,0.1l0.4,0l0.1,0.3l-0.8,0.5l-0.2,0.3l-0.5,0.2l-0.2-0.1l-0.2-1.2l0.7-0.8l0.5-0.2
	l0-0.1l-0.4-1l0-0.3l0.1-0.1l0.1,0.2L59,226.1L59,226.1z M76,205.7l-0.5,0.7l-0.5,0.2l-0.2-0.1l-0.1,0.5l0.2,0.4l-0.5,0.4l-0.1,0.3
	l-0.2-0.1l-0.1,0.1l0.1,0.5l-0.8-0.4l0-0.2l-0.2-0.4l-0.9-0.1l-0.4-0.3l0.9-0.2l0.1-0.1l-0.2-0.2l0.5-0.3l0.4,0l0.3-0.4l0.3,0.2
	l0.3-0.3l0.5,0.1l0.1-0.4l0.1,0.1l0.3,0l0.1-0.4l0.2-0.3l0.2,0.1l0.5-0.2l0.1,0.5l-0.1,0.1l0.2,0.1l0.3-0.5l-0.3-0.4l0.4-0.3
	l0.1,0.4l0.2,0.2l0,0.5l-0.5,0.4l-0.5,0L76,205.7L76,205.7z M22.1,248.2l-0.1,0.5l-0.2,0.1l0,0.4l-0.2,0l-0.1,0.2l-0.4-0.2l-0.8-0.1
	l-0.3-0.2L20,249l-0.4,0l-0.2-0.3l0.4-0.4l0.3,0.1l0.1,0.2l0.1-0.6l-0.1-0.2l0.3-0.5l0.3,0.3l0.6,0.1L22.1,248.2L22.1,248.2z
	 M70,211.2l0,0.4l0.7,0.6l-0.5,1l-0.5,0.1l-0.5-0.7l0.2-0.4l-0.3-0.8l0.2-0.6l0.7,0C70,210.9,70,211.2,70,211.2z M24.3,247.2
	l0.5-0.1l0-0.2l0.3-0.5l0.2,0.1l0.2-0.4l-0.1-0.2l0.2-0.3l0-0.2l0.3,0l-0.1,0.4l-0.3,0.3l0.1,0.1l-0.2,0.2l0,0.2l-0.3,0.3l0.1,0.5
	l-0.2,0.7l-0.8,0.2l-0.1-0.2l-0.3-0.1l0.2-0.2l0.1-0.3l-0.4-0.2l-0.1,0.2l-0.1-0.2l0.1-0.2l0.4,0.1l0-0.4L24.3,247.2z M34.6,244
	l0.1-0.1l0.1,0.2l0.2,0l-0.3-0.5l0.2-0.2l0.1-0.3l-0.3-0.7l0.1-0.1l0.7,1l0,0.3l0.9,0.4l0.2,0.3l-1.4,0.2l-0.4-0.2L34.6,244
	L34.6,244z M66.8,216.5l-0.3,0.3l-0.4,0.1l-0.3-0.3l-0.1-0.4l0.1-0.2l0.6,0.1l0.9-0.5l0.2,0L66.8,216.5L66.8,216.5z M72.4,208
	l0.2,0.1l0.1-0.3l0.3,0.5l0.5,0.1l0.1,0.2l-0.1,0.3l-0.2,0.1l-0.3-0.2L73,209l-0.3-0.4l-0.3,0.2l0-0.7l-0.3-0.2l-0.1-0.3l0.3-0.1
	l0.1,0.1l-0.1,0.1L72.4,208L72.4,208z M49,227.5l-0.4-0.2l-0.1-0.2l0.7-0.2l0.4,0.4l-0.2,0.2l0.1,0.3l-0.3-0.1L49,227.5z
	 M80.2,205.7l-0.6,0.9l-0.3,0.1l-0.2-0.2l0-0.4l0.3,0l0.6-0.6L80.2,205.7L80.2,205.7z M33.5,243.4l0-0.3l0.1,0.2l0.1-0.4l0.4,0.2
	l0.1,0.3l-0.6,0.1L33.5,243.4z M60.3,219.9l0.4-0.5l0.2,0l-0.3,0.5l-0.7,0.6L60.3,219.9L60.3,219.9z M59,223.2l0.1,0.3l-0.6,0
	l-0.1-0.1l0.1-0.2L59,223.2z M54.6,228.6l0.1,0.1v0.3l-0.1,0.1l0,0.2l-0.2,0.2l0-0.5L54.6,228.6L54.6,228.6z M60.2,220.9l0.2,0.2
	l0,0.2l-0.1,0l-0.3-0.3L60.2,220.9z M22.7,249.2l0.3,0.1l-0.1,0.3l-0.2-0.2L22.7,249.2L22.7,249.2z M54.2,228.4l0.2,0.1l-0.2,0.2
	l-0.2-0.1L54.2,228.4z"/>
<path id="JP-27_1_" class="st19" d="M131.5,137.2l0.2-0.4l-0.3-0.1l0-0.4l0.1-0.2l0.4-0.2l-0.2-0.1l0,0l0.3-0.6l-0.1-0.7l-0.4-0.6
	l0.2-1l-0.2-0.1l0.4-0.2l-0.5-0.1l-0.7-0.4l0.1-0.2l0-0.5l-0.2-0.1l0.1-0.1l0.2,0l0,0l0.1,0.4l1,0.3l0,0.6l0.1-0.1l0.3,0.4l0.4-0.1
	l-0.2-0.2l0.1-0.3l0.4,0v0.3l0.6,0.6l0.1,0.5l0.5,0.6l-0.1,0.3l0,0l-0.2,0l-0.1,0.7l-0.2,0.2l-0.2,1.1l0.2,0l0.1,0.2l-0.3,0.4
	l0.3,0.6l0,0.6l-0.1,0.5l-0.3,0.2l0,0L133,139l-0.6,0.4l-0.8-0.1l-1,0.4l-0.8,0l-0.6,0.4l-0.5,0.1l-0.2,0l-0.1-0.4l-0.1,0l0,0
	l1.2-0.4l0.9-0.8l0.5-0.7L131.5,137.2L131.5,137.2z"/>
<path id="JP-33_1_" class="st19" d="M118.2,136.7l-0.7,0.5l-0.2,0.8l-0.9-0.3l-0.3,0.2l-0.9-0.2l-0.3-0.4l-0.8,0.1l-0.1,0.1l0.1,0.1
	l-1.1,0.4l-0.3-0.4l0,0l-0.1-0.8l-0.6-0.8l0-0.7l-0.2-0.9l0.1-0.5l-0.8-1l0-0.8l0.2-0.6l-0.5-0.6l0,0l0.2-0.1l0.1-0.4l0.2,0.1
	l0.9-0.3l-0.2-0.6l0.1-0.2l0.4,0.2l0.6-0.2l0.1-0.2l-0.1-0.2l0.5-0.1l0.4-1.2l0.8,0.3l0.6,0l0.5,0.4l0.3,0.4l0.3-0.2l0.1-0.3
	l0.6-0.2l0-0.2l0.7-0.2l-0.1,0.4l0.1,0.1l0.4,0.1l0.5-0.1l0.3,0.3l0.1,0.2l-0.1,0.3l0.2,0.1l-0.1,0.3l0.2,0.3l0.7-0.4l0.3,0.1
	l0.3-0.1l0.7-0.6l0.1,0.1l0,0l-0.2,0.4l0.3,0.3l0,0.4l-0.3,0l-0.1,0.1l-0.1,0.5l-0.3,0.1l0,0.4l-0.4,0.3l0.1,0.3l-0.1,0.4l-0.2,0.2
	l0.3,0.4l-0.3,0.6l0.1,0.2l0.5,0.5l0.3,0.7l0,0L121,135l-0.1-0.1l-0.3,0l-0.9,1l-0.2,0.4l-0.5,0.3l-0.6,0L118.2,136.7z M120.8,138.1
	l-0.2,0l0.3-0.3l-0.4,0.1l-0.3,0.6l-0.1-0.3l0.2-0.2l-0.1-0.1l-0.2-0.1l-0.6,0.2l-0.1-0.1l0.2-0.4l1.8-0.7l-0.1,0.2l0.1,0.2
	l-0.2,1.1L121,138L120.8,138.1L120.8,138.1z"/>
<path id="JP-44_1_" class="st19" d="M87.9,153.5l0.2-0.1l0.2-0.7l-0.4-0.4l0-0.3l-0.2-0.1l0.1-0.2l0.3-0.1l0.1-0.3l-0.1-0.5
	l-0.1-0.1l0.2-0.3l0.2-0.1l0.1-0.8l0.8-0.7l0.4-0.1l0.5,0.1l0.9-0.1l-0.1-0.2l0.2-0.3L91,148l0.1-0.2l0,0l0.2-0.2l0.9,0.4l1.2,0.1
	l0-0.2l0.5-0.4l0.2-0.5l0.8-0.2l0.8,0.4l0.6,0.8l0.1,0.5l0,0.9l-0.2,0.1l-0.2,0.6l-0.7-0.2l-0.1,0.1l0.2,0.3l-0.1,0.1l-0.4,0
	l-0.1,0.3l-0.4-0.1l-0.1-0.2l-0.3,0.1l-0.1,0.3l0.2,0.7l0.7,0.2l0.9-0.4l0.6,0.5l1.4-0.3l-0.7,1l-0.2,0.6l0.3,0.1l0.5-0.2l0.2,0.1
	l-0.3,0.2l-0.2,0.3l0.5,0.1l0.1,0l0.1-0.3l0.3,0.4l0.2-0.1l0-0.2l0.1-0.1l0,0.4l-0.2,0.2l-0.5-0.1l-0.4,0.7l0.1,0.1l0.3,0.1l0.1,0.2
	l0.3-0.1l0.2,0.2l0.8,0l0,0.1l-1,0.1l0.1,0.4l0.3,0l-0.4,0.4l0.3,0.3l-0.7,0.5l-0.4-0.2l-0.1,0.7l0,0l-0.3,0l0.1-0.8l-0.8-0.3
	l-0.4,0.1l-0.1,0.4l-0.2,0.3l-1.1,0l-0.3,0.2l-0.4-0.1l-0.1-0.1l0.1-0.2l-0.4-0.4l-1,0.3l-0.2,0l-0.2-0.3l0,0l-0.7-0.6l-0.1-1.1
	l-0.3-0.8l-0.4-0.4l-0.1-0.6l-0.5-0.5l-0.7-0.1l-0.5,0.3l-0.1,0.4l0.4,0.6l-0.1,0.4l-0.2,0.3l-0.2,0l-0.2-0.3l-0.3,0l-0.3-0.4
	l-0.4-0.1L87.9,153.5L87.9,153.5z"/>
<path id="JP-41_1_" class="st19" d="M78,150.9l0.3,0.5l0.1-0.4l-0.1-0.1l0.3-0.7l-0.8-0.6l0.2-0.1l-0.1-0.2l0.1-0.2l0.2,0.1l0.2,0.4
	l0.1-0.1l-0.3-0.6l0-0.2l0.3,0l-0.1-0.4l0.3,0.2l0.2,0l0-0.1l0.3,0l0,0.2l0.4,0.3l-0.3,0.4l0.3,0.3l0.6,0.1l0.1-0.1l0-0.2l0,0l1.3,0
	l0.3-0.2l0.4,0.1l0.2-0.1l0.8,0.5l0.4,0.1l0.3,0.3l0.5-0.5l0.4-0.1l0.2,0.1l0,1.1l-0.2,0l-0.2,0.4l-0.9,0.7l-0.3,0.5l-0.1,0.6l0,0
	l-0.6,0l-0.1-0.3l-0.4-0.3l-0.1,0.3l-0.9,0.7l0.9,1.5l0,0.2l-0.2,0l0,0l-1.4-0.3l-0.7-0.8l-0.6-0.4l0-0.2l0.3,0l0-0.2l-0.2-0.4
	l-0.5,0l-0.7-0.3l0-0.6l-0.5-0.7l0.3-0.5l0,0L78,150.9L78,150.9z M77.2,146.6l-0.3,0l-0.2-0.5l-0.2,0.2l-0.1-0.4l0.2-0.2l-0.1-0.2
	l0.5-0.6l0.7,0.2l-0.1,0.4l0.3,0.2l-0.3,0.1l0.4,0.1l-0.1,0.3l-0.5,0C77.3,146.3,77.2,146.6,77.2,146.6z M77.3,149.8l0.2-0.5
	l0.4,0.5l-0.3,0l0,0.2l-0.2,0.1l-0.1-0.1L77.3,149.8L77.3,149.8z"/>
<path id="JP-25_1_" class="st19" d="M141,129.3l0,0.4l0.3,0.4l-0.4,1.2l0,0.7l-0.4,0.5l-0.1,0.4l-1.1,0.5l-0.6-0.3l-0.5,0l-0.2-0.2
	l-0.2,0.2l0,0.1l0.3,0l0,0.1l-0.4,0.3l0,0.3l-0.6,0.3l0,0l-0.1-0.2l0.1-0.1l-0.3-0.3l-0.2,0.1l-0.1-0.2l-0.1,0l-0.1-0.4l-0.4,0.2
	l-0.3-0.2l0.1-0.5l-0.4-0.7l-0.1-0.6l0.2-0.1l0.1-0.8l-0.2-1l0.2-0.7l-0.2,0l-0.6-0.9l0,0l0.2-0.4l0.2,0l0-0.2h0.3l0.2,0.2l0.3-0.1
	l0.5-1.3l0.4,0.4l0.2,0l0.2-0.4l0.6-0.1l0.2-0.5l0.5,0.2l0.1-0.4l-0.4-0.9l0.1-0.3l0.3-0.1l0.9,0.4l0,0l0.1,0.5l0.3,0l-0.1,0.8
	l0.4,0.1l0.1-0.2l0.3,0.3l-0.1,0.4l0.3,0.3l0,0.5l0.3,0.4l-0.3,0.2l0,0.6l-0.2,0.3l0,0.4l-0.2,0.1L141,129.3L141,129.3z"/>
<path id="JP-32_1_" class="st19" d="M101.8,131.1l0.1-0.4l0.6-0.4l0-0.3l0.2-0.3l1.2-0.9l0.7-0.3l0.3-0.2l0.2-0.4l0.1-0.8l-0.5-0.2
	l0-0.2l0.5-0.2l0.2,0.1l0.4-0.1l0.1-0.1l-0.3-0.2l0.7-0.1l0.1-0.2l1-0.2l0.5,0l0-0.3l0.6,0.1l0.2-0.5l0.4-0.3l0.4,0.5l0.5-0.1
	l0.2-0.2l1,0.2l-0.6,0.1l-0.2,0.2l0.2,0.5l0.6,0.3l0,0l-0.1,1.2l-0.2,0.3l0.1,0.8l-1.5,0.7l0,0.1l0.3,0.1l0.1,0.3l-0.4,0.3l-0.1,0.7
	l0,0l-0.3-0.1l-0.7,0.2l-0.5-0.4l-0.4,0.3l-0.6-0.3l-0.2,0l-1.2,1.6l-0.6,0.1l-0.4,0.5l0.2,0.2l0.3,0.1l0,0.4l-0.9,0.1l-0.7,0.5
	l-0.8-0.1l-0.1-0.2l-0.2,0.1l0,0.1l-0.2,0.2l-0.3-0.2l-0.6,0.1l-0.1,0.2l-0.2-0.2l-0.4-0.1l-0.1,0.6l-0.7,0.4l-0.1,0.2l0.3,0.2
	l-0.3,0.5l-0.1,0.9l-0.3,0.3l-0.3,0.1l-0.1,0.3l0.2,0.3l0,0l-0.4,0.2l-0.2,0.3l-0.1,0.1L99,139l-0.5,0.8l-0.3-0.3l-0.5,0.3l-0.5,0
	l-0.4-0.4l-0.1-0.4l0.3-0.7l-0.9,0l-0.3-0.8l0.3-0.3l0-0.4l0.2-0.1l-0.4-1.2l0,0l0.6,0l0.7-0.2l0.6-0.7l0.5-0.4l0.1-0.3l0.3-0.1
	l0.6-0.6l0.4-0.6l1.4-1.2L101.8,131.1L101.8,131.1z M110.6,117.9l-0.2-0.2l-0.2,0l0.1-0.4l-0.1-0.1l0-0.4l0.4-0.5l0.5-0.1l0.4,0.2
	l0.6,0.7l-0.1,0.7l-0.2,0.1l0-0.3l-0.1,0.2l-0.3,0l0.3,0.1l0.1,0.3l-0.1,0l-0.9,0l0.1-0.2L110.6,117.9L110.6,117.9z M88.3,101.8
	l0.2-0.1l0.1,0.1l-0.1,0.2l0,0.5l-0.4,0.4l-0.6-0.3l-0.2-0.5l0.3-0.2L88.3,101.8L88.3,101.8z M109.2,118.4l0.1,0l0,0.2l-0.4,0.2
	l0.2,0.2l-0.1,0.3l-0.2,0l-0.2-0.3l-0.2,0l-0.1,0.1l0.2,0.5l-0.5-0.3l0.3-0.6l0.3,0l0-0.2l0.3,0.1L109.2,118.4L109.2,118.4z
	 M109.7,119.1l-0.6,0.6l0.1-0.4l-0.1-0.4l0.1-0.1l0.1,0.1l0-0.2l0.2,0l0.2,0.1L109.7,119.1L109.7,119.1z M108.5,119.7l0.7,0.3
	l-0.1,0.2l-0.6-0.1L108.5,119.7L108.5,119.7z"/>
<path id="JP-11_1_" class="st19" d="M162.9,121.2l0.1-0.3l-0.3-0.5l0-0.2l0,0l0.4-0.5l0.6,0l0.4-0.5l0.7-0.2l0.2-0.4l0.7,0l0.2-0.4
	l0-0.4l0.6-1l0.3,0l0.8,0.4l0.3-0.1l0.5,0.1l0.4-0.1l0.9,0.6l1.2-0.2l0.3,0.2l0.2-0.1l0.1-0.3l0,0l0.4,0.2l0,0l-0.1,0.4l0.4,0.9
	l0.2,0l0.2-0.2l0,0l0.3,0.7l0,0.5l0.8,1.6l-0.1,0.6l-0.2,0.1l0,0l-0.4,0l-0.1-0.2l-0.3,0.1l-0.2-0.1l-0.2,0.4l-0.9-0.1l-0.3,0.4
	l-0.3-0.1l-0.4,0.2l-0.1-0.4l-0.8,0.4l-0.6,0l-0.3-0.3l-0.4-0.1l-0.2-0.4l-1-0.1l-0.5-0.3l-0.8-0.1l-0.3-0.3l-0.7,0.3l-0.1,0.2l0,0
	l-0.5,0.1l-0.3-0.3l-0.6-0.1l-0.1-0.3L162.9,121.2L162.9,121.2z"/>
<path id="JP-22_1_" class="st19" d="M166.7,133.2l-0.5,1l-0.6,0.5l-0.2,0.6l0.1,0.4l-0.2,0.1l-0.2-0.1l-0.2,0.1l-0.1,0.3l-0.6,0.4
	l-0.2-0.1l-0.5-0.5l0.1-0.1l-0.1-0.2l-0.4-0.2l0-0.4l0.4-0.4l-0.2-0.5l0.1-0.1l-0.1-0.9l0.3-0.3l-0.3-0.7l0.2-0.6l1,0.1l0.1-0.3
	l-0.9-0.8l-1.1-0.2l-1.3,0.4l-0.4,0.8l0.2,0.2l-0.1,0.3l-1.5,0.8l-0.4,0.6l0.1,0.5l-0.3,0.6l-0.7,0.6l-0.3,0.7l0,0.3l0.4,0.3l0,0.1
	l-2.2-0.8l-1,0l-0.9,0.2l-1.3-0.3l-1.7,0l0,0l-0.1-1.1l0.2-0.6l1.3-0.7l0.6-0.9l0-0.5l0.7-1l0.2-0.1l0-0.2l0.3-0.3l-0.2-0.2l0.1-0.5
	l0,0l0.5-0.1l0.2-0.4l0.2,0l0.1-0.2l0.6-0.3l0.6-0.5l0.8-0.3l0.1-0.3l-0.3-0.3v-0.3l0.4-0.1l-0.2-0.6l0.2-0.3l-0.2-0.1l0.3-0.3
	l0.2,0.1l0.3-0.8l0,0l0.5,1.5l-0.2,0.6l0.1,0.5l-0.2,0.4l0.2,0.6l0.3,0.2l0.4-0.3l0.4,0.2l0.3,1.3l0.3,0.2l0.6,0.1l0.3-0.3l-0.2-1.3
	l0.2-0.3l0-0.8l0.5-0.4l0.3,0.6l0.5-0.1l0.2,0.5l1.4-0.2l0.2-0.1l0.3,0l0.3-0.2l0,0l0.7,0l0.1,0.1l0.2,0.7l-0.1,0.5l-0.3,0.3
	l0.1,0.7l0.3,0.3l0.1,0.3l0.7,0.1l0,0l-0.3,0.5l-0.1,0.5l0.3,0.1l-0.1,0.6l0.5,0.4l-0.1,0.7L166.7,133.2L166.7,133.2z"/>
<path id="JP-09_1_" class="st19" d="M177.5,109.1l0,1l0.1,0.5l-0.1,0.6l0.3,0.5l0,0.2l-0.5,0.1l-0.1,0.2l0.3,0.9l0,0.9l-0.4,0.9
	l-0.1,0.6l-0.3,0.1l-0.1-0.2l-0.2,0l-0.2,0.2l-0.3-0.1l0,0.3l-0.1,0.1l-0.8,0l-0.1,0.2l-0.5,0.2l-0.1,0.4l-0.5-0.1l-0.3,0.8
	l-0.8,0.4l-0.4,0l0,0l-0.4-0.2l0,0l-0.2-0.4l0-0.1l-0.2-0.1l-0.5,0.1l-0.3-0.2l-0.5,0.1l-0.5-0.5l0-0.3l-0.5-0.4l0.1-0.5l0.6-0.7
	l-0.2-0.4l0.2-0.6l0.4-0.3l-0.2-0.3l-0.6,0l-0.7-0.4l0.1-0.7l0.3-0.4l-0.1-0.6l0.5-0.7l-0.5-0.2l0.3-0.7l0,0l0.5-0.2l0.3-0.5
	l0.7-0.1l0.4-0.4l0.3,0l0.1-0.2l0.4-0.1l0.1-0.2l1.4-0.4l0.1-0.4l0.7-0.3l1.2,0.1l1.2,0.5l0.5,0.5l0.1,0.4l0.4,0l-0.1,0.9
	L177.5,109.1L177.5,109.1z"/>
<path id="JP-13_1_" class="st19" d="M169.4,135.4l-0.3-0.2L169,135l0-0.7l0.1-0.2l0.6,0.2l0.3,0.4l-0.1,0.7L169.4,135.4L169.4,135.4
	z M168.3,138.4l-0.2,1.1l-0.2-0.2l0-0.3L168.3,138.4L168.3,138.4z M167.6,139.4l0.1,0.1l-0.3,0.1L167.6,139.4z M173.6,124.4l-0.4,0
	l-0.1-0.4l-0.2,0.2l-0.1,0.8l0.2,0.4l0.1-0.1l0.2,0.3l-0.4-0.1l-0.4,0.1l0,0l0-0.2l-0.2-0.1l-0.2-0.3l-1.3-0.6l-0.4,0.4l-0.2-0.2
	l-0.1,0.1l0.4,0.3l-0.1,1l-0.1,0l-0.7-0.9l-1-0.3l-0.4,0.1l-0.3-0.5l-0.3,0l-0.2-0.3l-0.3-0.1l0,0l-1-0.6l-0.8-1.6l0,0l0.1-0.2
	l0.7-0.3l0.3,0.3l0.8,0.1l0.5,0.3l1,0.1l0.2,0.4l0.4,0.1l0.3,0.3l0.6,0l0.8-0.4l0.1,0.4l0.4-0.2l0.3,0.1l0.3-0.4l0.9,0.2l0.2-0.4
	l0.2,0.1l0.3-0.1l0.1,0.2l0.4,0l0,0l0.5,1.1l0,0l0.2,0.4l-0.3,0.2l0.2,0.2l-0.4,0.3L173.6,124.4L173.6,124.4z M170.9,142.6l0.1-0.2
	l0-0.3l-0.3-0.3l-0.4,0.1l-0.2,0.5l0.1,0.3l0.3,0L170.9,142.6z M173.1,153.8l0.5,0.3l0.1-0.3l0.2,0l-0.1-0.4l-0.3,0l-0.4-0.4l-0.2,0
	l-0.1,0.3l0.1,0.3l0.2,0.1L173.1,153.8L173.1,153.8z M173.1,153.8l0.5,0.3l0.1-0.3l0.2,0l-0.1-0.4l-0.3,0l-0.4-0.4l-0.2,0l-0.1,0.3
	l0.1,0.3l0.2,0.1L173.1,153.8L173.1,153.8z"/>
<path id="JP-36_1_" class="st19" d="M124.9,145.3l-1,0.4l-0.4,0.4l-0.1,0.2l-0.6,0.4l-0.6,0.3l-0.4,0.1l-0.3,0.9l-0.4,0l-0.1,0.2
	l0.1,0.1l-0.1,0.1l0,0l-1-0.1l-0.4-0.6l0-0.2l0.2-0.3l-0.1-0.4l-1,0l0-1l-0.2-0.6l-0.3,0.1l-0.1-0.2l-0.2,0.1l-0.2,0.4l-0.3,0.1
	l-0.4-0.2l-0.3-0.4l-0.9,0.1l-0.6-0.3l-0.2-0.3l0,0l0.3-0.4v-0.5l-0.1-0.2l0.1-0.3l0,0l0.3-0.1l0.1-0.2l0.5-0.4l0.3,0.1l0.1-0.2
	l0.4-0.1l0.7-0.1l0.4,0.5h0.2l0.6-0.4l0.6-0.1l0.2-0.2l0-0.2l0.4-0.3l0.8-0.1l0.8,0.1l0.1-0.1l0.5,0.3l0.2-0.1l0.1-0.5l0,0l1.4-0.4
	v0.5l0.4,0.2l-0.3,1.4l0,0.5l0.2,0.3l0.2-0.3l0.3,0.5l0.3,0.2l-0.3,0.2l0.3,0.1l-0.1,0.2l-0.6,0.5l0,0.2l0.1,0.1l1,0l0.1,0.1
	L124.9,145.3L124.9,145.3z"/>
<path id="JP-31_1_" class="st19" d="M111.5,126.3l0.7,0.1l0.2-0.1l0.2-0.4l0.5-0.2l0.9-0.2l0.7,0.3l0.9,0.1l1.6-0.1l0.3-0.2l0.7,0.1
	l0.9-0.1l1.3-0.4l0.3-0.4l0.4,0l0.1-0.2l0.3-0.1l0,0l0.3,0.3l0.2,0.4l-0.1,0.5l0.2,0.9l0.4,0.2l0,0.5l0.4,0.5l-0.1,0.2l0.1,0.6
	l-0.8,0.6l-0.3-0.1l0,0l-0.1-0.1l-0.7,0.6l-0.3,0.1l-0.3-0.1l-0.7,0.4l-0.2-0.3l0.1-0.3l-0.2-0.1l0.1-0.3l-0.1-0.2l-0.3-0.3
	l-0.5,0.1l-0.4-0.1l-0.1-0.1l0.1-0.4l-0.7,0.2l0,0.2l-0.6,0.2l-0.1,0.3l-0.3,0.2l-0.3-0.4l-0.5-0.4l-0.6,0l-0.8-0.3l-0.4,1.2
	l-0.5,0.1l0.1,0.2l-0.1,0.2l-0.6,0.2l-0.4-0.2l-0.1,0.2l0.2,0.6l-0.9,0.3l-0.2-0.1l-0.1,0.4l-0.2,0.1l0,0l-0.2-0.2l-1,0.2v-0.1l0,0
	l0.1-0.7l0.4-0.3l-0.1-0.3l-0.3-0.1l0-0.1l1.5-0.7l-0.1-0.8l0.2-0.3L111.5,126.3L111.5,126.3z"/>
<path id="JP-16_1_" class="st19" d="M147.7,110.8l0.6,0.3l0.5-0.1l0.9,0l0.6-0.5l0.2-0.5l0-0.6l0.2-0.3l0.6-0.3l1.3-0.3l0,0l0.3,0.4
	l0.4,0.1l0,0.6l0.2,0.3v0.4l0.3,0.8l0,0l-0.1,2l-0.6,0.3l-0.1,0.4l0.1,0l0.1,0.2l-0.3,0.1l-0.2,0.3l0,0.4l-0.2,0.4l-0.4,0.4l0,0
	l-0.5,0l-0.4-0.4l-0.3,0.2l-0.5-0.2l-0.1-0.4l-0.7,0.4l-0.1,0l0-0.4l-0.3,0l-0.7,0.3l-0.1-0.2l-0.3,0l-1,1l-0.1,0.6l-0.7,0.6l-0.2,0
	l0.1-0.4l-0.2-0.4l-0.4-0.2l-0.2,0.2l-0.1-0.3l-0.4,0.3l-0.1,0.5l-0.3,0l0,0l-0.1-0.4l0.2-0.2l-0.2-0.9l0.4-1.4l-0.2-0.3l-0.1-0.5
	l0.4-0.6l-0.1-0.2l0.1-0.5l0.3-0.3l0.3-1.7l0.7-0.7l0.4-0.1l0.6,0l0,0l-0.6,1.1l0.7,0.8l0.3,0.2L147.7,110.8L147.7,110.8z"/>
<path id="JP-30_1_" class="st19" d="M135.3,148.8l-0.3,0.2l-0.2,0.3l0,0.3l-0.2,0l-0.1-0.2l0.2-0.4l-0.4,0.1l-0.9-0.4l-1.1-0.2
	l-1-0.6l-0.2-0.4l0.1-0.4l-0.6-0.3l0.5-0.3l0.1-0.3l-0.7-0.6l-1.3-0.6l-0.3-0.7l-0.4-0.2l-0.5,0.2l0.1-1.1l0.8-0.3l0.2-0.3l-0.4-0.4
	l-0.5-0.1l0.3-0.3l0.1-0.4l0.4,0l0.1-0.2l-0.1-0.4l-0.4-0.1l-0.2-0.6l-0.5-0.5l0.1-0.2l0.2-0.1l0,0l0.1,0l0.1,0.4l0.2,0l0.5-0.1
	l0.6-0.4l0.8,0l1-0.4l0.8,0.1l0.6-0.4l0.6-0.1l0,0l0.2,0.3l0.1,0.8l0.4,0.2l0.1,0.3l-0.2,0.3l-0.4-0.2l-0.3,0.1l0,0.3l-0.2,0.3
	l-0.7,0.7l-0.1,0.3l0.6,0.5l0,0.3l0.3,0.1l0.1,0.2l-0.3,0.9l0.2,0.1l0.1,0.3l0.6-0.3l0.3,0l0.3,0.2l1-0.2l0,0l0,0.9l0.8,0.9l0.6,0.1
	l0,0l-0.2,0.2l-0.1,0.6l-0.5,0.1l-0.1,0.4l0.3,0.1l0,0.2l-1,0.7L135.3,148.8L135.3,148.8z"/>
<path id="JP-35_1_" class="st19" d="M94.2,143l-0.3-0.2l-0.2,0.4l-0.4,0.2l-0.1-0.1l0.1-0.3l-0.2-0.1l-0.4,0.7l-0.8,0.5l-1.1-0.4
	l0-0.4l-1.1-0.6l-0.3,0.2l-0.2,0.4l-0.9,0.9l-0.1-0.3l0.2-0.4l0-0.8L88,142l0.1-0.3l0.4-0.1l0.3-0.5l-0.1-0.6l-0.5-0.6l0.1-0.1
	l0.2-0.7l1.3-0.2l-0.1-0.2l-0.6-0.2l0.1-0.4l0.4,0.4l0.5-0.2l0.3,0.1l0.5,0.5l1.4-0.1l0.3-0.4l0.5,0l0.7-0.8l-0.1-0.3l0.2-0.3
	l0.3,0.1l0.3-0.3l0.2-0.2l0-0.4l0.2-0.1l0.2-0.4l0.1-0.1l0.5,0.1l0.2-0.2l0,0l0.4,1.2l-0.2,0.1l0,0.4l-0.3,0.3l0.3,0.8l0.9,0
	l-0.3,0.7l0.1,0.4l0.4,0.4l0.5,0l0.5-0.3l0.3,0.3L99,139l-0.2-0.4l0.1-0.1l0.2-0.3l0.4-0.2l0,0l0.1,0.3l-0.1,0.4l0.1,0.7l0.4,0.4
	l0,0.3l0.2,0.7l0.6,0.1l0.2-0.1l0,0l0.1,0.2l-0.1,0.3l0.2,0.2l-0.5,0.4l0.1,1.4l-0.3,0.5l-0.5,0.1l0,0.8l0.3,0.3l-0.2,0.3l-0.2-0.5
	l-0.7-0.4l-0.2,0.1l-1.7-1.3l-0.2,0.3l0,0.3l-0.4-0.1l0.5-0.6l-0.6-0.3l-0.3,0l-0.9,0.3l-1,0.5L94.2,143L94.2,143z M101.5,144.7
	l-0.4-0.1l-0.3,0.2l-0.3-0.4l0-0.4l0.6-0.5l0.7,0.5l0.5,0l0.6-0.4l0.5,0l-0.6,0.5l-0.3,0l-0.1,0.1l0.1,0.4l-0.4,0l0-0.4l-0.2,0
	l-0.3,0L101.5,144.7L101.5,144.7z"/>
<path id="JP-19_1_" class="st19" d="M166.9,124l0,1.3l-0.2,0.3l-0.2,0.3l-0.3,0l-0.2,0.3l-0.9,0.4l-0.2,0.5l0,0l-0.3,0.2l-0.3,0
	l-0.2,0.1l-1.4,0.2l-0.2-0.5l-0.5,0.1l-0.3-0.6l-0.5,0.4l0,0.8l-0.2,0.3l0.2,1.3l-0.3,0.3l-0.6-0.1l-0.3-0.2l-0.3-1.3l-0.4-0.2
	l-0.4,0.3l-0.3-0.2l-0.2-0.6l0.2-0.4l-0.1-0.5l0.2-0.6l-0.5-1.5l0,0l-0.4-0.9l0.5-0.5l-0.4-0.4l0.5-1l0.1-0.1l0.3,0.3l0.9-1.3
	l0.7,0.3l0,0.3l0.2,0.3l0.2,0l0.1-0.2l0.9,0l0.3,0.6l0.5,0l0.4-0.5l0.2,0l0,0l0.5,0.1l0.1,0.3l0.6,0.1l0.3,0.3l0.5-0.1l0,0l0.8,1.6
	L166.9,124L166.9,124z"/>
<path id="JP-06_1_" class="st18" d="M177.8,96.6l-0.1,0.8l0,1l0.3,0.2l-0.6,0.8l-0.6-0.1l-0.4,0.3l-0.7-0.5l-0.6,0.2l-0.5-0.8
	l-0.2,0.2l-0.3,0l-0.3-0.2l-0.5,0.3l-0.3-0.3l-0.4,0.1l0,0l-0.2-0.4l-0.2,0.1l-0.3-0.2l-0.3-0.6l0.3-1.5l0.3-0.2l-0.2-0.4l0.2-0.4
	l-0.1-0.6l0.3-0.4l0.8,0.1l0.7-0.4l0.4-0.8l-0.6-0.6l-0.9-0.2l-0.4-0.5l0.2-1l-0.1-0.1l-0.7-0.2l-0.9-0.5l0,0l0.6-1.5l0.8-0.7
	l0.6-0.7l0.5-2l0.3-0.5L174,83l-0.1-0.3l0,0l1.2,0.2l0.2-0.2l0.5-0.1l0.1,0.6l0.3,0.1l0.4,0.3l1.5,0.5l0.5-0.1l0.2,0.4l0.5,0
	l0.3,0.9l0.7,0.3l0.1,0.2l0,0l-0.1,0.2l0.5,0.5l0.1,0.5l0.4,0.2l-0.3,0.5l0.1,0.5l-0.2,0.6l-0.2,0l-0.3-0.2l0,0.1l0.3,0.7l0,0.3
	l-0.2,0.3l0.1,0.4l0.3,0.2l0.1,0.3l-0.3,0.8l-0.5,0.6l0.1,0.3l-0.5,0.6l-0.1,0.5l0.1,0.6l-0.5,0.8l-0.1,0.5l-0.5,0.3l-0.8,0
	L177.8,96.6L177.8,96.6z"/>
</svg>
